0-start=47**aa31.75.0.0.98.31.75.0.0.98_ab_ac_ba50_bb7.1_bc185.500.8.0.1_bd7_be180_ca53.0.42.79.17.38.44.30.39_cb0_da1.0.0.100_db_dd9.3.0.15.38.45_dh1.30.50.50.0_di5_qa_qb_dc0.1.1.1.1_eh_ea31.55.55.56.0.0_ec20.19.55.55.56.16.58.1_ed17.87.1.1.55.56_ef3.2.31.201F26.201F26.55_eg3.2.31.201F26.201F26.55_r0048.55.55.56.0.1.0.0.11.602.358.1_r0347.55.55.56.0.1.54.100.0.584.478.0_r0454.55.55.56.1.2.-30.-20.13.524.590.0_r0554.55.55.56.1.2.-30.-25.0.522.588.0_r0625.e6b422.E6B422.56.0.2.18.0.98.594.392.0_fa12.69.65.49.40.36.56_fb_fh3_fc1.7AAFE7.55.1.7AAFE7.55.51.61.61.51.50.50_fd1.0.26.56.56_fe50.73_ff0000000000_fg0.60_pa0.0.0.0.40.50.85.85.0.0_t00_pb_pc_pd_pe_ga0_gb1_gc0.0_ge0000000000_gh_gf_gg_gd10000000_ha87.87_hb50.1.61.99_hc1.22.0.1.22.0_hd24.1.47.31_ia_if_ib_id_ic_jc_ie_ja_jb_jd2.6F2B8C.6F2B8C.61_je2.6F2B8C.6F2B8C.61_jf_jg_ka9.6F2B8C.55.55.0_kb9.6F2B8C.55.55_kc_kd_ke_kf_la_lb_oa_os_ob_oc_od_oe_of_lc_m00_n00_s00_og_oh_oo_op_oq_or_om_on_ok_ol_oi_oj_ad0.0.0.0.0.0.0.0.0.0

0-angry=54**aa7.71.1.16.39.7.71.1.16.51_ab_ac_ba50_bb7.1_bc150.500.8.0.1.0_bd7_be180_ca53.0.42.79.17.38.44.30.39.0.60.80_da1.0.0.100_db_dd9.3.0.15.38.45_dh1.30.50.50.0_di5_qa_qb_dc0.1.1.1.1_eh1.55.100_ea31.55.55.56.0.0_ec20.19.55.55.56.16.58.1_ed17.85.1.1.55.56_ef3.2.27.201F26.201F26.55.0_eg3.2.27.201F26.201F26.55.0_r0048.55.55.56.0.1.0.0.11.602.358.1_r0347.55.55.56.0.1.54.100.0.584.478.0_r0454.55.55.56.1.2.-30.-20.13.524.590.0_r0554.55.55.56.1.2.-30.-25.0.522.588.0_r0625.e6b422.E6B422.56.0.2.18.0.98.594.392.0_fa12.69.65.49.40.36.56_fb_fh3_fc1.7AAFE7.55.1.7AAFE7.55.51.61.61.51.50.50_fj0.0.0_fd1.0.0.56.56_fe50.73_ff0000000000_fg0.60.56.0.0.1.0.0_fi_pa0.0.0.0.40.50.85.85.0.0_t00_pb_pc_pd_pe_ga0_gb1_gc1.0_ge0100000000_gh_gf_gg_gd0000000_ha25.25_hb50.1.61.99_hc2.22.0.2.22.0_hd43.1.47.60_ia_if_ib_id_ic_jc_ie_ja_jb_jd2.6F2B8C.6F2B8C.50_je2.6F2B8C.6F2B8C.50_jf_jg_ka9.6F2B8C.18.18.0_kb9.6F2B8C.18.18_kc_kd_ke_kf_la_lb_oa_os_ob_oc_od_oe_of_lc_m00_n00_s00_og_oh_oo_op_oq_or_om_on_ok_ol_oi_oj_ad0.0.0.0.0.0.0.0.0.0

0-confident=47**aa31.75.0.0.98.31.75.0.0.98_ab_ac_ba50_bb7.1_bc185.500.8.0.1_bd7_be180_ca53.0.42.79.17.38.44.30.39_cb0_da1.0.0.100_db_dd9.3.0.15.38.45_dh1.30.50.50.0_di5_qa_qb_dc0.1.1.1.1_eh_ea31.55.55.56.0.0_ec20.19.55.55.56.16.58.1_ed17.87.1.1.55.56_ef3.2.31.201F26.201F26.55_eg3.2.31.201F26.201F26.55_r0048.55.55.56.0.1.0.0.11.602.358.1_r0347.55.55.56.0.1.54.100.0.584.478.0_r0454.55.55.56.1.2.-30.-20.13.524.590.0_r0554.55.55.56.1.2.-30.-25.0.522.588.0_r0625.e6b422.E6B422.56.0.2.18.0.98.594.392.0_fa12.69.65.49.40.36.56_fb_fh3_fc1.7AAFE7.55.1.7AAFE7.55.51.61.61.51.50.50_fd1.0.26.56.56_fe50.73_ff0000000000_fg0.60_pa0.0.0.0.40.50.85.85.0.0_t00_pb_pc_pd_pe_ga0_gb1_gc0.0_ge0000000000_gh_gf_gg_gd10000000_ha87.87_hb50.1.61.99_hc1.22.0.1.22.0_hd24.1.47.31_ia_if_ib_id_ic_jc_ie_ja_jb_jd2.6F2B8C.6F2B8C.21_je2.6F2B8C.6F2B8C.21_jf_jg_ka9.6F2B8C.30074C.55.0_kb9.6F2B8C.30074C.55_kc_kd_ke_kf_la_lb_oa_os_ob_oc_od_oe_of_lc_m00_n00_s00_og_oh_oo_op_oq_or_om_on_ok_ol_oi_oj_ad0.0.0.0.0.0.0.0.0.0

0-interested=47**aa10.93.0.0.50.10.93.0.0.50_ab_ac_ba50_bb1.1_bc185.500.8.0.1_bd0_be180_ca53.0.42.79.17.38.44.30.39_cb0_da1.0.0.100_db_dd9.3.0.15.38.45_dh1.30.50.50.0_di5_qa_qb_dc0.1.1.1.1_eh_ea31.55.55.56.0.0_ec20.19.55.55.56.16.58.1_ed17.87.1.1.55.56_ef3.2.31.201F26.201F26.55_eg3.2.31.201F26.201F26.55_r0048.55.55.56.0.1.0.0.11.602.358.1_r0347.55.55.56.0.1.54.100.0.584.478.0_r0454.55.55.56.1.2.-30.-20.13.524.590.0_r0554.55.55.56.1.2.-30.-25.0.522.588.0_r0625.e6b422.E6B422.56.0.2.18.0.98.594.392.0_fa12.69.65.49.40.36.56_fb_fh3_fc1.7AAFE7.55.1.7AAFE7.55.51.61.61.51.50.50_fd1.0.26.56.56_fe50.73_ff0000000000_fg0.60_pa0.0.0.0.40.50.85.85.0.0_t00_pb_pc_pd_pe_ga0_gb1_gc0.0_ge0000000000_gh_gf_gg_gd10000000_ha87.87_hb50.1.61.99_hc0.9.13.0.9.13_hd61.1.42.29_ia_if_ib_id_ic_jc_ie_ja_jb_jd2.6F2B8C.6F2B8C.21_je2.6F2B8C.6F2B8C.21_jf_jg_ka9.6F2B8C.30074C.55.0_kb9.6F2B8C.30074C.55_kc_kd_ke_kf_la_lb_oa_os_ob_oc_od_oe_of_lc_m00_n00_s00_og_oh_oo_op_oq_or_om_on_ok_ol_oi_oj_ad0.0.0.0.0.0.0.0.0.0

0-shocked=47**aa9.100.0.0.47.9.100.0.0.47_ab_ac_ba50_bb3.1_bc185.500.8.0.1_bd7_be180_ca53.0.42.79.17.38.44.30.39_cb0_da1.0.0.100_db_dd9.3.0.15.38.45_dh1.30.50.50.0_di5_qa_qb_dc0.1.1.1.1_eh_ea31.55.55.56.0.0_ec20.19.55.55.56.16.58.1_ed17.87.1.1.55.56_ef3.2.31.201F26.201F26.55_eg3.2.31.201F26.201F26.55_r0048.55.55.56.0.1.0.0.11.602.358.1_r0347.55.55.56.0.1.54.100.0.584.478.0_r0454.55.55.56.1.2.-30.-20.13.524.590.0_r0554.55.55.56.1.2.-30.-25.0.522.588.0_r0625.e6b422.E6B422.56.0.2.18.0.98.594.392.0_fa12.69.65.49.40.36.56_fb_fh3_fc1.7AAFE7.55.1.7AAFE7.55.51.61.61.51.50.50_fd1.0.26.56.56_fe50.73_ff0000000000_fg0.60_pa0.0.0.0.40.50.85.85.0.0_t00_pb_pc_pd_pe_ga0_gb1_gc0.0_ge0000000000_gh_gf_gg_gd10000000_ha90.90_hb50.1.61.99_hc0.75.41.0.75.41_hd36.1.63.49_ia_if_ib_id_ic_jc_ie_ja_jb_jd2.6F2B8C.6F2B8C.21_je2.6F2B8C.6F2B8C.21_jf_jg_ka9.6F2B8C.30074C.55.0_kb9.6F2B8C.30074C.55_kc_kd_ke_kf_la_lb_oa_os_ob_oc_od_oe_of_lc_m00_n00_s00_og_oh_oo_op_oq_or_om_on_ok_ol_oi_oj_ad0.0.0.0.0.0.0.0.0.0

0-calm=47**aa9.100.0.0.50.9.100.0.0.50_ab_ac_ba50_bb6.1_bc185.500.8.0.1_bd6_be180_ca53.0.42.79.17.38.44.30.39_cb0_da1.0.0.100_db_dd9.3.0.15.38.45_dh1.30.50.50.0_di5_qa_qb_dc0.1.1.1.1_eh_ea31.55.55.56.0.0_ec20.19.55.55.56.16.58.1_ed17.87.1.1.55.56_ef3.2.31.201F26.201F26.55_eg3.2.31.201F26.201F26.55_r0048.55.55.56.0.1.0.0.11.602.358.1_r0347.55.55.56.0.1.54.100.0.584.478.0_r0454.55.55.56.1.2.-30.-20.13.524.590.0_r0554.55.55.56.1.2.-30.-25.0.522.588.0_r0625.e6b422.E6B422.56.0.2.18.0.98.594.392.0_fa12.69.65.49.40.36.56_fb_fh3_fc1.7AAFE7.55.1.7AAFE7.55.51.61.61.51.50.50_fd1.0.26.56.56_fe50.67_ff0000000000_fg0.53_pa0.0.0.0.40.50.85.85.0.0_t00_pb_pc_pd_pe_ga0_gb1_gc0.0_ge0000000000_gh_gf_gg_gd10000000_ha87.87_hb50.1.61.99_hc1.36.7.1.36.7_hd1.1.47.27_ia_if_ib_id_ic_jc_ie_ja_jb_jd2.6F2B8C.6F2B8C.21_je2.6F2B8C.6F2B8C.21_jf_jg_ka9.6F2B8C.30074C.55.0_kb9.6F2B8C.30074C.55_kc_kd_ke_kf_la_lb_oa_os_ob_oc_od_oe_of_lc_m00_n00_s00_og_oh_oo_op_oq_or_om_on_ok_ol_oi_oj_ad0.0.0.0.0.0.0.0.0.0

0-embarrassed=47**aa71.34.0.0.98.9.100.0.0.87_ab_ac_ba50_bb6.1_bc185.500.8.0.1_bd7_be180_ca53.0.42.79.17.38.44.30.39_cb0_da1.0.0.100_db_dd10.3.0.15.38.45_dh1.30.50.50.0_di5_qa_qb_dc0.1.1.1.1_eh_ea31.55.55.56.0.0_ec20.19.55.55.56.16.58.1_ed17.87.1.1.55.56_ef3.2.31.201F26.201F26.55_eg3.2.31.201F26.201F26.55_r0048.55.55.56.0.1.0.0.11.602.358.1_r0347.55.55.56.0.1.54.100.0.584.478.0_r0454.55.55.56.1.2.-30.-20.13.524.590.0_r0554.55.55.56.1.2.-30.-25.0.522.588.0_r0625.e6b422.E6B422.56.0.2.18.0.98.594.392.0_fa12.69.65.49.40.36.56_fb_fh3_fc1.7AAFE7.55.1.7AAFE7.55.51.61.61.51.50.50_fd1.0.26.56.56_fe50.73_ff0000000000_fg0.60_pa0.0.0.0.40.50.85.85.0.0_t00_pb_pc_pd_pe_ga0_gb1_gc20.0_ge0000000000_gh_gf_gg_gd10000000_ha87.87_hb50.1.61.99_hc0.57.26.0.57.26_hd35.1.47.62_ia_if_ib_id_ic_jc_ie_ja_jb_jd2.6F2B8C.6F2B8C.21_je2.6F2B8C.6F2B8C.21_jf_jg_ka9.6F2B8C.30074C.55.0_kb9.6F2B8C.30074C.55_kc_kd_ke_kf_la_lb_oa_os_ob_oc_od_oe_of_lc_m00_n00_s00_og_oh_oo_op_oq_or_om_on_ok_ol_oi_oj_ad0.0.0.0.0.0.0.0.0.0

0-loss=47**aa7.72.1.16.41.7.72.1.16.50_ab_ac_ba50_bb7.1_bc185.500.8.0.1_bd6_be180_ca53.0.42.79.17.38.44.30.39_cb0_da1.0.0.100_db_dd9.3.0.15.38.45_dh1.30.50.50.0_di5_qa_qb_dc0.1.1.1.1_eh_ea31.55.55.56.0.0_ec20.19.55.55.56.16.58.1_ed17.87.1.1.55.56_ef3.2.31.201F26.201F26.55_eg3.2.31.201F26.201F26.55_r0048.55.55.56.0.1.0.0.11.602.358.1_r0347.55.55.56.0.1.54.100.0.584.478.0_r0454.55.55.56.1.2.-30.-20.13.524.590.0_r0554.55.55.56.1.2.-30.-25.0.522.588.0_r0625.e6b422.E6B422.56.0.2.18.0.98.594.392.0_fa12.69.65.49.40.36.56_fb_fh3_fc1.7AAFE7.55.1.7AAFE7.55.51.61.61.51.50.50_fd1.0.26.56.56_fe50.73_ff0000000000_fg0.60_pa0.0.0.0.40.50.85.85.0.0_t00_pb_pc_pd_pe_ga0_gb1_gc0.0_ge0000000000_gh_gf_gg_gd10000000_ha87.87_hb100.1.50.99_hc1.21.0.1.21.0_hd5.1.47.27_ia_if_ib_id_ic_jc_ie_ja_jb_jd2.6F2B8C.6F2B8C.21_je2.6F2B8C.6F2B8C.21_jf_jg_ka9.6F2B8C.30074C.55.0_kb9.6F2B8C.30074C.55_kc_kd_ke_kf_la_lb_oa_os_ob_oc_od_oe_of_lc_m00_n00_s00_og_oh_oo_op_oq_or_om_on_ok_ol_oi_oj_ad0.0.0.0.0.0.0.0.0.0

0-happy=47**aa12.100.0.16.43.21.43.0.16.53_ab_ac_ba50_bb8.1_bc185.500.8.0.1_bd5_be180_ca53.0.42.79.17.38.44.30.39_cb0_da1.0.0.100_db_dd9.3.0.15.38.45_dh1.30.50.50.0_di5_qa_qb_dc0.1.1.1.1_eh_ea31.55.55.56.0.0_ec20.19.55.55.56.16.58.1_ed17.87.1.1.55.56_ef3.2.31.201F26.201F26.55_eg3.2.31.201F26.201F26.55_r0048.55.55.56.0.1.0.0.11.602.358.1_r0347.55.55.56.0.1.54.100.0.584.478.0_r0454.55.55.56.1.2.-30.-20.13.524.590.0_r0554.55.55.56.1.2.-30.-25.0.522.588.0_r0625.e6b422.E6B422.56.0.2.18.0.98.594.392.0_fa12.69.65.49.40.36.56_fb_fh3_fc1.7AAFE7.55.1.7AAFE7.55.51.61.61.51.50.50_fd1.0.26.56.56_fe50.73_ff0000000000_fg0.60_pa0.0.0.0.40.50.85.85.0.0_t00_pb_pc_pd_pe_ga0_gb1_gc0.0_ge0000000000_gh_gf_gg_gd10000000_ha87.87_hb50.1.61.99_hc1.25.0.1.25.0_hd25.1.48.61_ia_if_ib_id_ic_jc_ie_ja_jb_jd2.6F2B8C.6F2B8C.21_je2.6F2B8C.6F2B8C.21_jf_jg_ka9.6F2B8C.30074C.55.0_kb9.6F2B8C.30074C.55_kc_kd_ke_kf_la_lb_oa_os_ob_oc_od_oe_of_lc_m00_n00_s00_og_oh_oo_op_oq_or_om_on_ok_ol_oi_oj_ad0.0.0.0.0.0.0.0.0.0

0-sad=47**aa13.57.0.16.40.13.57.0.16.40_ab_ac_ba50_bb7.1_bc185.500.8.0.1_bd5_be180_ca53.0.42.79.17.38.44.30.39_cb0_da1.0.0.100_db_dd9.3.0.15.38.45_dh1.30.50.50.0_di5_qa_qb_dc0.1.1.1.1_eh_ea31.55.55.56.0.0_ec20.19.55.55.56.16.58.1_ed17.87.1.1.55.56_ef3.2.31.201F26.201F26.55_eg3.2.31.201F26.201F26.55_r0048.55.55.56.0.1.0.0.11.602.358.1_r0347.55.55.56.0.1.54.100.0.584.478.0_r0454.55.55.56.1.2.-30.-20.13.524.590.0_r0554.55.55.56.1.2.-30.-25.0.522.588.0_r0625.e6b422.E6B422.56.0.2.18.0.98.594.392.0_fa12.69.65.49.40.36.56_fb_fh3_fc1.7AAFE7.55.1.7AAFE7.55.51.61.61.51.50.50_fd1.0.26.56.56_fe50.67_ff0000000000_fg0.53_pa0.0.0.0.40.50.85.85.0.0_t00_pb_pc_pd_pe_ga0_gb1_gc0.0_ge0000000000_gh_gf_gg_gd11000000_ha87.87_hb50.1.61.99_hc3.66.49.3.66.49_hd22.1.47.47_ia_if_ib_id_ic_jc_ie_ja_jb_jd2.6F2B8C.6F2B8C.21_je2.6F2B8C.6F2B8C.21_jf_jg_ka9.6F2B8C.30074C.55.0_kb9.6F2B8C.30074C.55_kc_kd_ke_kf_la_lb_oa_os_ob_oc_od_oe_of_lc_m00_n00_s00_og_oh_oo_op_oq_or_om_on_ok_ol_oi_oj_ad0.0.0.0.0.0.0.0.0.0

1-calm=47**aa9.100.0.0.50.9.100.0.0.50_ab_ac_ba50_bb6.1_bc185.500.8.0.1_bd6_be180_ca53.0.42.79.17.38.44.30.39_cb0_da1.0.0.100_db_dd9.3.0.15.38.45_dh1.30.50.50.0_di5_qa_qb_dc0.1.1.1.1_eh_ea31.55.55.56.0.0_ec20.19.55.55.56.16.58.1_ed17.87.1.1.55.56_ef3.2.31.201F26.201F26.55_eg3.2.31.201F26.201F26.55_r0048.55.55.56.0.1.0.0.11.602.358.1_r0347.55.55.56.0.1.54.100.0.584.478.0_r0454.55.55.56.1.2.-30.-20.13.524.590.0_r0554.55.55.56.1.2.-30.-25.0.522.588.0_r0625.e6b422.E6B422.56.0.2.18.0.98.594.392.0_fa12.69.65.49.40.36.56_fb_fh3_fc1.7AAFE7.55.1.7AAFE7.55.51.61.61.51.50.50_fd1.0.26.56.56_fe50.67_ff0000000000_fg0.53_pa0.0.0.0.40.50.85.85.0.0_t00_pb_pc_pd_pe_ga0_gb1_gc0.0_ge0000000000_gh_gf_gg_gd10000000_ha87.87_hb50.1.61.99_hc1.36.7.1.36.7_hd1.1.47.27_ia_if_ib_id_ic_jc_ie_ja_jb_jd_je_jf_jg_ka9.6F2B8C.30074C.55.0_kb9.6F2B8C.30074C.55_kc_kd_ke_kf_la_lb_oa_os_ob_oc_od_oe_of_lc_m00_n00_s00_og_oh_oo_op_oq_or_om_on_ok_ol_oi_oj_ad0.0.0.0.0.0.0.0.0.0

1-happy=47**aa12.100.0.16.43.21.43.0.16.53_ab_ac_ba50_bb8.1_bc185.500.8.0.1_bd5_be180_ca53.0.42.79.17.38.44.30.39_cb0_da1.0.0.100_db_dd9.3.0.15.38.45_dh1.30.50.50.0_di5_qa_qb_dc0.1.1.1.1_eh_ea31.55.55.56.0.0_ec20.19.55.55.56.16.58.1_ed17.87.1.1.55.56_ef3.2.31.201F26.201F26.55_eg3.2.31.201F26.201F26.55_r0048.55.55.56.0.1.0.0.11.602.358.1_r0347.55.55.56.0.1.54.100.0.584.478.0_r0454.55.55.56.1.2.-30.-20.13.524.590.0_r0554.55.55.56.1.2.-30.-25.0.522.588.0_r0625.e6b422.E6B422.56.0.2.18.0.98.594.392.0_fa12.69.65.49.40.36.56_fb_fh3_fc1.7AAFE7.55.1.7AAFE7.55.51.61.61.51.50.50_fd1.0.26.56.56_fe50.73_ff0000000000_fg0.60_pa0.0.0.0.40.50.85.85.0.0_t00_pb_pc_pd_pe_ga0_gb1_gc0.0_ge0000000000_gh_gf_gg_gd10000000_ha87.87_hb50.1.61.99_hc1.25.0.1.25.0_hd25.1.48.61_ia_if_ib_id_ic_jc_ie_ja_jb_jd_je_jf_jg_ka9.6F2B8C.30074C.55.0_kb9.6F2B8C.30074C.55_kc_kd_ke_kf_la_lb_oa_os_ob_oc_od_oe_of_lc_m00_n00_s00_og_oh_oo_op_oq_or_om_on_ok_ol_oi_oj_ad0.0.0.0.0.0.0.0.0.0

1-sad=47**aa13.57.0.16.40.13.57.0.16.40_ab_ac_ba50_bb7.1_bc185.500.8.0.1_bd5_be180_ca53.0.42.79.17.38.44.30.39_cb0_da1.0.0.100_db_dd9.3.0.15.38.45_dh1.30.50.50.0_di5_qa_qb_dc0.1.1.1.1_eh_ea31.55.55.56.0.0_ec20.19.55.55.56.16.58.1_ed17.87.1.1.55.56_ef3.2.31.201F26.201F26.55_eg3.2.31.201F26.201F26.55_r0048.55.55.56.0.1.0.0.11.602.358.1_r0347.55.55.56.0.1.54.100.0.584.478.0_r0454.55.55.56.1.2.-30.-20.13.524.590.0_r0554.55.55.56.1.2.-30.-25.0.522.588.0_r0625.e6b422.E6B422.56.0.2.18.0.98.594.392.0_fa12.69.65.49.40.36.56_fb_fh3_fc1.7AAFE7.55.1.7AAFE7.55.51.61.61.51.50.50_fd1.0.26.56.56_fe50.67_ff0000000000_fg0.53_pa0.0.0.0.40.50.85.85.0.0_t00_pb_pc_pd_pe_ga0_gb1_gc0.0_ge0000000000_gh_gf_gg_gd11000000_ha87.87_hb50.1.61.99_hc3.66.49.3.66.49_hd22.1.47.47_ia_if_ib_id_ic_jc_ie_ja_jb_jd_je_jf_jg_ka9.6F2B8C.30074C.55.0_kb9.6F2B8C.30074C.55_kc_kd_ke_kf_la_lb_oa_os_ob_oc_od_oe_of_lc_m00_n00_s00_og_oh_oo_op_oq_or_om_on_ok_ol_oi_oj_ad0.0.0.0.0.0.0.0.0.0

1-angry=47**aa7.71.1.16.39.7.71.1.16.51_ab_ac_ba50_bb7.1_bc185.500.8.0.1_bd7_be180_ca53.0.42.79.17.38.44.30.39_cb0_da1.0.0.100_db_dd9.3.0.15.38.45_dh1.30.50.50.0_di5_qa_qb_dc0.1.1.1.1_eh_ea31.55.55.56.0.0_ec20.19.55.55.56.16.58.1_ed17.87.1.1.55.56_ef3.2.31.201F26.201F26.55_eg3.2.31.201F26.201F26.55_r0048.55.55.56.0.1.0.0.11.602.358.1_r0347.55.55.56.0.1.54.100.0.584.478.0_r0454.55.55.56.1.2.-30.-20.13.524.590.0_r0554.55.55.56.1.2.-30.-25.0.522.588.0_r0625.e6b422.E6B422.56.0.2.18.0.98.594.392.0_fa12.69.65.49.40.36.56_fb_fh3_fc1.7AAFE7.55.1.7AAFE7.55.51.61.61.51.50.50_fd1.0.0.56.56_fe50.73_ff0000000000_fg0.60_pa0.0.0.0.40.50.85.85.0.0_t00_pb_pc_pd_pe_ga0_gb1_gc0.0_ge0100000000_gh_gf_gg_gd10000000_ha25.25_hb50.1.61.99_hc2.22.0.2.22.0_hd43.1.47.60_ia_if_ib_id_ic_jc_ie_ja_jb_jd_je_jf_jg_ka9.6F2B8C.30074C.55.0_kb9.6F2B8C.30074C.55_kc_kd_ke_kf_la_lb_oa_os_ob_oc_od_oe_of_lc_m00_n00_s00_og_oh_oo_op_oq_or_om_on_ok_ol_oi_oj_ad0.0.0.0.0.0.0.0.0.0

1-confident=47**aa31.75.0.0.98.31.75.0.0.98_ab_ac_ba50_bb7.1_bc185.500.8.0.1_bd7_be180_ca53.0.42.79.17.38.44.30.39_cb0_da1.0.0.100_db_dd9.3.0.15.38.45_dh1.30.50.50.0_di5_qa_qb_dc0.1.1.1.1_eh_ea31.55.55.56.0.0_ec20.19.55.55.56.16.58.1_ed17.87.1.1.55.56_ef3.2.31.201F26.201F26.55_eg3.2.31.201F26.201F26.55_r0048.55.55.56.0.1.0.0.11.602.358.1_r0347.55.55.56.0.1.54.100.0.584.478.0_r0454.55.55.56.1.2.-30.-20.13.524.590.0_r0554.55.55.56.1.2.-30.-25.0.522.588.0_r0625.e6b422.E6B422.56.0.2.18.0.98.594.392.0_fa12.69.65.49.40.36.56_fb_fh3_fc1.7AAFE7.55.1.7AAFE7.55.51.61.61.51.50.50_fd1.0.26.56.56_fe50.73_ff0000000000_fg0.60_pa0.0.0.0.40.50.85.85.0.0_t00_pb_pc_pd_pe_ga0_gb1_gc0.0_ge0000000000_gh_gf_gg_gd10000000_ha87.87_hb50.1.61.99_hc1.22.0.1.22.0_hd24.1.47.31_ia_if_ib_id_ic_jc_ie_ja_jb_jd_je_jf_jg_ka9.6F2B8C.30074C.55.0_kb9.6F2B8C.30074C.55_kc_kd_ke_kf_la_lb_oa_os_ob_oc_od_oe_of_lc_m00_n00_s00_og_oh_oo_op_oq_or_om_on_ok_ol_oi_oj_ad0.0.0.0.0.0.0.0.0.0

1-embarrassed=47**aa71.34.0.0.98.9.100.0.0.87_ab_ac_ba50_bb6.1_bc185.500.8.0.1_bd7_be180_ca53.0.42.79.17.38.44.30.39_cb0_da1.0.0.100_db_dd10.3.0.15.38.45_dh1.30.50.50.0_di5_qa_qb_dc0.1.1.1.1_eh_ea31.55.55.56.0.0_ec20.19.55.55.56.16.58.1_ed17.87.1.1.55.56_ef3.2.31.201F26.201F26.55_eg3.2.31.201F26.201F26.55_r0048.55.55.56.0.1.0.0.11.602.358.1_r0347.55.55.56.0.1.54.100.0.584.478.0_r0454.55.55.56.1.2.-30.-20.13.524.590.0_r0554.55.55.56.1.2.-30.-25.0.522.588.0_r0625.e6b422.E6B422.56.0.2.18.0.98.594.392.0_fa12.69.65.49.40.36.56_fb_fh3_fc1.7AAFE7.55.1.7AAFE7.55.51.61.61.51.50.50_fd1.0.26.56.56_fe50.73_ff0000000000_fg0.60_pa0.0.0.0.40.50.85.85.0.0_t00_pb_pc_pd_pe_ga0_gb1_gc20.0_ge0000000000_gh_gf_gg_gd10000000_ha87.87_hb50.1.61.99_hc0.57.26.0.57.26_hd35.1.47.62_ia_if_ib_id_ic_jc_ie_ja_jb_jd_je_jf_jg_ka9.6F2B8C.30074C.55.0_kb9.6F2B8C.30074C.55_kc_kd_ke_kf_la_lb_oa_os_ob_oc_od_oe_of_lc_m00_n00_s00_og_oh_oo_op_oq_or_om_on_ok_ol_oi_oj_ad0.0.0.0.0.0.0.0.0.0

1-interested=47**aa10.93.0.0.50.10.93.0.0.50_ab_ac_ba50_bb1.1_bc185.500.8.0.1_bd0_be180_ca53.0.42.79.17.38.44.30.39_cb0_da1.0.0.100_db_dd9.3.0.15.38.45_dh1.30.50.50.0_di5_qa_qb_dc0.1.1.1.1_eh_ea31.55.55.56.0.0_ec20.19.55.55.56.16.58.1_ed17.87.1.1.55.56_ef3.2.31.201F26.201F26.55_eg3.2.31.201F26.201F26.55_r0048.55.55.56.0.1.0.0.11.602.358.1_r0347.55.55.56.0.1.54.100.0.584.478.0_r0454.55.55.56.1.2.-30.-20.13.524.590.0_r0554.55.55.56.1.2.-30.-25.0.522.588.0_r0625.e6b422.E6B422.56.0.2.18.0.98.594.392.0_fa12.69.65.49.40.36.56_fb_fh3_fc1.7AAFE7.55.1.7AAFE7.55.51.61.61.51.50.50_fd1.0.26.56.56_fe50.73_ff0000000000_fg0.60_pa0.0.0.0.40.50.85.85.0.0_t00_pb_pc_pd_pe_ga0_gb1_gc0.0_ge0000000000_gh_gf_gg_gd10000000_ha87.87_hb50.1.61.99_hc0.9.13.0.9.13_hd61.1.42.29_ia_if_ib_id_ic_jc_ie_ja_jb_jd_je_jf_jg_ka9.6F2B8C.30074C.55.0_kb9.6F2B8C.30074C.55_kc_kd_ke_kf_la_lb_oa_os_ob_oc_od_oe_of_lc_m00_n00_s00_og_oh_oo_op_oq_or_om_on_ok_ol_oi_oj_ad0.0.0.0.0.0.0.0.0.0

1-shocked=47**aa9.100.0.0.47.9.100.0.0.47_ab_ac_ba50_bb7.0_bc185.500.8.0.1_bd3_be180_ca53.0.42.79.17.38.44.30.39_cb0_da1.0.0.100_db_dd9.3.0.15.38.45_dh1.30.50.50.0_di5_qa_qb_dc0.1.1.1.1_eh_ea31.55.55.56.0.0_ec20.19.55.55.56.16.58.1_ed17.87.1.1.55.56_ef3.2.31.201F26.201F26.55_eg3.2.31.201F26.201F26.55_r0048.55.55.56.0.1.0.0.11.602.358.1_r0347.55.55.56.0.1.54.100.0.584.478.0_r0454.55.55.56.1.2.-30.-20.13.524.590.0_r0554.55.55.56.1.2.-30.-25.0.522.588.0_r0625.e6b422.E6B422.56.0.2.18.0.98.594.392.0_fa12.69.65.49.40.36.56_fb_fh3_fc1.7AAFE7.55.1.7AAFE7.55.51.61.61.51.50.50_fd1.0.26.56.56_fe50.73_ff0000000000_fg0.60_pa0.0.0.0.40.50.85.85.0.0_t00_pb_pc_pd_pe_ga0_gb1_gc0.0_ge0000000000_gh_gf_gg_gd10000000_ha90.90_hb50.1.61.99_hc0.75.41.0.75.41_hd36.1.63.49_ia_if_ib_id_ic_jc_ie_ja_jb_jd_je_jf_jg_ka9.6F2B8C.30074C.55.0_kb9.6F2B8C.30074C.55_kc_kd_ke_kf_la_lb_oa_os_ob_oc_od_oe_of_lc_m00_n00_s00_og_oh_oo_op_oq_or_om_on_ok_ol_oi_oj_ad0.0.0.0.0.0.0.0.0.0

1-worried=47**aa13.57.0.16.43.13.57.0.16.43_ab_ac_ba50_bb5.0_bc185.500.8.0.1_bd7_be180_ca53.0.42.79.17.38.44.30.39_cb0_da1.0.0.100_db_dd9.3.0.15.38.45_dh1.30.50.50.0_di5_qa_qb_dc0.1.1.1.1_eh_ea31.55.55.56.0.0_ec20.19.55.55.56.16.58.1_ed17.87.1.1.55.56_ef3.2.31.201F26.201F26.55_eg3.2.31.201F26.201F26.55_r0048.55.55.56.0.1.0.0.11.602.358.1_r0347.55.55.56.0.1.54.100.0.584.478.0_r0454.55.55.56.1.2.-30.-20.13.524.590.0_r0554.55.55.56.1.2.-30.-25.0.522.588.0_r0625.e6b422.E6B422.56.0.2.18.0.98.594.392.0_fa12.69.65.49.40.36.56_fb_fh3_fc1.7AAFE7.55.1.7AAFE7.55.51.61.61.51.50.50_fd1.0.26.56.56_fe50.73_ff0000000000_fg0.60_pa0.0.0.0.40.50.85.85.0.0_t00_pb_pc_pd_pe_ga0_gb1_gc0.0_ge0000000000_gh_gf_gg_gd10000000_ha87.87_hb50.1.61.99_hc3.63.56.3.63.56_hd21.1.80.67_ia_if_ib_id_ic_jc_ie_ja_jb_jd_je_jf_jg_ka9.6F2B8C.30074C.55.0_kb9.6F2B8C.30074C.55_kc_kd_ke_kf_la_lb_oa_os_ob_oc_od_oe_of_lc_m00_n00_s00_og_oh_oo_op_oq_or_om_on_ok_ol_oi_oj_ad0.0.0.0.0.0.0.0.0.0

1-loss=47**aa7.72.1.16.41.7.72.1.16.50_ab_ac_ba50_bb7.1_bc185.500.8.0.1_bd6_be180_ca53.0.42.79.17.38.44.30.39_cb0_da1.0.0.100_db_dd9.3.0.15.38.45_dh1.30.50.50.0_di5_qa_qb_dc0.1.1.1.1_eh_ea31.55.55.56.0.0_ec20.19.55.55.56.16.58.1_ed17.87.1.1.55.56_ef3.2.31.201F26.201F26.55_eg3.2.31.201F26.201F26.55_r0048.55.55.56.0.1.0.0.11.602.358.1_r0347.55.55.56.0.1.54.100.0.584.478.0_r0454.55.55.56.1.2.-30.-20.13.524.590.0_r0554.55.55.56.1.2.-30.-25.0.522.588.0_r0625.e6b422.E6B422.56.0.2.18.0.98.594.392.0_fa12.69.65.49.40.36.56_fb_fh3_fc1.7AAFE7.55.1.7AAFE7.55.51.61.61.51.50.50_fd1.0.26.56.56_fe50.73_ff0000000000_fg0.60_pa0.0.0.0.40.50.85.85.0.0_t00_pb_pc_pd_pe_ga0_gb1_gc25.0_ge0000000000_gh_gf_gg_gd10000000_ha87.87_hb100.1.50.99_hc1.21.0.1.21.0_hd11.1.47.27_ia_if_ib_id_ic_jc_ie_ja_jb_jd_je_jf_jg_ka9.6F2B8C.30074C.55.0_kb9.6F2B8C.30074C.55_kc_kd_ke_kf_la_lb_oa_os_ob_oc_od_oe_of_lc_m00_n00_s00_og_oh_oo_op_oq_or_om_on_ok_ol_oi_oj_ad0.0.0.0.0.0.0.0.0.0

1-strip=47**aa12.73.1.16.54.12.73.1.16.54_ab_ac_ba50_bb5.1_bc185.500.8.0.1_bd5_be180_ca53.0.42.79.17.38.44.30.39_cb0_da1.0.0.100_db_dd9.3.0.15.38.45_dh1.30.50.50.0_di5_qa_qb_dc0.1.1.1.1_eh_ea31.55.55.56.0.0_ec20.19.55.55.56.16.58.1_ed17.87.1.1.55.56_ef3.2.31.201F26.201F26.55_eg3.2.31.201F26.201F26.55_r0048.55.55.56.0.1.0.0.11.602.358.1_r0347.55.55.56.0.1.54.100.0.584.478.0_r0454.55.55.56.1.2.-30.-20.13.524.590.0_r0554.55.55.56.1.2.-30.-25.0.522.588.0_r0625.e6b422.E6B422.56.0.2.18.0.98.594.392.0_fa12.69.65.49.40.36.56_fb_fh3_fc1.7AAFE7.55.1.7AAFE7.55.51.61.61.51.50.50_fd1.0.26.56.56_fe50.73_ff0000000000_fg0.60_pa0.0.0.0.40.50.85.85.0.0_t00_pb_pc_pd_pe_ga0_gb1_gc25.0_ge0000000000_gh_gf_gg_gd10000000_ha87.87_hb50.1.61.99_hc1.18.0.1.18.0_hd38.1.65.44_ia_if_ib_id_ic_jc_ie_ja_jb_jd_je_jf_jg_ka9.6F2B8C.30074C.55.0_kb9.6F2B8C.30074C.55_kc_kd_ke_kf_la_lb_oa_os_ob_oc_od_oe_of_lc_m00_n00_s00_og_oh_oo_op_oq_or_om_on_ok_ol_oi_oj_ad0.0.0.0.0.0.0.0.0.0


#Lost Bra


2-stripped=47**aa8.100.0.0.45.27.79.0.0.98_ab_ac_ba50_bb6.1_bc185.500.8.0.1_bd6_be180_ca53.0.42.79.17.38.44.30.39_cb0_da1.0.0.100_db_dd9.3.0.15.38.45_dh1.30.50.50.0_di5_qa_qb_dc0.1.1.1.1_eh_ea31.55.55.56.0.0_ec20.19.55.55.56.16.58.1_ed17.87.1.1.55.56_ef3.2.31.201F26.201F26.55_eg3.2.31.201F26.201F26.55_r0048.55.55.56.0.1.0.0.13.602.358.1_r0347.55.55.56.0.1.54.100.0.584.478.0_r0454.55.55.56.1.2.-30.-20.13.524.590.0_r0554.55.55.56.1.2.-30.-25.0.522.588.0_r0625.e6b422.E6B422.56.0.2.18.0.98.594.392.0_fa12.69.65.49.40.36.56_fb_fh3_fc1.7AAFE7.55.1.7AAFE7.55.51.61.61.51.50.50_fd1.0.26.56.56_fe50.73_ff0000000000_fg0.60_pa0.0.0.0.40.50.85.85.0.0_t00_pb_pc_pd_pe_ga0_gb1_gc25.0_ge0000000000_gh_gf_gg_gd10000000_ha87.87_hb50.1.61.99_hc0.20.21.0.20.21_hd35.1.65.100_ia_if_ib_id_ic_jc_ie_ja_jb_jd_je_jf_jg_ka_kb9.6F2B8C.30074C.55_kc_kd_ke_kf_la_lb_oa_os_ob_oc_od_oe_of_lc_m00_n00_s00_og_oh_oo_op_oq_or_om_on_ok_ol_oi_oj_ad0.0.0.0.0.0.0.0.0.0

2-calm=47**aa9.100.0.0.50.9.100.0.0.50_ab_ac_ba50_bb6.1_bc185.500.8.0.1_bd6_be180_ca53.0.42.79.17.38.44.30.39_cb0_da1.0.0.100_db_dd9.3.0.15.38.45_dh1.30.50.50.0_di5_qa_qb_dc0.1.1.1.1_eh_ea31.55.55.56.0.0_ec20.19.55.55.56.16.58.1_ed17.87.1.1.55.56_ef3.2.31.201F26.201F26.55_eg3.2.31.201F26.201F26.55_r0048.55.55.56.0.1.0.0.13.602.358.1_r0347.55.55.56.0.1.54.100.0.584.478.0_r0454.55.55.56.1.2.-30.-20.13.524.590.0_r0554.55.55.56.1.2.-30.-25.0.522.588.0_r0625.e6b422.E6B422.56.0.2.18.0.98.594.392.0_fa12.69.65.49.40.36.56_fb_fh3_fc1.7AAFE7.55.1.7AAFE7.55.51.61.61.51.50.50_fd1.0.26.56.56_fe50.67_ff0000000000_fg0.53_pa0.0.0.0.40.50.85.85.0.0_t00_pb_pc_pd_pe_ga0_gb1_gc15.0_ge0000000000_gh_gf_gg_gd10000000_ha87.87_hb50.1.61.99_hc1.29.7.1.29.7_hd1.1.47.27_ia_if_ib_id_ic_jc_ie_ja_jb_jd_je_jf_jg_ka_kb9.6F2B8C.30074C.55_kc_kd_ke_kf_la_lb_oa_os_ob_oc_od_oe_of_lc_m00_n00_s00_og_oh_oo_op_oq_or_om_on_ok_ol_oi_oj_ad0.0.0.0.0.0.0.0.0.0

2-happy=47**aa12.100.0.16.43.21.43.0.16.53_ab_ac_ba50_bb8.1_bc185.500.8.0.1_bd5_be180_ca53.0.42.79.17.38.44.30.39_cb0_da1.0.0.100_db_dd9.3.0.15.38.45_dh1.30.50.50.0_di5_qa_qb_dc0.1.1.1.1_eh_ea31.55.55.56.0.0_ec20.19.55.55.56.16.58.1_ed17.87.1.1.55.56_ef3.2.31.201F26.201F26.55_eg3.2.31.201F26.201F26.55_r0048.55.55.56.0.1.0.0.13.602.358.1_r0347.55.55.56.0.1.54.100.0.584.478.0_r0454.55.55.56.1.2.-30.-20.13.524.590.0_r0554.55.55.56.1.2.-30.-25.0.522.588.0_r0625.e6b422.E6B422.56.0.2.18.0.98.594.392.0_fa12.69.65.49.40.36.56_fb_fh3_fc1.7AAFE7.55.1.7AAFE7.55.51.61.61.51.50.50_fd1.0.26.56.56_fe50.73_ff0000000000_fg0.60_pa0.0.0.0.40.50.85.85.0.0_t00_pb_pc_pd_pe_ga0_gb1_gc10.0_ge0000000000_gh_gf_gg_gd10000000_ha87.87_hb50.1.61.99_hc1.25.0.1.25.0_hd25.1.48.61_ia_if_ib_id_ic_jc_ie_ja_jb_jd_je_jf_jg_ka_kb9.6F2B8C.30074C.55_kc_kd_ke_kf_la_lb_oa_os_ob_oc_od_oe_of_lc_m00_n00_s00_og_oh_oo_op_oq_or_om_on_ok_ol_oi_oj_ad0.0.0.0.0.0.0.0.0.0

2-sad=47**aa13.57.0.16.40.13.57.0.16.40_ab_ac_ba50_bb7.1_bc185.500.8.0.1_bd5_be180_ca53.0.42.79.17.38.44.30.39_cb0_da1.0.0.100_db_dd9.3.0.15.38.45_dh1.30.50.50.0_di5_qa_qb_dc0.1.1.1.1_eh_ea31.55.55.56.0.0_ec20.19.55.55.56.16.58.1_ed17.87.1.1.55.56_ef3.2.31.201F26.201F26.55_eg3.2.31.201F26.201F26.55_r0048.55.55.56.0.1.0.0.13.602.358.1_r0347.55.55.56.0.1.54.100.0.584.478.0_r0454.55.55.56.1.2.-30.-20.13.524.590.0_r0554.55.55.56.1.2.-30.-25.0.522.588.0_r0625.e6b422.E6B422.56.0.2.18.0.98.594.392.0_fa12.69.65.49.40.36.56_fb_fh3_fc1.7AAFE7.55.1.7AAFE7.55.51.61.61.51.50.50_fd1.0.26.56.56_fe50.67_ff0000000000_fg0.53_pa0.0.0.0.40.50.85.85.0.0_t00_pb_pc_pd_pe_ga0_gb1_gc15.0_ge0000000000_gh_gf_gg_gd11000000_ha87.87_hb50.1.61.99_hc3.66.49.3.66.49_hd22.1.47.47_ia_if_ib_id_ic_jc_ie_ja_jb_jd_je_jf_jg_ka_kb9.6F2B8C.30074C.55_kc_kd_ke_kf_la_lb_oa_os_ob_oc_od_oe_of_lc_m00_n00_s00_og_oh_oo_op_oq_or_om_on_ok_ol_oi_oj_ad0.0.0.0.0.0.0.0.0.0

2-angry=47**aa7.71.1.16.39.7.71.1.16.51_ab_ac_ba50_bb7.1_bc185.500.8.0.1_bd7_be180_ca53.0.42.79.17.38.44.30.39_cb0_da1.0.0.100_db_dd9.3.0.15.38.45_dh1.30.50.50.0_di5_qa_qb_dc0.1.1.1.1_eh_ea31.55.55.56.0.0_ec20.19.55.55.56.16.58.1_ed17.87.1.1.55.56_ef3.2.31.201F26.201F26.55_eg3.2.31.201F26.201F26.55_r0048.55.55.56.0.1.0.0.13.602.358.1_r0347.55.55.56.0.1.54.100.0.584.478.0_r0454.55.55.56.1.2.-30.-20.13.524.590.0_r0554.55.55.56.1.2.-30.-25.0.522.588.0_r0625.e6b422.E6B422.56.0.2.18.0.98.594.392.0_fa12.69.65.49.40.36.56_fb_fh3_fc1.7AAFE7.55.1.7AAFE7.55.51.61.61.51.50.50_fd1.0.0.56.56_fe50.73_ff0000000000_fg0.60_pa0.0.0.0.40.50.85.85.0.0_t00_pb_pc_pd_pe_ga0_gb1_gc10.0_ge0100000000_gh_gf_gg_gd10000000_ha25.25_hb50.1.61.99_hc2.22.0.2.22.0_hd43.1.47.60_ia_if_ib_id_ic_jc_ie_ja_jb_jd_je_jf_jg_ka_kb9.6F2B8C.30074C.55_kc_kd_ke_kf_la_lb_oa_os_ob_oc_od_oe_of_lc_m00_n00_s00_og_oh_oo_op_oq_or_om_on_ok_ol_oi_oj_ad0.0.0.0.0.0.0.0.0.0

2-confident=47**aa31.75.0.0.98.31.75.0.0.98_ab_ac_ba50_bb7.1_bc185.500.8.0.1_bd7_be180_ca53.0.42.79.17.38.44.30.39_cb0_da1.0.0.100_db_dd9.3.0.15.38.45_dh1.30.50.50.0_di5_qa_qb_dc0.1.1.1.1_eh_ea31.55.55.56.0.0_ec20.19.55.55.56.16.58.1_ed17.87.1.1.55.56_ef3.2.31.201F26.201F26.55_eg3.2.31.201F26.201F26.55_r0048.55.55.56.0.1.0.0.13.602.358.1_r0347.55.55.56.0.1.54.100.0.584.478.0_r0454.55.55.56.1.2.-30.-20.13.524.590.0_r0554.55.55.56.1.2.-30.-25.0.522.588.0_r0625.e6b422.E6B422.56.0.2.18.0.98.594.392.0_fa12.69.65.49.40.36.56_fb_fh3_fc1.7AAFE7.55.1.7AAFE7.55.51.61.61.51.50.50_fd1.0.26.56.56_fe50.73_ff0000000000_fg0.60_pa0.0.0.0.40.50.85.85.0.0_t00_pb_pc_pd_pe_ga0_gb1_gc10.0_ge0000000000_gh_gf_gg_gd10000000_ha87.87_hb50.1.61.99_hc1.22.0.1.22.0_hd24.1.47.31_ia_if_ib_id_ic_jc_ie_ja_jb_jd_je_jf_jg_ka_kb9.6F2B8C.30074C.55_kc_kd_ke_kf_la_lb_oa_os_ob_oc_od_oe_of_lc_m00_n00_s00_og_oh_oo_op_oq_or_om_on_ok_ol_oi_oj_ad0.0.0.0.0.0.0.0.0.0

2-embarrassed=47**aa71.34.0.0.98.9.100.0.0.87_ab_ac_ba50_bb6.1_bc185.500.8.0.1_bd7_be180_ca53.0.42.79.17.38.44.30.39_cb0_da1.0.0.100_db_dd10.3.0.15.38.45_dh1.30.50.50.0_di5_qa_qb_dc0.1.1.1.1_eh_ea31.55.55.56.0.0_ec20.19.55.55.56.16.58.1_ed17.87.1.1.55.56_ef3.2.31.201F26.201F26.55_eg3.2.31.201F26.201F26.55_r0048.55.55.56.0.1.0.0.13.602.358.1_r0347.55.55.56.0.1.54.100.0.584.478.0_r0454.55.55.56.1.2.-30.-20.13.524.590.0_r0554.55.55.56.1.2.-30.-25.0.522.588.0_r0625.e6b422.E6B422.56.0.2.18.0.98.594.392.0_fa12.69.65.49.40.36.56_fb_fh3_fc1.7AAFE7.55.1.7AAFE7.55.51.61.61.51.50.50_fd1.0.26.56.56_fe50.73_ff0000000000_fg0.60_pa0.0.0.0.40.50.85.85.0.0_t00_pb_pc_pd_pe_ga0_gb1_gc29.0_ge0000000000_gh_gf_gg_gd10000000_ha87.87_hb50.1.61.99_hc0.57.26.0.57.26_hd35.1.47.62_ia_if_ib_id_ic_jc_ie_ja_jb_jd_je_jf_jg_ka_kb9.6F2B8C.30074C.55_kc_kd_ke_kf_la_lb_oa_os_ob_oc_od_oe_of_lc_m00_n00_s00_og_oh_oo_op_oq_or_om_on_ok_ol_oi_oj_ad0.0.0.0.0.0.0.0.0.0

2-interested=47**aa10.93.0.0.50.10.93.0.0.50_ab_ac_ba50_bb1.1_bc185.500.8.0.1_bd0_be180_ca53.0.42.79.17.38.44.30.39_cb0_da1.0.0.100_db_dd9.3.0.15.38.45_dh1.30.50.50.0_di5_qa_qb_dc0.1.1.1.1_eh_ea31.55.55.56.0.0_ec20.19.55.55.56.16.58.1_ed17.87.1.1.55.56_ef3.2.31.201F26.201F26.55_eg3.2.31.201F26.201F26.55_r0048.55.55.56.0.1.0.0.13.602.358.1_r0347.55.55.56.0.1.54.100.0.584.478.0_r0454.55.55.56.1.2.-30.-20.13.524.590.0_r0554.55.55.56.1.2.-30.-25.0.522.588.0_r0625.e6b422.E6B422.56.0.2.18.0.98.594.392.0_fa12.69.65.49.40.36.56_fb_fh3_fc1.7AAFE7.55.1.7AAFE7.55.51.61.61.51.50.50_fd1.0.26.56.56_fe50.73_ff0000000000_fg0.60_pa0.0.0.0.40.50.85.85.0.0_t00_pb_pc_pd_pe_ga0_gb1_gc10.0_ge0000000000_gh_gf_gg_gd10000000_ha87.87_hb50.1.61.99_hc0.9.13.0.9.13_hd61.1.42.29_ia_if_ib_id_ic_jc_ie_ja_jb_jd_je_jf_jg_ka_kb9.6F2B8C.30074C.55_kc_kd_ke_kf_la_lb_oa_os_ob_oc_od_oe_of_lc_m00_n00_s00_og_oh_oo_op_oq_or_om_on_ok_ol_oi_oj_ad0.0.0.0.0.0.0.0.0.0

2-shocked=47**aa9.100.0.0.47.9.100.0.0.47_ab_ac_ba50_bb7.0_bc185.500.8.0.1_bd3_be180_ca53.0.42.79.17.38.44.30.39_cb0_da1.0.0.100_db_dd10.3.0.15.38.45_dh1.30.50.50.0_di5_qa_qb_dc0.1.1.1.1_eh_ea31.55.55.56.0.0_ec20.19.55.55.56.16.58.1_ed17.87.1.1.55.56_ef3.2.31.201F26.201F26.55_eg3.2.31.201F26.201F26.55_r0048.55.55.56.0.1.0.0.13.602.358.1_r0347.55.55.56.0.1.54.100.0.584.478.0_r0454.55.55.56.1.2.-30.-20.13.524.590.0_r0554.55.55.56.1.2.-30.-25.0.522.588.0_r0625.e6b422.E6B422.56.0.2.18.0.98.594.392.0_fa12.69.65.49.40.36.56_fb_fh3_fc1.7AAFE7.55.1.7AAFE7.55.51.61.61.51.50.50_fd1.0.26.56.56_fe50.73_ff0000000000_fg0.60_pa0.0.0.0.40.50.85.85.0.0_t00_pb_pc_pd_pe_ga0_gb1_gc20.0_ge0000000000_gh_gf_gg_gd10000000_ha90.90_hb50.1.61.99_hc0.75.41.0.75.41_hd36.1.63.49_ia_if_ib_id_ic_jc_ie_ja_jb_jd_je_jf_jg_ka_kb9.6F2B8C.30074C.55_kc_kd_ke_kf_la_lb_oa_os_ob_oc_od_oe_of_lc_m00_n00_s00_og_oh_oo_op_oq_or_om_on_ok_ol_oi_oj_ad0.0.0.0.0.0.0.0.0.0

2-loss=47**aa13.57.0.16.42.13.57.0.16.42_ab_ac_ba50_bb1.1_bc185.500.8.0.1_bd1_be180_ca53.0.42.79.17.38.44.30.39_cb0_da1.0.0.100_db_dd10.3.0.15.38.45_dh1.30.50.50.0_di5_qa_qb_dc0.1.1.1.1_eh_ea31.55.55.56.0.0_ec20.19.55.55.56.16.58.1_ed17.87.1.1.55.56_ef3.2.31.201F26.201F26.55_eg3.2.31.201F26.201F26.55_r0048.55.55.56.0.1.0.0.13.602.358.1_r0347.55.55.56.0.1.54.100.0.584.478.0_r0454.55.55.56.1.2.-30.-20.13.524.590.0_r0554.55.55.56.1.2.-30.-25.0.522.588.0_r0625.e6b422.E6B422.56.0.2.18.0.98.594.392.0_fa12.69.65.49.40.36.56_fb_fh3_fc1.7AAFE7.55.1.7AAFE7.55.51.61.61.51.50.50_fd1.0.26.56.56_fe50.73_ff0000000000_fg0.60_pa0.0.0.0.40.50.85.85.0.0_t00_pb_pc_pd_pe_ga0_gb1_gc22.0_ge0000000000_gh_gf_gg_gd11000000_ha93.93_hb50.1.61.99_hc3.85.63.3.85.63_hd36.1.69.37_ia_if_ib_id_ic_jc_ie_ja_jb_jd_je_jf_jg_ka_kb9.6F2B8C.30074C.55_kc_kd_ke_kf_la_lb_oa_os_ob_oc_od_oe_of_lc_m00_n00_s00_og_oh_oo_op_oq_or_om_on_ok_ol_oi_oj_ad0.0.0.0.0.0.0.0.0.0

2-strip=47**aa21.84.1.16.42.21.84.1.16.42_ab_ac_ba50_bb4.1_bc185.500.8.0.1_bd2_be180_ca53.0.42.79.17.38.44.30.39_cb0_da1.0.0.100_db_dd10.3.0.15.38.45_dh1.30.50.50.0_di5_qa_qb_dc0.1.1.1.1_eh_ea31.55.55.56.0.0_ec20.19.55.55.56.16.58.1_ed17.87.1.1.55.56_ef3.2.31.201F26.201F26.55_eg3.2.31.201F26.201F26.55_r0048.55.55.56.0.1.0.0.13.602.358.1_r0347.55.55.56.0.1.54.100.0.584.478.0_r0454.55.55.56.1.2.-30.-20.13.524.590.0_r0554.55.55.56.1.2.-30.-25.0.522.588.0_r0625.e6b422.E6B422.56.0.2.18.0.98.594.392.0_fa12.69.65.49.40.36.56_fb_fh3_fc1.7AAFE7.55.1.7AAFE7.55.51.61.61.51.50.50_fd1.0.26.56.56_fe50.73_ff0000000000_fg0.60_pa0.0.0.0.40.50.85.85.0.0_t00_pb_pc_pd_pe_ga0_gb1_gc22.0_ge0000000000_gh_gf_gg_gd11000000_ha87.87_hb54.1.0.99_hc3.68.56.3.68.56_hd9.1.41.37_ia_if_ib_id_ic_jc_ie_ja_jb_jd_je_jf_jg_ka_kb9.6F2B8C.30074C.55_kc_kd_ke_kf_la_lb_oa_os_ob_oc_od_oe_of_lc_m00_n00_s00_og_oh_oo_op_oq_or_om_on_ok_ol_oi_oj_ad0.0.0.0.0.0.0.0.0.0


#Lost Panties


3-stripped=47**aa12.92.0.16.42.12.92.0.16.42_ab_ac_ba50_bb2.1_bc502.500.1.0.1_bd2_be180_ca53.0.42.79.17.38.44.30.39_cb0_da1.0.0.100_db_dd10.3.0.15.38.45_dh1.30.50.50.0_di5_qa_qb_dc0.4.1.1.1_eh_ea31.55.55.56.0.0_ec20.19.55.55.56.16.58.1_ed17.87.1.1.55.56_ef3.2.31.201F26.201F26.55_eg3.2.31.201F26.201F26.55_r0048.55.55.56.0.1.0.0.0.602.358.1_r0347.55.55.56.0.1.54.100.0.584.478.0_r0454.55.55.56.1.2.-30.-20.13.524.590.0_r0554.55.55.56.1.2.-30.-25.0.522.588.0_r0625.e6b422.E6B422.56.0.2.18.0.98.594.392.0_fa12.69.65.49.40.36.56_fb_fh3_fc1.7AAFE7.55.1.7AAFE7.55.51.61.61.51.50.50_fd1.0.26.56.56_fe50.73_ff0000000000_fg0.60_pa0.0.0.0.40.50.85.85.0.0_t00_pb_pc_pd_pe_ga0_gb1_gc22.0_ge0000000000_gh_gf_gg_gd10000000_ha87.87_hb54.1.61.99_hc1.27.5.1.27.5_hd21.1.100.75_ia_if_ib_id_ic_jc_ie_ja_jb_jd_je_jf_jg_ka_kb_kc_kd_ke_kf_la_lb_oa_os_ob_oc_od_oe_of_lc_m00_n00_s00_og_oh_oo_op_oq_or_om_on_ok_ol_oi_oj_ad0.0.0.0.0.0.0.0.0.0

3-calm=47**aa9.100.0.0.50.9.100.0.0.50_ab_ac_ba50_bb6.1_bc502.500.8.0.1_bd6_be180_ca53.0.42.79.17.38.44.30.39_cb0_da1.0.0.100_db_dd9.3.0.15.38.45_dh1.30.50.50.0_di5_qa_qb_dc0.4.1.1.1_eh_ea31.55.55.56.0.0_ec20.19.55.55.56.16.58.1_ed17.87.1.1.55.56_ef3.2.31.201F26.201F26.55_eg3.2.31.201F26.201F26.55_r0048.55.55.56.0.1.0.0.0.602.358.1_r0347.55.55.56.0.1.54.100.0.584.478.0_r0454.55.55.56.1.2.-30.-20.13.524.590.0_r0554.55.55.56.1.2.-30.-25.0.522.588.0_r0625.e6b422.E6B422.56.0.2.18.0.98.594.392.0_fa12.69.65.49.40.36.56_fb_fh3_fc1.7AAFE7.55.1.7AAFE7.55.51.61.61.51.50.50_fd1.0.26.56.56_fe50.67_ff0000000000_fg0.53_pa0.0.0.0.40.50.85.85.0.0_t00_pb_pc_pd_pe_ga0_gb1_gc25.0_ge0000000000_gh_gf_gg_gd10000000_ha87.87_hb50.1.61.99_hc1.38.16.1.38.16_hd1.1.47.27_ia_if_ib_id_ic_jc_ie_ja_jb_jd_je_jf_jg_ka_kb_kc_kd_ke_kf_la_lb_oa_os_ob_oc_od_oe_of_lc_m00_n00_s00_og_oh_oo_op_oq_or_om_on_ok_ol_oi_oj_ad0.0.0.0.0.0.0.0.0.0

3-happy=47**aa12.100.0.16.43.21.43.0.16.53_ab_ac_ba50_bb8.1_bc502.500.8.0.1_bd5_be180_ca53.0.42.79.17.38.44.30.39_cb0_da1.0.0.100_db_dd9.3.0.15.38.45_dh1.30.50.50.0_di5_qa_qb_dc0.4.1.1.1_eh_ea31.55.55.56.0.0_ec20.19.55.55.56.16.58.1_ed17.87.1.1.55.56_ef3.2.31.201F26.201F26.55_eg3.2.31.201F26.201F26.55_r0048.55.55.56.0.1.0.0.0.602.358.1_r0347.55.55.56.0.1.54.100.0.584.478.0_r0454.55.55.56.1.2.-30.-20.13.524.590.0_r0554.55.55.56.1.2.-30.-25.0.522.588.0_r0625.e6b422.E6B422.56.0.2.18.0.98.594.392.0_fa12.69.65.49.40.36.56_fb_fh3_fc1.7AAFE7.55.1.7AAFE7.55.51.61.61.51.50.50_fd1.0.26.56.56_fe50.73_ff0000000000_fg0.60_pa0.0.0.0.40.50.85.85.0.0_t00_pb_pc_pd_pe_ga0_gb1_gc25.0_ge0000000000_gh_gf_gg_gd10000000_ha87.87_hb50.1.61.99_hc1.25.0.1.25.0_hd25.1.48.61_ia_if_ib_id_ic_jc_ie_ja_jb_jd_je_jf_jg_ka_kb_kc_kd_ke_kf_la_lb_oa_os_ob_oc_od_oe_of_lc_m00_n00_s00_og_oh_oo_op_oq_or_om_on_ok_ol_oi_oj_ad0.0.0.0.0.0.0.0.0.0

3-sad=47**aa13.57.0.16.40.13.57.0.16.40_ab_ac_ba50_bb7.1_bc502.500.8.0.1_bd5_be180_ca53.0.42.79.17.38.44.30.39_cb0_da1.0.0.100_db_dd9.3.0.15.38.45_dh1.30.50.50.0_di5_qa_qb_dc0.4.1.1.1_eh_ea31.55.55.56.0.0_ec20.19.55.55.56.16.58.1_ed17.87.1.1.55.56_ef3.2.31.201F26.201F26.55_eg3.2.31.201F26.201F26.55_r0048.55.55.56.0.1.0.0.0.602.358.1_r0347.55.55.56.0.1.54.100.0.584.478.0_r0454.55.55.56.1.2.-30.-20.13.524.590.0_r0554.55.55.56.1.2.-30.-25.0.522.588.0_r0625.e6b422.E6B422.56.0.2.18.0.98.594.392.0_fa12.69.65.49.40.36.56_fb_fh3_fc1.7AAFE7.55.1.7AAFE7.55.51.61.61.51.50.50_fd1.0.26.56.56_fe50.67_ff0000000000_fg0.53_pa0.0.0.0.40.50.85.85.0.0_t00_pb_pc_pd_pe_ga0_gb1_gc25.0_ge0000000000_gh_gf_gg_gd11000000_ha87.87_hb50.1.61.99_hc3.66.49.3.66.49_hd22.1.47.47_ia_if_ib_id_ic_jc_ie_ja_jb_jd_je_jf_jg_ka_kb_kc_kd_ke_kf_la_lb_oa_os_ob_oc_od_oe_of_lc_m00_n00_s00_og_oh_oo_op_oq_or_om_on_ok_ol_oi_oj_ad0.0.0.0.0.0.0.0.0.0

3-angry=47**aa7.71.1.16.39.7.71.1.16.51_ab_ac_ba50_bb7.1_bc502.500.2.0.1_bd7_be180_ca53.0.42.79.17.38.44.30.39_cb0_da1.0.0.100_db_dd9.3.0.15.38.45_dh1.30.50.50.0_di5_qa_qb_dc0.4.1.1.1_eh_ea31.55.55.56.0.0_ec20.19.55.55.56.16.58.1_ed17.87.1.1.55.56_ef3.2.31.201F26.201F26.55_eg3.2.31.201F26.201F26.55_r0048.55.55.56.0.1.0.0.0.602.358.1_r0347.55.55.56.0.1.54.100.0.584.478.0_r0454.55.55.56.1.2.-30.-20.13.524.590.0_r0554.55.55.56.1.2.-30.-25.0.522.588.0_r0625.e6b422.E6B422.56.0.2.18.0.98.594.392.0_fa12.69.65.49.40.36.56_fb_fh3_fc1.7AAFE7.55.1.7AAFE7.55.51.61.61.51.50.50_fd1.0.0.56.56_fe50.73_ff0000000000_fg0.60_pa0.0.0.0.40.50.85.85.0.0_t00_pb_pc_pd_pe_ga0_gb1_gc25.0_ge0100000000_gh_gf_gg_gd10000000_ha25.25_hb50.1.61.99_hc2.22.0.2.22.0_hd43.1.47.60_ia_if_ib_id_ic_jc_ie_ja_jb_jd_je_jf_jg_ka_kb_kc_kd_ke_kf_la_lb_oa_os_ob_oc_od_oe_of_lc_m00_n00_s00_og_oh_oo_op_oq_or_om_on_ok_ol_oi_oj_ad0.0.0.0.0.0.0.0.0.0

3-confident=47**aa31.75.0.0.94.31.75.0.0.94_ab_ac_ba50_bb7.1_bc502.500.2.0.1_bd7_be180_ca53.0.42.79.17.38.44.30.39_cb0_da1.0.0.100_db_dd9.3.0.15.38.45_dh1.30.50.50.0_di5_qa_qb_dc0.4.1.1.1_eh_ea31.55.55.56.0.0_ec20.19.55.55.56.16.58.1_ed17.87.1.1.55.56_ef3.2.31.201F26.201F26.55_eg3.2.31.201F26.201F26.55_r0048.55.55.56.0.1.0.0.0.602.358.1_r0347.55.55.56.0.1.54.100.0.584.478.0_r0454.55.55.56.1.2.-30.-20.13.524.590.0_r0554.55.55.56.1.2.-30.-25.0.522.588.0_r0625.e6b422.E6B422.56.0.2.18.0.98.594.392.0_fa12.69.65.49.40.36.56_fb_fh3_fc1.7AAFE7.55.1.7AAFE7.55.51.61.61.51.50.50_fd1.0.26.56.56_fe50.73_ff0000000000_fg0.60_pa0.0.0.0.40.50.85.85.0.0_t00_pb_pc_pd_pe_ga0_gb1_gc25.0_ge0000000000_gh_gf_gg_gd10000000_ha87.87_hb50.1.61.99_hc1.22.0.1.22.0_hd24.1.47.31_ia_if_ib_id_ic_jc_ie_ja_jb_jd_je_jf_jg_ka_kb_kc_kd_ke_kf_la_lb_oa_os_ob_oc_od_oe_of_lc_m00_n00_s00_og_oh_oo_op_oq_or_om_on_ok_ol_oi_oj_ad0.0.0.0.0.0.0.0.0.0

3-embarrassed=47**aa9.88.1.28.65.9.88.1.28.65_ab_ac_ba49_bb2.1_bc502.500.2.0.1_bd0_be181_ca53.0.42.79.17.38.44.30.39_cb0_da1.0.0.100_db_dd10.3.0.15.38.45_dh1.30.50.50.0_di5_qa_qb_dc0.4.1.1.1_eh_ea31.55.55.56.0.0_ec20.19.55.55.56.16.58.1_ed17.87.1.1.55.56_ef3.2.31.201F26.201F26.55_eg3.2.31.201F26.201F26.55_r0048.55.55.56.0.1.0.0.13.602.358.1_r0347.55.55.56.0.1.54.100.0.584.478.0_r0454.55.55.56.1.2.-30.-20.13.524.590.0_r0554.55.55.56.1.2.-30.-25.0.522.588.0_r0625.e6b422.E6B422.56.0.2.18.0.98.594.392.0_fa12.69.65.49.40.36.56_fb_fh3_fc1.7AAFE7.55.1.7AAFE7.55.51.61.61.51.50.50_fd1.0.26.56.56_fe50.73_ff0000000000_fg0.60_pa0.0.0.0.40.50.85.85.0.0_t00_pb_pc_pd_pe_ga0_gb1_gc34.0_ge0000000000_gh_gf_gg_gd10000000_ha87.87_hb54.1.61.99_hc3.75.55.3.75.55_hd22.1.47.62_ia_if_ib_id_ic_jc_ie_ja_jb_jd_je_jf_jg_ka_kb_kc_kd_ke_kf_la_lb_oa_os_ob_oc_od_oe_of_lc_m00_n00_s00_og_oh_oo_op_oq_or_om_on_ok_ol_oi_oj_ad0.0.0.0.0.0.0.0.0.0

3-interested=47**aa10.93.0.0.50.10.93.0.0.50_ab_ac_ba50_bb1.1_bc502.500.2.0.1_bd0_be180_ca53.0.42.79.17.38.44.30.39_cb0_da1.0.0.100_db_dd10.3.0.15.38.45_dh1.30.50.50.0_di5_qa_qb_dc0.4.1.1.1_eh_ea31.55.55.56.0.0_ec20.19.55.55.56.16.58.1_ed17.87.1.1.55.56_ef3.2.31.201F26.201F26.55_eg3.2.31.201F26.201F26.55_r0048.55.55.56.0.1.0.0.0.602.358.1_r0347.55.55.56.0.1.54.100.0.584.478.0_r0454.55.55.56.1.2.-30.-20.13.524.590.0_r0554.55.55.56.1.2.-30.-25.0.522.588.0_r0625.e6b422.E6B422.56.0.2.18.0.98.594.392.0_fa12.69.65.49.40.36.56_fb_fh3_fc1.7AAFE7.55.1.7AAFE7.55.51.61.61.51.50.50_fd1.0.26.56.56_fe50.73_ff0000000000_fg0.60_pa0.0.0.0.40.50.85.85.0.0_t00_pb_pc_pd_pe_ga0_gb1_gc25.0_ge0000000000_gh_gf_gg_gd10000000_ha87.87_hb50.1.61.99_hc0.51.36.0.51.36_hd22.1.42.29_ia_if_ib_id_ic_jc_ie_ja_jb_jd_je_jf_jg_ka_kb_kc_kd_ke_kf_la_lb_oa_os_ob_oc_od_oe_of_lc_m00_n00_s00_og_oh_oo_op_oq_or_om_on_ok_ol_oi0.60.60.0.0_oj0.60.60.0.0_ad0.0.0.0.0.0.0.0.0.0

3-shocked=47**aa9.100.0.0.47.9.100.0.0.47_ab_ac_ba50_bb7.0_bc502.500.2.0.1_bd3_be180_ca53.0.42.79.17.38.44.30.39_cb0_da1.0.0.100_db_dd10.3.0.15.38.45_dh1.30.50.50.0_di5_qa_qb_dc0.4.1.1.1_eh_ea31.55.55.56.0.0_ec20.19.55.55.56.16.58.1_ed17.87.1.1.55.56_ef3.2.31.201F26.201F26.55_eg3.2.31.201F26.201F26.55_r0048.55.55.56.0.1.0.0.0.602.358.1_r0347.55.55.56.0.1.54.100.0.584.478.0_r0454.55.55.56.1.2.-30.-20.13.524.590.0_r0554.55.55.56.1.2.-30.-25.0.522.588.0_r0625.e6b422.E6B422.56.0.2.18.0.98.594.392.0_fa12.69.65.49.40.36.56_fb_fh3_fc1.7AAFE7.55.1.7AAFE7.55.51.61.61.51.50.50_fd1.0.26.56.56_fe50.73_ff0000000000_fg0.60_pa0.0.0.0.40.50.85.85.0.0_t00_pb_pc_pd_pe_ga0_gb1_gc32.0_ge0000000000_gh_gf_gg_gd10000000_ha90.90_hb50.1.61.99_hc0.75.41.0.75.41_hd36.1.63.49_ia_if_ib_id_ic_jc_ie_ja_jb_jd_je_jf_jg_ka_kb_kc_kd_ke_kf_la_lb_oa_os_ob_oc_od_oe_of_lc_m00_n00_s00_og_oh_oo_op_oq_or_om_on_ok_ol_oi_oj_ad0.0.0.0.0.0.0.0.0.0


#Masturbating


#Finished


5-finished=47**aa10.91.0.28.76.10.91.0.28.76_ab_ac_ba48_bb3.0_bc502.500.0.0.1_bd0_be180_ca53.0.42.79.17.38.44.30.39_cb0_da1.0.0.100_db_dd13.3.0.15.38.45_dh1.30.50.50.0_di5_qa_qb_dc96.4.1.1.1_eh_ea31.55.55.56.0.0_ec20.19.55.55.56.16.58.1_ed17.87.1.1.55.56_ef3.2.31.201F26.201F26.55_eg3.2.31.201F26.201F26.55_r0048.55.55.56.0.1.0.0.0.602.358.1_r0347.55.55.56.0.1.54.100.0.584.478.0_r0454.55.55.56.1.2.-30.-20.13.524.590.0_r0554.55.55.56.1.2.-30.-25.0.522.588.0_r0625.e6b422.E6B422.56.0.2.18.0.98.594.392.0_fa12.69.65.49.40.36.56_fb_fh3_fc1.7AAFE7.55.1.7AAFE7.55.51.61.61.51.50.50_fd1.0.26.56.56_fe50.73_ff0000000000_fg0.60_pa0.0.0.0.40.50.85.85.0.0_t00_pb_pc_pd_pe_ga0_gb1_gc36.0_ge0000000000_gh_gf_gg_gd11000000_ha91.91_hb54.1.61.99_hc3.79.60.3.79.60_hd38.1.65.53_ia_if_ib_id_ic_jc_ie_ja_jb_jd_je_jf_jg_ka_kb_kc_kd_ke_kf_la_lb_oa_os_ob_oc_od_oe_of_lc_m00_n00_s00_og_oh_oo_op_oq_or_om_on_ok_ol_oi_oj_ad0.0.0.0.0.0.0.0.0.0

5-calm=47**aa9.100.0.0.48.9.100.0.0.48_ab_ac_ba50_bb6.0_bc502.500.2.0.1_bd6_be180_ca53.0.42.79.17.38.44.30.39_cb0_da1.0.0.100_db_dd9.3.0.15.38.45_dh1.30.50.50.0_di5_qa_qb_dc96.4.1.1.1_eh_ea31.55.55.56.0.0_ec20.19.55.55.56.16.58.1_ed17.87.1.1.55.56_ef3.2.31.201F26.201F26.55_eg3.2.31.201F26.201F26.55_r0048.55.55.56.0.1.0.0.0.602.358.1_r0347.55.55.56.0.1.54.100.0.584.478.0_r0454.55.55.56.1.2.-30.-20.13.524.590.0_r0554.55.55.56.1.2.-30.-25.0.522.588.0_r0625.e6b422.E6B422.56.0.2.18.0.98.594.392.0_fa12.69.65.49.40.36.56_fb_fh3_fc1.7AAFE7.55.1.7AAFE7.55.51.61.61.51.50.50_fd1.0.26.56.56_fe50.73_ff0000000000_fg0.60_pa0.0.0.0.40.50.85.85.0.0_t00_pb_pc_pd_pe_ga0_gb1_gc25.0_ge0000000000_gh_gf_gg_gd10000000_ha87.87_hb50.1.61.99_hc0.42.24.0.42.24_hd35.1.47.100_ia_if_ib_id_ic_jc_ie_ja_jb_jd_je_jf_jg_ka_kb_kc_kd_ke_kf_la_lb_oa_os_ob_oc_od_oe_of_lc_m00_n00_s00_og_oh_oo_op_oq_or_om_on_ok_ol_oi_oj_ad0.0.0.0.0.0.0.0.0.0

5-happy=47**aa12.100.0.16.43.21.43.0.16.53_ab_ac_ba50_bb8.0_bc502.500.5.0.1_bd5_be180_ca53.0.42.79.17.38.44.30.39_cb0_da1.0.0.100_db_dd9.3.0.15.38.45_dh1.30.50.50.0_di5_qa_qb_dc96.4.1.1.1_eh_ea31.55.55.56.0.0_ec20.19.55.55.56.16.58.1_ed17.87.1.1.55.56_ef3.2.31.201F26.201F26.55_eg3.2.31.201F26.201F26.55_r0048.55.55.56.0.1.0.0.0.602.358.1_r0347.55.55.56.0.1.54.100.0.584.478.0_r0454.55.55.56.1.2.-30.-20.13.524.590.0_r0554.55.55.56.1.2.-30.-25.0.522.588.0_r0625.e6b422.E6B422.56.0.2.18.0.98.594.392.0_fa12.69.65.49.40.36.56_fb_fh3_fc1.7AAFE7.55.1.7AAFE7.55.51.61.61.51.50.50_fd1.0.26.56.56_fe50.73_ff0000000000_fg0.60_pa0.0.0.0.40.50.85.85.0.0_t00_pb_pc_pd_pe_ga0_gb1_gc25.0_ge0000000000_gh_gf_gg_gd10000000_ha87.87_hb50.1.61.99_hc1.25.0.1.25.0_hd25.1.48.61_ia_if_ib_id_ic_jc_ie_ja_jb_jd_je_jf_jg_ka_kb_kc_kd_ke_kf_la_lb_oa_os_ob_oc_od_oe_of_lc_m00_n00_s00_og_oh_oo_op_oq_or_om_on_ok_ol_oi_oj_ad0.0.0.0.0.0.0.0.0.0

5-sad=47**aa13.57.0.16.43.13.57.0.16.43_ab_ac_ba50_bb7.1_bc502.500.2.0.1_bd5_be180_ca53.0.42.79.17.38.44.30.39_cb0_da1.0.0.100_db_dd9.3.0.15.38.45_dh1.30.50.50.0_di5_qa_qb_dc96.4.1.1.1_eh_ea31.55.55.56.0.0_ec20.19.55.55.56.16.58.1_ed17.87.1.1.55.56_ef3.2.31.201F26.201F26.55_eg3.2.31.201F26.201F26.55_r0048.55.55.56.0.1.0.0.0.602.358.1_r0347.55.55.56.0.1.54.100.0.584.478.0_r0454.55.55.56.1.2.-30.-20.13.524.590.0_r0554.55.55.56.1.2.-30.-25.0.522.588.0_r0625.e6b422.E6B422.56.0.2.18.0.98.594.392.0_fa12.69.65.49.40.36.56_fb_fh3_fc1.7AAFE7.55.1.7AAFE7.55.51.61.61.51.50.50_fd1.0.26.56.56_fe50.67_ff0000000000_fg0.53_pa0.0.0.0.40.50.85.85.0.0_t00_pb_pc_pd_pe_ga0_gb1_gc25.0_ge0000000000_gh_gf_gg_gd11000000_ha87.87_hb50.1.61.99_hc3.66.49.3.66.49_hd22.1.47.47_ia_if_ib_id_ic_jc_ie_ja_jb_jd_je_jf_jg_ka_kb_kc_kd_ke_kf_la_lb_oa_os_ob_oc_od_oe_of_lc_m00_n00_s00_og_oh_oo_op_oq_or_om_on_ok_ol_oi_oj_ad0.0.0.0.0.0.0.0.0.0

5-angry=47**aa7.71.1.16.39.7.71.1.16.51_ab_ac_ba50_bb7.1_bc502.500.2.0.1_bd7_be180_ca53.0.42.79.17.38.44.30.39_cb0_da1.0.0.100_db_dd9.3.0.15.38.45_dh1.30.50.50.0_di5_qa_qb_dc96.4.1.1.1_eh_ea31.55.55.56.0.0_ec20.19.55.55.56.16.58.1_ed17.87.1.1.55.56_ef3.2.31.201F26.201F26.55_eg3.2.31.201F26.201F26.55_r0048.55.55.56.0.1.0.0.0.602.358.1_r0347.55.55.56.0.1.54.100.0.584.478.0_r0454.55.55.56.1.2.-30.-20.13.524.590.0_r0554.55.55.56.1.2.-30.-25.0.522.588.0_r0625.e6b422.E6B422.56.0.2.18.0.98.594.392.0_fa12.69.65.49.40.36.56_fb_fh3_fc1.7AAFE7.55.1.7AAFE7.55.51.61.61.51.50.50_fd1.0.26.56.56_fe50.73_ff0000000000_fg0.60_pa0.0.0.0.40.50.85.85.0.0_t00_pb_pc_pd_pe_ga0_gb1_gc25.0_ge0100000000_gh_gf_gg_gd10000000_ha25.25_hb50.1.61.99_hc2.22.0.2.22.0_hd43.1.47.60_ia_if_ib_id_ic_jc_ie_ja_jb_jd_je_jf_jg_ka_kb_kc_kd_ke_kf_la_lb_oa_os_ob_oc_od_oe_of_lc_m00_n00_s00_og_oh_oo_op_oq_or_om_on_ok_ol_oi_oj_ad0.0.0.0.0.0.0.0.0.0

5-confident=47**aa31.75.0.0.94.31.75.0.0.94_ab_ac_ba50_bb7.1_bc502.500.2.0.1_bd7_be180_ca53.0.42.79.17.38.44.30.39_cb0_da1.0.0.100_db_dd9.3.0.15.38.45_dh1.30.50.50.0_di5_qa_qb_dc96.4.1.1.1_eh_ea31.55.55.56.0.0_ec20.19.55.55.56.16.58.1_ed17.87.1.1.55.56_ef3.2.31.201F26.201F26.55_eg3.2.31.201F26.201F26.55_r0048.55.55.56.0.1.0.0.0.602.358.1_r0347.55.55.56.0.1.54.100.0.584.478.0_r0454.55.55.56.1.2.-30.-20.13.524.590.0_r0554.55.55.56.1.2.-30.-25.0.522.588.0_r0625.e6b422.E6B422.56.0.2.18.0.98.594.392.0_fa12.69.65.49.40.36.56_fb_fh3_fc1.7AAFE7.55.1.7AAFE7.55.51.61.61.51.50.50_fd1.0.26.56.56_fe50.73_ff0000000000_fg0.60_pa0.0.0.0.40.50.85.85.0.0_t00_pb_pc_pd_pe_ga0_gb1_gc25.0_ge0000000000_gh_gf_gg_gd10000000_ha87.87_hb50.1.61.99_hc1.22.0.1.22.0_hd24.1.47.31_ia_if_ib_id_ic_jc_ie_ja_jb_jd_je_jf_jg_ka_kb_kc_kd_ke_kf_la_lb_oa_os_ob_oc_od_oe_of_lc_m00_n00_s00_og_oh_oo_op_oq_or_om_on_ok_ol_oi_oj_ad0.0.0.0.0.0.0.0.0.0

5-embarrassed=47**aa9.88.1.28.65.9.88.1.28.65_ab_ac_ba49_bb2.1_bc502.500.2.0.1_bd0_be181_ca53.0.42.79.17.38.44.30.39_cb0_da1.0.0.100_db_dd10.3.0.15.38.45_dh1.30.50.50.0_di5_qa_qb_dc96.4.1.1.1_eh_ea31.55.55.56.0.0_ec20.19.55.55.56.16.58.1_ed17.87.1.1.55.56_ef3.2.31.201F26.201F26.55_eg3.2.31.201F26.201F26.55_r0048.55.55.56.0.1.0.0.13.602.358.1_r0347.55.55.56.0.1.54.100.0.584.478.0_r0454.55.55.56.1.2.-30.-20.13.524.590.0_r0554.55.55.56.1.2.-30.-25.0.522.588.0_r0625.e6b422.E6B422.56.0.2.18.0.98.594.392.0_fa12.69.65.49.40.36.56_fb_fh3_fc1.7AAFE7.55.1.7AAFE7.55.51.61.61.51.50.50_fd1.0.26.56.56_fe50.73_ff0000000000_fg0.60_pa0.0.0.0.40.50.85.85.0.0_t00_pb_pc_pd_pe_ga0_gb1_gc34.0_ge0000000000_gh_gf_gg_gd10000000_ha87.87_hb54.1.61.99_hc3.75.55.3.75.55_hd22.1.47.62_ia_if_ib_id_ic_jc_ie_ja_jb_jd_je_jf_jg_ka_kb_kc_kd_ke_kf_la_lb_oa_os_ob_oc_od_oe_of_lc_m00_n00_s00_og_oh_oo_op_oq_or_om_on_ok_ol_oi_oj_ad0.0.0.0.0.0.0.0.0.0

5-interested=47**aa10.93.0.0.50.10.93.0.0.50_ab_ac_ba50_bb1.1_bc502.500.2.0.1_bd0_be180_ca53.0.42.79.17.38.44.30.39_cb0_da1.0.0.100_db_dd10.3.0.15.38.45_dh1.30.50.50.0_di5_qa_qb_dc96.4.1.1.1_eh_ea31.55.55.56.0.0_ec20.19.55.55.56.16.58.1_ed17.87.1.1.55.56_ef3.2.31.201F26.201F26.55_eg3.2.31.201F26.201F26.55_r0048.55.55.56.0.1.0.0.0.602.358.1_r0347.55.55.56.0.1.54.100.0.584.478.0_r0454.55.55.56.1.2.-30.-20.13.524.590.0_r0554.55.55.56.1.2.-30.-25.0.522.588.0_r0625.e6b422.E6B422.56.0.2.18.0.98.594.392.0_fa12.69.65.49.40.36.56_fb_fh3_fc1.7AAFE7.55.1.7AAFE7.55.51.61.61.51.50.50_fd1.0.26.56.56_fe50.73_ff0000000000_fg0.60_pa0.0.0.0.40.50.85.85.0.0_t00_pb_pc_pd_pe_ga0_gb1_gc25.0_ge0000000000_gh_gf_gg_gd10000000_ha87.87_hb50.1.61.99_hc0.51.36.0.51.36_hd22.1.42.29_ia_if_ib_id_ic_jc_ie_ja_jb_jd_je_jf_jg_ka_kb_kc_kd_ke_kf_la_lb_oa_os_ob_oc_od_oe_of_lc_m00_n00_s00_og_oh_oo_op_oq_or_om_on_ok_ol_oi_oj_ad0.0.0.0.0.0.0.0.0.0

5-shocked=47**aa9.100.0.0.47.9.100.0.0.47_ab_ac_ba50_bb7.0_bc502.500.2.0.1_bd3_be180_ca53.0.42.79.17.38.44.30.39_cb0_da1.0.0.100_db_dd10.3.0.15.38.45_dh1.30.50.50.0_di5_qa_qb_dc96.4.1.1.1_eh_ea31.55.55.56.0.0_ec20.19.55.55.56.16.58.1_ed17.87.1.1.55.56_ef3.2.31.201F26.201F26.55_eg3.2.31.201F26.201F26.55_r0048.55.55.56.0.1.0.0.0.602.358.1_r0347.55.55.56.0.1.54.100.0.584.478.0_r0454.55.55.56.1.2.-30.-20.13.524.590.0_r0554.55.55.56.1.2.-30.-25.0.522.588.0_r0625.e6b422.E6B422.56.0.2.18.0.98.594.392.0_fa12.69.65.49.40.36.56_fb_fh3_fc1.7AAFE7.55.1.7AAFE7.55.51.61.61.51.50.50_fd1.0.26.56.56_fe50.73_ff0000000000_fg0.60_pa0.0.0.0.40.50.85.85.0.0_t00_pb_pc_pd_pe_ga0_gb1_gc32.0_ge0000000000_gh_gf_gg_gd10000000_ha90.90_hb50.1.61.99_hc0.75.41.0.75.41_hd36.1.63.49_ia_if_ib_id_ic_jc_ie_ja_jb_jd_je_jf_jg_ka_kb_kc_kd_ke_kf_la_lb_oa_os_ob_oc_od_oe_of_lc_m00_n00_s00_og_oh_oo_op_oq_or_om_on_ok_ol_oi_oj_ad0.0.0.0.0.0.0.0.0.0



1-stripped=47***aa31.75.0.0.98.31.75.0.0.98_ab_ac_ba50_bb7.1_bc185.500.7.5.1_bd18_be180_ca53.0.42.79.17.38.44.30.39_cb0_da1.0.0.100_db_dd9.3.0.15.38.45_dh1.30.50.50.0_di5_qa_qb_dc0.1.1.1.1_eh_ea31.55.55.56.0.0_ec20.19.55.55.56.16.58.1_ed17.87.1.1.55.56_ef3.2.31.201F26.201F26.55_eg3.2.31.201F26.201F26.55_r0048.55.55.56.0.1.0.0.11.602.358.1_r0347.55.55.56.0.1.54.100.0.584.478.0_r0454.55.55.56.1.2.-30.-20.13.524.590.0_r0554.55.55.56.1.2.-30.-25.0.522.588.0_r0625.e6b422.E6B422.56.0.2.18.0.98.594.392.0_fa12.69.65.49.40.36.56_fb_fh3_fc1.7AAFE7.55.1.7AAFE7.55.51.61.61.51.50.50_fd1.0.26.56.56_fe50.73_ff0000000000_fg0.60_pa0.0.0.0.40.50.85.85.0.0_t00_pb_pc_pd_pe_ga0_gb1_gc0.0_ge0000000000_gh_gf_gg_gd10000000_ha87.87_hb50.1.61.99_hc0.10.23.0.10.23_hd35.1.47.100_ia_if_ib_id_ic_jc_ie_ja_jb_jd_je_jf_jg_ka9.6F2B8C.30074C.55.0_kb9.6F2B8C.30074C.55_kc_kd_ke_kf_la_lb_oa_os_ob_oc_od_oe_of_lc_m00_n00_s00_og_oh_oo_op_oq_or_om_on_ok_ol_oi_oj_ad0.0.0.0.0.0.0.0.0.0*0*0*0*0*0*0*0*0#/]a00_b00_c00_d00_w00_x00_e00_y00_z00_ua1.0.0.0.100_uf0.3.0.0_ue_ub_u0_v0_uc7.0.30_ud7.8

0-excited=47***aa42.33.0.16.51.71.18.0.16.61_ab_ac_ba50_bb93.1_bc185.500.8.5.1_bd16_be180_ca53.0.42.79.17.38.44.30.39_cb0_da1.0.0.100_db_dd9.3.0.15.38.45_dh1.30.50.50.0_di5_qa_qb_dc0.1.1.1.1_eh_ea31.55.55.56.0.0_ec20.19.55.55.56.16.58.1_ed17.87.1.1.55.56_ef3.2.31.201F26.201F26.55_eg3.2.31.201F26.201F26.55_r0048.55.55.56.0.1.0.0.11.602.358.1_r0347.55.55.56.0.1.54.100.0.584.478.0_r0454.55.55.56.1.2.-30.-20.13.524.590.0_r0554.55.55.56.1.2.-30.-25.0.522.588.0_r0625.e6b422.E6B422.56.0.2.18.0.98.594.392.0_fa12.69.65.49.40.36.56_fb_fh3_fc1.7AAFE7.55.1.7AAFE7.55.51.61.61.51.50.50_fd1.0.26.56.56_fe50.73_ff0000000000_fg0.60_pa0.0.0.0.40.50.85.85.0.0_t00_pb_pc_pd_pe_ga0_gb1_gc0.0_ge0000000000_gh_gf_gg_gd10000000_ha92.92_hb54.1.61.99_hc0.14.38.0.14.38_hd25.1.56.69_ia_if_ib_id_ic_jc_ie_ja_jb_jd2.6F2B8C.6F2B8C.21_je2.6F2B8C.6F2B8C.21_jf_jg_ka9.6F2B8C.30074C.55.0_kb9.6F2B8C.30074C.55_kc_kd_ke_kf_la_lb_oa_os_ob_oc_od_oe_of_lc_m00_n00_s00_og_oh_oo_op_oq_or_om_on_ok_ol_oi_oj_ad0.0.0.0.0.0.0.0.0.0*0*0*0*0*0*0*0*0#/]a00_b00_c00_d00_w00_x00_e00_y00_z00_ua1.0.0.0.100_uf0.3.0.0_ue_ub_u0_v0_uc7.0.30_ud7.8

1-excited=47**aa42.33.0.16.51.71.18.0.16.61_ab_ac_ba50_bb16.0_bc185.500.8.5.1_bd93_be180_ca53.0.42.79.17.38.44.30.39_cb0_da1.0.0.100_db_dd9.3.0.15.38.45_dh1.30.50.50.0_di5_qa_qb_dc0.1.1.1.1_eh_ea31.55.55.56.0.0_ec20.19.55.55.56.16.58.1_ed17.87.1.1.55.56_ef3.2.31.201F26.201F26.55_eg3.2.31.201F26.201F26.55_r0048.55.55.56.0.1.0.0.11.602.358.1_r0347.55.55.56.0.1.54.100.0.584.478.0_r0454.55.55.56.1.2.-30.-20.13.524.590.0_r0554.55.55.56.1.2.-30.-25.0.522.588.0_r0625.e6b422.E6B422.56.0.2.18.0.98.594.392.0_fa12.69.65.49.40.36.56_fb_fh3_fc1.7AAFE7.55.1.7AAFE7.55.51.61.61.51.50.50_fd1.0.26.56.56_fe50.73_ff0000000000_fg0.60_pa0.0.0.0.40.50.85.85.0.0_t00_pb_pc_pd_pe_ga0_gb1_gc0.0_ge0000000000_gh_gf_gg_gd10000000_ha92.92_hb54.1.61.99_hc0.14.38.0.14.38_hd25.1.56.69_ia_if_ib_id_ic_jc_ie_ja_jb_jd_je_jf_jg_ka9.6F2B8C.30074C.55.0_kb9.6F2B8C.30074C.55_kc_kd_ke_kf_la_lb_oa_os_ob_oc_od_oe_of_lc_m00_n00_s00_og_oh_oo_op_oq_or_om_on_ok_ol_oi_oj_ad0.0.0.0.0.0.0.0.0.0

2-excited=47**aa42.33.0.16.51.71.18.0.16.61_ab_ac_ba50_bb16.0_bc185.500.8.5.1_bd93_be180_ca53.0.42.79.17.38.44.30.39_cb0_da1.0.0.100_db_dd9.3.0.15.38.45_dh1.30.50.50.0_di5_qa_qb_dc0.1.1.1.1_eh_ea31.55.55.56.0.0_ec20.19.55.55.56.16.58.1_ed17.87.1.1.55.56_ef3.2.31.201F26.201F26.55_eg3.2.31.201F26.201F26.55_r0048.55.55.56.0.1.0.0.13.602.358.1_r0347.55.55.56.0.1.54.100.0.584.478.0_r0454.55.55.56.1.2.-30.-20.13.524.590.0_r0554.55.55.56.1.2.-30.-25.0.522.588.0_r0625.e6b422.E6B422.56.0.2.18.0.98.594.392.0_fa12.69.65.49.40.36.56_fb_fh3_fc1.7AAFE7.55.1.7AAFE7.55.51.61.61.51.50.50_fd1.0.26.56.56_fe50.73_ff0000000000_fg0.60_pa0.0.0.0.40.50.85.85.0.0_t00_pb_pc_pd_pe_ga0_gb1_gc14.0_ge0000000000_gh_gf_gg_gd10000000_ha92.92_hb54.1.61.99_hc0.14.38.0.14.38_hd25.1.56.69_ia_if_ib_id_ic_jc_ie_ja_jb_jd_je_jf_jg_ka_kb9.6F2B8C.30074C.55_kc_kd_ke_kf_la_lb_oa_os_ob_oc_od_oe_of_lc_m00_n00_s00_og_oh_oo_op_oq_or_om_on_ok_ol_oi_oj_ad0.0.0.0.0.0.0.0.0.0

3-excited=47**aa42.33.0.16.51.71.18.0.16.61_ab_ac_ba50_bb16.0_bc502.500.8.5.1_bd93_be180_ca53.0.42.79.17.38.44.30.39_cb0_da1.0.0.100_db_dd9.3.0.15.38.45_dh1.30.50.50.0_di5_qa_qb_dc0.4.1.1.1_eh_ea31.55.55.56.0.0_ec20.19.55.55.56.16.58.1_ed17.87.1.1.55.56_ef3.2.31.201F26.201F26.55_eg3.2.31.201F26.201F26.55_r0048.55.55.56.0.1.0.0.0.602.358.1_r0347.55.55.56.0.1.54.100.0.584.478.0_r0454.55.55.56.1.2.-30.-20.13.524.590.0_r0554.55.55.56.1.2.-30.-25.0.522.588.0_r0625.e6b422.E6B422.56.0.2.18.0.98.594.392.0_fa12.69.65.49.40.36.56_fb_fh3_fc1.7AAFE7.55.1.7AAFE7.55.51.61.61.51.50.50_fd1.0.26.56.56_fe50.73_ff0000000000_fg0.60_pa0.0.0.0.40.50.85.85.0.0_t00_pb_pc_pd_pe_ga0_gb1_gc25.0_ge0000000000_gh_gf_gg_gd10000000_ha92.92_hb54.1.61.99_hc0.14.38.0.14.38_hd25.1.56.69_ia_if_ib_id_ic_jc_ie_ja_jb_jd_je_jf_jg_ka_kb_kc_kd_ke_kf_la_lb_oa_os_ob_oc_od_oe_of_lc_m00_n00_s00_og_oh_oo_op_oq_or_om_on_ok_ol_oi_oj_ad0.0.0.0.0.0.0.0.0.0

5-excited=47**aa42.33.0.16.51.71.18.0.16.61_ab_ac_ba50_bb16.0_bc502.500.2.5.1_bd93_be180_ca53.0.42.79.17.38.44.30.39_cb0_da1.0.0.100_db_dd9.3.0.15.38.45_dh1.30.50.50.0_di5_qa_qb_dc96.4.1.1.1_eh_ea31.55.55.56.0.0_ec20.19.55.55.56.16.58.1_ed17.87.1.1.55.56_ef3.2.31.201F26.201F26.55_eg3.2.31.201F26.201F26.55_r0048.55.55.56.0.1.0.0.0.602.358.1_r0347.55.55.56.0.1.54.100.0.584.478.0_r0454.55.55.56.1.2.-30.-20.13.524.590.0_r0554.55.55.56.1.2.-30.-25.0.522.588.0_r0625.e6b422.E6B422.56.0.2.18.0.98.594.392.0_fa12.69.65.49.40.36.56_fb_fh3_fc1.7AAFE7.55.1.7AAFE7.55.51.61.61.51.50.50_fd1.0.26.56.56_fe50.73_ff0000000000_fg0.60_pa0.0.0.0.40.50.85.85.0.0_t00_pb_pc_pd_pe_ga0_gb1_gc25.0_ge0000000000_gh_gf_gg_gd10000000_ha92.92_hb54.1.61.99_hc0.14.38.0.14.38_hd25.1.56.69_ia_if_ib_id_ic_jc_ie_ja_jb_jd_je_jf_jg_ka_kb_kc_kd_ke_kf_la_lb_oa_os_ob_oc_od_oe_of_lc_m00_n00_s00_og_oh_oo_op_oq_or_om_on_ok_ol_oi_oj_ad0.0.0.0.0.0.0.0.0.0

0-strip=47***aa18.91.0.3.36.6.93.1.4.43_ab_ac_ba50_bb73.1_bc185.500.8.5.1_bd33_be180_ca53.0.42.79.17.38.44.30.39_cb0_da1.0.0.100_db_dd9.3.0.15.38.45_dh1.30.50.50.0_di5_qa_qb_dc0.1.1.1.1_eh_ea31.55.55.56.0.0_ec20.19.55.55.56.16.58.1_ed17.87.1.1.55.56_ef3.2.31.201F26.201F26.55_eg3.2.31.201F26.201F26.55_r0048.55.55.56.0.1.0.0.11.602.358.1_r0347.55.55.56.0.1.54.100.0.584.478.0_r0454.55.55.56.1.2.-30.-20.13.524.590.0_r0554.55.55.56.1.2.-30.-25.0.522.588.0_r0625.e6b422.E6B422.56.0.2.18.0.98.594.392.0_fa12.69.65.49.40.36.56_fb_fh3_fc1.7AAFE7.55.1.7AAFE7.55.51.61.61.51.50.50_fd1.0.26.56.56_fe50.73_ff0000000000_fg0.60_pa0.0.0.0.40.50.85.85.0.0_t00_pb_pc_pd_pe_ga0_gb1_gc0.0_ge0000000000_gh_gf_gg_gd10000000_ha87.87_hb44.1.8.99_hc0.25.19.0.25.19_hd23.1.47.27_ia_if_ib_id_ic_jc_ie_ja_jb_jd2.6F2B8C.6F2B8C.21_je2.6F2B8C.6F2B8C.21_jf_jg_ka9.6F2B8C.30074C.55.0_kb9.6F2B8C.30074C.55_kc_kd_ke_kf_la_lb_oa_os_ob_oc_od_oe_of_lc_m00_n00_s00_og_oh_oo_op_oq_or_om_on_ok_ol_oi_oj_ad0.0.0.0.0.0.0.0.0.0*0*0*0*0*0*0*0*0#/]a00_b00_c00_d00_w00_x00_e00_y00_z00_ua1.0.0.0.100_uf0.3.0.0_ue_ub_u0_v0_uc7.0.30_ud7.8

3-loss=47**aa9.88.1.28.64.9.88.1.28.64_ab_ac_ba50_bb16.1_bc502.500.2.7.1_bd16_be180_ca53.0.42.79.17.38.44.30.39_cb0_da1.0.0.100_db_dd13.3.0.15.38.45_dh1.30.50.50.0_di5_qa_qb_dc0.4.1.1.1_eh_ea31.55.55.56.0.0_ec20.19.55.55.56.16.58.1_ed17.87.1.1.55.56_ef3.2.31.201F26.201F26.55_eg3.2.31.201F26.201F26.55_r0048.55.55.56.0.1.0.0.0.602.358.1_r0347.55.55.56.0.1.54.100.0.584.478.0_r0454.55.55.56.1.2.-30.-20.13.524.590.0_r0554.55.55.56.1.2.-30.-25.0.522.588.0_r0625.e6b422.E6B422.56.0.2.18.0.98.594.392.0_fa12.69.65.49.40.36.56_fb_fh3_fc1.7AAFE7.55.1.7AAFE7.55.51.61.61.51.50.50_fd1.0.26.56.56_fe50.73_ff0000000000_fg0.60_pa0.0.0.0.40.50.85.85.0.0_t00_pb_pc_pd_pe_ga0_gb1_gc35.0_ge0000000000_gh_gf_gg_gd10000000_ha92.92_hb50.1.61.99_hc4.81.61.4.81.61_hd38.1.47.57_ia_if_ib_id_ic_jc_ie_ja_jb_jd_je_jf_jg_ka_kb_kc_kd_ke_kf_la_lb_oa_os_ob_oc_od_oe_of_lc_m00_n00_s00_og_oh_oo_op_oq_or_om_on_ok_ol_oi_oj_ad0.0.0.0.0.0.0.0.0.0

0-flying=47***aa13.100.0.3.80.24.90.0.4.80_ab_ac_ba50_bb33.1_bc185.500.8.5.1_bd5_be180_ca53.0.42.79.17.38.44.30.39_cb0_da1.0.0.100_db_dd9.3.0.15.38.45_dh1.30.50.50.0_di5_qa_qb_dc0.1.1.1.1_eh_ea31.55.55.56.0.0_ec20.19.55.55.56.16.58.1_ed17.87.1.1.55.56_ef3.2.31.201F26.201F26.55_eg3.2.31.201F26.201F26.55_r0048.55.55.56.0.1.0.0.11.602.358.1_r0347.55.55.56.0.1.54.100.0.584.478.0_r0454.55.55.56.1.2.-30.-20.13.524.590.0_r0554.55.55.56.1.2.-30.-25.0.522.588.0_r0625.e6b422.E6B422.56.0.2.18.0.98.594.392.0_fa12.69.65.49.40.36.56_fb_fh3_fc1.7AAFE7.55.1.7AAFE7.55.51.61.61.51.50.50_fd1.0.26.56.56_fe50.73_ff0000000000_fg0.60_pa0.0.0.0.40.50.85.85.0.0_t00_pb_pc_pd_pe_ga0_gb1_gc0.0_ge0000000000_gh_gf_gg_gd10000000_ha87.87_hb50.1.61.99_hc0.43.21.0.43.21_hd35.1.47.100_ia_if_ib_id_ic_jc_ie_ja_jb_jd2.6F2B8C.6F2B8C.21_je2.6F2B8C.6F2B8C.21_jf_jg_ka9.6F2B8C.30074C.55.0_kb9.6F2B8C.30074C.55_kc_kd_ke_kf_la_lb_oa_os_ob_oc_od_oe_of_lc_m00_n00_s00_og_oh_oo_op_oq_or_om_on_ok_ol_oi_oj_ad0.0.0.0.0.0.0.0.0.0*0*0*0*0*0*0*0*0#/]a00_b00_c00_d00_w00_x00_e00_y00_z00_ua1.0.0.0.100_uf0.3.0.0_ue_ub_u0_v0_uc7.0.30_ud7.8

1-flying=47***aa75.31.0.34.76.75.31.0.34.51_ab_ac_ba50_bb81.1_bc185.200.0.40.1_bd95_be180_ca53.0.42.79.17.38.44.30.39_cb0_da1.0.0.100_db_dd9.3.0.15.38.45_dh1.30.50.50.0_di5_qa_qb_dc0.1.1.1.1_eh_ea31.55.55.56.0.0_ec20.19.55.55.56.16.58.1_ed17.87.1.1.55.56_ef3.2.31.201F26.201F26.55_eg3.2.31.201F26.201F26.55_r0048.55.55.56.0.1.0.0.11.602.358.1_r0347.55.55.56.0.1.54.100.0.584.478.0_r0454.55.55.56.1.2.-30.-20.13.524.590.0_r0554.55.55.56.1.2.-30.-25.0.522.588.0_r0625.e6b422.E6B422.56.0.2.18.0.98.594.392.0_fa12.69.65.49.40.36.56_fb_fh3_fc1.7AAFE7.55.1.7AAFE7.55.51.61.61.51.50.50_fd1.0.26.56.56_fe50.73_ff0000000000_fg0.60_pa0.0.0.0.40.50.85.85.0.0_t00_pb_pc_pd_pe_ga0_gb1_gc0.0_ge0000000000_gh_gf_gg_gd10000000_ha87.87_hb50.1.61.99_hc1.41.0.1.41.0_hd35.1.47.100_ia_if_ib_id_ic_jc_ie_ja_jb_jd_je_jf_jg_ka9.6F2B8C.30074C.55.0_kb9.6F2B8C.30074C.55_kc_kd_ke_kf_la_lb_oa_os_ob_oc_od_oe_of_lc_m00_n00_s00_og_oh_oo_op_oq_or_om_on_ok_ol_oi_oj_ad0.0.0.0.0.0.0.0.0.0*0*0*0*0*0*0*0*0#/]a00_b00_c00_d00_w00_x00_e00_y00_z00_ua1.0.0.0.100_uf0.3.0.0_ue_ub_u0_v0_uc7.2.30_ud7.8

2-flying=47**aa75.31.0.34.76.75.31.0.34.51_ab_ac_ba50_bb81.1_bc185.200.0.40.1_bd95_be180_ca53.0.42.79.17.38.44.30.39_cb0_da1.0.0.100_db_dd9.3.0.15.38.45_dh1.30.50.50.0_di5_qa_qb_dc0.1.1.1.1_eh_ea31.55.55.56.0.0_ec20.19.55.55.56.16.58.1_ed17.87.1.1.55.56_ef3.2.31.201F26.201F26.55_eg3.2.31.201F26.201F26.55_r0048.55.55.56.0.1.0.0.13.602.358.1_r0347.55.55.56.0.1.54.100.0.584.478.0_r0454.55.55.56.1.2.-30.-20.13.524.590.0_r0554.55.55.56.1.2.-30.-25.0.522.588.0_r0625.e6b422.E6B422.56.0.2.18.0.98.594.392.0_fa12.69.65.49.40.36.56_fb_fh3_fc1.7AAFE7.55.1.7AAFE7.55.51.61.61.51.50.50_fd1.0.26.56.56_fe50.73_ff0000000000_fg0.60_pa0.0.0.0.40.50.85.85.0.0_t00_pb_pc_pd_pe_ga0_gb1_gc15.0_ge0000000000_gh_gf_gg_gd10000000_ha87.87_hb50.1.61.99_hc0.49.31.0.49.31_hd35.1.47.100_ia_if_ib_id_ic_jc_ie_ja_jb_jd_je_jf_jg_ka_kb9.6F2B8C.30074C.55_kc_kd_ke_kf_la_lb_oa_os_ob_oc_od_oe_of_lc_m00_n00_s00_og_oh_oo_op_oq_or_om_on_ok_ol_oi_oj_ad0.0.0.0.0.0.0.0.0.0

3-flying=47**aa75.31.0.34.76.75.31.0.34.51_ab_ac_ba50_bb81.1_bc502.500.8.43.1_bd95_be180_ca53.0.42.79.17.38.44.30.39_cb0_da1.0.0.100_db_dd10.3.0.15.38.45_dh1.30.50.50.0_di5_qa_qb_dc1.4.1.1.1_eh_ea31.55.55.56.0.0_ec20.19.55.55.56.16.58.1_ed17.87.1.1.55.56_ef3.2.31.201F26.201F26.55_eg3.2.31.201F26.201F26.55_r0048.55.55.56.0.1.0.0.0.602.358.1_r0347.55.55.56.0.1.54.100.0.584.478.0_r0454.55.55.56.1.2.-30.-20.13.524.590.0_r0554.55.55.56.1.2.-30.-25.0.522.588.0_r0625.e6b422.E6B422.56.0.2.18.0.98.594.392.0_fa12.69.65.49.40.36.56_fb_fh3_fc1.7AAFE7.55.1.7AAFE7.55.51.61.61.51.50.50_fd1.0.26.56.56_fe50.73_ff0000000000_fg0.60_pa0.0.0.0.40.50.85.85.0.0_t00_pb_pc_pd_pe_ga0_gb1_gc25.0_ge0000000000_gh_gf_gg_gd10000000_ha87.87_hb50.1.61.99_hc0.49.31.0.49.31_hd35.1.47.100_ia_if_ib_id_ic_jc_ie_ja_jb_jd_je_jf_jg_ka_kb_kc_kd_ke_kf_la_lb_oa_os_ob_oc_od_oe_of_lc_m00_n00_s00_og_oh_oo_op_oq_or_om_on_ok_ol_oi_oj_ad0.0.0.0.0.0.0.0.0.0

5-flying=47**aa75.31.0.34.76.75.31.0.34.51_ab_ac_ba50_bb81.1_bc502.500.8.43.1_bd95_be180_ca53.0.42.79.17.38.44.30.39_cb0_da1.0.0.100_db_dd10.3.0.15.38.45_dh1.30.50.50.0_di5_qa_qb_dc96.4.1.1.1_eh_ea31.55.55.56.0.0_ec20.19.55.55.56.16.58.1_ed17.87.1.1.55.56_ef3.2.31.201F26.201F26.55_eg3.2.31.201F26.201F26.55_r0048.55.55.56.0.1.0.0.0.602.358.1_r0347.55.55.56.0.1.54.100.0.584.478.0_r0454.55.55.56.1.2.-30.-20.13.524.590.0_r0554.55.55.56.1.2.-30.-25.0.522.588.0_r0625.e6b422.E6B422.56.0.2.18.0.98.594.392.0_fa12.69.65.49.40.36.56_fb_fh3_fc1.7AAFE7.55.1.7AAFE7.55.51.61.61.51.50.50_fd1.0.26.56.56_fe50.73_ff0000000000_fg0.60_pa0.0.0.0.40.50.85.85.0.0_t00_pb_pc_pd_pe_ga0_gb1_gc25.0_ge0000000000_gh_gf_gg_gd10000000_ha87.87_hb50.1.61.99_hc0.49.31.0.49.31_hd35.1.47.100_ia_if_ib_id_ic_jc_ie_ja_jb_jd_je_jf_jg_ka_kb_kc_kd_ke_kf_la_lb_oa_os_ob_oc_od_oe_of_lc_m00_n00_s00_og_oh_oo_op_oq_or_om_on_ok_ol_oi_oj_ad0.0.0.0.0.0.0.0.0.0

3-starting=47***aa17.61.1.16.18.16.81.1.28.71_ab_ac_ba50_bb60.1_bc185.200.8.21.1_bd72_be180_ca53.0.42.79.17.38.44.30.39_cb0_da1.0.0.100_db_dd10.3.0.15.38.45_dh1.30.50.50.0_di5_qa_qb_dc0.4.1.1.1_eh_ea31.55.55.56.0.0_ec20.19.55.55.56.16.58.1_ed17.87.1.1.55.56_ef3.2.31.201F26.201F26.55_eg3.2.31.201F26.201F26.55_r0048.55.55.56.0.1.0.0.0.602.358.1_r0347.55.55.56.0.1.54.100.0.584.478.0_r0454.55.55.56.1.2.-30.-20.13.524.590.0_r0554.55.55.56.1.2.-30.-25.0.522.588.0_r0625.e6b422.E6B422.56.0.2.18.0.98.594.392.0_fa12.69.65.49.40.36.56_fb_fh3_fc1.7AAFE7.55.1.7AAFE7.55.51.61.61.51.50.50_fd1.0.26.56.56_fe50.73_ff0000000000_fg0.60_pa0.0.0.0.40.50.85.85.0.0_t00_pb_pc_pd_pe_ga0_gb1_gc35.0_ge0000000000_gh_gf_gg_gd10000000_ha87.87_hb50.1.61.99_hc1.47.4.1.47.4_hd33.1.47.57_ia_if_ib_id_ic_jc_ie_ja_jb_jd_je_jf_jg_ka_kb_kc_kd_ke_kf_la_lb_oa_os_ob_oc_od_oe_of_lc_m00_n00_s00_og_oh_oo_op_oq_or_om_on_ok_ol_oi_oj_ad0.0.0.0.0.0.0.0.0.0*0*0*0*0*0*0*0*0#/]a00_b00_c00_d00_w00_x00_e00_y00_z00_ua1.0.0.0.100_uf0.3.0.0_ue_ub_u0_v0_uc7.0.30_ud7.8

4-calm=47***aa17.66.1.4.34.16.81.1.28.71_ab_ac_ba50_bb65.1_bc185.200.0.26.1_bd93_be180_ca53.0.42.79.17.38.44.30.39_cb0_da1.0.0.100_db_dd10.3.0.15.38.45_dh1.30.50.50.0_di5_qa_qb_dc0.4.1.1.1_eh_ea31.55.55.56.0.0_ec20.19.55.55.56.16.58.1_ed17.87.1.1.55.56_ef3.2.31.201F26.201F26.55_eg3.2.31.201F26.201F26.55_r0048.55.55.56.0.1.0.0.0.602.358.1_r0347.55.55.56.0.1.54.100.0.584.478.0_r0454.55.55.56.1.2.-30.-20.13.524.590.0_r0554.55.55.56.1.2.-30.-25.0.522.588.0_r0625.e6b422.E6B422.56.0.2.18.0.98.594.392.0_fa12.69.65.49.40.36.56_fb_fh3_fc1.7AAFE7.55.1.7AAFE7.55.51.61.61.51.50.50_fd1.0.26.56.56_fe50.73_ff0000000000_fg0.60_pa0.0.0.0.40.50.85.85.0.0_t00_pb_pc_pd_pe_ga0_gb1_gc35.0_ge0000000000_gh_gf_gg_gd10000000_ha87.87_hb50.1.0.99_hc3.79.56.3.79.56_hd22.1.47.57_ia_if_ib_id_ic_jc_ie_ja_jb_jd_je_jf_jg_ka_kb_kc_kd_ke_kf_la_lb_oa_os_ob_oc_od_oe_of_lc_m00_n00_s00_og_oh_oo_op_oq_or_om_on_ok_ol_oi_oj_ad0.0.0.0.0.0.0.0.0.0*0*0*0*0*0*0*0*0#/]a00_b00_c00_d00_w00_x00_e00_y00_z00_ua1.0.0.0.100_uf0.3.0.0_ue_ub_u0_v0_uc7.0.30_ud7.8

4-happy=47***aa17.84.1.28.39.16.81.1.28.71_ab_ac_ba50_bb88.0_bc185.200.0.34.1_bd63_be180_ca53.0.42.79.17.38.44.30.39_cb0_da1.0.0.100_db_dd10.3.0.15.38.45_dh1.30.50.50.0_di5_qa_qb_dc0.4.1.1.1_eh_ea31.55.55.56.0.0_ec20.19.55.55.56.16.58.1_ed17.87.1.1.55.56_ef3.2.31.201F26.201F26.55_eg3.2.31.201F26.201F26.55_r0048.55.55.56.0.1.0.0.0.602.358.1_r0347.55.55.56.0.1.54.100.0.584.478.0_r0454.55.55.56.1.2.-30.-20.13.524.590.0_r0554.55.55.56.1.2.-30.-25.0.522.588.0_r0625.e6b422.E6B422.56.0.2.18.0.98.594.392.0_fa12.69.65.49.40.36.56_fb_fh3_fc1.7AAFE7.55.1.7AAFE7.55.51.61.61.51.50.50_fd1.0.26.56.56_fe50.73_ff0000000000_fg0.60_pa0.0.0.0.40.50.85.85.0.0_t00_pb_pc_pd_pe_ga0_gb1_gc35.0_ge0000000000_gh_gf_gg_gd10000000_ha87.87_hb50.1.61.99_hc0.62.23.0.62.23_hd24.1.47.57_ia_if_ib_id_ic_jc_ie_ja_jb_jd_je_jf_jg_ka_kb_kc_kd_ke_kf_la_lb_oa_os_ob_oc_od_oe_of_lc_m00_n00_s00_og_oh_oo_op_oq_or_om_on_ok_ol_oi_oj_ad0.0.0.0.0.0.0.0.0.0*0*0*0*0*0*0*0*0#/]a00_b00_c00_d00_w00_x00_e00_y00_z00_ua1.0.0.0.100_uf0.3.0.0_ue_ub_u0_v0_uc7.0.30_ud7.8

4-sad=47***aa17.59.1.28.21.17.59.1.28.21_ab_ac_ba50_bb89.0_bc185.200.0.35.1_bd89_be180_ca53.0.42.79.17.38.44.30.39_cb0_da1.0.0.100_db_dd10.3.0.15.38.45_dh1.30.50.50.0_di5_qa_qb_dc0.4.1.1.1_eh_ea31.55.55.56.0.0_ec20.19.55.55.56.16.58.1_ed17.87.1.1.55.56_ef3.2.31.201F26.201F26.55_eg3.2.31.201F26.201F26.55_r0048.55.55.56.0.1.0.0.0.602.358.1_r0347.55.55.56.0.1.54.100.0.584.478.0_r0454.55.55.56.1.2.-30.-20.13.524.590.0_r0554.55.55.56.1.2.-30.-25.0.522.588.0_r0625.e6b422.E6B422.56.0.2.18.0.98.594.392.0_fa12.69.65.49.40.36.56_fb_fh3_fc1.7AAFE7.55.1.7AAFE7.55.51.61.61.51.50.50_fd1.0.26.56.56_fe50.73_ff0000000000_fg0.60_pa0.0.0.0.40.50.85.85.0.0_t00_pb_pc_pd_pe_ga0_gb1_gc28.0_ge0000000000_gh_gf_gg_gd11000000_ha87.87_hb50.1.61.99_hc3.79.54.3.79.54_hd21.1.80.80_ia_if_ib_id_ic_jc_ie_ja_jb_jd_je_jf_jg_ka_kb_kc_kd_ke_kf_la_lb_oa_os_ob_oc_od_oe_of_lc_m00_n00_s00_og_oh_oo_op_oq_or_om_on_ok_ol_oi_oj_ad0.0.0.0.0.0.0.0.0.0*0*0*0*0*0*0*0*0#/]a00_b00_c00_d00_w00_x00_e00_y00_z00_ua1.0.0.0.100_uf0.3.0.0_ue_ub_u0_v0_uc7.0.30_ud7.8

4-angry=47***aa14.100.1.16.43.14.100.1.16.43_ab_ac_ba50_bb84.0_bc185.200.0.31.1_bd82_be180_ca53.0.42.79.17.38.44.30.39_cb0_da1.0.0.100_db_dd10.3.0.15.38.45_dh1.30.50.50.0_di5_qa_qb_dc0.4.1.1.1_eh_ea31.55.55.56.0.0_ec20.19.55.55.56.16.58.1_ed17.87.1.1.55.56_ef3.2.31.201F26.201F26.55_eg3.2.31.201F26.201F26.55_r0048.55.55.56.0.1.0.0.0.602.358.1_r0347.55.55.56.0.1.54.100.0.584.478.0_r0454.55.55.56.1.2.-30.-20.13.524.590.0_r0554.55.55.56.1.2.-30.-25.0.522.588.0_r0625.e6b422.E6B422.56.0.2.18.0.98.594.392.0_fa12.69.65.49.40.36.56_fb_fh3_fc1.7AAFE7.55.1.7AAFE7.55.51.61.61.51.50.50_fd1.0.26.56.56_fe50.73_ff0000000000_fg0.60_pa0.0.0.0.40.50.85.85.0.0_t00_pb_pc_pd_pe_ga0_gb1_gc28.0_ge0100000000_gh_gf_gg_gd11000000_ha87.87_hb50.1.61.99_hc2.18.0.2.18.0_hd25.1.49.31_ia_if_ib_id_ic_jc_ie_ja_jb_jd_je_jf_jg_ka_kb_kc_kd_ke_kf_la_lb_oa_os_ob_oc_od_oe_of_lc_m00_n00_s00_og_oh_oo_op_oq_or_om_on_ok_ol_oi_oj_ad0.0.0.0.0.0.0.0.0.0*0*0*0*0*0*0*0*0#/]a00_b00_c00_d00_w00_x00_e00_y00_z00_ua1.0.0.0.100_uf0.3.0.0_ue_ub_u0_v0_uc7.0.30_ud7.8

4-embarrassed=47**aa14.81.1.28.88.14.85.1.28.19_ab_ac_ba50_bb72.0_bc502.500.2.31.1_bd72_be180_ca53.0.42.79.17.38.44.30.39_cb0_da1.0.0.100_db_dd13.3.0.15.38.45_dh1.30.50.50.0_di5_qa_qb_dc0.4.1.1.1_eh_ea31.55.55.56.0.0_ec20.19.55.55.56.16.58.1_ed17.87.1.1.55.56_ef3.2.31.201F26.201F26.55_eg3.2.31.201F26.201F26.55_r0048.55.55.56.0.1.0.0.0.602.358.1_r0347.55.55.56.0.1.54.100.0.584.478.0_r0454.55.55.56.1.2.-30.-20.13.524.590.0_r0554.55.55.56.1.2.-30.-25.0.522.588.0_r0625.e6b422.E6B422.56.0.2.18.0.98.594.392.0_fa12.69.65.49.40.36.56_fb_fh3_fc1.7AAFE7.55.1.7AAFE7.55.51.61.61.51.50.50_fd1.0.26.56.56_fe50.73_ff0000000000_fg0.60_pa0.0.0.0.40.50.85.85.0.0_t00_pb_pc_pd_pe_ga0_gb1_gc28.0_ge0000000000_gh_gf_gg_gd10000000_ha87.87_hb50.1.61.99_hc3.75.54.3.75.54_hd21.1.100.100_ia_if_ib_id_ic_jc_ie_ja_jb_jd_je_jf_jg_ka_kb_kc_kd_ke_kf_la_lb_oa_os_ob_oc_od_oe_of_lc_m00_n00_s00_og_oh_oo_op_oq_or_om_on_ok_ol_oi_oj_ad0.0.0.0.0.0.0.0.0.0

4-confident=47***aa14.81.1.28.88.14.70.1.27.17_ab_ac_ba50_bb63.0_bc185.200.0.23.1_bd65_be180_ca53.0.42.79.17.38.44.30.39_cb0_da1.0.0.100_db_dd9.3.0.15.38.45_dh1.30.50.50.0_di5_qa_qb_dc0.4.1.1.1_eh_ea31.55.55.56.0.0_ec20.19.55.55.56.16.58.1_ed17.87.1.1.55.56_ef3.2.31.201F26.201F26.55_eg3.2.31.201F26.201F26.55_r0048.55.55.56.0.1.0.0.0.602.358.1_r0347.55.55.56.0.1.54.100.0.584.478.0_r0454.55.55.56.1.2.-30.-20.13.524.590.0_r0554.55.55.56.1.2.-30.-25.0.522.588.0_r0625.e6b422.E6B422.56.0.2.18.0.98.594.392.0_fa12.69.65.49.40.36.56_fb_fh3_fc1.7AAFE7.55.1.7AAFE7.55.51.61.61.51.50.50_fd1.0.26.56.56_fe50.73_ff0000000000_fg0.60_pa0.0.0.0.40.50.85.85.0.0_t00_pb_pc_pd_pe_ga0_gb1_gc28.0_ge0000000000_gh_gf_gg_gd10000000_ha87.87_hb50.1.61.99_hc1.18.0.1.18.0_hd35.1.49.100_ia_if_ib_id_ic_jc_ie_ja_jb_jd_je_jf_jg_ka_kb_kc_kd_ke_kf_la_lb_oa_os_ob_oc_od_oe_of_lc_m00_n00_s00_og_oh_oo_op_oq_or_om_on_ok_ol_oi_oj_ad0.0.0.0.0.0.0.0.0.0*0*0*0*0*0*0*0*0#/]a00_b00_c00_d00_w00_x00_e00_y00_z00_ua1.0.0.0.100_uf0.3.0.0_ue_ub_u0_v0_uc7.0.30_ud7.8

4-interested=47***aa12.85.1.28.60.17.61.1.16.25_ab_ac_ba50_bb58.0_bc185.200.0.11.1_bd55_be180_ca53.0.42.79.17.38.44.30.39_cb0_da1.0.0.100_db_dd10.3.0.15.38.45_dh1.30.50.50.0_di5_qa_qb_dc0.4.1.1.1_eh_ea31.55.55.56.0.0_ec20.19.55.55.56.16.58.1_ed17.87.1.1.55.56_ef3.2.31.201F26.201F26.55_eg3.2.31.201F26.201F26.55_r0048.55.55.56.0.1.0.0.0.602.358.1_r0347.55.55.56.0.1.54.100.0.584.478.0_r0454.55.55.56.1.2.-30.-20.13.524.590.0_r0554.55.55.56.1.2.-30.-25.0.522.588.0_r0625.e6b422.E6B422.56.0.2.18.0.98.594.392.0_fa12.69.65.49.40.36.56_fb_fh3_fc1.7AAFE7.55.1.7AAFE7.55.51.61.61.51.50.50_fd1.0.26.56.56_fe50.73_ff0000000000_fg0.60_pa0.0.0.0.40.50.85.85.0.0_t00_pb_pc_pd_pe_ga0_gb1_gc28.0_ge0000000000_gh_gf_gg_gd10000000_ha87.87_hb50.1.61.99_hc0.75.36.0.75.36_hd21.1.76.100_ia_if_ib_id_ic_jc_ie_ja_jb_jd_je_jf_jg_ka_kb_kc_kd_ke_kf_la_lb_oa_os_ob_oc_od_oe_of_lc_m00_n00_s00_og_oh_oo_op_oq_or_om_on_ok_ol_oi_oj_ad0.0.0.0.0.0.0.0.0.0*0*0*0*0*0*0*0*0#/]a00_b00_c00_d00_w00_x00_e00_y00_z00_ua1.0.0.0.100_uf0.3.0.0_ue_ub_u0_v0_uc7.0.30_ud7.8

4-excited=47***aa14.53.1.28.63.17.83.1.25.20_ab_ac_ba50_bb67.0_bc185.200.0.38.1_bd63_be180_ca53.0.42.79.17.38.44.30.39_cb0_da1.0.0.100_db_dd10.3.0.15.38.45_dh1.30.50.50.0_di5_qa_qb_dc0.4.1.1.1_eh_ea31.55.55.56.0.0_ec20.19.55.55.56.16.58.1_ed17.87.1.1.55.56_ef3.2.31.201F26.201F26.55_eg3.2.31.201F26.201F26.55_r0048.55.55.56.0.1.0.0.0.602.358.1_r0347.55.55.56.0.1.54.100.0.584.478.0_r0454.55.55.56.1.2.-30.-20.13.524.590.0_r0554.55.55.56.1.2.-30.-25.0.522.588.0_r0625.e6b422.E6B422.56.0.2.18.0.98.594.392.0_fa12.69.65.49.40.36.56_fb_fh3_fc1.7AAFE7.55.1.7AAFE7.55.51.61.61.51.50.50_fd1.0.26.56.56_fe50.73_ff0000000000_fg0.60_pa0.0.0.0.40.50.85.85.0.0_t00_pb_pc_pd_pe_ga0_gb1_gc28.0_ge0000000000_gh_gf_gg_gd10000000_ha87.87_hb50.1.61.99_hc0.75.31.0.75.31_hd25.1.60.64_ia_if_ib_id_ic_jc_ie_ja_jb_jd_je_jf_jg_ka_kb_kc_kd_ke_kf_la_lb_oa_os_ob_oc_od_oe_of_lc_m00_n00_s00_og_oh_oo_op_oq_or_om_on_ok_ol_oi_oj_ad0.0.0.0.0.0.0.0.0.0*0*0*0*0*0*0*0*0#/]a00_b00_c00_d00_w00_x00_e00_y00_z00_ua1.0.0.0.100_uf0.3.0.0_ue_ub_u0_v0_uc7.0.30_ud7.8

4-shocked=47***aa14.53.1.28.51.14.53.1.28.51_ab_ac_ba48_bb61.0_bc185.200.0.33.1_bd76_be178_ca53.0.42.79.17.38.44.30.39_cb0_da1.0.0.100_db_dd10.3.0.15.38.45_dh1.30.50.50.0_di5_qa_qb_dc0.4.1.1.1_eh_ea31.55.55.56.0.0_ec20.19.55.55.56.16.58.1_ed17.87.1.1.55.56_ef3.2.31.201F26.201F26.55_eg3.2.31.201F26.201F26.55_r0048.55.55.56.0.1.0.0.0.602.358.1_r0347.55.55.56.0.1.54.100.0.584.478.0_r0454.55.55.56.1.2.-30.-20.13.524.590.0_r0554.55.55.56.1.2.-30.-25.0.522.588.0_r0625.e6b422.E6B422.56.0.2.18.0.98.594.392.0_fa12.69.65.49.40.36.56_fb_fh3_fc1.7AAFE7.55.1.7AAFE7.55.51.61.61.51.50.50_fd1.0.26.56.56_fe50.73_ff0000000000_fg0.60_pa0.0.0.0.40.50.85.85.0.0_t00_pb_pc_pd_pe_ga0_gb1_gc28.0_ge0000000000_gh_gf_gg_gd10000000_ha90.90_hb50.1.61.99_hc0.75.31.0.75.31_hd22.1.60.64_ia_if_ib_id_ic_jc_ie_ja_jb_jd_je_jf_jg_ka_kb_kc_kd_ke_kf_la_lb_oa_os_ob_oc_od_oe_of_lc_m00_n00_s00_og_oh_oo_op_oq_or_om_on_ok_ol_oi_oj_ad0.0.0.0.0.0.0.0.0.0*0*0*0*0*0*0*0*0#/]a00_b00_c00_d00_w00_x00_e00_y00_z00_ua1.0.0.0.100_uf0.3.0.0_ue_ub_u0_v0_uc7.0.30_ud7.8

4-worried=47***aa14.67.1.4.32.14.77.1.28.100_ab_ac_ba48_bb80.0_bc185.200.0.38.1_bd76_be178_ca53.0.42.79.17.38.44.30.39_cb0_da1.0.0.100_db_dd10.3.0.15.38.45_dh1.30.50.50.0_di5_qa_qb_dc0.4.1.1.1_eh_ea31.55.55.56.0.0_ec20.19.55.55.56.16.58.1_ed17.87.1.1.55.56_ef3.2.31.201F26.201F26.55_eg3.2.31.201F26.201F26.55_r0048.55.55.56.0.1.0.0.0.602.358.1_r0347.55.55.56.0.1.54.100.0.584.478.0_r0454.55.55.56.1.2.-30.-20.13.524.590.0_r0554.55.55.56.1.2.-30.-25.0.522.588.0_r0625.e6b422.E6B422.56.0.2.18.0.98.594.392.0_fa12.69.65.49.40.36.56_fb_fh3_fc1.7AAFE7.55.1.7AAFE7.55.51.61.61.51.50.50_fd1.0.26.56.56_fe50.73_ff0000000000_fg0.60_pa0.0.0.0.40.50.85.85.0.0_t00_pb_pc_pd_pe_ga0_gb1_gc28.0_ge0000000000_gh_gf_gg_gd10000000_ha90.90_hb50.1.61.99_hc3.72.58.3.72.58_hd8.1.47.38_ia_if_ib_id_ic_jc_ie_ja_jb_jd_je_jf_jg_ka_kb_kc_kd_ke_kf_la_lb_oa_os_ob_oc_od_oe_of_lc_m00_n00_s00_og_oh_oo_op_oq_or_om_on_ok_ol_oi_oj_ad0.0.0.0.0.0.0.0.0.0*0*0*0*0*0*0*0*0#/]a00_b00_c00_d00_w00_x00_e00_y00_z00_ua1.0.0.0.100_uf0.3.0.0_ue_ub_u0_v0_uc7.0.30_ud7.8

4-horny=47***aa15.82.1.23.41.32.44.1.28.94_ab_ac_ba48_bb66.0_bc185.200.0.36.1_bd77_be176_ca53.0.42.79.17.38.44.30.39_cb0_da1.0.0.100_db_dd10.3.0.15.38.45_dh1.30.50.50.0_di5_qa_qb_dc0.4.1.1.1_eh_ea31.55.55.56.0.0_ec20.19.55.55.56.16.58.1_ed17.87.1.1.55.56_ef3.2.31.201F26.201F26.55_eg3.2.31.201F26.201F26.55_r0048.55.55.56.0.1.0.0.0.602.358.1_r0347.55.55.56.0.1.54.100.0.584.478.0_r0454.55.55.56.1.2.-30.-20.13.524.590.0_r0554.55.55.56.1.2.-30.-25.0.522.588.0_r0625.e6b422.E6B422.56.0.2.18.0.98.594.392.0_fa12.69.65.49.40.36.56_fb_fh3_fc1.7AAFE7.55.1.7AAFE7.55.51.61.61.51.50.50_fd1.0.26.56.56_fe50.73_ff0000000000_fg0.60_pa0.0.0.0.40.50.85.85.0.0_t00_pb_pc_pd_pe_ga0_gb1_gc28.0_ge0000000000_gh_gf_gg_gd10000000_ha90.90_hb50.1.61.99_hc3.66.56.3.66.56_hd24.1.47.38_ia_if_ib_id_ic_jc_ie_ja_jb_jd_je_jf_jg_ka_kb_kc_kd_ke_kf_la_lb_oa_os_ob_oc_od_oe_of_lc_m00_n00_s00_og_oh_oo_op_oq_or_om_on_ok_ol_oi_oj_ad0.0.0.0.0.0.0.0.0.0*0*0*0*0*0*0*0*0#/]a00_b00_c00_d00_w00_x00_e00_y00_z00_ua1.0.0.0.100_uf0.3.0.0_ue_ub_u0_v0_uc7.0.30_ud7.8

4-heavy=47***aa12.81.1.28.100.12.81.1.28.100_ab_ac_ba48_bb77.0_bc185.200.0.32.1_bd75_be179_ca53.0.42.79.17.38.44.30.39_cb0_da1.0.0.100_db_dd10.3.0.15.38.45_dh1.30.50.50.0_di5_qa_qb_dc0.4.1.1.1_eh_ea31.55.55.56.0.0_ec20.19.55.55.56.16.58.1_ed17.87.1.1.55.56_ef3.2.31.201F26.201F26.55_eg3.2.31.201F26.201F26.55_r0048.55.55.56.0.1.0.0.0.602.358.1_r0347.55.55.56.0.1.54.100.0.584.478.0_r0454.55.55.56.1.2.-30.-20.13.524.590.0_r0554.55.55.56.1.2.-30.-25.0.522.588.0_r0625.e6b422.E6B422.56.0.2.18.0.98.594.392.0_fa12.69.65.49.40.36.56_fb_fh3_fc1.7AAFE7.55.1.7AAFE7.55.51.61.61.51.50.50_fd1.0.26.56.56_fe50.73_ff0000000000_fg0.60_pa0.0.0.0.40.50.85.85.0.0_t00_pb_pc_pd_pe_ga0_gb1_gc36.0_ge0000000000_gh_gf_gg_gd11000000_ha94.94_hb50.1.0.99_hc3.84.63.3.84.63_hd22.1.47.38_ia_if_ib_id_ic_jc_ie_ja_jb_jd_je_jf_jg_ka_kb_kc_kd_ke_kf_la_lb_oa_os_ob_oc_od_oe_of_lc_m00_n00_s00_og_oh_oo_op_oq_or_om_on_ok_ol_oi_oj_ad0.0.0.0.0.0.0.0.0.0*0*0*0*0*0*0*0*0#/]a00_b00_c00_d00_w00_x00_e00_y00_z00_ua1.0.0.0.100_uf0.3.0.0_ue_ub_u0_v0_uc7.0.30_ud7.8

4-finishing=47***aa9.55.1.28.81.18.75.1.28.100_ab_ac_ba48_bb66.0_bc185.200.0.38.1_bd96_be179_ca53.0.42.79.17.38.44.30.39_cb0_da1.0.0.100_db_dd10.3.0.15.38.45_dh1.30.50.50.0_di5_qa_qb_dc595.4.1.1.1_eh_ea31.55.55.56.0.0_ec20.19.55.55.56.16.58.1_ed17.87.1.1.55.56_ef3.2.31.201F26.201F26.55_eg3.2.31.201F26.201F26.55_r0048.55.55.56.0.1.0.0.0.602.358.1_r0347.55.55.56.0.1.54.100.0.584.478.0_r0454.55.55.56.1.2.-30.-20.13.524.590.0_r0554.55.55.56.1.2.-30.-25.0.522.588.0_r0625.e6b422.E6B422.56.0.2.18.0.98.594.392.0_fa12.69.65.49.40.36.56_fb_fh3_fc1.7AAFE7.55.1.7AAFE7.55.51.61.61.51.50.50_fd1.0.26.56.56_fe50.73_ff0000000000_fg0.60_pa0.0.0.0.40.50.85.85.0.0_t00_pb_pc_pd_pe_ga0_gb1_gc36.0_ge0000000010_gh_gf_gg_gd11010000_ha91.91_hb54.1.0.99_hc4.79.48.4.79.48_hd42.1.65.53_ia_if_ib_id_ic_jc_ie_ja_jb_jd_je_jf_jg_ka_kb_kc_kd_ke_kf_la_lb_oa_os_ob_oc_od_oe_of_lc_m00_n00_s00_og_oh_oo_op_oq_or_om_on_ok_ol_oi_oj_ad0.0.0.0.0.0.0.0.1.0*0*0*0*0*0*0*0*0#/]a00_b00_c00_d00_w00_x00_e00_y00_z00_ua1.0.0.0.100_uf0.3.0.0_ue_ub_u0_v0_uc7.0.30_ud7.8



