#masturbation stages (with magic)
5-loss=47***aa15.93.1.42.54.15.93.1.4.70_ab_ac2.52.52.52_ba50_bb17.1_bc185.500.9.0.1_bd17_be180_ca61.0.40.61.14.8.34.0.9_cb0_da1.0.0.100_db_dd10.0.34.50.45.50_dh1.30.50.50.0_di6_qa_qb_dc80.1.1.1.1_eh4.A27241_ea26.A27241.A27241.56.0.0_ec10.28.A27241.A27241.56.45.60.1_ed28.50.1.1.A27241.56_ef_eg_r00_fa2.50.50.60.50.86.56_fb7_fh_fc0.9.55.0.9.55.50.61.61.50.50.50_fd1.0.19.A27241.56_fe58.61_ff0000000000_fg0.50_pa0.0.0.0.40.50.85.85.0.0_t00_pb_pc_pd_pe_ga0_gb1_gc60.0_ge0000000000_gh_gf_gg_gd10000000_ha61.61_hb49.1.1.99_hc0.65.39.0.65.39_hd21.1.49.49_ia_if_ib_id_ic_jc_ie_ja_jb_jd_je_jf_jg_ka_kb_kc_kd_ke_kf_la_lb_oa_os_ob_oc_od_oe_of_lc_m00_n00_s00_og_oh_oo_op_oq_or_om_on_ok_ol_oi_oj_ad0.0.0.0.0.0.0.0.0.0*0*0*0*0*0*0*0*0#/]a002.1.FAFAFA.11.60.50.137.223.449.502.21.61.34_a012.0.FAFAFA.0.60.50.239.253.461.490.1.74.34_a022.0.FAFAFA.12.60.50.32.205.618.600.28.39.34_a032.1.FAFAFA.10.60.50.300.276.605.502.28.42.34_b00_c00_d00_w00_x00_e00_y00_z00_ua1.0.0.0.100_uf0.3.0.0_ue_ub_u0_v0_uc7.0.30_ud7.8
5-stunned=40***aa20.43.1.43.54.20.43.1.6.40_ab_ac2.52.52.52_ba50_bb17.1_bc185.500.9.0.1_bd17_be180_ca61.0.40.61.14.8.34.0.9_cb0_da1.0.0.100_db_dd12.0.34.50.45_dh1.30.50.50.0_di6_qa_qb_dc80.1.1.1.1_eh4.A27241_ea26.A27241.A27241.56.0.0_ec10.28.A27241.A27241.56.45.60.1_ed28.50.1.1.A27241.56_ef_eg_r0_fa2.50.50.60.50.59.56_fb7_fh_fc0.9.55.0.9.55.50.61.61.50.50.50_fd1.0.19.A27241.56_fe58.61_ff0000000000_fg0.50_pa0.0.0.0.40.50.85.85.0.0_t0_pb_pc_pd_pe_ga0_gb1_gc70.0_ge0000000000_gh_gf_gg_gd10000000_ha77.77_hb49.1.44.60_hc0.0.39.0.0.39_hd40.1.49.49_ia_if_ib_id_ic_jc_ie_ja_jb_jd_je_jf_jg_ka_kb_kc_kd_ke_kf_la_lb_oa_os_ob_oc_od_oe_of_lc_m0_n0_s0_og_oh_oo_op_oq_or_om_on_ok_ol_oi_oj_ad0.0.0.0.0.0.0.0.0.0*0*0*0*0*0*0*0*0#/]a002.0.FAFAFA.11.60.50.137.224.459.502.48.51.34_a012.0.FAFAFA.0.60.50.228.253.461.490.1.74.34_a022.0.FAFAFA.12.60.50.53.205.609.600.28.39.34_a032.1.FAFAFA.10.60.50.300.276.601.502.49.42.34_b00_c00_d00_w00_x00_y00_z00_ua1.0.0.0.100_uf0.3.0.0_ue_ub_u0_v0_uc7.0.30_ud7.8
5-excited=40***aa7.44.0.43.54.7.44.0.6.43_ab_ac2.52.52.52_ba50_bb17.1_bc185.500.9.0.1_bd17_be180_ca61.0.40.61.14.8.34.0.9_cb0_da1.0.0.100_db_dd14.0.34.50.45_dh1.30.50.50.0_di6_qa_qb_dc80.1.1.1.1_eh4.A27241_ea26.A27241.A27241.56.0.0_ec10.28.A27241.A27241.56.45.60.1_ed28.50.1.1.A27241.56_ef_eg_r0_fa2.50.50.60.50.99.56_fb7_fh_fc0.9.55.0.9.55.50.61.61.50.50.50_fd1.0.19.A27241.56_fe58.61_ff0000000000_fg0.50_pa0.0.0.0.40.50.85.85.0.0_t0_pb_pc_pd_pe_ga0_gb1_gc80.0_ge0000000000_gh_gf_gg_gd10000000_ha96.96_hb49.1.44.99_hc0.41.39.0.41.39_hd34.1.49.49_ia_if_ib_id_ic_jc_ie_ja_jb_jd_je_jf_jg_ka_kb_kc_kd_ke_kf_la_lb_oa_os_ob_oc_od_oe_of_lc_m0_n0_s0_og_oh_oo_op_oq_or_om_on_ok_ol_oi_oj_ad0.0.0.0.0.0.0.0.0.0*0*0*0*0*0*0*0*0#/]a002.0.FAFAFA.11.60.50.127.229.457.502.6.44.34_a012.0.FAFAFA.0.60.50.228.251.464.490.1.74.34_a022.0.FAFAFA.12.60.50.53.205.603.600.47.40.34_a032.1.FAFAFA.10.60.50.300.276.601.502.49.42.34_b00_c00_d00_w00_x00_y00_z00_ua1.0.0.0.100_uf0.3.0.0_ue_ub_u0_v0_uc7.0.30_ud7.8
5-angry=40***aa22.83.1.16.42.22.83.1.4.52_ab_ac2.52.52.52_ba50_bb17.1_bc185.500.9.0.1_bd17_be180_ca61.0.40.61.14.8.34.0.9_cb0_da1.0.0.100_db_dd10.0.34.50.45_dh1.30.50.50.0_di6_qa_qb_dc80.1.1.1.1_eh4.A27241_ea26.A27241.A27241.56.0.0_ec10.28.A27241.A27241.56.45.60.1_ed28.50.1.1.A27241.56_ef_eg_r0_fa6.50.50.60.50.31.56_fb6_fh_fc0.9.55.0.9.55.50.61.61.50.50.50_fd1.0.19.A27241.56_fe58.61_ff0000000000_fg0.50_pa0.0.0.0.40.50.85.85.0.0_t0_pb_pc_pd_pe_ga0_gb1_gc60.0_ge0000000000_gh_gf_gg_gd10000000_ha77.77_hb49.1.44.99_hc0.0.39.0.0.39_hd38.1.49.49_ia_if_ib_id_ic_jc_ie_ja_jb_jd_je_jf_jg_ka_kb_kc_kd_ke_kf_la_lb_oa_os_ob_oc_od_oe_of_lc_m0_n0_s0_og_oh_oo_op_oq_or_om_on_ok_ol_oi_oj_ad0.0.0.0.0.0.0.0.0.0*0*0*0*0*0*0*0*0#/]a002.0.FAFAFA.11.60.50.127.229.454.502.45.42.34_a012.0.FAFAFA.0.60.50.228.255.461.490.1.74.34_a022.0.FAFAFA.12.60.50.53.207.603.600.49.49.34_a032.1.FAFAFA.10.60.50.300.274.597.502.5.42.34_b00_c00_d00_w00_x00_y00_z00_ua1.0.0.0.100_uf0.3.0.0_ue_ub_u0_v0_uc7.0.30_ud7.8
5-shocked=40***aa65.38.1.27.41.75.36.1.4.60_ab_ac2.52.52.52_ba50_bb17.1_bc185.500.9.0.1_bd17_be180_ca61.0.40.61.14.8.34.0.9_cb0_da1.0.0.100_db_dd12.0.34.50.45_dh1.30.50.50.0_di6_qa_qb_dc80.1.1.1.1_eh4.A27241_ea26.A27241.A27241.56.0.0_ec10.28.A27241.A27241.56.45.60.1_ed28.50.1.1.A27241.56_ef_eg_r0_fa2.50.50.60.50.79.56_fb7_fh_fc0.9.55.0.9.55.50.61.61.50.50.50_fd1.0.19.A27241.56_fe58.61_ff0000000000_fg0.50_pa0.0.0.0.40.50.85.85.0.0_t0_pb_pc_pd_pe_ga0_gb1_gc70.0_ge0000000000_gh_gf_gg_gd10000000_ha88.88_hb49.1.44.99_hc0.59.39.0.59.39_hd41.1.49.49_ia_if_ib_id_ic_jc_ie_ja_jb_jd_je_jf_jg_ka_kb_kc_kd_ke_kf_la_lb_oa_os_ob_oc_od_oe_of_lc_m0_n0_s0_og_oh_oo_op_oq_or_om_on_ok_ol_oi_oj_ad0.0.0.0.0.0.0.0.0.0*0*0*0*0*0*0*0*0#/]a002.0.FAFAFA.11.60.50.137.231.454.502.28.37.34_a012.0.FAFAFA.0.60.50.228.255.461.490.2.74.34_a022.0.FAFAFA.12.60.50.73.207.600.600.28.50.34_a032.1.FAFAFA.10.60.50.287.274.598.502.28.50.34_b00_c00_d00_w00_x00_y00_z00_ua1.0.0.0.100_uf0.3.0.0_ue_ub_u0_v0_uc7.0.30_ud7.8
5-sad=40***aa13.97.0.42.54.13.97.0.4.70_ab_ac2.52.52.52_ba50_bb17.1_bc185.500.9.0.1_bd17_be180_ca61.0.40.61.14.8.34.0.9_cb0_da1.0.0.100_db_dd10.0.34.50.45_dh1.30.50.50.0_di6_qa_qb_dc80.1.1.1.1_eh4.A27241_ea26.A27241.A27241.56.0.0_ec10.28.A27241.A27241.56.45.60.1_ed28.50.1.1.A27241.56_ef_eg_r0_fa3.50.50.60.50.74.56_fb6_fh_fc0.9.55.0.9.55.50.61.61.50.50.50_fd1.0.19.A27241.56_fe58.61_ff0000000000_fg0.50_pa0.0.0.0.40.50.85.85.0.0_t0_pb_pc_pd_pe_ga0_gb1_gc60.0_ge0000000000_gh_gf_gg_gd10000000_ha59.59_hb49.1.20.99_hc0.61.39.0.61.39_hd8.1.49.49_ia_if_ib_id_ic_jc_ie_ja_jb_jd_je_jf_jg_ka_kb_kc_kd_ke_kf_la_lb_oa_os_ob_oc_od_oe_of_lc_m0_n0_s0_og_oh_oo_op_oq_or_om_on_ok_ol_oi_oj_ad0.0.0.0.0.0.0.0.0.0*0*0*0*0*0*0*0*0#/]a002.0.FAFAFA.11.60.50.146.236.459.502.42.37.34_a012.0.FAFAFA.0.60.50.216.255.461.490.2.74.34_a022.0.FAFAFA.12.60.50.73.210.605.600.28.65.34_a032.1.FAFAFA.10.60.50.287.268.601.502.28.65.34_b00_c00_d00_w00_x00_y00_z00_ua1.0.0.0.100_uf0.3.0.0_ue_ub_u0_v0_uc7.0.30_ud7.8
5-interested=40***aa26.63.0.16.58.24.63.1.0.64_ab_ac2.52.52.52_ba50_bb17.1_bc185.500.9.0.1_bd17_be180_ca61.0.40.61.14.8.34.0.9_cb0_da1.0.0.100_db_dd12.0.34.50.45_dh1.30.50.50.0_di6_qa_qb_dc80.1.1.1.1_eh4.A27241_ea26.A27241.A27241.56.0.0_ec10.28.A27241.A27241.56.45.60.1_ed28.50.1.1.A27241.56_ef_eg_r0_fa5.50.50.60.50.0.56_fb8_fh_fc0.9.55.0.9.55.50.61.61.50.50.50_fd1.0.19.A27241.56_fe58.61_ff0000000000_fg0.50_pa0.0.0.0.40.50.85.85.0.0_t0_pb_pc_pd_pe_ga0_gb1_gc70.0_ge0000000000_gh_gf_gg_gd10000000_ha84.84_hb49.1.44.99_hc0.39.39.0.39.39_hd1.1.49.49_ia_if_ib_id_ic_jc_ie_ja_jb_jd_je_jf_jg_ka_kb_kc_kd_ke_kf_la_lb_oa_os_ob_oc_od_oe_of_lc_m0_n0_s0_og_oh_oo_op_oq_or_om_on_ok_ol_oi_oj_ad0.0.0.0.0.0.0.0.0.0*0*0*0*0*0*0*0*0#/]a002.0.FAFAFA.11.60.50.161.231.443.502.17.71.34_a012.0.FAFAFA.0.60.50.216.252.464.490.2.74.34_a022.0.FAFAFA.12.60.50.73.204.605.600.45.65.34_a032.1.FAFAFA.10.60.50.287.275.601.502.45.65.34_b00_c00_d00_w00_x00_y00_z00_ua1.0.0.0.100_uf0.3.0.0_ue_ub_u0_v0_uc7.0.30_ud7.8
5-calm=40***aa11.98.0.42.54.11.98.0.4.70_ab_ac2.52.52.52_ba50_bb17.1_bc185.500.9.0.1_bd17_be180_ca61.0.40.61.14.8.34.0.9_cb0_da1.0.0.100_db_dd10.0.34.50.45_dh1.30.50.50.0_di6_qa_qb_dc80.1.1.1.1_eh4.A27241_ea26.A27241.A27241.56.0.0_ec10.28.A27241.A27241.56.45.60.1_ed28.50.1.1.A27241.56_ef_eg_r0_fa2.50.50.60.50.65.56_fb7_fh_fc0.9.55.0.9.55.50.61.61.50.50.50_fd1.0.19.A27241.56_fe58.61_ff0000000000_fg0.50_pa0.0.0.0.40.50.85.85.0.0_t0_pb_pc_pd_pe_ga0_gb1_gc60.0_ge0000000000_gh_gf_gg_gd10000000_ha70.70_hb49.1.44.99_hc0.65.39.0.65.39_hd0.1.49.49_ia_if_ib_id_ic_jc_ie_ja_jb_jd_je_jf_jg_ka_kb_kc_kd_ke_kf_la_lb_oa_os_ob_oc_od_oe_of_lc_m0_n0_s0_og_oh_oo_op_oq_or_om_on_ok_ol_oi_oj_ad0.0.0.0.0.0.0.0.0.0*0*0*0*0*0*0*0*0#/]a002.0.FAFAFA.11.60.50.161.240.448.502.45.43.34_a012.0.FAFAFA.0.60.50.216.255.461.490.2.74.34_a022.0.FAFAFA.12.60.50.130.206.577.600.45.65.34_a032.1.FAFAFA.10.60.50.230.272.574.502.45.65.34_b00_c00_d00_w00_x00_y00_z00_ua1.0.0.0.100_uf0.3.0.0_ue_ub_u0_v0_uc7.0.30_ud7.8
5-horny=40***aa10.58.0.42.75.10.58.0.4.75_ab_ac2.52.52.52_ba50_bb17.1_bc185.500.9.0.1_bd17_be180_ca61.0.40.61.14.8.34.0.9_cb0_da1.0.0.100_db_dd14.0.34.50.45_dh1.30.50.50.0_di6_qa_qb_dc80.1.1.1.1_eh4.A27241_ea26.A27241.A27241.56.0.0_ec10.28.A27241.A27241.56.45.60.1_ed28.50.1.1.A27241.56_ef_eg_r0_fa2.50.50.60.50.65.56_fb7_fh_fc0.9.55.0.9.55.50.61.61.50.50.50_fd1.0.19.A27241.56_fe58.61_ff0000000000_fg0.50_pa0.0.0.0.40.50.85.85.0.0_t0_pb_pc_pd_pe_ga0_gb1_gc80.0_ge0000000000_gh_gf_gg_gd10000000_ha87.87_hb49.1.44.99_hc0.59.39.0.59.39_hd27.1.49.49_ia_if_ib_id_ic_jc_ie_ja_jb_jd_je_jf_jg_ka_kb_kc_kd_ke_kf_la_lb_oa_os_ob_oc_od_oe_of_lc_m0_n0_s0_og_oh_oo_op_oq_or_om_on_ok_ol_oi_oj_ad0.0.0.0.0.0.0.0.0.0*0*0*0*0*0*0*0*0#/]a002.0.FAFAFA.11.60.50.161.241.450.502.4.38.34_a012.0.FAFAFA.0.60.50.216.255.461.490.2.74.34_a022.0.FAFAFA.12.60.50.153.204.577.600.28.48.34_a032.1.FAFAFA.10.60.50.209.278.574.502.28.57.34_b00_c00_d00_w00_x00_y00_z00_ua1.0.0.0.100_uf0.3.0.0_ue_ub_u0_v0_uc7.0.30_ud7.8
5-happy=40***aa12.42.0.42.54.12.42.0.4.70_ab_ac2.52.52.52_ba50_bb17.1_bc185.500.9.0.1_bd17_be180_ca61.0.40.61.14.8.34.0.9_cb0_da1.0.0.100_db_dd10.0.34.50.45_dh1.30.50.50.0_di6_qa_qb_dc80.1.1.1.1_eh4.A27241_ea26.A27241.A27241.56.0.0_ec10.28.A27241.A27241.56.45.60.1_ed28.50.1.1.A27241.56_ef_eg_r0_fa2.50.50.60.50.65.56_fb7_fh_fc0.9.55.0.9.55.50.61.61.50.50.50_fd1.0.19.A27241.56_fe58.61_ff0000000000_fg0.50_pa0.0.0.0.40.50.85.85.0.0_t0_pb_pc_pd_pe_ga0_gb1_gc60.0_ge0000000000_gh_gf_gg_gd10000000_ha75.75_hb49.1.44.99_hc0.59.39.0.59.39_hd1.1.49.49_ia_if_ib_id_ic_jc_ie_ja_jb_jd_je_jf_jg_ka_kb_kc_kd_ke_kf_la_lb_oa_os_ob_oc_od_oe_of_lc_m0_n0_s0_og_oh_oo_op_oq_or_om_on_ok_ol_oi_oj_ad0.0.0.0.0.0.0.0.0.0*0*0*0*0*0*0*0*0#/]a002.0.FAFAFA.11.60.50.161.241.447.502.45.42.34_a012.0.FAFAFA.0.60.50.216.255.461.490.2.74.34_a022.0.FAFAFA.12.60.50.58.204.587.600.49.40.34_a032.1.FAFAFA.10.60.50.302.274.587.502.49.45.34_b00_c00_d00_w00_x00_y00_z00_ua1.0.0.0.100_uf0.3.0.0_ue_ub_u0_v0_uc7.0.30_ud7.8
5-smug=40***aa25.71.0.42.45.25.71.0.4.45_ab_ac2.52.52.52_ba50_bb18.1_bc185.500.9.0.1_bd18_be180_ca61.0.40.61.14.8.34.0.9_cb0_da1.0.0.100_db_dd10.0.34.50.45_dh1.30.50.50.0_di6_qa_qb_dc80.1.1.1.1_eh4.A27241_ea26.A27241.A27241.56.0.0_ec10.28.A27241.A27241.56.45.60.1_ed28.50.1.1.A27241.56_ef_eg_r0_fa2.50.50.60.50.42.56_fb7_fh_fc0.9.55.0.9.55.50.61.61.50.50.50_fd1.0.19.A27241.56_fe58.61_ff0000000000_fg0.50_pa0.0.0.0.40.50.85.85.0.0_t0_pb_pc_pd_pe_ga0_gb1_gc60.0_ge0000000000_gh_gf_gg_gd10000000_ha62.62_hb49.1.44.99_hc0.19.39.0.19.39_hd2.1.49.49_ia_if_ib_id_ic_jc_ie_ja_jb_jd_je_jf_jg_ka_kb_kc_kd_ke_kf_la_lb_oa_os_ob_oc_od_oe_of_lc_m0_n0_s0_og_oh_oo_op_oq_or_om_on_ok_ol_oi_oj_ad0.0.0.0.0.0.0.0.0.0*0*0*0*0*0*0*0*0#/]a002.0.FAFAFA.11.60.50.161.241.453.502.45.42.34_a012.0.FAFAFA.0.60.50.216.242.458.459.2.74.34_a022.0.FAFAFA.12.60.50.46.208.615.600.4.40.34_a032.1.FAFAFA.10.60.50.302.271.608.502.4.45.34_b00_c00_d00_w00_x00_y00_z00_ua1.0.0.0.100_uf0.3.0.0_ue_ub_u0_v0_uc7.0.30_ud7.8

#masturbation special cases
4-starting=40***aa18.94.0.3.54.81.14.0.6.69_ab_ac2.52.52.52_ba50_bb17.1_bc185.500.9.0.1_bd17_be180_ca61.0.40.61.14.8.34.0.9_cb0_da1.0.0.100_db_dd10.0.34.50.45_dh1.30.50.50.0_di6_qa_qb_dc1.1.1.1.1_eh4.A27241_ea26.A27241.A27241.56.0.0_ec10.28.A27241.A27241.56.45.60.1_ed28.50.1.1.A27241.56_ef_eg_r0_fa2.50.50.60.50.65.56_fb7_fh_fc0.9.55.0.9.55.50.61.61.50.50.50_fd1.0.19.A27241.56_fe58.61_ff0000000000_fg0.50_pa0.0.0.0.40.50.85.85.0.0_t0_pb_pc_pd_pe_ga0_gb1_gc60.0_ge0000000000_gh_gf_gg_gd10000000_ha76.76_hb49.1.44.99_hc0.65.39.0.65.39_hd42.1.49.49_ia_if_ib_id_ic_jc_ie_ja_jb_jd_je_jf_jg_ka_kb_kc_kd_ke_kf_la_lb_oa_os_ob_oc_od_oe_of_lc_m0_n0_s0_og_oh_oo_op_oq_or_om_on_ok_ol_oi_oj_ad0.0.0.0.0.0.0.0.0.0*0*0*0*0*0*0*0*0#/]a002.1.FAFAFA.10.60.50.137.187.429.600.3.61.34_a012.0.FAFAFA.12.60.50.222.288.461.600.2.50.34_a022.0.FAFAFA.11.60.50.21.194.629.600.26.39.34_a032.1.FAFAFA.8.60.50.315.294.623.500.26.50.34_b00_c00_d00_w00_x00_y00_z00_ua1.0.0.0.100_uf0.3.0.0_ue_ub_u0_v0_uc7.0.30_ud7.8
5-mast=40***aa11.75.1.42.14.11.75.1.4.23_ab_ac2.52.52.52_ba50_bb17.1_bc185.500.9.0.1_bd17_be180_ca61.0.40.61.14.8.34.0.9_cb0_da1.0.0.100_db_dd10.0.34.50.45_dh1.30.50.50.0_di6_qa_qb_dc80.1.1.1.1_eh4.A27241_ea26.A27241.A27241.56.0.0_ec10.28.A27241.A27241.56.45.60.1_ed28.50.1.1.A27241.56_ef_eg_r0_fa2.50.50.60.50.65.56_fb7_fh_fc0.9.55.0.9.55.50.61.61.50.50.50_fd1.0.19.A27241.56_fe58.61_ff0000000000_fg0.50_pa0.0.0.0.40.50.85.85.0.0_t0_pb_pc_pd_pe_ga0_gb1_gc60.0_ge0000000000_gh_gf_gg_gd10000000_ha64.64_hb49.1.17.99_hc0.59.39.0.59.39_hd21.1.49.49_ia_if_ib_id_ic_jc_ie_ja_jb_jd_je_jf_jg_ka_kb_kc_kd_ke_kf_la_lb_oa_os_ob_oc_od_oe_of_lc_m0_n0_s0_og_oh_oo_op_oq_or_om_on_ok_ol_oi_oj_ad0.0.0.0.0.0.0.0.0.0*0*0*0*0*0*0*0*0#/]a002.0.FAFAFA.11.60.50.161.241.447.502.45.42.34_a012.0.FAFAFA.0.60.50.216.255.461.490.2.74.34_a022.0.FAFAFA.12.60.50.58.205.600.600.6.40.34_a032.1.FAFAFA.10.60.50.300.274.598.502.6.45.34_b00_c00_d00_w00_x00_y00_z00_ua1.0.0.0.100_uf0.3.0.0_ue_ub_u0_v0_uc7.0.30_ud7.8
5-heavy=40***aa11.75.1.42.14.11.75.1.4.23_ab_ac2.52.52.52_ba50_bb17.1_bc185.500.9.0.1_bd17_be180_ca61.0.40.61.14.8.34.0.9_cb0_da1.0.0.100_db_dd13.0.34.50.45_dh1.30.50.50.0_di6_qa_qb_dc110.1.1.1.1_eh4.A27241_ea26.A27241.A27241.56.0.0_ec10.28.A27241.A27241.56.45.60.1_ed28.50.1.1.A27241.56_ef_eg_r0_fa2.50.50.60.50.65.56_fb7_fh_fc0.9.55.0.9.55.50.61.61.50.50.50_fd1.0.19.A27241.56_fe58.61_ff0000000000_fg0.50_pa0.0.0.0.40.50.85.85.0.0_t0_pb_pc_pd_pe_ga0_gb1_gc74.0_ge0000000000_gh_gf_gg_gd10000000_ha64.64_hb49.1.17.99_hc0.59.39.0.59.39_hd21.1.49.49_ia_if_ib_id_ic_jc_ie_ja_jb_jd_je_jf_jg_ka_kb_kc_kd_ke_kf_la_lb_oa_os_ob_oc_od_oe_of_lc_m0_n0_s0_og_oh_oo_op_oq_or_om_on_ok_ol_oi_oj_ad0.0.0.0.0.0.0.0.0.0*0*0*0*0*0*0*0*0#/]a002.0.FAFAFA.11.60.50.161.241.439.502.22.36.34_a012.0.FAFAFA.0.60.50.222.250.453.494.14.74.34_a022.0.FAFAFA.12.60.50.58.205.600.600.49.37.34_a032.1.FAFAFA.10.60.50.321.274.599.502.49.25.34_b00_c00_d00_w00_x00_y00_z00_ua1.0.0.0.100_uf0.3.0.0_ue_ub_u0_v0_uc7.0.30_ud7.8
5-finishing=40***aa6.75.1.42.14.6.75.1.4.23_ab_ac2.52.52.52_ba50_bb43.1_bc185.500.9.0.1_bd43_be180_ca61.0.40.61.14.8.34.0.9_cb0_da1.0.0.100_db_dd14.0.34.50.45_dh1.30.50.50.0_di6_qa_qb_dc140.1.1.1.1_eh4.A27241_ea26.A27241.A27241.56.0.0_ec10.28.A27241.A27241.56.45.60.1_ed28.50.1.1.A27241.56_ef_eg_r0_fa2.50.50.60.50.65.56_fb7_fh_fc0.9.55.0.9.55.50.61.61.50.50.50_fd1.0.19.A27241.56_fe58.61_ff0000000000_fg0.50_pa0.0.0.0.40.50.85.85.0.0_t0_pb_pc_pd_pe_ga0_gb1_gc80.0_ge0000000000_gh_gf_gg_gd10000000_ha33.33_hb49.1.17.99_hc0.59.39.0.59.39_hd25.1.49.49_ia_if_ib_id_ic_jc_ie_ja_jb_jd_je_jf_jg_ka_kb_kc_kd_ke_kf_la_lb_oa_os_ob_oc_od_oe_of_lc_m0_n0_s0_og_oh_oo_op_oq_or_om_on_ok_ol_oi_oj_ad0.0.0.0.0.0.0.0.0.0*0*0*0*0*0*0*0*0#/]a002.0.FAFAFA.11.60.50.148.234.442.502.28.36.34_a012.0.FAFAFA.0.60.50.222.248.457.494.14.74.34_a022.0.FAFAFA.12.60.50.58.205.596.600.47.37.34_a032.1.FAFAFA.10.60.50.321.274.595.502.47.25.34_b00_c00_d00_w00_x00_y00_z00_ua1.0.0.0.100_uf0.3.0.0_ue_ub_u0_v0_uc7.1.30_ud7.8
