#May- strip, masturbation art

5-covering=47***aa11.61.1.47.34.11.61.1.47.35_ab_ac_ba50_bb62.1_bc185.200.0.0.1_bd62_be180_ca56.0.36.75.15.34.34.0.10_cb0_da1.0.0.100_db_dd0.3.0.9.17.50_dh1.30.50.50.0_di7_qa_qb_dc2735.3.1.1.1_eh_ea27.55.55.55.1.0_ec7.11.55.55.55.47.64.0_ed0.37.1.1.55.56_ef_eg_r00_fa4.76.87.73.32.65.56_fb7_fh1_fc0.FFDA00.55.0.FFDA00.55.37.61.61.37.48.50_fd1.0.36.55.56_fe50.73_ff0000000000_fg0.52_pa0.0.0.0.40.50.85.85.0.0_t00_pb0.54.54.0_pc_pd_pe_ga0_gb1_gc68.0_ge0000000000_gh_gf_gg_gd11000000_ha72.72_hb50.1.50.99_hc1.43.3.1.43.3_hd38.1.60.38_ia_if_ib_id_ic_jc_ie_ja_jb_jd_je_jf_jg_ka_kb_kc_kd_ke_kf_la_lb_oa_os_ob_oc_od_oe_of_lc_m00_n00_s00_og_oh_oo_op_oq_or_om_on_ok_ol_oi_oj_ad1.1.1.1.1.1.1.1.1.1*0*0*0*0*0*0*0*0#/]a00_b00_c00_d00_w00_x00_e00_y00_z00_ua1.55.0.0.100_uf0.3.0.0_ue_ub_u0_v0_uc7.0.30_ud7.8
5-stripped=54**aa8.67.1.16.60.8.67.1.16.60_ab_ac_ba50_bb72.1_bc150.500.8.0.1.0_bd72_be180_ca63.0.40.63.7.20.10.0.10.0.60.80_daF9DCC3.0.0.100_db_dd9.3.34.30.45.50_dh1.30.50.50.0_di7_qa_qb_dc0.1.1.1.1_eh4.AD8D69.100_ea2.AD8D69.AD8D69.322619.0.0_ec_ed0.16.1.1.AD8D69.322619_ef_eg_r0050.AD8D69.AD8D69.56.0.2.40.17.345.565.560.0_r0120.AD8D69.AD8D69.af8f66.0.2.100.100.143.571.579.0_r0219.AD8D69.AD8D69.322619.1.0.20.20.254.480.382.0_r0319.AD8D69.AD8D69.322619.1.0.26.26.220.480.377.0_r0520.AD8D69.AD8D69.af8f66.0.2.50.50.123.548.575.0_fa2.74.65.48.52.65.56_fb_fh_fc3.2F78CA.55.3.2F78CA.55.50.3D4551.3D4551.50.50.50_fj0.0.0_fd1.1.60.AD8D69.56_fe50.73_ff0000000000_fg0.69.56.0.0.1.0.0_fi_pa0.0.0.0.40.50.85.85.0.0_t00_pb_pc_pd_pe_ga0_gb1_gc55.0_ge0000000000_gh_gf_gg_gd0000000_ha89.89_hb49.1.44.99_hc0.59.39.0.59.39_hd0.1.49.49_ia_if_ib_id_ic_jc_ie_ja_jb_jd_je_jf_jg_ka_kb_kc_kd_ke_kf_la_lb_oa_os_ob_oc_od_oe_of_lc_m00_n00_s00_og_oh_oo_op_oq_or_om_on_ok_ol_oi_oj_ad0.0.0.0.0.0.0.0.0.0
5-covering=54**aa8.67.1.16.60.8.67.1.16.60_ab_ac_ba50_bb72.1_bc150.500.8.0.1.0_bd72_be180_ca63.0.40.63.7.20.10.0.10.0.60.80_daF9DCC3.0.0.100_db_dd9.3.34.30.45.50_dh1.30.50.50.0_di7_qa_qb_dc0.1.1.1.1_eh4.AD8D69.100_ea2.AD8D69.AD8D69.322619.0.0_ec_ed0.16.1.1.AD8D69.322619_ef_eg_r0050.AD8D69.AD8D69.56.0.2.40.17.345.565.560.0_r0120.AD8D69.AD8D69.af8f66.0.2.100.100.143.571.579.0_r0219.AD8D69.AD8D69.322619.1.0.20.20.254.480.382.0_r0319.AD8D69.AD8D69.322619.1.0.26.26.220.480.377.0_r0520.AD8D69.AD8D69.af8f66.0.2.50.50.123.548.575.0_fa2.74.65.48.52.65.56_fb_fh_fc3.2F78CA.55.3.2F78CA.55.50.3D4551.3D4551.50.50.50_fj0.0.0_fd1.1.60.AD8D69.56_fe50.73_ff0000000000_fg0.69.56.0.0.1.0.0_fi_pa0.0.0.0.40.50.85.85.0.0_t00_pb_pc_pd_pe_ga0_gb1_gc55.0_ge0000000000_gh_gf_gg_gd0000000_ha89.89_hb49.1.44.99_hc0.59.39.0.59.39_hd0.1.49.49_ia_if_ib_id_ic_jc_ie_ja_jb_jd_je_jf_jg_ka_kb_kc_kd_ke_kf_la_lb_oa_os_ob_oc_od_oe_of_lc_m00_n00_s00_og_oh_oo_op_oq_or_om_on_ok_ol_oi_oj_ad0.0.0.0.0.0.0.0.0.0

#masturbation
6-masturbate_b=54**aa19.80.1.23.70.19.80.1.23.70_ab_ac_ba50_bb63.1_bc237.500.8.0.1.0_bd63_be180_ca63.0.40.63.7.20.10.0.10.0.60.80_daF9DCC3.0.0.100_db_dd9.3.34.30.45.50_dh1.30.50.50.0_di7_qa_qb_dc60.1.1.1.1_eh4.AD8D69.100_ea2.AD8D69.AD8D69.322619.0.0_ec_ed0.16.1.1.AD8D69.322619_ef_eg_r0050.AD8D69.AD8D69.56.0.2.40.17.345.565.560.0_r0120.AD8D69.AD8D69.af8f66.0.2.100.100.143.571.579.0_r0219.AD8D69.AD8D69.322619.1.0.20.20.254.480.382.0_r0319.AD8D69.AD8D69.322619.1.0.26.26.220.480.377.0_r0520.AD8D69.AD8D69.af8f66.0.2.50.50.123.548.575.0_fa2.74.65.48.52.65.56_fb_fh_fc3.2F78CA.55.3.2F78CA.55.50.3D4551.3D4551.50.50.50_fj1.0.0_fd1.1.60.AD8D69.56_fe50.73_ff0000000000_fg0.69.56.0.0.1.0.0_fi_pa0.0.0.0.40.50.85.85.0.0_t00_pb_pc_pd_pe_ga0_gb1_gc53.0_ge0000000000_gh_gf_gg_gd0000000_ha38.38_hb49.1.100.24_hc0.59.39.0.59.39_hd21.1.49.49_ia_if_ib_id_ic_jc_ie_ja_jb_jd_je_jf_jg_ka_kb_kc_kd_ke_kf_la_lb_oa_os_ob_oc_od_oe_of_lc_m00_n00_s00_og_oh_oo_op_oq_or_om_on_ok_ol_oi_oj_ad0.0.0.0.0.0.0.0.0.0
6-heavy=54**aa19.80.1.23.70.19.80.1.23.70_ab_ac_ba50_bb63.1_bc237.500.8.0.1.0_bd63_be180_ca63.0.40.63.7.20.10.0.10.0.60.80_daF9DCC3.0.0.100_db_dd9.3.34.30.45.50_dh1.30.50.50.0_di7_qa_qb_dc60.1.1.1.1_eh4.AD8D69.100_ea2.AD8D69.AD8D69.322619.0.0_ec_ed0.16.1.1.AD8D69.322619_ef_eg_r0050.AD8D69.AD8D69.56.0.2.40.17.345.565.560.0_r0120.AD8D69.AD8D69.af8f66.0.2.100.100.143.571.579.0_r0219.AD8D69.AD8D69.322619.1.0.20.20.254.480.382.0_r0319.AD8D69.AD8D69.322619.1.0.26.26.220.480.377.0_r0520.AD8D69.AD8D69.af8f66.0.2.50.50.123.548.575.0_fa2.74.65.48.52.65.56_fb_fh_fc3.2F78CA.55.3.2F78CA.55.50.3D4551.3D4551.50.50.50_fj1.0.0_fd1.1.60.AD8D69.56_fe50.73_ff0000000000_fg0.69.56.0.0.1.0.0_fi_pa0.0.0.0.40.50.85.85.0.0_t00_pb_pc_pd_pe_ga0_gb1_gc55.0_ge0000000000_gh_gf_gg_gd0000100_ha54.54_hb50.1.0.45_hc0.59.39.0.59.39_hd59.1.75.43_ia_if_ib_id_ic_jc_ie_ja_jb_jd_je_jf_jg_ka_kb_kc_kd_ke_kf_la_lb_oa_os_ob_oc_od_oe_of_lc_m00_n00_s00_og_oh_oo_op_oq_or_om_on_ok_ol_oi_oj_ad0.0.0.0.0.0.0.0.0.0

0-strip=47***aa19.0.1.0.50.6.100.0.0.50_ab_ac_ba50_bb98.1_bc217.500.0.0.1_bd17_be180_ca70.0.46.62.18.32.34.0.0_cb0_da1.0.E4CCE8.100_db_dd0.1.34.50.50.50_dh4.30.50.57.4_di7_qa_qb_dc0.1.1.1.1_eh4.40_ea24.40.40.56.0.0_ec_ed0.16.1.1.40.56_ef0.0.50.40.40.56_eg0.0.50.40.40.56_r00_fa2.50.57.12.64.65.56_fb7_fh2_fc0.19.55.0.19.55.44.61.61.50.50.50_fd1.1.41.40.56_fe50.61_ff0000000000_fg0.50_pa0.0.0.0.40.50.85.85.0.0_t00_pb_pc_pd_pe_ga0_gb1_gc0.0_ge0000000000_gh_gf_gg_gd10000000_ha89.89_hb49.1.44.99_hc0.59.39.0.59.39_hd0.1.49.49_ia_if_ib7.44.49.60.0.0.0.1.1.0.0.1.0.0.15_id_ic_jc_ie4.56.56.0.2.60.60.0.2.60.60.0.0_ja13.60.2.0_jb13.60.2.0_jd_je14.55.44.60_jf_jg_ka0.43.43.1.0_kb_kc_kd_ke_kf_la18.67CD5F.55.0.1_lb_oa_os_ob_oc_od_oe_of_lc_m013.4EBA43.3.0.2.0.44.0.0.79.3.61_n00_s003.34.34.34.0.38.0.573.534.3.0.0.38.4.61_og_oh_oo_op_oq_or_om_on_ok_ol_oi7.55.60.34.0_oj7.55.60.34.0_ad0.0.0.0.0.0.0.0.0.0*0*0*0*0*0*0*0*0#/]a00_b00_c00_d00_w00_x00_e00_y00_z00_ua1.0.0.0.100_uf0.3.0.0_ue_ub_u0_v0_uc7.0.30_ud7.8
crop_pixels=0,0,800,1400
0-strip=54**aa19.0.1.0.50.6.100.0.0.50_ab_ac_ba50_bb98.1_bc217.200.0.0.1.0_bd17_be180_ca63.0.40.63.7.20.10.0.10.0.60.80_daF9DCC3.0.0.100_db_dd9.3.34.30.45.50_dh1.30.50.50.0_di7_qa_qb_dc0.1.1.1.1_eh4.40.100_ea2.AD8D69.AD8D69.322619.0.0_ec_ed0.16.1.1.AD8D69.322619_ef_eg_r0050.AD8D69.AD8D69.56.0.2.40.17.345.565.560.0_r0120.AD8D69.AD8D69.af8f66.0.2.100.100.143.571.579.0_r0219.AD8D69.AD8D69.322619.1.0.20.20.254.480.382.0_r0319.AD8D69.AD8D69.322619.1.0.26.26.220.480.377.0_r0520.AD8D69.AD8D69.af8f66.0.2.50.50.123.548.575.0_fa2.74.65.48.52.65.56_fb_fh_fc3.2F78CA.55.3.2F78CA.55.50.3D4551.3D4551.50.50.50_fj0.0.0_fd1.1.60.AD8D69.56_fe50.73_ff0000000000_fg0.69.56.0.0.1.0.0_fi_pa0.0.0.0.40.50.85.85.0.0_t00_pb_pc_pd_pe_ga0_gb1_gc0.0_ge0000000000_gh_gf_gg_gd0000000_ha89.89_hb49.1.44.99_hc0.59.39.0.59.39_hd0.1.49.49_ia_if_ib_id_ic_jc_ie_ja_jb_jd3.CB4823.CB4823.57_je3.CB4823.CB4823.57_jf_jg_ka9.CB4823.59.59.0_kb9.CB4823.59.59_kc_kd_ke_kf_la11.CB4823.55.0.1_lb_oa_os_ob_oc_od_oe_of_lc_m0127.CB4823.3.0.1.2.55.100.0.85.2.61_n00_s00_og_oh10.55.BCBDBE.0_oo_op_oq_or_om_on_ok_ol_oi_oj_ad0.0.0.0.0.0.0.0.0.0
1-stripped=54**aa21.0.1.0.50.18.100.1.0.50_ab_ac_ba50_bb17.1_bc217.200.0.0.1.0_bd98_be180_ca63.0.40.63.7.20.10.0.10.0.60.80_daF9DCC3.0.0.100_db_dd9.3.34.30.45.50_dh1.30.50.50.0_di7_qa_qb_dc0.1.1.1.1_eh4.40.100_ea2.AD8D69.AD8D69.322619.0.0_ec_ed0.16.1.1.AD8D69.322619_ef_eg_r0050.AD8D69.AD8D69.56.0.2.40.17.345.565.560.0_r0120.AD8D69.AD8D69.af8f66.0.2.100.100.143.571.579.0_r0219.AD8D69.AD8D69.322619.1.0.20.20.254.480.382.0_r0319.AD8D69.AD8D69.322619.1.0.26.26.220.480.377.0_r0520.AD8D69.AD8D69.af8f66.0.2.50.50.123.548.575.0_fa2.74.65.48.52.65.56_fb_fh_fc3.2F78CA.55.3.2F78CA.55.50.3D4551.3D4551.50.50.50_fj0.0.0_fd1.1.60.AD8D69.56_fe50.73_ff0000000000_fg0.69.56.0.0.1.0.0_fi_pa0.0.0.0.40.50.85.85.0.0_t00_pb_pc_pd_pe_ga0_gb1_gc0.0_ge0000000000_gh_gf_gg_gd0000000_ha89.89_hb49.1.44.99_hc0.59.39.0.59.39_hd0.1.49.49_ia_if_ib_id_ic_jc_ie_ja_jb_jd_je3.CB4823.CB4823.57_jf_jg_ka9.CB4823.59.59.0_kb9.CB4823.59.59_kc_kd_ke_kf_la11.CB4823.55.0.1_lb_oa_os_ob_oc_od_oe_of_lc_m0127.CB4823.3.0.1.2.55.100.0.85.2.61_n00_s00_og_oh10.55.BCBDBE.0_oo_op_oq_or_om_on_ok_ol_oi_oj_ad0.0.0.0.0.0.0.0.0.0

6-finishing=47***aa19.0.1.0.50.6.100.0.0.50_ab_ac_ba50_bb98.1_bc217.200.0.0.1_bd17_be180_ca70.0.46.62.18.32.34.0.0_cb0_da1.0.0.100_db_dd0.1.34.50.50.50_dh4.30.50.57.4_di7_qa_qb_dc0.1.1.1.1_eh4.40_ea24.40.40.56.0.0_ec_ed0.16.1.1.40.56_ef0.0.50.40.40.56_eg0.0.50.40.40.56_r00_fa2.50.57.12.64.65.56_fb7_fh2_fc0.19.55.0.19.55.44.61.61.50.50.50_fd1.1.41.40.56_fe50.61_ff0000000000_fg0.50_pa0.0.0.0.40.50.85.85.0.0_t00_pb_pc_pd_pe_ga0_gb1_gc0.0_ge0000000000_gh_gf_gg_gd10000000_ha89.89_hb49.1.44.99_hc0.59.39.0.59.39_hd0.1.49.49_ia_if_ib7.44.49.60.0.0.0.1.1.0.0.1.0.0.15_id_ic_jc_ie4.56.56.0.2.60.60.0.2.60.60.0.0_ja13.60.2.0_jb13.60.2.0_jd_je14.55.44.60_jf_jg_ka0.43.43.0.0_kb_kc_kd_ke_kf_la18.67CD5F.55.0.1_lb_oa_os_ob_oc_od_oe_of_lc_m013.4EBA43.3.0.2.0.44.0.0.79.3.61_n00_s003.34.34.34.0.38.0.573.534.3.0.0.38.4.61_og_oh_oo_op_oq_or_om_on_ok_ol_oi7.55.60.34.0_oj7.55.60.34.0_ad0.0.0.0.0.0.0.0.0.0*0*0*0*0*0*0*0*0#/]a00_b00_c00_d00_w00_x00_e00_y00_z00_ua1.0.0.0.100_uf0.3.0.0_ue_ub_u0_v0_uc7.0.30_ud7.8
6-finishing=54**aa19.80.1.23.70.19.80.1.23.70_ab_ac_ba50_bb71.1_bc217.200.0.0.1.0_bd71_be180_ca63.0.40.63.7.20.10.0.10.0.60.80_daF9DCC3.0.0.100_db_dd9.3.34.30.45.50_dh1.30.50.50.0_di7_qa_qb_dc60.1.1.1.1_eh4.40.100_ea2.AD8D69.AD8D69.322619.0.0_ec_ed0.16.1.1.AD8D69.322619_ef_eg_r0050.AD8D69.AD8D69.56.0.2.40.17.345.565.560.0_r0120.AD8D69.AD8D69.af8f66.0.2.100.100.143.571.579.0_r0219.AD8D69.AD8D69.322619.1.0.20.20.254.480.382.0_r0319.AD8D69.AD8D69.322619.1.0.26.26.220.480.377.0_r0520.AD8D69.AD8D69.af8f66.0.2.50.50.123.548.575.0_fa2.74.65.48.52.65.56_fb_fh_fc3.2F78CA.55.3.2F78CA.55.50.3D4551.3D4551.50.50.50_fj1.0.0_fd1.1.60.AD8D69.56_fe50.73_ff0000000000_fg0.69.56.0.0.1.0.0_fi_pa0.0.0.0.40.50.85.85.0.0_t00_pb_pc_pd_pe_ga0_gb1_gc70.0_ge0000000000_gh_gf_gg_gd0000100_ha0.0_hb50.1.0.45_hc0.59.39.0.59.39_hd59.1.75.48_ia_if_ib_id_ic_jc_ie_ja_jb_jd_je_jf_jg_ka_kb_kc_kd_ke_kf_la_lb_oa_os_ob_oc_od_oe_of_lc_m00_n00_s00_og_oh_oo_op_oq_or_om_on_ok_ol_oi_oj_ad0.0.0.0.0.0.0.0.0.0


