#Lyn's new poses
#Emotions: Calm,shocked, happy,interested,angry,sad,excited,concerned,horny, loss, strip, stripped. 

#/u/UnderscorM3 cropped the Stage 0 images himself, instead of running them through make_images.py. This is due to the sword existing as an 'ALL' item.
#Already exported and cropped images may be found at the following link for stage 0 only:
#https://imgur.com/a/8p9Tm
    
#Due to the sword exitsing as an "ALL" item, the following is "ALL" code. Each "Set" of code contains 4 poses.


#Stage 0, set 1 (includes Calm,shocked, happy,interested)

#54***0*aa6.74.1.49.43.13.72.1.49.70_ab_ac_ba55_bb8.0_bc267.500.11.0.1.0_bd6_be181_ca66.3.41.66.25.30.59.30.35.0.60.78_da1.0.0.100_db_dd9.1.40.45.25.50_dh2.45.57.53.0_di7_qa_qb_dc0.3.1.1.1_eh2.23.100_ea32.3E7A5F.3E7A5F.56.0.0_ec2.20.3E7A5F.3E7A5F.56.29.49.0_ed4.58.0.1.3E7A5F.56_ef_eg_r0037.3E7A5F.3E7A5F.56.2.0.50.50.350.489.625.0_r0113.6.6.56.1.0.50.50.39.473.609.0_r0218.3E7A5F.3E7A5F.56.1.2.33.33.85.572.603.0_fa12.50.50.60.50.65.56_fb7_fh_fc0.33.55.0.33.55.50.32.32.50.50.50_fj0.0.0_fd1.0.40.3E7A5F.56_fe58.61_ff0000000000_fg2.52.56.0.0.1.0.0_fi_pa0.0.0.0.40.50.85.85.0.0_t00_pb_pc_pd_pe_ga0_gb1_gc7.0_ge0000000000_gh_gf_gg_gd0000000_ha89.89_hb49.1.44.99_hc0.59.39.0.59.39_hd0.1.49.49_ia_if_ib_id6.26.43.44.0.0.1.2.0.0.2.0.0.1_ic_jc_ie_ja12.19.19.0_jb12.19.19.0_jd1.50.50.50_je1.50.50.50_jf_jg_ka10.26.18.18.0_kb_kc_kd_ke_kf_la_lb_oa_os_ob_oc_od_oe_of_lc_m0046.50.3.0.2.1.40.1.6.80.3.61_n00_s0017.41.41.41.0.100.90.500.626.0.6.0.465.1.61_s0117.26.26.26.0.100.90.500.645.0.6.0.415.0.61_s0217.43.43.43.0.100.0.500.574.2.0.0.100.1.61_s032.53.53.45.1.50.344.560.511.2.0.0.50.2.61_s049.52.52.52.0.50.342.500.514.2.0.0.50.2.61_og_oh_oo_op_oq_or_om0.24.24.0_on0.24.24.0_ok_ol_oi11.24.24.55.1_oj11.24.24.55.1_ad0.0.0.0.0.0.0.0.0.0*0*aa9.72.1.47.88.6.59.1.26.21_ab_ac_ba44_bb7.1_bc410.500.8.0.1.0_bd5_be178_ca66.3.41.66.25.30.59.30.35.0.60.78_da1.0.0.100_db_dd9.1.40.45.25.50_dh2.45.57.53.0_di7_qa_qb_dc0.3.1.1.1_eh2.23.100_ea32.3E7A5F.3E7A5F.56.0.0_ec2.20.3E7A5F.3E7A5F.56.29.49.0_ed4.58.0.1.3E7A5F.56_ef_eg_r0037.3E7A5F.3E7A5F.56.2.0.50.50.350.489.625.0_r0113.6.6.56.1.0.50.50.39.473.609.0_r0218.3E7A5F.3E7A5F.56.1.2.33.33.85.572.603.0_fa12.50.50.60.50.65.56_fb7_fh_fc0.33.55.0.33.55.50.32.32.50.50.50_fj0.0.0_fd1.0.40.3E7A5F.56_fe58.61_ff0000000000_fg2.52.56.0.0.1.0.0_fi_pa0.0.0.0.40.50.85.85.0.0_t00_pb_pc_pd_pe_ga0_gb1_gc30.0_ge0000000000_gh_gf_gg_gd0000000_ha89.89_hb49.1.44.99_hc0.59.39.0.59.39_hd38.1.49.49_ia_if_ib_id6.26.43.44.0.0.1.2.0.0.2.0.0.1_ic_jc_ie_ja12.19.19.0_jb12.19.19.0_jd1.50.50.50_je1.50.50.50_jf_jg_ka10.26.0.0.0_kb_kc_kd_ke_kf_la_lb_oa_os_ob_oc_od_oe_of_lc_m0046.50.3.0.2.1.40.1.6.80.3.61_n00_s0017.41.41.41.0.100.90.500.376.2.6.0.460.1.61_s0117.26.26.26.0.100.90.500.387.2.6.0.410.0.61_s0217.43.43.43.0.100.0.500.574.2.0.0.100.1.61_s032.53.53.45.1.50.344.560.511.2.0.0.50.2.61_s049.52.52.52.0.50.342.500.514.2.0.0.50.2.61_og_oh_oo_op_oq_or_om0.24.24.0_on0.24.24.0_ok_ol_oi11.24.24.55.1_oj11.24.24.55.1_ad0.0.0.0.0.0.0.0.0.0*0*aa91.5.1.20.31.69.22.1.16.50_ab4.56.56.52_ac_ba46_bb14.1_bc536.500.12.0.1.0_bd48_be178_ca66.3.41.66.25.30.59.30.35.0.60.78_da1.0.0.100_db_dd9.1.40.45.25.50_dh2.45.57.53.0_di7_qa_qb_dc0.3.1.1.1_eh2.23.100_ea32.3E7A5F.3E7A5F.56.0.0_ec2.20.3E7A5F.3E7A5F.56.29.49.0_ed4.58.0.1.3E7A5F.56_ef_eg_r0037.3E7A5F.3E7A5F.56.1.0.50.50.350.489.625.0_r0113.6.6.56.1.0.50.50.39.473.609.0_r0218.3E7A5F.3E7A5F.56.1.2.33.33.85.572.603.0_fa12.50.50.60.50.65.56_fb7_fh_fc0.33.55.0.33.55.50.32.32.50.50.50_fj0.0.0_fd1.0.40.3E7A5F.56_fe58.61_ff0000000000_fg2.52.56.0.0.1.0.0_fi_pa0.0.0.0.40.50.85.85.0.0_t00_pb_pc_pd_pe_ga0_gb1_gc6.0_ge0000000000_gh_gf_gg_gd0000000_ha89.89_hb49.1.44.99_hc0.59.39.0.59.39_hd23.1.49.49_ia_if_ib_id6.26.43.44.0.0.1.2.0.0.2.0.0.1_ic_jc_ie_ja12.19.19.0_jb12.19.19.0_jd1.50.50.50_je1.50.50.50_jf_jg_ka10.26.1.1.0_kb_kc_kd_ke_kf_la_lb_oa_os_ob_oc_od_oe_of_lc_m0046.50.3.0.1.1.40.1.6.80.3.61_n00_s0017.41.41.41.0.100.90.500.626.0.6.0.460.1.61_s0117.26.26.26.0.100.90.500.645.0.6.0.410.0.61_s0217.43.43.43.0.100.0.500.574.2.0.0.100.1.61_s032.53.53.45.1.50.344.560.511.2.0.0.50.2.61_s049.52.52.52.0.50.342.500.514.2.0.0.50.2.61_og_oh_oo_op_oq_or_om0.24.24.0_on0.24.24.0_ok_ol_oi11.24.24.55.1_oj11.24.24.55.1_ad0.0.0.0.0.0.0.0.0.0*0*aa30.75.0.0.100.5.30.1.4.0_ab_ac_ba39_bb8.1_bc727.500.10.0.1.0_bd17_be181_ca66.3.41.66.25.30.59.30.35.0.60.78_da1.0.0.100_db_dd9.1.40.45.25.50_dh2.45.57.53.0_di7_qa_qb_dc0.3.1.1.1_eh2.23.100_ea32.3E7A5F.3E7A5F.56.0.0_ec2.20.3E7A5F.3E7A5F.56.29.49.0_ed4.58.0.1.3E7A5F.56_ef_eg_r0037.3E7A5F.3E7A5F.56.2.0.50.50.350.489.625.0_r0113.6.6.56.1.0.50.50.39.473.609.0_r0218.3E7A5F.3E7A5F.56.1.2.33.33.85.572.603.0_fa12.50.50.60.50.65.56_fb7_fh_fc0.33.55.0.33.55.50.32.32.50.50.50_fj0.0.0_fd1.0.40.3E7A5F.56_fe58.61_ff0000000000_fg2.52.56.0.0.1.0.0_fi_pa0.0.0.0.40.50.85.85.0.0_t00_pb_pc_pd_pe_ga0_gb1_gc8.0_ge0000000000_gh_gf_gg_gd0000000_ha89.89_hb49.1.44.99_hc0.59.39.0.59.39_hd24.1.49.49_ia_if_ib_id6.26.43.44.0.0.1.2.0.0.2.0.0.1_ic_jc_ie_ja12.19.19.0_jb12.19.19.0_jd1.50.50.50_je1.50.50.50_jf_jg_ka10.26.59.59.0_kb_kc_kd_ke_kf_la_lb_oa_os_ob_oc_od_oe_of_lc_m0046.50.3.0.2.1.40.1.6.80.3.61_n00_s0017.41.41.41.0.100.90.500.626.0.6.0.460.1.61_s0117.26.26.26.0.100.90.500.645.0.6.0.410.0.61_s0217.43.43.43.0.100.0.500.574.2.0.0.100.1.61_s032.53.53.45.1.50.344.560.511.2.0.0.50.2.61_s049.52.52.52.0.50.342.500.514.2.0.0.50.2.61_og_oh_oo_op_oq_or_om0.24.24.0_on0.24.24.0_ok_ol_oi11.24.24.55.1_oj11.24.24.55.1_ad0.0.0.0.0.0.0.0.0.0*0#/]a0012.1.1.1.100.50.81.285.444.499.74.50.34_a0112.1.1.0.100.50.90.415.435.496.74.50.34_a0212.1.1.2.100.50.112.554.438.499.87.50.34_a0312.1.1.3.100.50.62.651.472.499.74.50.34_b004.56.55.52_b014.56.56.52_b024.56.56.52_b034.56.56.52_c00_d00_w00_x00_e00_y00_z00_ua3.0.0.0.0_uf1.0.0.0_ue_ub_u0_v0_uc7.112.32_ud7.0


#Stage 0, Set 2 (includes: angry,sad,excited,concerned)

#54***0*aa25.72.1.0.52.0.11.0.82.21_ab4.57.59.40_ac4.56.56.52_ba51_bb13.1_bc276.500.10.0.1.0_bd19_be180_ca66.3.41.66.25.30.59.30.35.0.60.78_da1.0.0.100_db_dd9.1.40.45.25.50_dh2.45.57.53.0_di7_qa_qb_dc0.3.1.1.1_eh2.23.100_ea32.3E7A5F.3E7A5F.56.0.0_ec2.20.3E7A5F.3E7A5F.56.29.49.0_ed4.58.0.1.3E7A5F.56_ef_eg_r0037.3E7A5F.3E7A5F.56.1.0.50.50.350.489.625.0_r0113.6.6.56.1.0.50.50.39.473.609.0_r0218.3E7A5F.3E7A5F.56.1.2.33.33.85.572.603.0_fa12.50.50.60.50.65.56_fb7_fh_fc0.33.55.0.33.55.50.32.32.50.50.50_fj0.0.0_fd1.0.40.3E7A5F.56_fe58.61_ff0000000000_fg2.52.56.0.0.1.0.0_fi_pa0.0.0.0.40.50.85.85.0.0_t00_pb_pc_pd_pe_ga0_gb1_gc48.15_ge0100000000_gh_gf_gg_gd0000000_ha75.75_hb49.1.44.99_hc1.15.29.1.15.29_hd52.1.49.49_ia_if_ib_id6.26.43.44.0.0.1.2.0.0.2.0.0.1_ic_jc_ie_ja12.19.19.0_jb12.19.19.0_jd1.50.50.50_je1.50.50.50_jf_jg_ka10.26.18.18.0_kb_kc_kd_ke_kf_la_lb_oa_os_ob_oc_od_oe_of_lc_m0046.50.3.0.1.1.40.1.6.80.3.61_n00_s0017.41.41.41.0.100.90.500.626.0.6.0.460.1.61_s0117.26.26.26.0.100.90.500.645.0.6.0.410.0.61_s0217.43.43.43.0.100.0.500.574.2.0.0.100.1.61_s032.53.53.45.1.50.344.560.511.2.0.0.50.2.61_s049.52.52.52.0.50.342.500.514.2.0.0.50.2.61_og_oh_oo_op_oq_or_om0.24.24.0_on0.24.24.0_ok_ol_oi11.24.24.55.1_oj11.24.24.55.1_ad0.0.0.0.0.0.0.0.0.0*0*aa15.77.1.16.54.17.76.1.17.47_ab_ac_ba44_bb3.0_bc410.500.8.0.1.0_bd45_be178_ca66.3.41.66.25.30.59.30.35.0.60.78_da1.0.0.100_db_dd9.1.40.45.25.50_dh2.45.57.53.0_di7_qa_qb_dc0.3.1.1.1_eh2.23.100_ea32.3E7A5F.3E7A5F.56.0.0_ec2.20.3E7A5F.3E7A5F.56.29.49.0_ed4.58.0.1.3E7A5F.56_ef_eg_r0037.3E7A5F.3E7A5F.56.2.0.50.50.350.489.625.0_r0113.6.6.56.1.0.50.50.39.473.609.0_r0218.3E7A5F.3E7A5F.56.1.2.33.33.85.572.603.0_fa12.50.50.60.50.65.56_fb7_fh_fc0.33.55.0.33.55.50.32.32.50.50.50_fj0.0.0_fd1.0.40.3E7A5F.56_fe58.61_ff0000000000_fg2.52.56.0.0.1.0.0_fi_pa0.0.0.0.40.50.85.85.0.0_t00_pb_pc_pd_pe_ga0_gb1_gc6.0_ge0000000000_gh_gf_gg_gd0000000_ha89.89_hb49.1.50.99_hc3.44.16.3.44.16_hd39.1.49.49_ia_if_ib_id6.26.43.44.0.0.1.2.0.0.2.0.0.1_ic_jc_ie_ja12.19.19.0_jb12.19.19.0_jd1.50.50.50_je1.50.50.50_jf_jg_ka10.26.0.0.0_kb_kc_kd_ke_kf_la_lb_oa_os_ob_oc_od_oe_of_lc_m0046.50.3.0.2.1.40.1.6.80.3.61_n00_s0017.41.41.41.0.100.90.500.626.0.6.0.460.1.61_s0117.26.26.26.0.100.90.500.645.0.6.0.410.0.61_s0217.43.43.43.0.100.0.500.574.2.0.0.100.1.61_s032.53.53.45.1.50.344.560.511.2.0.0.50.2.61_s049.52.52.52.0.50.342.500.514.2.0.0.50.2.61_og_oh_oo_op_oq_or_om0.24.24.0_on0.24.24.0_ok_ol_oi11.24.24.55.1_oj11.24.24.55.1_ad0.0.0.0.0.0.0.0.0.0*0*aa10.54.1.16.45.12.54.1.16.41_ab_ac_ba51_bb9.1_bc552.500.12.0.1.0_bd9_be180_ca66.3.41.66.25.30.59.30.35.0.60.78_da1.0.0.100_db_dd9.1.40.45.25.50_dh2.45.57.53.0_di7_qa_qb_dc0.3.1.1.1_eh2.23.100_ea32.3E7A5F.3E7A5F.56.0.0_ec2.20.3E7A5F.3E7A5F.56.29.49.0_ed4.58.0.1.3E7A5F.56_ef_eg_r0037.3E7A5F.3E7A5F.56.2.0.50.50.350.489.625.0_r0113.6.6.56.1.0.50.50.39.473.609.0_r0218.3E7A5F.3E7A5F.56.1.2.33.33.85.572.603.0_fa12.50.50.60.50.65.56_fb7_fh_fc0.33.55.0.33.55.50.32.32.50.50.50_fj0.0.0_fd1.0.40.3E7A5F.56_fe58.61_ff0000000000_fg2.52.56.0.0.1.0.0_fi_pa0.0.0.0.40.50.85.85.0.0_t00_pb_pc_pd_pe_ga0_gb1_gc14.0_ge0000000000_gh_gf_gg_gd0000000_ha89.89_hb50.1.50.99_hc0.24.20.0.24.20_hd24.1.49.49_ia_if_ib_id6.26.43.44.0.0.1.2.0.0.2.0.0.1_ic_jc_ie_ja12.19.19.0_jb12.19.19.0_jd1.50.50.50_je1.50.50.50_jf_jg_ka10.26.1.1.0_kb_kc_kd_ke_kf_la_lb_oa_os_ob_oc_od_oe_of_lc_m0046.50.3.0.1.1.40.1.6.80.3.61_n00_s0017.41.41.41.0.100.90.500.626.0.6.0.460.1.61_s0117.26.26.26.0.100.90.500.645.0.6.0.410.0.61_s0217.43.43.43.0.100.0.500.574.2.0.0.100.1.61_s032.53.53.45.1.50.344.560.511.2.0.0.50.2.61_s049.52.52.52.0.50.342.500.514.2.0.0.50.2.61_og_oh_oo_op_oq_or_om0.24.24.0_on0.24.24.0_ok_ol_oi11.24.24.55.1_oj11.24.24.55.1_ad0.0.0.0.0.0.0.0.0.0*0*aa8.60.1.27.31.8.56.1.27.47_ab_ac_ba39_bb0.1_bc726.500.11.0.1.0_bd43_be174_ca66.3.41.66.25.30.59.30.35.0.60.78_da1.0.0.100_db_dd9.1.40.45.25.50_dh2.45.57.53.0_di7_qa_qb_dc0.3.1.1.1_eh2.23.100_ea32.3E7A5F.3E7A5F.56.0.0_ec2.20.3E7A5F.3E7A5F.56.29.49.0_ed4.58.0.1.3E7A5F.56_ef_eg_r0037.3E7A5F.3E7A5F.56.1.0.50.50.350.489.625.0_r0113.6.6.56.1.0.50.50.39.473.609.0_r0218.3E7A5F.3E7A5F.56.1.2.33.33.85.572.603.0_fa12.50.50.60.50.65.56_fb7_fh_fc0.33.55.0.33.55.50.32.32.50.50.50_fj0.0.0_fd1.0.40.3E7A5F.56_fe58.61_ff0000000000_fg2.52.56.0.0.1.0.0_fi_pa0.0.0.0.40.50.85.85.0.0_t00_pb_pc_pd_pe_ga0_gb1_gc31.15_ge0000000000_gh_gf_gg_gd0000000_ha89.89_hb50.1.50.99_hc3.100.54.3.100.54_hd32.1.49.49_ia_if_ib_id6.26.43.44.0.0.1.2.0.0.2.0.0.1_ic_jc_ie_ja12.19.19.0_jb12.19.19.0_jd1.50.50.50_je1.50.50.50_jf_jg_ka10.26.59.59.0_kb_kc_kd_ke_kf_la_lb_oa_os_ob_oc_od_oe_of_lc_m0046.50.3.0.1.1.40.1.6.80.3.61_n00_s0017.41.41.41.0.100.90.500.626.0.6.0.460.1.61_s0117.26.26.26.0.100.90.500.645.0.6.0.410.0.61_s0217.43.43.43.0.100.0.500.574.2.0.0.100.1.61_s032.53.53.45.1.50.344.560.511.2.0.0.50.2.61_s049.52.52.52.0.50.342.500.514.2.0.0.50.2.61_og_oh_oo_op_oq_or_om0.24.24.0_on0.24.24.0_ok_ol_oi11.24.24.55.1_oj11.24.24.55.1_ad0.0.0.0.0.0.0.0.0.0*0#/]a0112.1.1.0.100.50.90.415.435.496.74.50.34_a0212.1.1.1.100.50.33.566.569.499.48.50.34_a0312.1.1.2.100.50.74.665.447.499.74.50.34_b014.56.56.52_b024.56.56.52_b034.56.56.52_c00_d00_w00_x00_e00_y00_z00_ua3.0.0.0.0_uf1.0.0.0_ue_ub_u0_v0_uc7.112.30_ud7.0


#Stage 0, Set 3 (includes horny, loss, strip, stripped (1-stripped.))

#54***aa7.0.0.0.50.7.0.0.0.50_ab_ac_ba50_bb5.1_bc581.500.7.0.1.0_bd5_be180_ca65.0.30.60.34.34.34.0.0.0.60.80_da2.0.0.100_db_dd0.0.34.50.50.50_dh2.30.50.50.0_di5_qa_qb_dc0.1.2.2.1_eh1.865A2F.100_ea0.865A2F.865A2F.56.0.0_ec1.43.865A2F.865A2F.56.38.57.0_ed0.48.1.1.865A2F.56_ef_eg_r00_fa0.50.50.50.50.65.56_fb7_fh4_fc0.50.55.0.50.55.50.61.61.50.50.50_fj0.0.0_fd0.0.50.865A2F.56_fe50.61_ff0000000000_fg0.50.56.0.0.1.0.0_fi_pa0.0.0.0.40.50.85.85.0.0_t00_pb_pc_pd_pe_ga1_gb1_gc10.0_ge0000000000_gh_gf_gg_gd0000000_ha89.89_hb49.1.44.99_hc0.59.39.0.59.39_hd0.1.49.49_ia0.24.43.0.0.8.0.0.8.0.0_if_ib0.55.55.0.0.0.0.1.5.0.0.5.0.0.2_id_ic0.57.57.57.0_jc0.60.0.0_ie_ja_jb_jd6.48.50.50_je6.48.50.50_jf_jg_ka2.0.0.0.0_kb_kc_kd_ke_kf_la_lb_oa_os_ob_oc_od_oe_of3.22.0.0.0_lc_m00_n000.43.0.0.2.26.100.62.48.3.61_n010.43.0.0.2.54.97.60.63.3.61_s00_og_oh_oo_op_oq_or_om_on_ok_ol_oi_oj_ad0.0.0.0.0.0.0.0.0.0*aa7.53.1.27.81.7.81.1.23.13_ab_ac_ba45_bb8.1_bc242.500.12.0.1.0_bd45_be179_ca66.3.41.66.25.30.59.30.35.0.60.78_da1.0.0.100_db_dd9.1.40.45.25.50_dh2.45.57.53.0_di7_qa_qb_dc0.3.1.1.1_eh2.23.100_ea32.3E7A5F.3E7A5F.56.0.0_ec2.20.3E7A5F.3E7A5F.56.29.49.0_ed4.58.0.1.3E7A5F.56_ef_eg_r0037.3E7A5F.3E7A5F.56.2.0.50.50.350.489.625.0_r0113.6.6.56.1.0.50.50.39.473.609.0_r0218.3E7A5F.3E7A5F.56.1.2.33.33.85.572.603.0_fa12.50.50.60.50.65.56_fb7_fh_fc0.33.55.0.33.55.50.32.32.50.50.50_fj0.0.0_fd1.0.40.3E7A5F.56_fe58.61_ff0000000000_fg2.52.56.0.0.1.0.0_fi_pa0.0.0.0.40.50.85.85.0.0_t00_pb_pc_pd_pe_ga0_gb1_gc15.0_ge0000000000_gh_gf_gg_gd0000000_ha89.89_hb49.1.44.99_hc0.59.39.0.59.39_hd37.1.49.49_ia_if_ib_id6.26.43.44.0.0.1.2.0.0.2.0.0.1_ic_jc_ie_ja12.19.19.0_jb12.19.19.0_jd1.50.50.50_je1.50.50.50_jf_jg_ka10.26.18.18.0_kb_kc_kd_ke_kf_la_lb_oa_os_ob_oc_od_oe_of_lc_m0046.50.3.0.2.1.40.1.6.80.3.61_n00_s0017.41.41.41.0.100.90.500.626.0.6.0.460.1.61_s0117.26.26.26.0.100.90.500.645.0.6.0.410.0.61_s0217.43.43.43.0.100.0.500.574.2.0.0.100.1.61_s032.53.53.45.1.50.344.560.511.2.0.0.50.2.61_s049.52.52.52.0.50.342.500.514.2.0.0.50.2.61_og_oh_oo_op_oq_or_om0.24.24.0_on0.24.24.0_ok_ol_oi11.24.24.55.1_oj11.24.24.55.1_ad0.0.0.0.0.0.0.0.0.0*0*aa15.54.1.26.43.24.56.1.26.17_ab_ac_ba51_bb47.1_bc403.500.11.0.1.0_bd7_be181_ca66.3.41.66.25.30.59.30.35.0.60.78_da1.0.0.100_db_dd9.1.40.45.25.50_dh2.45.57.53.0_di7_qa_qb_dc0.3.1.1.1_eh2.23.100_ea32.3E7A5F.3E7A5F.56.0.0_ec2.20.3E7A5F.3E7A5F.56.29.49.0_ed4.58.0.1.3E7A5F.56_ef_eg_r0037.3E7A5F.3E7A5F.56.2.0.50.50.350.489.625.0_r0113.6.6.56.1.0.50.50.39.473.609.0_r0218.3E7A5F.3E7A5F.56.1.2.33.33.85.572.603.0_fa12.50.50.60.50.65.56_fb7_fh_fc0.33.55.0.33.55.50.32.32.50.50.50_fj0.0.0_fd1.0.40.3E7A5F.56_fe58.61_ff0000000000_fg2.52.56.0.0.1.0.0_fi_pa0.0.0.0.40.50.85.85.0.0_t00_pb_pc_pd_pe_ga0_gb1_gc15.0_ge0000000000_gh_gf_gg_gd0000000_ha89.89_hb50.1.50.99_hc0.78.40.0.78.40_hd36.1.49.49_ia_if_ib_id6.26.43.44.0.0.1.2.0.0.2.0.0.1_ic_jc_ie_ja12.19.19.0_jb12.19.19.0_jd1.50.50.50_je1.50.50.50_jf_jg_ka10.26.0.0.0_kb_kc_kd_ke_kf_la_lb_oa_os_ob_oc_od_oe_of_lc_m0046.50.3.0.2.1.40.1.6.80.3.61_n00_s0017.41.41.41.0.100.90.500.626.0.6.0.460.1.61_s0117.26.26.26.0.100.90.500.645.0.6.0.410.0.61_s0217.43.43.43.0.100.0.500.574.2.0.0.100.1.61_s032.53.53.45.1.50.344.560.511.2.0.0.50.2.61_s049.52.52.52.0.50.342.500.514.2.0.0.50.2.61_og_oh_oo_op_oq_or_om0.24.24.0_on0.24.24.0_ok_ol_oi11.24.24.55.1_oj11.24.24.55.1_ad0.0.0.0.0.0.0.0.0.0*0*aa9.79.1.34.19.29.83.0.5.0_ab4.56.56.52_ac_ba60_bb19.0_bc559.500.10.0.1.0_bd4_be182_ca66.3.41.66.25.30.59.30.35.0.60.78_da1.0.0.100_db_dd9.1.40.45.25.50_dh2.45.57.53.0_di7_qa_qb_dc0.3.1.1.1_eh2.23.100_ea32.3E7A5F.3E7A5F.56.0.0_ec2.20.3E7A5F.3E7A5F.56.29.49.0_ed4.58.0.1.3E7A5F.56_ef_eg_r0037.3E7A5F.3E7A5F.56.1.0.50.50.350.489.625.0_r0218.3E7A5F.3E7A5F.56.1.2.33.33.85.572.603.0_fa12.50.50.60.50.65.56_fb7_fh_fc0.33.55.0.33.55.50.32.32.50.50.50_fj0.0.0_fd1.0.40.3E7A5F.56_fe58.61_ff0000000000_fg2.52.56.0.0.1.0.0_fi_pa0.0.0.0.40.50.85.85.0.0_t00_pb_pc_pd_pe_ga0_gb1_gc0.0_ge0000000000_gh_gf_gg_gd0000000_ha40.40_hb49.1.44.99_hc0.59.39.0.59.39_hd21.1.49.82_ia_if_ib_id6.26.43.44.0.0.1.2.0.0.2.0.0.1_ic_jc_ie_ja12.19.19.0_jb12.19.19.0_jd1.50.50.50_je1.50.50.50_jf_jg_ka10.26.1.1.0_kb_kc_kd_ke_kf_la_lb_oa_os_ob_oc_od_oe_of_lc_m0046.50.3.0.1.1.40.1.6.80.3.61_n00_s0017.41.41.41.0.100.90.500.626.0.6.0.460.1.61_s0117.26.26.26.0.100.90.500.645.0.6.0.410.0.61_s0217.43.43.43.0.100.0.500.574.2.0.0.100.1.61_s032.53.53.45.1.50.344.560.511.2.0.0.50.2.61_s049.52.52.52.0.50.342.500.514.2.0.0.50.2.61_og_oh_oo_op_oq_or_om0.24.24.0_on0.24.24.0_ok_ol_oi11.24.24.55.1_oj11.24.24.55.1_ad0.0.0.0.0.0.0.0.0.0*0*aa17.30.1.11.43.15.80.1.72.50_ab_ac4.56.56.52_ba39_bb15.1_bc715.500.9.0.1.0_bd8_be176_ca66.3.41.66.25.30.59.30.35.0.60.78_da1.0.0.100_db_dd9.1.40.45.25.50_dh2.45.57.53.0_di7_qa_qb_dc0.3.1.1.1_eh2.23.100_ea32.3E7A5F.3E7A5F.56.0.0_ec2.20.3E7A5F.3E7A5F.56.29.49.0_ed4.58.0.1.3E7A5F.56_ef_eg_r0037.3E7A5F.3E7A5F.56.2.0.50.50.350.489.625.0_r0113.6.6.56.1.0.50.50.39.473.609.0_r0218.3E7A5F.3E7A5F.56.1.2.33.33.85.572.603.0_fa12.50.50.60.50.65.56_fb7_fh_fc0.33.55.0.33.55.50.32.32.50.50.50_fj0.0.0_fd1.0.40.3E7A5F.56_fe58.61_ff0000000000_fg2.52.56.0.0.1.0.0_fi_pa0.0.0.0.40.50.85.85.0.0_t00_pb_pc_pd_pe_ga0_gb1_gc0.0_ge0000000000_gh_gf_gg_gd0000000_ha80.80_hb50.1.50.90_hc0.50.39.0.50.39_hd21.1.100.50_ia_if_ib_id6.26.43.44.0.0.1.2.0.0.2.0.0.1_ic_jc_ie_ja12.19.19.0_jb12.19.19.0_jd1.50.50.50_je1.50.50.50_jf_jg_ka10.26.59.59.0_kb_kc_kd_ke_kf_la_lb_oa_os_ob_oc_od_oe_of_lc_m0046.50.3.0.2.1.40.1.6.80.3.61_n00_s0017.41.41.41.0.100.90.500.626.0.6.0.460.1.61_s0117.26.26.26.0.100.90.500.645.0.6.0.410.0.61_s0217.43.43.43.0.100.0.500.574.2.0.0.100.1.61_s032.53.53.45.1.50.344.560.511.2.0.0.50.2.61_s049.52.52.52.0.50.342.500.514.2.0.0.50.2.61_og_oh_oo_op_oq_or_om0.24.24.0_on0.24.24.0_ok_ol_oi11.24.24.55.1_oj11.24.24.55.1_ad0.0.0.0.0.0.0.0.0.0*0#/]a0012.1.1.3.100.50.81.301.527.499.66.50.34_a0112.1.1.0.100.50.90.407.431.496.74.50.34_b004.56.56.52_b014.56.56.52_c00_d00_w00_x00_e00_y00_z00_ua3.0.0.0.0_uf1.0.0.0_ue_ub_u0_v0_uc7.72.57_ud7.0




0-calm=54***aa6.74.1.49.43.13.72.1.49.70_ab_ac_ba55_bb8.0_bc185.500.9.0.1.0_bd6_be181_ca66.0.40.66.30.40.50.0.20.0.60.80_da1.0.0.100_db_dd9.1.40.45.25.50_dh2.45.57.53.0_di7_qa_qb_dc0.3.1.1.1_eh2.23.100_ea32.3E7A5F.3E7A5F.56.0.0_ec2.20.3E7A5F.3E7A5F.56.29.49.0_ed4.58.0.1.3E7A5F.56_ef_eg_r0037.3E7A5F.3E7A5F.56.2.0.50.50.350.489.625.0_r0113.6.6.56.1.0.50.50.39.473.609.0_r0218.3E7A5F.3E7A5F.56.1.2.33.33.85.572.603.0_fa12.50.50.60.50.65.56_fb7_fh_fc0.33.55.0.33.55.50.32.32.50.50.50_fj0.0.0_fd1.0.40.3E7A5F.56_fe58.61_ff0000000000_fg2.52.56.0.0.1.0.0_fi_pa0.0.0.0.40.50.85.85.0.0_t00_pb_pc_pd_pe_ga0_gb1_gc7.0_ge0000000000_gh_gf_gg_gd0000000_ha89.89_hb49.1.44.99_hc0.59.39.0.59.39_hd0.1.49.49_ia_if_ib_id_ic_jc_ie_ja_jb_jd2.AB7044.AB7044.AB7044_je2.AB7044.AB7044.AB7044_jf_jg_ka9.41A9B8.59.42.0_kb9.41A9B8.59.42_kc_kd_ke_kf_la_lb_oa_os_ob_oc_od_oe_of_lc_m0046.50.3.0.2.1.40.1.6.80.3.61_n00_s00_og_oh_oo_op_oq_or_om_on_ok_ol_oi_oj_ad0.0.0.0.0.0.0.0.0.0*0*0*0*0*0*0*0*0#/]a0012.1.1.1.100.50.81.219.444.499.74.50.34_b004.56.55.52_c00_d00_w00_x00_e00_y00_z00_ua1.0.0.0.100_uf0.3.0.0_ue_ub_u0_v0_uc7.0.30_ud7.8

0-shocked=54***aa9.72.1.47.88.6.59.1.26.21_ab_ac_ba44_bb7.1_bc185.500.3.0.1.0_bd5_be178_ca66.0.40.66.30.40.50.0.20.0.60.80_da1.0.0.100_db_dd9.1.40.45.25.50_dh2.45.57.53.0_di7_qa_qb_dc0.3.1.1.1_eh2.23.100_ea32.3E7A5F.3E7A5F.56.0.0_ec2.20.3E7A5F.3E7A5F.56.29.49.0_ed4.58.0.1.3E7A5F.56_ef_eg_r0037.3E7A5F.3E7A5F.56.2.0.50.50.350.489.625.0_r0113.6.6.56.1.0.50.50.39.473.609.0_r0218.3E7A5F.3E7A5F.56.1.2.33.33.85.572.603.0_fa12.50.50.60.50.65.56_fb7_fh_fc0.33.55.0.33.55.50.32.32.50.50.50_fj0.0.0_fd1.0.40.3E7A5F.56_fe58.61_ff0000000000_fg2.52.56.0.0.1.0.0_fi_pa0.0.0.0.40.50.85.85.0.0_t00_pb_pc_pd_pe_ga0_gb1_gc30.0_ge0000000000_gh_gf_gg_gd0000000_ha89.89_hb49.1.44.99_hc0.59.39.0.59.39_hd38.1.49.49_ia_if_ib_id_ic_jc_ie_ja_jb_jd2.AB7044.AB7044.AB7044_je2.AB7044.AB7044.AB7044_jf_jg_ka9.41A9B8.59.42.0_kb9.41A9B8.59.42_kc_kd_ke_kf_la_lb_oa_os_ob_oc_od_oe_of_lc_m0046.50.3.0.2.1.40.1.6.80.3.61_n00_s00_og_oh_oo_op_oq_or_om_on_ok_ol_oi_oj_ad0.0.0.0.0.0.0.0.0.0*0*0*0*0*0*0*0*0#/]a0012.1.1.1.100.50.81.219.444.499.74.50.34_b004.56.55.52_c00_d00_w00_x00_e00_y00_z00_ua1.0.0.0.100_uf0.3.0.0_ue_ub_u0_v0_uc7.0.30_ud7.8

0-happy=54***aa91.5.1.29.64.69.22.1.16.50_ab_ac_ba46_bb14.1_bc185.500.3.0.1.0_bd48_be178_ca66.0.40.66.30.40.50.0.20.0.60.80_da1.0.0.100_db_dd9.1.40.45.25.50_dh2.45.57.53.0_di7_qa_qb_dc0.3.1.1.1_eh2.23.100_ea32.3E7A5F.3E7A5F.56.0.0_ec2.20.3E7A5F.3E7A5F.56.29.49.0_ed4.58.0.1.3E7A5F.56_ef_eg_r0037.3E7A5F.3E7A5F.56.1.0.50.50.350.489.625.0_r0113.6.6.56.1.0.50.50.39.473.609.0_r0218.3E7A5F.3E7A5F.56.1.2.33.33.85.572.603.0_fa12.50.50.60.50.65.56_fb7_fh_fc0.33.55.0.33.55.50.32.32.50.50.50_fj0.0.0_fd1.0.40.3E7A5F.56_fe58.61_ff0000000000_fg2.52.56.0.0.1.0.0_fi_pa0.0.0.0.40.50.85.85.0.0_t00_pb_pc_pd_pe_ga0_gb1_gc6.0_ge0000000000_gh_gf_gg_gd0000000_ha89.89_hb49.1.44.99_hc0.59.39.0.59.39_hd23.1.49.49_ia_if_ib_id_ic_jc_ie_ja_jb_jd2.AB7044.AB7044.AB7044_je2.AB7044.AB7044.AB7044_jf_jg_ka9.41A9B8.59.42.0_kb9.41A9B8.59.42_kc_kd_ke_kf_la_lb_oa_os_ob_oc_od_oe_of_lc_m0046.50.3.0.2.1.40.1.6.80.3.61_n00_s00_og_oh_oo_op_oq_or_om_on_ok_ol_oi_oj_ad0.0.0.0.0.0.0.0.0.0*0*0*0*0*0*0*0*0#/]a0012.1.1.1.100.50.81.219.444.499.74.50.34_b004.56.55.52_c00_d00_w00_x00_e00_y00_z00_ua1.0.0.0.100_uf0.3.0.0_ue_ub_u0_v0_uc7.0.30_ud7.8

0-interested=54***aa30.75.0.0.100.5.30.1.4.0_ab_ac_ba39_bb8.1_bc185.500.3.0.1.0_bd17_be181_ca66.0.40.66.30.40.50.0.20.0.60.80_da1.0.0.100_db_dd9.1.40.45.25.50_dh2.45.57.53.0_di7_qa_qb_dc0.3.1.1.1_eh2.23.100_ea32.3E7A5F.3E7A5F.56.0.0_ec2.20.3E7A5F.3E7A5F.56.29.49.0_ed4.58.0.1.3E7A5F.56_ef_eg_r0037.3E7A5F.3E7A5F.56.2.0.50.50.350.489.625.0_r0113.6.6.56.1.0.50.50.39.473.609.0_r0218.3E7A5F.3E7A5F.56.1.2.33.33.85.572.603.0_fa12.50.50.60.50.65.56_fb7_fh_fc0.33.55.0.33.55.50.32.32.50.50.50_fj0.0.0_fd1.0.40.3E7A5F.56_fe58.61_ff0000000000_fg2.52.56.0.0.1.0.0_fi_pa0.0.0.0.40.50.85.85.0.0_t00_pb_pc_pd_pe_ga0_gb1_gc8.0_ge0000000000_gh_gf_gg_gd0000000_ha89.89_hb49.1.44.99_hc0.59.39.0.59.39_hd24.1.49.49_ia_if_ib_id_ic_jc_ie_ja_jb_jd2.AB7044.AB7044.AB7044_je2.AB7044.AB7044.AB7044_jf_jg_ka9.41A9B8.59.42.0_kb9.41A9B8.59.42_kc_kd_ke_kf_la_lb_oa_os_ob_oc_od_oe_of_lc_m0046.50.3.0.2.1.40.1.6.80.3.61_n00_s00_og_oh_oo_op_oq_or_om_on_ok_ol_oi_oj_ad0.0.0.0.0.0.0.0.0.0*0*0*0*0*0*0*0*0#/]a0012.1.1.1.100.50.81.218.451.499.74.43.34_b004.56.55.52_c00_d00_w00_x00_e00_y00_z00_ua1.0.0.0.100_uf0.3.0.0_ue_ub_u0_v0_uc7.0.30_ud7.8

0-angry=54***aa25.72.1.0.52.0.11.0.82.21_ab4.57.59.40_ac4.56.56.52_ba51_bb13.1_bc185.500.3.0.1.0_bd19_be180_ca66.0.40.66.30.40.50.0.20.0.60.80_da1.0.0.100_db_dd9.1.40.45.25.50_dh2.45.57.53.0_di7_qa_qb_dc0.3.1.1.1_eh2.23.100_ea32.3E7A5F.3E7A5F.56.0.0_ec2.20.3E7A5F.3E7A5F.56.29.49.0_ed4.58.0.1.3E7A5F.56_ef_eg_r0037.3E7A5F.3E7A5F.56.1.0.50.50.350.489.625.0_r0113.6.6.56.1.0.50.50.39.473.609.0_r0218.3E7A5F.3E7A5F.56.1.2.33.33.85.572.603.0_fa12.50.50.60.50.65.56_fb7_fh_fc0.33.55.0.33.55.50.32.32.50.50.50_fj0.0.0_fd1.0.40.3E7A5F.56_fe58.61_ff0000000000_fg2.52.56.0.0.1.0.0_fi_pa0.0.0.0.40.50.85.85.0.0_t00_pb_pc_pd_pe_ga0_gb1_gc48.15_ge0100000000_gh_gf_gg_gd0000000_ha75.75_hb49.1.44.99_hc1.15.29.1.15.29_hd52.1.49.49_ia_if_ib_id_ic_jc_ie_ja_jb_jd2.AB7044.AB7044.AB7044_je2.AB7044.AB7044.AB7044_jf_jg_ka9.41A9B8.59.42.0_kb9.41A9B8.59.42_kc_kd_ke_kf_la_lb_oa_os_ob_oc_od_oe_of_lc_m0046.50.3.0.2.1.40.1.6.80.3.61_n00_s00_og_oh_oo_op_oq_or_om_on_ok_ol_oi_oj_ad0.0.0.0.0.0.0.0.0.0*0*0*0*0*0*0*0*0#/]a00_c00_d00_w00_x00_e00_y00_z00_ua1.0.0.0.100_uf0.3.0.0_ue_ub_u0_v0_uc7.0.30_ud7.8

0-sad=54***aa15.77.1.16.54.17.76.1.17.47_ab_ac_ba44_bb3.0_bc185.500.3.0.1.0_bd45_be178_ca66.0.40.66.30.40.50.0.20.0.60.80_da1.0.0.100_db_dd9.1.40.45.25.50_dh2.45.57.53.0_di7_qa_qb_dc0.3.1.1.1_eh2.23.100_ea32.3E7A5F.3E7A5F.56.0.0_ec2.20.3E7A5F.3E7A5F.56.29.49.0_ed4.58.0.1.3E7A5F.56_ef_eg_r0037.3E7A5F.3E7A5F.56.2.0.50.50.350.489.625.0_r0113.6.6.56.1.0.50.50.39.473.609.0_r0218.3E7A5F.3E7A5F.56.1.2.33.33.85.572.603.0_fa12.50.50.60.50.65.56_fb7_fh_fc0.33.55.0.33.55.50.32.32.50.50.50_fj0.0.0_fd1.0.40.3E7A5F.56_fe58.61_ff0000000000_fg2.52.56.0.0.1.0.0_fi_pa0.0.0.0.40.50.85.85.0.0_t00_pb_pc_pd_pe_ga0_gb1_gc6.0_ge0000000000_gh_gf_gg_gd0000000_ha89.89_hb49.1.50.99_hc3.44.16.3.44.16_hd39.1.49.49_ia_if_ib_id_ic_jc_ie_ja_jb_jd2.AB7044.AB7044.AB7044_je2.AB7044.AB7044.AB7044_jf_jg_ka9.41A9B8.59.42.0_kb9.41A9B8.59.42_kc_kd_ke_kf_la_lb_oa_os_ob_oc_od_oe_of_lc_m0046.50.3.0.2.1.40.1.6.80.3.61_n00_s00_og_oh_oo_op_oq_or_om_on_ok_ol_oi_oj_ad0.0.0.0.0.0.0.0.0.0*0*0*0*0*0*0*0*0#/]a0012.1.1.1.100.50.81.219.444.499.74.50.34_b004.56.55.52_c00_d00_w00_x00_e00_y00_z00_ua1.0.0.0.100_uf0.3.0.0_ue_ub_u0_v0_uc7.0.30_ud7.8

0-excited=54***aa10.54.1.16.45.12.54.1.16.41_ab_ac_ba51_bb9.1_bc185.500.3.0.1.0_bd9_be180_ca66.0.40.66.30.40.50.0.20.0.60.80_da1.0.0.100_db_dd9.1.40.45.25.50_dh2.45.57.53.0_di7_qa_qb_dc0.3.1.1.1_eh2.23.100_ea32.3E7A5F.3E7A5F.56.0.0_ec2.20.3E7A5F.3E7A5F.56.29.49.0_ed4.58.0.1.3E7A5F.56_ef_eg_r0037.3E7A5F.3E7A5F.56.2.0.50.50.350.489.625.0_r0113.6.6.56.1.0.50.50.39.473.609.0_r0218.3E7A5F.3E7A5F.56.1.2.33.33.85.572.603.0_fa12.50.50.60.50.65.56_fb7_fh_fc0.33.55.0.33.55.50.32.32.50.50.50_fj0.0.0_fd1.0.40.3E7A5F.56_fe58.61_ff0000000000_fg2.52.56.0.0.1.0.0_fi_pa0.0.0.0.40.50.85.85.0.0_t00_pb_pc_pd_pe_ga0_gb1_gc14.0_ge0000000000_gh_gf_gg_gd0000000_ha89.89_hb50.1.50.99_hc0.24.20.0.24.20_hd24.1.49.49_ia_if_ib_id_ic_jc_ie_ja_jb_jd2.AB7044.AB7044.AB7044_je2.AB7044.AB7044.AB7044_jf_jg_ka9.41A9B8.59.42.0_kb9.41A9B8.59.42_kc_kd_ke_kf_la_lb_oa_os_ob_oc_od_oe_of_lc_m0046.50.3.0.2.1.40.1.6.80.3.61_n00_s00_og_oh_oo_op_oq_or_om_on_ok_ol_oi_oj_ad0.0.0.0.0.0.0.0.0.0*0*0*0*0*0*0*0*0#/]a0012.1.1.1.100.50.81.219.444.499.74.50.34_b004.56.55.52_c00_d00_w00_x00_e00_y00_z00_ua1.0.0.0.100_uf0.3.0.0_ue_ub_u0_v0_uc7.0.30_ud7.8

0-concerned=54***aa8.60.1.27.31.8.56.1.27.47_ab_ac_ba39_bb0.1_bc185.500.3.0.1.0_bd43_be174_ca66.0.40.66.30.40.50.0.20.0.60.80_da1.0.0.100_db_dd9.1.40.45.25.50_dh2.45.57.53.0_di7_qa_qb_dc0.3.1.1.1_eh2.23.100_ea32.3E7A5F.3E7A5F.56.0.0_ec2.20.3E7A5F.3E7A5F.56.29.49.0_ed4.58.0.1.3E7A5F.56_ef_eg_r0037.3E7A5F.3E7A5F.56.1.0.50.50.350.489.625.0_r0113.6.6.56.1.0.50.50.39.473.609.0_r0218.3E7A5F.3E7A5F.56.1.2.33.33.85.572.603.0_fa12.50.50.60.50.65.56_fb7_fh_fc0.33.55.0.33.55.50.32.32.50.50.50_fj0.0.0_fd1.0.40.3E7A5F.56_fe58.61_ff0000000000_fg2.52.56.0.0.1.0.0_fi_pa0.0.0.0.40.50.85.85.0.0_t00_pb_pc_pd_pe_ga0_gb1_gc31.15_ge0000000000_gh_gf_gg_gd0000000_ha89.89_hb50.1.50.99_hc3.100.54.3.100.54_hd32.1.49.49_ia_if_ib_id_ic_jc_ie_ja_jb_jd2.AB7044.AB7044.AB7044_je2.AB7044.AB7044.AB7044_jf_jg_ka9.41A9B8.59.42.0_kb9.41A9B8.59.42_kc_kd_ke_kf_la_lb_oa_os_ob_oc_od_oe_of_lc_m0046.50.3.0.2.1.40.1.6.80.3.61_n00_s00_og_oh_oo_op_oq_or_om_on_ok_ol_oi_oj_ad0.0.0.0.0.0.0.0.0.0*0*0*0*0*0*0*0*0#/]a0012.1.1.1.100.50.81.219.444.499.74.50.34_b004.56.55.52_c00_d00_w00_x00_e00_y00_z00_ua1.0.0.0.100_uf0.3.0.0_ue_ub_u0_v0_uc7.0.30_ud7.8

0-horny=54***aa7.53.1.27.81.7.81.1.23.13_ab_ac_ba45_bb8.1_bc185.500.3.0.1.0_bd45_be179_ca66.0.40.66.30.40.50.0.20.0.60.80_da1.0.0.100_db_dd9.1.40.45.25.50_dh2.45.57.53.0_di7_qa_qb_dc0.3.1.1.1_eh2.23.100_ea32.3E7A5F.3E7A5F.56.0.0_ec2.20.3E7A5F.3E7A5F.56.29.49.0_ed4.58.0.1.3E7A5F.56_ef_eg_r0037.3E7A5F.3E7A5F.56.2.0.50.50.350.489.625.0_r0113.6.6.56.1.0.50.50.39.473.609.0_r0218.3E7A5F.3E7A5F.56.1.2.33.33.85.572.603.0_fa12.50.50.60.50.65.56_fb7_fh_fc0.33.55.0.33.55.50.32.32.50.50.50_fj0.0.0_fd1.0.40.3E7A5F.56_fe58.61_ff0000000000_fg2.52.56.0.0.1.0.0_fi_pa0.0.0.0.40.50.85.85.0.0_t00_pb_pc_pd_pe_ga0_gb1_gc15.0_ge0000000000_gh_gf_gg_gd0000000_ha89.89_hb49.1.44.99_hc0.59.39.0.59.39_hd37.1.49.49_ia_if_ib_id_ic_jc_ie_ja_jb_jd2.AB7044.AB7044.AB7044_je2.AB7044.AB7044.AB7044_jf_jg_ka9.41A9B8.59.42.0_kb9.41A9B8.59.42_kc_kd_ke_kf_la_lb_oa_os_ob_oc_od_oe_of_lc_m0046.50.3.0.2.1.40.1.6.80.3.61_n00_s00_og_oh_oo_op_oq_or_om_on_ok_ol_oi_oj_ad0.0.0.0.0.0.0.0.0.0*0*0*0*0*0*0*0*0#/]a0012.1.1.1.100.50.81.219.444.499.74.50.34_b004.56.55.52_c00_d00_w00_x00_e00_y00_z00_ua1.0.0.0.100_uf0.3.0.0_ue_ub_u0_v0_uc7.0.30_ud7.8

0-loss=54***aa15.54.1.26.43.24.56.1.26.17_ab_ac_ba51_bb47.1_bc185.500.3.0.1.0_bd7_be181_ca66.0.40.66.30.40.50.0.20.0.60.80_da1.0.0.100_db_dd9.1.40.45.25.50_dh2.45.57.53.0_di7_qa_qb_dc0.3.1.1.1_eh2.23.100_ea32.3E7A5F.3E7A5F.56.0.0_ec2.20.3E7A5F.3E7A5F.56.29.49.0_ed4.58.0.1.3E7A5F.56_ef_eg_r0037.3E7A5F.3E7A5F.56.2.0.50.50.350.489.625.0_r0113.6.6.56.1.0.50.50.39.473.609.0_r0218.3E7A5F.3E7A5F.56.1.2.33.33.85.572.603.0_fa12.50.50.60.50.65.56_fb7_fh_fc0.33.55.0.33.55.50.32.32.50.50.50_fj0.0.0_fd1.0.40.3E7A5F.56_fe58.61_ff0000000000_fg2.52.56.0.0.1.0.0_fi_pa0.0.0.0.40.50.85.85.0.0_t00_pb_pc_pd_pe_ga0_gb1_gc15.0_ge0000000000_gh_gf_gg_gd0000000_ha89.89_hb50.1.50.99_hc0.78.40.0.78.40_hd36.1.49.49_ia_if_ib_id_ic_jc_ie_ja_jb_jd2.AB7044.AB7044.AB7044_je2.AB7044.AB7044.AB7044_jf_jg_ka9.41A9B8.59.42.0_kb9.41A9B8.59.42_kc_kd_ke_kf_la_lb_oa_os_ob_oc_od_oe_of_lc_m0046.50.3.0.2.1.40.1.6.80.3.61_n00_s00_og_oh_oo_op_oq_or_om_on_ok_ol_oi_oj_ad0.0.0.0.0.0.0.0.0.0*0*0*0*0*0*0*0*0#/]a0012.1.1.1.100.50.81.219.444.499.74.50.34_b004.56.55.52_c00_d00_w00_x00_e00_y00_z00_ua1.0.0.0.100_uf0.3.0.0_ue_ub_u0_v0_uc7.0.30_ud7.8

0-strip=54***aa9.79.1.34.19.29.83.0.5.0_ab4.56.56.52_ac_ba60_bb19.0_bc185.500.3.0.1.0_bd4_be182_ca66.0.40.66.30.40.50.0.20.0.60.80_da1.0.0.100_db_dd9.1.40.45.25.50_dh2.45.57.53.0_di7_qa_qb_dc0.3.1.1.1_eh2.23.100_ea32.3E7A5F.3E7A5F.56.0.0_ec2.20.3E7A5F.3E7A5F.56.29.49.0_ed4.58.0.1.3E7A5F.56_ef_eg_r0037.3E7A5F.3E7A5F.56.1.0.50.50.350.489.625.0_r0218.3E7A5F.3E7A5F.56.1.2.33.33.85.572.603.0_fa12.50.50.60.50.65.56_fb7_fh_fc0.33.55.0.33.55.50.32.32.50.50.50_fj0.0.0_fd1.0.40.3E7A5F.56_fe58.61_ff0000000000_fg2.52.56.0.0.1.0.0_fi_pa0.0.0.0.40.50.85.85.0.0_t00_pb_pc_pd_pe_ga0_gb1_gc0.0_ge0000000000_gh_gf_gg_gd0000000_ha40.40_hb49.1.44.99_hc0.59.39.0.59.39_hd21.1.49.82_ia_if_ib_id_ic_jc_ie_ja_jb_jd2.AB7044.AB7044.AB7044_je2.AB7044.AB7044.AB7044_jf_jg_ka9.41A9B8.59.42.0_kb9.41A9B8.59.42_kc_kd_ke_kf_la_lb_oa_os_ob_oc_od_oe_of_lc_m0046.50.3.0.2.1.40.1.6.80.3.61_n00_s00_og_oh_oo_op_oq_or_om_on_ok_ol_oi_oj_ad0.0.0.0.0.0.0.0.0.0*0*0*0*0*0*0*0*0#/]a00_c00_d00_w00_x00_e00_y00_z00_ua1.0.0.0.100_uf0.3.0.0_ue_ub_u0_v0_uc7.0.30_ud7.8

#Stage 1 Lost Sword

1-stripped=54***aa17.30.1.11.43.15.80.1.72.50_ab_ac4.56.56.52_ba39_bb15.1_bc185.500.3.0.1.0_bd8_be176_ca66.0.41.66.25.30.59.30.35.0.60.78_da1.0.0.100_db_dd9.1.40.45.25.50_dh2.45.57.53.0_di7_qa_qb_dc0.3.1.1.1_eh2.23.100_ea32.3E7A5F.3E7A5F.56.0.0_ec2.20.3E7A5F.3E7A5F.56.29.49.0_ed4.58.0.1.3E7A5F.56_ef_eg_r0037.3E7A5F.3E7A5F.56.2.0.50.50.350.489.625.0_r0113.6.6.56.1.0.50.50.39.473.609.0_r0218.3E7A5F.3E7A5F.56.1.2.33.33.85.572.603.0_fa12.50.50.60.50.65.56_fb7_fh_fc0.33.55.0.33.55.50.32.32.50.50.50_fj0.0.0_fd1.0.40.3E7A5F.56_fe58.61_ff0000000000_fg2.52.56.0.0.1.0.0_fi_pa0.0.0.0.40.50.85.85.0.0_t00_pb_pc_pd_pe_ga0_gb1_gc0.0_ge0000000000_gh_gf_gg_gd0000000_ha80.80_hb50.1.50.90_hc0.50.39.0.50.39_hd21.1.100.50_ia_if_ib_id_ic_jc_ie_ja_jb_jd2.AB7044.AB7044.AB7044_je2.AB7044.AB7044.AB7044_jf_jg_ka9.41A9B8.59.42.0_kb9.41A9B8.59.42_kc_kd_ke_kf_la_lb_oa_os_ob_oc_od_oe_of_lc_m0046.50.3.0.2.1.40.1.6.80.3.61_n00_s00_og_oh_oo_op_oq_or_om_on_ok_ol_oi_oj_ad0.0.0.0.0.0.0.0.0.0*0*0*0*0*0*0*0*0#/]a00_c00_d00_w00_x00_e00_y00_z00_ua1.0.0.0.100_uf0.3.0.0_ue_ub_u0_v0_uc7.0.30_ud7.8

1-calm=54**aa6.74.1.49.43.13.72.1.49.70_ab_ac_ba55_bb8.0_bc185.500.3.0.1.0_bd6_be181_ca66.0.40.66.30.40.50.0.20.0.60.80_da1.0.0.100_db_dd9.1.40.45.25.50_dh2.45.57.53.0_di7_qa_qb_dc0.3.1.1.1_eh2.23.100_ea32.3E7A5F.3E7A5F.56.0.0_ec2.20.3E7A5F.3E7A5F.56.29.49.0_ed4.58.0.1.3E7A5F.56_ef_eg_r0037.3E7A5F.3E7A5F.56.2.0.50.50.350.489.625.0_r0113.6.6.56.1.0.50.50.39.473.609.0_r0218.3E7A5F.3E7A5F.56.1.2.33.33.85.572.603.0_fa12.50.50.60.50.65.56_fb7_fh_fc0.33.55.0.33.55.50.32.32.50.50.50_fj0.0.0_fd1.0.40.3E7A5F.56_fe58.61_ff0000000000_fg2.52.56.0.0.1.0.0_fi_pa0.0.0.0.40.50.85.85.0.0_t00_pb_pc_pd_pe_ga0_gb1_gc7.0_ge0000000000_gh_gf_gg_gd0000000_ha89.89_hb49.1.44.99_hc0.59.39.0.59.39_hd0.1.49.49_ia_if_ib_id_ic_jc_ie_ja_jb_jd2.AB7044.AB7044.AB7044_je2.AB7044.AB7044.AB7044_jf_jg_ka9.41A9B8.59.42.0_kb9.41A9B8.59.42_kc_kd_ke_kf_la_lb_oa_os_ob_oc_od_oe_of_lc_m0046.50.3.0.2.1.40.1.6.80.3.61_n00_s00_og_oh_oo_op_oq_or_om_on_ok_ol_oi_oj_ad0.0.0.0.0.0.0.0.0.0

1-shocked=54**aa9.72.1.47.88.6.59.1.26.21_ab_ac_ba44_bb7.1_bc185.500.3.0.1.0_bd5_be178_ca66.0.40.66.30.40.50.0.20.0.60.80_da1.0.0.100_db_dd9.1.40.45.25.50_dh2.45.57.53.0_di7_qa_qb_dc0.3.1.1.1_eh2.23.100_ea32.3E7A5F.3E7A5F.56.0.0_ec2.20.3E7A5F.3E7A5F.56.29.49.0_ed4.58.0.1.3E7A5F.56_ef_eg_r0037.3E7A5F.3E7A5F.56.2.0.50.50.350.489.625.0_r0113.6.6.56.1.0.50.50.39.473.609.0_r0218.3E7A5F.3E7A5F.56.1.2.33.33.85.572.603.0_fa12.50.50.60.50.65.56_fb7_fh_fc0.33.55.0.33.55.50.32.32.50.50.50_fj0.0.0_fd1.0.40.3E7A5F.56_fe58.61_ff0000000000_fg2.52.56.0.0.1.0.0_fi_pa0.0.0.0.40.50.85.85.0.0_t00_pb_pc_pd_pe_ga0_gb1_gc30.0_ge0000000000_gh_gf_gg_gd0000000_ha89.89_hb49.1.44.99_hc0.59.39.0.59.39_hd38.1.49.49_ia_if_ib_id_ic_jc_ie_ja_jb_jd2.AB7044.AB7044.AB7044_je2.AB7044.AB7044.AB7044_jf_jg_ka9.41A9B8.59.42.0_kb9.41A9B8.59.42_kc_kd_ke_kf_la_lb_oa_os_ob_oc_od_oe_of_lc_m0046.50.3.0.2.1.40.1.6.80.3.61_n00_s00_og_oh_oo_op_oq_or_om_on_ok_ol_oi_oj_ad0.0.0.0.0.0.0.0.0.0

1-happy=54**aa91.5.1.29.64.69.22.1.16.50_ab_ac_ba46_bb48.0_bc185.500.3.0.1.0_bd14_be178_ca66.0.40.66.30.40.50.0.20.0.60.80_da1.0.0.100_db_dd9.1.40.45.25.50_dh2.45.57.53.0_di7_qa_qb_dc0.3.1.1.1_eh2.23.100_ea32.3E7A5F.3E7A5F.56.0.0_ec2.20.3E7A5F.3E7A5F.56.29.49.0_ed4.58.0.1.3E7A5F.56_ef_eg_r0037.3E7A5F.3E7A5F.56.2.0.50.50.350.489.625.0_r0113.6.6.56.1.0.50.50.39.473.609.0_r0218.3E7A5F.3E7A5F.56.1.2.33.33.85.572.603.0_fa12.50.50.60.50.65.56_fb7_fh_fc0.33.55.0.33.55.50.32.32.50.50.50_fj0.0.0_fd1.0.40.3E7A5F.56_fe58.61_ff0000000000_fg2.52.56.0.0.1.0.0_fi_pa0.0.0.0.40.50.85.85.0.0_t00_pb_pc_pd_pe_ga0_gb1_gc6.0_ge0000000000_gh_gf_gg_gd0000000_ha89.89_hb49.1.44.99_hc0.59.39.0.59.39_hd23.1.49.49_ia_if_ib_id_ic_jc_ie_ja_jb_jd2.AB7044.AB7044.AB7044_je2.AB7044.AB7044.AB7044_jf_jg_ka9.41A9B8.59.42.0_kb9.41A9B8.59.42_kc_kd_ke_kf_la_lb_oa_os_ob_oc_od_oe_of_lc_m0046.50.3.0.2.1.40.1.6.80.3.61_n00_s00_og_oh_oo_op_oq_or_om_on_ok_ol_oi_oj_ad0.0.0.0.0.0.0.0.0.0

1-interested=54**aa30.75.0.0.100.30.75.0.0.100_ab_ac_ba39_bb8.1_bc185.500.3.0.1.0_bd17_be181_ca66.0.40.66.30.40.50.0.20.0.60.80_da1.0.0.100_db_dd9.1.40.45.25.50_dh2.45.57.53.0_di7_qa_qb_dc0.3.1.1.1_eh2.23.100_ea32.3E7A5F.3E7A5F.56.0.0_ec2.20.3E7A5F.3E7A5F.56.29.49.0_ed4.58.0.1.3E7A5F.56_ef_eg_r0037.3E7A5F.3E7A5F.56.2.0.50.50.350.489.625.0_r0113.6.6.56.1.0.50.50.39.473.609.0_r0218.3E7A5F.3E7A5F.56.1.2.33.33.85.572.603.0_fa12.50.50.60.50.65.56_fb7_fh_fc0.33.55.0.33.55.50.32.32.50.50.50_fj0.0.0_fd1.0.40.3E7A5F.56_fe58.61_ff0000000000_fg2.52.56.0.0.1.0.0_fi_pa0.0.0.0.40.50.85.85.0.0_t00_pb_pc_pd_pe_ga0_gb1_gc8.0_ge0000000000_gh_gf_gg_gd0000000_ha89.89_hb49.1.44.99_hc0.59.39.0.59.39_hd24.1.49.49_ia_if_ib_id_ic_jc_ie_ja_jb_jd2.AB7044.AB7044.AB7044_je2.AB7044.AB7044.AB7044_jf_jg_ka9.41A9B8.59.42.0_kb9.41A9B8.59.42_kc_kd_ke_kf_la_lb_oa_os_ob_oc_od_oe_of_lc_m0046.50.3.0.2.1.40.1.6.80.3.61_n00_s00_og_oh_oo_op_oq_or_om_on_ok_ol_oi_oj_ad0.0.0.0.0.0.0.0.0.0

1-angry=54**aa58.23.1.16.56.58.25.0.16.58_ab_ac_ba51_bb19.0_bc185.500.3.0.1.0_bd13_be180_ca66.0.40.66.30.40.50.0.20.0.60.80_da1.0.0.100_db_dd9.1.40.45.25.50_dh2.45.57.53.0_di7_qa_qb_dc0.3.1.1.1_eh2.23.100_ea32.3E7A5F.3E7A5F.56.0.0_ec2.20.3E7A5F.3E7A5F.56.29.49.0_ed4.58.0.1.3E7A5F.56_ef_eg_r0037.3E7A5F.3E7A5F.56.2.0.50.50.350.489.625.0_r0113.6.6.56.1.0.50.50.39.473.609.0_r0218.3E7A5F.3E7A5F.56.1.2.33.33.85.572.603.0_fa12.50.50.60.50.65.56_fb7_fh_fc0.33.55.0.33.55.50.32.32.50.50.50_fj0.0.0_fd1.0.40.3E7A5F.56_fe58.61_ff0000000000_fg2.52.56.0.0.1.0.0_fi_pa0.0.0.0.40.50.85.85.0.0_t00_pb_pc_pd_pe_ga0_gb1_gc48.15_ge0100000000_gh_gf_gg_gd0000000_ha75.75_hb49.1.44.99_hc1.15.29.1.15.29_hd52.1.49.49_ia_if_ib_id_ic_jc_ie_ja_jb_jd2.AB7044.AB7044.AB7044_je2.AB7044.AB7044.AB7044_jf_jg_ka9.41A9B8.59.42.0_kb9.41A9B8.59.42_kc_kd_ke_kf_la_lb_oa_os_ob_oc_od_oe_of_lc_m0046.50.3.0.2.1.40.1.6.80.3.61_n00_s00_og_oh_oo_op_oq_or_om_on_ok_ol_oi_oj_ad0.0.0.0.0.0.0.0.0.0

1-sad=54**aa8.0.1.16.54.8.0.1.16.47_ab_ac_ba44_bb3.0_bc185.500.3.0.1.0_bd45_be178_ca66.0.40.66.30.40.50.0.20.0.60.80_da1.0.0.100_db_dd9.1.40.45.25.50_dh2.45.57.53.0_di7_qa_qb_dc0.3.1.1.1_eh2.23.100_ea32.3E7A5F.3E7A5F.56.0.0_ec2.20.3E7A5F.3E7A5F.56.29.49.0_ed4.58.0.1.3E7A5F.56_ef_eg_r0037.3E7A5F.3E7A5F.56.2.0.50.50.350.489.625.0_r0113.6.6.56.1.0.50.50.39.473.609.0_r0218.3E7A5F.3E7A5F.56.1.2.33.33.85.572.603.0_fa12.50.33.60.50.65.56_fb7_fh_fc0.33.55.0.33.55.50.32.32.50.50.50_fj0.0.0_fd1.0.40.3E7A5F.56_fe58.61_ff0000000000_fg2.52.56.0.0.1.0.0_fi_pa0.0.0.0.40.50.85.85.0.0_t00_pb_pc_pd_pe_ga0_gb1_gc6.0_ge0000000000_gh_gf_gg_gd0000000_ha89.89_hb50.1.0.99_hc3.44.16.3.44.16_hd39.1.49.49_ia_if_ib_id_ic_jc_ie_ja_jb_jd2.AB7044.AB7044.AB7044_je2.AB7044.AB7044.AB7044_jf_jg_ka9.41A9B8.59.42.0_kb9.41A9B8.59.42_kc_kd_ke_kf_la_lb_oa_os_ob_oc_od_oe_of_lc_m0046.50.3.0.2.1.40.1.6.80.3.61_n00_s00_og_oh_oo_op_oq_or_om_on_ok_ol_oi_oj_ad0.0.0.0.0.0.0.0.0.0

1-excited=54**aa10.54.1.16.45.12.54.1.16.41_ab_ac_ba51_bb9.1_bc185.500.3.0.1.0_bd9_be180_ca66.0.40.66.30.40.50.0.20.0.60.80_da1.0.0.100_db_dd9.1.40.45.25.50_dh2.45.57.53.0_di7_qa_qb_dc0.3.1.1.1_eh2.23.100_ea32.3E7A5F.3E7A5F.56.0.0_ec2.20.3E7A5F.3E7A5F.56.29.49.0_ed4.58.0.1.3E7A5F.56_ef_eg_r0037.3E7A5F.3E7A5F.56.2.0.50.50.350.489.625.0_r0113.6.6.56.1.0.50.50.39.473.609.0_r0218.3E7A5F.3E7A5F.56.1.2.33.33.85.572.603.0_fa12.50.50.60.50.65.56_fb7_fh_fc0.33.55.0.33.55.50.32.32.50.50.50_fj0.0.0_fd1.0.40.3E7A5F.56_fe58.61_ff0000000000_fg2.52.56.0.0.1.0.0_fi_pa0.0.0.0.40.50.85.85.0.0_t00_pb_pc_pd_pe_ga0_gb1_gc14.0_ge0000000000_gh_gf_gg_gd0000000_ha89.89_hb50.1.50.99_hc0.24.20.0.24.20_hd24.1.49.49_ia_if_ib_id_ic_jc_ie_ja_jb_jd2.AB7044.AB7044.AB7044_je2.AB7044.AB7044.AB7044_jf_jg_ka9.41A9B8.59.42.0_kb9.41A9B8.59.42_kc_kd_ke_kf_la_lb_oa_os_ob_oc_od_oe_of_lc_m0046.50.3.0.2.1.40.1.6.80.3.61_n00_s00_og_oh_oo_op_oq_or_om_on_ok_ol_oi_oj_ad0.0.0.0.0.0.0.0.0.0

1-concerned=54**aa8.60.1.27.31.8.56.1.27.47_ab_ac_ba39_bb0.1_bc185.500.3.0.1.0_bd43_be174_ca66.0.40.66.30.40.50.0.20.0.60.80_da1.0.0.100_db_dd9.1.40.45.25.50_dh2.45.57.53.0_di7_qa_qb_dc0.3.1.1.1_eh2.23.100_ea32.3E7A5F.3E7A5F.56.0.0_ec2.20.3E7A5F.3E7A5F.56.29.49.0_ed4.58.0.1.3E7A5F.56_ef_eg_r0037.3E7A5F.3E7A5F.56.2.0.50.50.350.489.625.0_r0113.6.6.56.1.0.50.50.39.473.609.0_r0218.3E7A5F.3E7A5F.56.1.2.33.33.85.572.603.0_fa12.50.50.60.50.65.56_fb7_fh_fc0.33.55.0.33.55.50.32.32.50.50.50_fj0.0.0_fd1.0.40.3E7A5F.56_fe58.61_ff0000000000_fg2.52.56.0.0.1.0.0_fi_pa0.0.0.0.40.50.85.85.0.0_t00_pb_pc_pd_pe_ga0_gb1_gc31.15_ge0000000000_gh_gf_gg_gd0000000_ha89.89_hb50.1.50.99_hc3.100.54.3.100.54_hd32.1.49.49_ia_if_ib_id_ic_jc_ie_ja_jb_jd2.AB7044.AB7044.AB7044_je2.AB7044.AB7044.AB7044_jf_jg_ka9.41A9B8.59.42.0_kb9.41A9B8.59.42_kc_kd_ke_kf_la_lb_oa_os_ob_oc_od_oe_of_lc_m0046.50.3.0.2.1.40.1.6.80.3.61_n00_s00_og_oh_oo_op_oq_or_om_on_ok_ol_oi_oj_ad0.0.0.0.0.0.0.0.0.0

1-horny=54**aa8.60.1.27.31.8.56.1.27.47_ab_ac_ba39_bb0.1_bc185.500.3.0.1.0_bd43_be174_ca66.0.40.66.30.40.50.0.20.0.60.80_da1.0.0.100_db_dd9.1.40.45.25.50_dh2.45.57.53.0_di7_qa_qb_dc0.3.1.1.1_eh2.23.100_ea32.3E7A5F.3E7A5F.56.0.0_ec2.20.3E7A5F.3E7A5F.56.29.49.0_ed4.58.0.1.3E7A5F.56_ef_eg_r0037.3E7A5F.3E7A5F.56.2.0.50.50.350.489.625.0_r0113.6.6.56.1.0.50.50.39.473.609.0_r0218.3E7A5F.3E7A5F.56.1.2.33.33.85.572.603.0_fa12.50.50.60.50.65.56_fb7_fh_fc0.33.55.0.33.55.50.32.32.50.50.50_fj0.0.0_fd1.0.40.3E7A5F.56_fe58.61_ff0000000000_fg2.52.56.0.0.1.0.0_fi_pa0.0.0.0.40.50.85.85.0.0_t00_pb_pc_pd_pe_ga0_gb1_gc31.15_ge0000000000_gh_gf_gg_gd0000000_ha89.89_hb50.1.50.99_hc3.100.54.3.100.54_hd32.1.49.49_ia_if_ib_id_ic_jc_ie_ja_jb_jd2.AB7044.AB7044.AB7044_je2.AB7044.AB7044.AB7044_jf_jg_ka9.41A9B8.59.42.0_kb9.41A9B8.59.42_kc_kd_ke_kf_la_lb_oa_os_ob_oc_od_oe_of_lc_m0046.50.3.0.2.1.40.1.6.80.3.61_n00_s00_og_oh_oo_op_oq_or_om_on_ok_ol_oi_oj_ad0.0.0.0.0.0.0.0.0.0

1-loss=54**aa15.54.1.26.43.24.56.1.26.17_ab_ac_ba51_bb47.1_bc185.500.3.0.1.0_bd7_be181_ca66.0.40.66.30.40.50.0.20.0.60.80_da1.0.0.100_db_dd9.1.40.45.25.50_dh2.45.57.53.0_di7_qa_qb_dc0.3.1.1.1_eh2.23.100_ea32.3E7A5F.3E7A5F.56.0.0_ec2.20.3E7A5F.3E7A5F.56.29.49.0_ed4.58.0.1.3E7A5F.56_ef_eg_r0037.3E7A5F.3E7A5F.56.2.0.50.50.350.489.625.0_r0113.6.6.56.1.0.50.50.39.473.609.0_r0218.3E7A5F.3E7A5F.56.1.2.33.33.85.572.603.0_fa12.50.50.60.50.65.56_fb7_fh_fc0.33.55.0.33.55.50.32.32.50.50.50_fj0.0.0_fd1.0.40.3E7A5F.56_fe58.61_ff0000000000_fg2.52.56.0.0.1.0.0_fi_pa0.0.0.0.40.50.85.85.0.0_t00_pb_pc_pd_pe_ga0_gb1_gc15.0_ge0000000000_gh_gf_gg_gd0000000_ha89.89_hb50.1.50.99_hc0.78.40.0.78.40_hd36.1.49.49_ia_if_ib_id_ic_jc_ie_ja_jb_jd2.AB7044.AB7044.AB7044_je2.AB7044.AB7044.AB7044_jf_jg_ka9.41A9B8.59.42.0_kb9.41A9B8.59.42_kc_kd_ke_kf_la_lb_oa_os_ob_oc_od_oe_of_lc_m0046.50.3.0.2.1.40.1.6.80.3.61_n00_s00_og_oh_oo_op_oq_or_om_on_ok_ol_oi_oj_ad0.0.0.0.0.0.0.0.0.0

1-strip=54**aa11.89.1.27.43.12.98.1.3.35_ab_ac_ba51_bb54.1_bc185.500.3.0.1.0_bd96_be182_ca66.0.40.66.30.40.50.0.20.0.60.80_da1.0.0.100_db_dd9.1.40.45.25.50_dh2.45.57.53.0_di7_qa_qb_dc0.3.1.1.1_eh2.23.100_ea32.3E7A5F.3E7A5F.56.0.0_ec2.20.3E7A5F.3E7A5F.56.29.49.0_ed4.58.0.1.3E7A5F.56_ef_eg_r0037.3E7A5F.3E7A5F.56.2.0.50.50.350.489.625.0_r0218.3E7A5F.3E7A5F.56.1.2.33.33.85.572.603.0_fa12.50.50.60.50.65.56_fb7_fh_fc0.33.55.0.33.55.50.32.32.50.50.57_fj0.0.0_fd1.0.40.3E7A5F.56_fe58.61_ff0000000000_fg2.52.56.0.0.1.0.0_fi_pa0.0.0.0.40.50.85.85.0.0_t00_pb_pc_pd_pe_ga0_gb1_gc15.0_ge0000000000_gh_gf_gg_gd0000000_ha79.79_hb59.1.51.99_hc0.26.8.0.26.8_hd33.1.41.53_ia_if_ib_id_ic_jc_ie_ja_jb_jd2.AB7044.AB7044.AB7044_je2.AB7044.AB7044.AB7044_jf_jg_ka9.41A9B8.59.42.0_kb9.41A9B8.59.42_kc_kd_ke_kf_la_lb_oa_os_ob_oc_od_oe_of_lc_m0046.50.3.0.2.1.40.1.6.80.3.61_n00_s00_og_oh_oo_op_oq_or_om_on_ok_ol_oi_oj_ad0.0.0.0.0.0.0.0.0.0

#Stage 4 Lost Boots

2-stripped=54**aa12.92.1.27.5.12.92.1.26.5_ab_ac_ba66_bb49.0_bc185.500.9.0.1.0_bd3_be194_ca66.0.40.66.30.40.50.0.20.0.60.80_da1.0.0.100_db_dd9.1.40.45.25.50_dh2.45.57.53.0_di7_qa_qb_dc0.3.1.1.1_eh2.23.100_ea32.3E7A5F.3E7A5F.56.0.0_ec2.20.3E7A5F.3E7A5F.56.29.49.0_ed4.58.0.1.3E7A5F.56_ef_eg_r0037.3E7A5F.3E7A5F.56.2.0.50.50.350.489.625.0_r0113.6.6.56.1.0.50.50.39.473.609.0_r0218.3E7A5F.3E7A5F.56.1.2.33.33.85.572.603.0_fa12.50.50.60.50.65.56_fb7_fh_fc0.33.55.0.33.55.50.32.32.50.50.50_fj0.0.0_fd1.0.40.3E7A5F.56_fe58.61_ff0000000000_fg2.52.56.0.0.1.0.0_fi_pa0.0.0.0.40.50.85.85.0.0_t00_pb_pc_pd_pe_ga0_gb1_gc20.0_ge0000000000_gh_gf_gg_gd0000000_ha89.89_hb66.1.0.99_hc0.56.54.0.56.54_hd27.0.49.49_ia_if_ib_id_ic_jc_ie_ja_jb_jd_je_jf_jg_ka9.41A9B8.59.42.0_kb9.41A9B8.59.42_kc_kd_ke_kf_la_lb_oa_os_ob_oc_od_oe_of_lc_m0046.50.3.0.2.1.40.1.6.80.3.61_n00_s00_og_oh_oo_op_oq_or_om_on_ok_ol_oi_oj_ad0.0.0.0.0.0.0.0.0.0

2-calm=54**aa6.84.1.28.43.13.76.1.49.70_ab_ac_ba55_bb17.0_bc185.500.9.0.1.0_bd13_be181_ca66.0.40.66.30.40.50.0.20.0.60.80_da1.0.0.100_db_dd9.1.40.45.25.50_dh2.45.57.53.0_di7_qa_qb_dc0.3.1.1.1_eh2.23.100_ea32.3E7A5F.3E7A5F.56.0.0_ec2.20.3E7A5F.3E7A5F.56.29.49.0_ed4.58.0.1.3E7A5F.56_ef_eg_r0037.3E7A5F.3E7A5F.56.2.0.50.50.350.489.625.0_r0113.6.6.56.1.0.50.50.39.473.609.0_r0218.3E7A5F.3E7A5F.56.1.2.33.33.85.572.603.0_fa12.50.50.60.50.65.56_fb7_fh_fc0.33.55.0.33.55.50.32.32.50.50.50_fj0.0.0_fd1.0.40.3E7A5F.56_fe58.61_ff0000000000_fg2.52.56.0.0.1.0.0_fi_pa0.0.0.0.40.50.85.85.0.0_t00_pb_pc_pd_pe_ga0_gb1_gc7.0_ge0000000000_gh_gf_gg_gd0000000_ha89.89_hb49.1.44.99_hc0.59.39.0.59.39_hd0.1.49.49_ia_if_ib_id_ic_jc_ie_ja_jb_jd_je_jf_jg_ka9.41A9B8.59.42.0_kb9.41A9B8.59.42_kc_kd_ke_kf_la_lb_oa_os_ob_oc_od_oe_of_lc_m0046.50.3.0.2.1.40.1.6.80.3.61_n00_s00_og_oh_oo_op_oq_or_om_on_ok_ol_oi_oj_ad0.0.0.0.0.0.0.0.0.0

2-shocked=54**aa9.72.1.47.88.6.59.1.26.21_ab_ac_ba44_bb7.1_bc185.500.9.0.1.0_bd5_be178_ca66.0.40.66.30.40.50.0.20.0.60.80_da1.0.0.100_db_dd9.1.40.45.25.50_dh2.45.57.53.0_di7_qa_qb_dc0.3.1.1.1_eh2.23.100_ea32.3E7A5F.3E7A5F.56.0.0_ec2.20.3E7A5F.3E7A5F.56.29.49.0_ed4.58.0.1.3E7A5F.56_ef_eg_r0037.3E7A5F.3E7A5F.56.2.0.50.50.350.489.625.0_r0113.6.6.56.1.0.50.50.39.473.609.0_r0218.3E7A5F.3E7A5F.56.1.2.33.33.85.572.603.0_fa12.50.50.60.50.65.56_fb7_fh_fc0.33.55.0.33.55.50.32.32.50.50.50_fj0.0.0_fd1.0.40.3E7A5F.56_fe58.61_ff0000000000_fg2.52.56.0.0.1.0.0_fi_pa0.0.0.0.40.50.85.85.0.0_t00_pb_pc_pd_pe_ga0_gb1_gc30.0_ge0000000000_gh_gf_gg_gd0000000_ha89.89_hb49.1.44.99_hc0.59.39.0.59.39_hd38.1.49.49_ia_if_ib_id_ic_jc_ie_ja_jb_jd_je_jf_jg_ka9.41A9B8.59.42.0_kb9.41A9B8.59.42_kc_kd_ke_kf_la_lb_oa_os_ob_oc_od_oe_of_lc_m0046.50.3.0.2.1.40.1.6.80.3.61_n00_s00_og_oh_oo_op_oq_or_om_on_ok_ol_oi_oj_ad0.0.0.0.0.0.0.0.0.0

2-happy=54**aa91.5.1.29.64.69.22.1.16.50_ab_ac_ba46_bb14.1_bc185.500.9.0.1.0_bd48_be178_ca66.0.40.66.30.40.50.0.20.0.60.80_da1.0.0.100_db_dd9.1.40.45.25.50_dh2.45.57.53.0_di7_qa_qb_dc0.3.1.1.1_eh2.23.100_ea32.3E7A5F.3E7A5F.56.0.0_ec2.20.3E7A5F.3E7A5F.56.29.49.0_ed4.58.0.1.3E7A5F.56_ef_eg_r0037.3E7A5F.3E7A5F.56.2.0.50.50.350.489.625.0_r0113.6.6.56.1.0.50.50.39.473.609.0_r0218.3E7A5F.3E7A5F.56.1.2.33.33.85.572.603.0_fa12.50.50.60.50.65.56_fb7_fh_fc0.33.55.0.33.55.50.32.32.50.50.50_fj0.0.0_fd1.0.40.3E7A5F.56_fe58.61_ff0000000000_fg2.52.56.0.0.1.0.0_fi_pa0.0.0.0.40.50.85.85.0.0_t00_pb_pc_pd_pe_ga0_gb1_gc6.0_ge0000000000_gh_gf_gg_gd0000000_ha89.89_hb49.1.44.99_hc0.59.39.0.59.39_hd23.1.49.49_ia_if_ib_id_ic_jc_ie_ja_jb_jd_je_jf_jg_ka9.41A9B8.59.42.0_kb9.41A9B8.59.42_kc_kd_ke_kf_la_lb_oa_os_ob_oc_od_oe_of_lc_m0046.50.3.0.2.1.40.1.6.80.3.61_n00_s00_og_oh_oo_op_oq_or_om_on_ok_ol_oi_oj_ad0.0.0.0.0.0.0.0.0.0

2-interested=54**aa30.75.0.0.100.30.75.0.0.100_ab_ac_ba39_bb8.1_bc185.500.9.0.1.0_bd17_be181_ca66.0.40.66.30.40.50.0.20.0.60.80_da1.0.0.100_db_dd9.1.40.45.25.50_dh2.45.57.53.0_di7_qa_qb_dc0.3.1.1.1_eh2.23.100_ea32.3E7A5F.3E7A5F.56.0.0_ec2.20.3E7A5F.3E7A5F.56.29.49.0_ed4.58.0.1.3E7A5F.56_ef_eg_r0037.3E7A5F.3E7A5F.56.2.0.50.50.350.489.625.0_r0113.6.6.56.1.0.50.50.39.473.609.0_r0218.3E7A5F.3E7A5F.56.1.2.33.33.85.572.603.0_fa12.50.50.60.50.65.56_fb7_fh_fc0.33.55.0.33.55.50.32.32.50.50.50_fj0.0.0_fd1.0.40.3E7A5F.56_fe58.61_ff0000000000_fg2.52.56.0.0.1.0.0_fi_pa0.0.0.0.40.50.85.85.0.0_t00_pb_pc_pd_pe_ga0_gb1_gc8.0_ge0000000000_gh_gf_gg_gd0000000_ha89.89_hb49.1.44.99_hc0.59.39.0.59.39_hd24.1.49.49_ia_if_ib_id_ic_jc_ie_ja_jb_jd_je_jf_jg_ka9.41A9B8.59.42.0_kb9.41A9B8.59.42_kc_kd_ke_kf_la_lb_oa_os_ob_oc_od_oe_of_lc_m0046.50.3.0.2.1.40.1.6.80.3.61_n00_s00_og_oh_oo_op_oq_or_om_on_ok_ol_oi_oj_ad0.0.0.0.0.0.0.0.0.0

2-angry=54**aa6.74.1.49.43.13.72.1.49.70_ab_ac_ba51_bb25.1_bc185.500.9.0.1.0_bd0_be180_ca66.0.40.66.30.40.50.0.20.0.60.80_da1.0.0.100_db_dd9.1.40.45.25.50_dh2.45.57.53.0_di7_qa_qb_dc0.3.1.1.1_eh2.23.100_ea32.3E7A5F.3E7A5F.56.0.0_ec2.20.3E7A5F.3E7A5F.56.29.49.0_ed4.58.0.1.3E7A5F.56_ef_eg_r0037.3E7A5F.3E7A5F.56.2.0.50.50.350.489.625.0_r0113.6.6.56.1.0.50.50.39.473.609.0_r0218.3E7A5F.3E7A5F.56.1.2.33.33.85.572.603.0_fa12.50.50.60.50.65.56_fb7_fh_fc0.33.55.0.33.55.50.32.32.50.50.50_fj0.0.0_fd1.0.40.3E7A5F.56_fe58.61_ff0000000000_fg2.52.56.0.0.1.0.0_fi_pa0.0.0.0.40.50.85.85.0.0_t00_pb_pc_pd_pe_ga0_gb1_gc42.10_ge0100000000_gh_gf_gg_gd0000000_ha75.75_hb100.1.100.99_hc1.15.29.1.15.29_hd48.1.49.49_ia_if_ib_id_ic_jc_ie_ja_jb_jd_je_jf_jg_ka9.41A9B8.59.42.0_kb9.41A9B8.59.42_kc_kd_ke_kf_la_lb_oa_os_ob_oc_od_oe_of_lc_m0046.50.3.0.2.1.40.1.6.80.3.61_n00_s00_og_oh_oo_op_oq_or_om_on_ok_ol_oi_oj_ad0.0.0.0.0.0.0.0.0.0

2-sad=54**aa15.77.1.16.54.17.76.1.17.47_ab_ac_ba44_bb3.0_bc185.500.9.0.1.0_bd45_be178_ca66.0.40.66.30.40.50.0.20.0.60.80_da1.0.0.100_db_dd9.1.40.45.25.50_dh2.45.57.53.0_di7_qa_qb_dc0.3.1.1.1_eh2.23.100_ea32.3E7A5F.3E7A5F.56.0.0_ec2.20.3E7A5F.3E7A5F.56.29.49.0_ed4.58.0.1.3E7A5F.56_ef_eg_r0037.3E7A5F.3E7A5F.56.2.0.50.50.350.489.625.0_r0113.6.6.56.1.0.50.50.39.473.609.0_r0218.3E7A5F.3E7A5F.56.1.2.33.33.85.572.603.0_fa12.50.50.60.50.65.56_fb7_fh_fc0.33.55.0.33.55.50.32.32.50.50.50_fj0.0.0_fd1.0.40.3E7A5F.56_fe58.61_ff0000000000_fg2.52.56.0.0.1.0.0_fi_pa0.0.0.0.40.50.85.85.0.0_t00_pb_pc_pd_pe_ga0_gb1_gc6.0_ge0000000000_gh_gf_gg_gd0000000_ha89.89_hb49.1.50.99_hc3.44.16.3.44.16_hd39.1.49.49_ia_if_ib_id_ic_jc_ie_ja_jb_jd_je_jf_jg_ka9.41A9B8.59.42.0_kb9.41A9B8.59.42_kc_kd_ke_kf_la_lb_oa_os_ob_oc_od_oe_of_lc_m0046.50.3.0.2.1.40.1.6.80.3.61_n00_s00_og_oh_oo_op_oq_or_om_on_ok_ol_oi_oj_ad0.0.0.0.0.0.0.0.0.0

2-excited=54**aa10.54.1.16.45.12.54.1.16.41_ab_ac_ba51_bb9.1_bc185.500.9.0.1.0_bd9_be180_ca66.0.40.66.30.40.50.0.20.0.60.80_da1.0.0.100_db_dd9.1.40.45.25.50_dh2.45.57.53.0_di7_qa_qb_dc0.3.1.1.1_eh2.23.100_ea32.3E7A5F.3E7A5F.56.0.0_ec2.20.3E7A5F.3E7A5F.56.29.49.0_ed4.58.0.1.3E7A5F.56_ef_eg_r0037.3E7A5F.3E7A5F.56.2.0.50.50.350.489.625.0_r0113.6.6.56.1.0.50.50.39.473.609.0_r0218.3E7A5F.3E7A5F.56.1.2.33.33.85.572.603.0_fa12.50.50.60.50.65.56_fb7_fh_fc0.33.55.0.33.55.50.32.32.50.50.50_fj0.0.0_fd1.0.40.3E7A5F.56_fe58.61_ff0000000000_fg2.52.56.0.0.1.0.0_fi_pa0.0.0.0.40.50.85.85.0.0_t00_pb_pc_pd_pe_ga0_gb1_gc14.0_ge0000000000_gh_gf_gg_gd0000000_ha89.89_hb50.1.50.99_hc0.24.20.0.24.20_hd24.1.49.49_ia_if_ib_id_ic_jc_ie_ja_jb_jd_je_jf_jg_ka9.41A9B8.59.42.0_kb9.41A9B8.59.42_kc_kd_ke_kf_la_lb_oa_os_ob_oc_od_oe_of_lc_m0046.50.3.0.2.1.40.1.6.80.3.61_n00_s00_og_oh_oo_op_oq_or_om_on_ok_ol_oi_oj_ad0.0.0.0.0.0.0.0.0.0

2-concerned=54**aa8.60.1.27.31.8.56.1.27.47_ab_ac_ba39_bb0.1_bc185.500.9.0.1.0_bd43_be174_ca66.0.40.66.30.40.50.0.20.0.60.80_da1.0.0.100_db_dd9.1.40.45.25.50_dh2.45.57.53.0_di7_qa_qb_dc0.3.1.1.1_eh2.23.100_ea32.3E7A5F.3E7A5F.56.0.0_ec2.20.3E7A5F.3E7A5F.56.29.49.0_ed4.58.0.1.3E7A5F.56_ef_eg_r0037.3E7A5F.3E7A5F.56.2.0.50.50.350.489.625.0_r0113.6.6.56.1.0.50.50.39.473.609.0_r0218.3E7A5F.3E7A5F.56.1.2.33.33.85.572.603.0_fa12.50.50.60.50.65.56_fb7_fh_fc0.33.55.0.33.55.50.32.32.50.50.50_fj0.0.0_fd1.0.40.3E7A5F.56_fe58.61_ff0000000000_fg2.52.56.0.0.1.0.0_fi_pa0.0.0.0.40.50.85.85.0.0_t00_pb_pc_pd_pe_ga0_gb1_gc31.15_ge0000000000_gh_gf_gg_gd0000000_ha89.89_hb50.1.50.99_hc3.100.54.3.100.54_hd32.1.49.49_ia_if_ib_id_ic_jc_ie_ja_jb_jd_je_jf_jg_ka9.41A9B8.59.42.0_kb9.41A9B8.59.42_kc_kd_ke_kf_la_lb_oa_os_ob_oc_od_oe_of_lc_m0046.50.3.0.2.1.40.1.6.80.3.61_n00_s00_og_oh_oo_op_oq_or_om_on_ok_ol_oi_oj_ad0.0.0.0.0.0.0.0.0.0

2-horny=54**aa14.59.1.27.62.10.91.1.24.100_ab_ac_ba45_bb8.1_bc185.500.9.0.1.0_bd43_be179_ca66.0.40.66.30.40.50.0.20.0.60.80_da1.0.0.100_db_dd2.1.40.45.25.50_dh2.45.57.53.0_di7_qa_qb_dc0.3.1.1.1_eh2.23.100_ea32.3E7A5F.3E7A5F.56.0.0_ec2.20.3E7A5F.3E7A5F.56.29.49.0_ed4.58.0.1.3E7A5F.56_ef_eg_r0037.3E7A5F.3E7A5F.56.2.0.50.50.350.489.625.0_r0113.6.6.56.1.0.50.50.39.473.609.0_r0218.3E7A5F.3E7A5F.56.1.2.33.33.85.572.603.0_fa12.50.50.60.50.65.56_fb7_fh_fc0.33.55.0.33.55.50.32.32.50.50.50_fj0.0.0_fd1.0.40.3E7A5F.56_fe58.61_ff0000000000_fg2.52.56.0.0.1.0.0_fi_pa0.0.0.0.40.50.85.85.0.0_t00_pb_pc_pd_pe_ga0_gb1_gc20.0_ge0000000000_gh_gf_gg_gd0000000_ha90.90_hb49.1.44.99_hc0.59.39.0.59.39_hd37.1.49.20_ia_if_ib_id_ic_jc_ie_ja_jb_jd_je_jf_jg_ka9.41A9B8.59.42.0_kb9.41A9B8.59.42_kc_kd_ke_kf_la_lb_oa_os_ob_oc_od_oe_of_lc_m0046.50.3.0.2.1.40.1.6.80.3.61_n00_s00_og_oh_oo_op_oq_or_om_on_ok_ol_oi_oj_ad0.0.0.0.0.0.0.0.0.0

2-loss=54**aa15.54.1.26.43.24.56.1.26.17_ab_ac_ba51_bb47.1_bc185.500.9.0.1.0_bd7_be181_ca66.0.40.66.30.40.50.0.20.0.60.80_da1.0.0.100_db_dd9.1.40.45.25.50_dh2.45.57.53.0_di7_qa_qb_dc0.3.1.1.1_eh2.23.100_ea32.3E7A5F.3E7A5F.56.0.0_ec2.20.3E7A5F.3E7A5F.56.29.49.0_ed4.58.0.1.3E7A5F.56_ef_eg_r0037.3E7A5F.3E7A5F.56.2.0.50.50.350.489.625.0_r0113.6.6.56.1.0.50.50.39.473.609.0_r0218.3E7A5F.3E7A5F.56.1.2.33.33.85.572.603.0_fa12.50.50.60.50.65.56_fb7_fh_fc0.33.55.0.33.55.50.32.32.50.50.50_fj0.0.0_fd1.0.40.3E7A5F.56_fe58.61_ff0000000000_fg2.52.56.0.0.1.0.0_fi_pa0.0.0.0.40.50.85.85.0.0_t00_pb_pc_pd_pe_ga0_gb1_gc15.0_ge0000000000_gh_gf_gg_gd0000000_ha89.89_hb50.1.50.99_hc0.78.40.0.78.40_hd36.1.49.49_ia_if_ib_id_ic_jc_ie_ja_jb_jd_je_jf_jg_ka9.41A9B8.59.42.0_kb9.41A9B8.59.42_kc_kd_ke_kf_la_lb_oa_os_ob_oc_od_oe_of_lc_m0046.50.3.0.2.1.40.1.6.80.3.61_n00_s00_og_oh_oo_op_oq_or_om_on_ok_ol_oi_oj_ad0.0.0.0.0.0.0.0.0.0

2-strip=54**aa82.23.0.27.81.7.62.1.23.33_ab_ac_ba39_bb15.0_bc185.500.9.0.1.0_bd47_be177_ca66.0.40.66.30.40.50.0.20.0.60.80_da1.0.0.100_db_dd9.1.40.45.25.50_dh2.45.57.53.0_di7_qa_qb_dc0.3.1.1.1_eh2.23.100_ea32.3E7A5F.3E7A5F.56.0.0_ec2.20.3E7A5F.3E7A5F.56.29.49.0_ed4.58.0.1.3E7A5F.56_ef_eg_r0037.3E7A5F.3E7A5F.56.2.0.50.50.350.489.625.0_r0113.6.6.56.1.0.50.50.39.473.609.0_r0218.3E7A5F.3E7A5F.56.1.2.33.33.85.572.603.0_fa12.50.50.60.50.65.56_fb7_fh_fc0.33.55.0.33.55.50.32.32.50.50.50_fj0.0.0_fd1.0.40.3E7A5F.56_fe58.61_ff0000000000_fg2.52.56.0.0.1.0.0_fi_pa0.0.0.0.40.50.85.85.0.0_t00_pb_pc_pd_pe_ga0_gb1_gc25.0_ge0000000000_gh_gf_gg_gd0000000_ha70.70_hb100.1.0.84_hc0.0.19.0.0.19_hd0.1.28.92_ia_if_ib_id_ic_jc_ie_ja_jb_jd_je_jf_jg_ka9.41A9B8.59.42.0_kb9.41A9B8.59.42_kc_kd_ke_kf_la_lb_oa_os_ob_oc_od_oe_of_lc_m0046.50.3.0.2.1.40.1.6.80.3.61_n00_s00_og_oh_oo_op_oq_or_om_on_ok_ol_oi_oj_ad0.0.0.0.0.0.0.0.0.0

#Stage 5 Lost Headband

3-stripped=54**aa27.41.0.27.72.7.59.1.10.0_ab_ac_ba78_bb7.0_bc185.500.9.0.1.0_bd47_be174_ca66.0.40.66.30.40.50.0.20.0.60.80_da1.0.0.100_db_dd9.1.40.45.25.50_dh2.45.57.53.0_di7_qa_qb_dc0.3.1.1.1_eh2.23.100_ea32.3E7A5F.3E7A5F.56.0.0_ec7.50.3E7A5F.3E7A5F.56.42.60.0_ed4.58.0.1.3E7A5F.56_ef_eg_r0218.3E7A5F.3E7A5F.56.1.2.33.33.85.572.603.0_r031.3E7A5F.3E7A5F.56.1.0.100.100.184.400.213.1_r041.3E7A5F.3E7A5F.56.1.0.100.100.168.413.200.0_fa12.50.50.60.50.65.56_fb7_fh_fc0.33.55.0.33.55.50.32.32.50.50.50_fj0.0.0_fd1.0.40.3E7A5F.56_fe58.61_ff0000000000_fg2.52.56.0.0.1.0.0_fi_pa0.0.0.0.40.50.85.85.0.0_t00_pb_pc_pd_pe_ga0_gb1_gc25.0_ge0000000000_gh_gf_gg_gd0000000_ha88.22_hb50.1.50.90_hc0.98.19.0.88.5_hd71.1.54.60_ia_if_ib_id_ic_jc_ie_ja_jb_jd_je_jf_jg_ka9.41A9B8.59.42.0_kb9.41A9B8.59.42_kc_kd_ke_kf_la_lb_oa_os_ob_oc_od_oe_of_lc_m0046.50.3.0.2.0.12.1.100.36.4.61_n00_s00_og_oh_oo_op_oq_or_om_on_ok_ol_oi_oj_ad0.0.0.0.0.0.0.0.0.0

3-calm=54**aa6.74.1.49.43.13.72.1.49.70_ab_ac_ba55_bb8.0_bc185.500.9.0.1.0_bd6_be181_ca66.0.40.66.30.40.50.0.20.0.60.80_da1.0.0.100_db_dd9.1.40.45.25.50_dh2.45.57.53.0_di7_qa_qb_dc0.3.1.1.1_eh2.23.100_ea32.3E7A5F.3E7A5F.56.0.0_ec7.50.3E7A5F.3E7A5F.56.42.60.0_ed4.58.0.1.3E7A5F.56_ef_eg_r0218.3E7A5F.3E7A5F.56.1.2.33.33.85.572.603.0_fa12.50.50.60.50.65.56_fb7_fh_fc0.33.55.0.33.55.50.32.32.50.50.50_fj0.0.0_fd1.0.40.3E7A5F.56_fe58.61_ff0000000000_fg2.52.56.0.0.1.0.0_fi_pa0.0.0.0.40.50.85.85.0.0_t00_pb_pc_pd_pe_ga0_gb1_gc7.0_ge0000000000_gh_gf_gg_gd0000000_ha89.89_hb49.1.44.99_hc0.59.39.0.59.39_hd0.1.49.49_ia_if_ib_id_ic_jc_ie_ja_jb_jd_je_jf_jg_ka9.41A9B8.59.42.0_kb9.41A9B8.59.42_kc_kd_ke_kf_la_lb_oa_os_ob_oc_od_oe_of_lc_m00_n00_s00_og_oh_oo_op_oq_or_om_on_ok_ol_oi_oj_ad0.0.0.0.0.0.0.0.0.0

3-shocked=54**aa9.72.1.47.88.6.59.1.26.21_ab_ac_ba44_bb7.1_bc185.500.9.0.1.0_bd5_be178_ca66.0.40.66.30.40.50.0.20.0.60.80_da1.0.0.100_db_dd9.1.40.45.25.50_dh2.45.57.53.0_di7_qa_qb_dc0.3.1.1.1_eh2.23.100_ea32.3E7A5F.3E7A5F.56.0.0_ec7.50.3E7A5F.3E7A5F.56.42.60.0_ed4.58.0.1.3E7A5F.56_ef_eg_r0218.3E7A5F.3E7A5F.56.1.2.33.33.85.572.603.0_fa12.50.50.60.50.65.56_fb7_fh_fc0.33.55.0.33.55.50.32.32.50.50.50_fj0.0.0_fd1.0.40.3E7A5F.56_fe58.61_ff0000000000_fg2.52.56.0.0.1.0.0_fi_pa0.0.0.0.40.50.85.85.0.0_t00_pb_pc_pd_pe_ga0_gb1_gc30.0_ge0000000000_gh_gf_gg_gd0000000_ha89.89_hb49.1.44.99_hc0.59.39.0.59.39_hd38.1.49.49_ia_if_ib_id_ic_jc_ie_ja_jb_jd_je_jf_jg_ka9.41A9B8.59.42.0_kb9.41A9B8.59.42_kc_kd_ke_kf_la_lb_oa_os_ob_oc_od_oe_of_lc_m00_n00_s00_og_oh_oo_op_oq_or_om_on_ok_ol_oi_oj_ad0.0.0.0.0.0.0.0.0.0

3-happy=54**aa91.5.1.29.64.69.22.1.16.50_ab_ac_ba46_bb14.1_bc185.500.9.0.1.0_bd48_be178_ca66.0.40.66.30.40.50.0.20.0.60.80_da1.0.0.100_db_dd9.1.40.45.25.50_dh2.45.57.53.0_di7_qa_qb_dc0.3.1.1.1_eh2.23.100_ea32.3E7A5F.3E7A5F.56.0.0_ec7.50.3E7A5F.3E7A5F.56.42.60.0_ed4.58.0.1.3E7A5F.56_ef_eg_r0218.3E7A5F.3E7A5F.56.1.2.33.33.85.572.603.0_fa12.50.50.60.50.65.56_fb7_fh_fc0.33.55.0.33.55.50.32.32.50.50.50_fj0.0.0_fd1.0.40.3E7A5F.56_fe58.61_ff0000000000_fg2.52.56.0.0.1.0.0_fi_pa0.0.0.0.40.50.85.85.0.0_t00_pb_pc_pd_pe_ga0_gb1_gc6.0_ge0000000000_gh_gf_gg_gd0000000_ha89.89_hb49.1.44.99_hc0.59.39.0.59.39_hd23.1.49.49_ia_if_ib_id_ic_jc_ie_ja_jb_jd_je_jf_jg_ka9.41A9B8.59.42.0_kb9.41A9B8.59.42_kc_kd_ke_kf_la_lb_oa_os_ob_oc_od_oe_of_lc_m00_n00_s00_og_oh_oo_op_oq_or_om_on_ok_ol_oi_oj_ad0.0.0.0.0.0.0.0.0.0

3-interested=54**aa30.75.0.0.100.30.75.0.0.100_ab_ac_ba39_bb8.1_bc185.500.9.0.1.0_bd17_be181_ca66.0.40.66.30.40.50.0.20.0.60.80_da1.0.0.100_db_dd9.1.40.45.25.50_dh2.45.57.53.0_di7_qa_qb_dc0.3.1.1.1_eh2.23.100_ea32.3E7A5F.3E7A5F.56.0.0_ec7.50.3E7A5F.3E7A5F.56.42.60.0_ed4.58.0.1.3E7A5F.56_ef_eg_r0218.3E7A5F.3E7A5F.56.1.2.33.33.85.572.603.0_fa12.50.50.60.50.65.56_fb7_fh_fc0.33.55.0.33.55.50.32.32.50.50.50_fj0.0.0_fd1.0.40.3E7A5F.56_fe58.61_ff0000000000_fg2.52.56.0.0.1.0.0_fi_pa0.0.0.0.40.50.85.85.0.0_t00_pb_pc_pd_pe_ga0_gb1_gc8.0_ge0000000000_gh_gf_gg_gd0000000_ha89.89_hb49.1.44.99_hc0.59.39.0.59.39_hd24.1.49.49_ia_if_ib_id_ic_jc_ie_ja_jb_jd_je_jf_jg_ka9.41A9B8.59.42.0_kb9.41A9B8.59.42_kc_kd_ke_kf_la_lb_oa_os_ob_oc_od_oe_of_lc_m00_n00_s00_og_oh_oo_op_oq_or_om_on_ok_ol_oi_oj_ad0.0.0.0.0.0.0.0.0.0

3-angry=54**aa25.72.1.16.35.0.11.0.29.57_ab_ac_ba51_bb13.1_bc185.500.9.0.1.0_bd19_be180_ca66.0.40.66.30.40.50.0.20.0.60.80_da1.0.0.100_db_dd9.1.40.45.25.50_dh2.45.57.53.0_di7_qa_qb_dc0.3.1.1.1_eh2.23.100_ea32.3E7A5F.3E7A5F.56.0.0_ec7.50.3E7A5F.3E7A5F.56.42.60.0_ed4.58.0.1.3E7A5F.56_ef_eg_r0218.3E7A5F.3E7A5F.56.1.2.33.33.85.572.603.0_fa12.50.50.60.50.65.56_fb7_fh_fc0.33.55.0.33.55.50.32.32.50.50.50_fj0.0.0_fd1.0.40.3E7A5F.56_fe58.61_ff0000000000_fg2.52.56.0.0.1.0.0_fi_pa0.0.0.0.40.50.85.85.0.0_t00_pb_pc_pd_pe_ga0_gb1_gc48.15_ge0100000000_gh_gf_gg_gd0000000_ha75.75_hb49.1.44.99_hc1.15.29.1.15.29_hd52.1.49.49_ia_if_ib_id_ic_jc_ie_ja_jb_jd_je_jf_jg_ka9.41A9B8.59.42.0_kb9.41A9B8.59.42_kc_kd_ke_kf_la_lb_oa_os_ob_oc_od_oe_of_lc_m00_n00_s00_og_oh_oo_op_oq_or_om_on_ok_ol_oi_oj_ad0.0.0.0.0.0.0.0.0.0

3-sad=54**aa8.0.1.16.54.8.0.1.16.47_ab_ac_ba44_bb3.0_bc185.500.9.0.1.0_bd45_be178_ca66.0.40.66.30.40.50.0.20.0.60.80_da1.0.0.100_db_dd9.1.40.45.25.50_dh2.45.57.53.0_di7_qa_qb_dc0.3.1.1.1_eh2.23.100_ea32.3E7A5F.3E7A5F.56.0.0_ec7.50.3E7A5F.3E7A5F.56.42.60.0_ed4.58.0.1.3E7A5F.56_ef_eg_r0218.3E7A5F.3E7A5F.56.1.2.33.33.85.572.603.0_fa12.50.50.60.50.65.56_fb7_fh_fc0.33.55.0.33.55.50.32.32.50.50.50_fj0.0.0_fd1.0.40.3E7A5F.56_fe58.61_ff0000000000_fg2.52.56.0.0.1.0.0_fi_pa0.0.0.0.40.50.85.85.0.0_t00_pb_pc_pd_pe_ga0_gb1_gc6.0_ge0000000000_gh_gf_gg_gd0000000_ha89.89_hb50.1.0.99_hc3.44.16.3.44.16_hd39.1.49.49_ia_if_ib_id_ic_jc_ie_ja_jb_jd_je_jf_jg_ka9.41A9B8.59.42.0_kb9.41A9B8.59.42_kc_kd_ke_kf_la_lb_oa_os_ob_oc_od_oe_of_lc_m00_n00_s00_og_oh_oo_op_oq_or_om_on_ok_ol_oi_oj_ad0.0.0.0.0.0.0.0.0.0

3-excited=54**aa10.54.1.16.45.12.54.1.16.41_ab_ac_ba51_bb9.1_bc185.500.9.0.1.0_bd9_be180_ca66.0.40.66.30.40.50.0.20.0.60.80_da1.0.0.100_db_dd9.1.40.45.25.50_dh2.45.57.53.0_di7_qa_qb_dc0.3.1.1.1_eh2.23.100_ea32.3E7A5F.3E7A5F.56.0.0_ec7.50.3E7A5F.3E7A5F.56.42.60.0_ed4.58.0.1.3E7A5F.56_ef_eg_r0218.3E7A5F.3E7A5F.56.1.2.33.33.85.572.603.0_fa12.50.50.60.50.65.56_fb7_fh_fc0.33.55.0.33.55.50.32.32.50.50.50_fj0.0.0_fd1.0.40.3E7A5F.56_fe58.61_ff0000000000_fg2.52.56.0.0.1.0.0_fi_pa0.0.0.0.40.50.85.85.0.0_t00_pb_pc_pd_pe_ga0_gb1_gc14.0_ge0000000000_gh_gf_gg_gd0000000_ha89.89_hb50.1.50.99_hc0.24.20.0.24.20_hd24.1.49.49_ia_if_ib_id_ic_jc_ie_ja_jb_jd_je_jf_jg_ka9.41A9B8.59.42.0_kb9.41A9B8.59.42_kc_kd_ke_kf_la_lb_oa_os_ob_oc_od_oe_of_lc_m00_n00_s00_og_oh_oo_op_oq_or_om_on_ok_ol_oi_oj_ad0.0.0.0.0.0.0.0.0.0

3-concerned=54**aa8.60.1.27.31.8.56.1.27.47_ab_ac_ba39_bb0.1_bc185.500.9.0.1.0_bd43_be174_ca66.0.40.66.30.40.50.0.20.0.60.80_da1.0.0.100_db_dd9.1.40.45.25.50_dh2.45.57.53.0_di7_qa_qb_dc0.3.1.1.1_eh2.23.100_ea32.3E7A5F.3E7A5F.56.0.0_ec7.50.3E7A5F.3E7A5F.56.42.60.0_ed4.58.0.1.3E7A5F.56_ef_eg_r0218.3E7A5F.3E7A5F.56.1.2.33.33.85.572.603.0_fa12.50.50.60.50.65.56_fb7_fh_fc0.33.55.0.33.55.50.32.32.50.50.50_fj0.0.0_fd1.0.40.3E7A5F.56_fe58.61_ff0000000000_fg2.52.56.0.0.1.0.0_fi_pa0.0.0.0.40.50.85.85.0.0_t00_pb_pc_pd_pe_ga0_gb1_gc31.15_ge0000000000_gh_gf_gg_gd0000000_ha89.89_hb50.1.50.99_hc3.100.54.3.100.54_hd32.1.49.49_ia_if_ib_id_ic_jc_ie_ja_jb_jd_je_jf_jg_ka9.41A9B8.59.42.0_kb9.41A9B8.59.42_kc_kd_ke_kf_la_lb_oa_os_ob_oc_od_oe_of_lc_m00_n00_s00_og_oh_oo_op_oq_or_om_on_ok_ol_oi_oj_ad0.0.0.0.0.0.0.0.0.0

3-horny=54**aa18.51.1.23.98.5.82.1.25.78_ab_ac_ba44_bb43.1_bc185.500.9.0.1.0_bd46_be178_ca66.0.40.66.30.40.50.0.20.0.60.80_da1.0.0.100_db_dd12.1.40.45.25.50_dh2.45.57.53.0_di7_qa_qb_dc0.3.1.1.1_eh2.23.100_ea32.3E7A5F.3E7A5F.56.0.0_ec7.50.3E7A5F.3E7A5F.56.42.60.0_ed4.58.0.1.3E7A5F.56_ef_eg_r0218.3E7A5F.3E7A5F.56.1.2.33.33.85.572.603.0_fa12.50.50.60.50.65.56_fb7_fh_fc0.33.55.0.33.55.50.32.32.50.50.50_fj0.0.0_fd1.0.40.3E7A5F.56_fe58.61_ff0000000000_fg2.52.56.0.0.1.0.0_fi_pa0.0.0.0.40.50.85.85.0.0_t00_pb_pc_pd_pe_ga0_gb1_gc15.0_ge0000000000_gh_gf_gg_gd0000000_ha89.89_hb0.1.0.99_hc0.59.39.0.59.39_hd23.1.60.34_ia_if_ib_id_ic_jc_ie_ja_jb_jd_je_jf_jg_ka9.41A9B8.59.42.0_kb9.41A9B8.59.42_kc_kd_ke_kf_la_lb_oa_os_ob_oc_od_oe_of_lc_m00_n00_s00_og_oh_oo_op_oq_or_om_on_ok_ol_oi_oj_ad0.0.0.0.0.0.0.0.0.0

3-loss=54**aa15.54.1.26.43.24.56.1.26.17_ab_ac_ba51_bb47.1_bc185.500.9.0.1.0_bd7_be181_ca66.0.40.66.30.40.50.0.20.0.60.80_da1.0.0.100_db_dd9.1.40.45.25.50_dh2.45.57.53.0_di7_qa_qb_dc0.3.1.1.1_eh2.23.100_ea32.3E7A5F.3E7A5F.56.0.0_ec7.50.3E7A5F.3E7A5F.56.42.60.0_ed4.58.0.1.3E7A5F.56_ef_eg_r0218.3E7A5F.3E7A5F.56.1.2.33.33.85.572.603.0_fa12.50.50.60.50.65.56_fb7_fh_fc0.33.55.0.33.55.50.32.32.50.50.50_fj0.0.0_fd1.0.40.3E7A5F.56_fe58.61_ff0000000000_fg2.52.56.0.0.1.0.0_fi_pa0.0.0.0.40.50.85.85.0.0_t00_pb_pc_pd_pe_ga0_gb1_gc15.0_ge0000000000_gh_gf_gg_gd0000000_ha89.89_hb50.1.50.99_hc0.78.40.0.78.40_hd36.1.49.49_ia_if_ib_id_ic_jc_ie_ja_jb_jd_je_jf_jg_ka9.41A9B8.59.42.0_kb9.41A9B8.59.42_kc_kd_ke_kf_la_lb_oa_os_ob_oc_od_oe_of_lc_m00_n00_s00_og_oh_oo_op_oq_or_om_on_ok_ol_oi_oj_ad0.0.0.0.0.0.0.0.0.0

3-strip=54**aa35.64.0.16.100.35.64.0.28.43_ab_ac_ba38_bb8.0_bc185.500.9.0.1.0_bd46_be177_ca66.0.40.66.30.40.50.0.20.0.60.80_daF9DCC3.0.0.100_db_dd9.1.40.45.25.50_dh2.45.57.53.0_di7_qa_qb_dc0.3.F9DCC3.F9DCC3.1_eh2.23.100_ea32.3E7A5F.3E7A5F.56.0.0_ec7.50.3E7A5F.3E7A5F.56.42.60.0_ed4.58.0.1.3E7A5F.56_ef_eg_r0218.3E7A5F.3E7A5F.56.1.2.33.33.85.572.603.0_fa12.50.50.60.50.65.56_fb7_fh_fc0.33.55.0.33.55.50.32.32.50.50.50_fj0.0.0_fd1.0.40.3E7A5F.56_fe58.61_ff0000000000_fg2.52.56.0.0.1.0.0_fi_pa0.0.0.0.40.50.85.85.0.0_t00_pb_pc_pd_pe_ga0_gb1_gc30.0_ge0000000000_gh_gf_gg_gd0000000_ha60.60_hb0.1.23.84_hc1.94.0.1.94.0_hd4.1.100.94_ia_if_ib_id_ic_jc_ie_ja_jb_jd_je_jf_jg_ka9.41A9B8.59.42.0_kb9.41A9B8.59.42_kc_kd_ke_kf_la_lb_oa_os_ob_oc_od_oe_of_lc_m00_n00_s00_og_oh_oo_op_oq_or_om_on_ok_ol_oi_oj_ad0.0.0.0.0.0.0.0.0.0

#Stage 7 Lost Bra

4-stripped=54**aa8.75.0.3.33.8.75.0.4.31_ab_ac_ba54_bb43.1_bc185.500.9.0.1.0_bd0_be182_ca66.0.40.66.30.40.50.0.20.0.60.80_da1.0.0.100_db_dd9.1.40.45.25.50_dh2.45.57.53.0_di7_qa_qb_dc0.3.1.1.1_eh2.23.100_ea32.3E7A5F.3E7A5F.56.0.0_ec7.50.3E7A5F.3E7A5F.56.42.60.0_ed4.58.0.1.3E7A5F.56_ef_eg_r0218.3E7A5F.3E7A5F.56.1.2.33.33.85.572.603.0_fa12.50.50.60.50.65.56_fb7_fh_fc0.33.55.0.33.55.50.32.32.50.50.50_fj0.0.0_fd1.0.40.3E7A5F.56_fe58.61_ff0000000000_fg2.52.56.0.0.1.0.0_fi_pa0.0.0.0.40.50.85.85.0.0_t00_pb_pc_pd_pe_ga0_gb1_gc30.0_ge0000000000_gh_gf_gg_gd0000000_ha54.54_hb100.1.0.42_hc0.64.43.0.64.43_hd3.0.64.30_ia_if_ib_id_ic_jc_ie_ja_jb_jd_je_jf_jg_ka_kb9.41A9B8.59.42_kc_kd_ke_kf_la_lb_oa_os_ob_oc_od_oe_of_lc_m00_n00_s00_og_oh_oo_op_oq_or_om_on_ok_ol_oi_oj_ad0.0.0.0.0.0.0.0.0.0

4-calm=54**aa6.74.1.49.43.13.72.1.49.70_ab_ac_ba55_bb8.0_bc185.500.9.0.1.0_bd6_be181_ca66.0.40.66.30.40.50.0.20.0.60.80_da1.0.0.100_db_dd9.1.40.45.25.50_dh2.45.57.53.0_di7_qa_qb_dc0.3.1.1.1_eh2.23.100_ea32.3E7A5F.3E7A5F.56.0.0_ec7.50.3E7A5F.3E7A5F.56.42.60.0_ed4.58.0.1.3E7A5F.56_ef_eg_r0218.3E7A5F.3E7A5F.56.1.2.33.33.85.572.603.0_fa12.50.50.60.50.65.56_fb7_fh_fc0.33.55.0.33.55.50.32.32.50.50.50_fj0.0.0_fd1.0.40.3E7A5F.56_fe58.61_ff0000000000_fg2.52.56.0.0.1.0.0_fi_pa0.0.0.0.40.50.85.85.0.0_t00_pb_pc_pd_pe_ga0_gb1_gc7.0_ge0000000000_gh_gf_gg_gd0000000_ha89.89_hb49.1.44.99_hc0.59.39.0.59.39_hd0.1.49.49_ia_if_ib_id_ic_jc_ie_ja_jb_jd_je_jf_jg_ka_kb9.41A9B8.59.42_kc_kd_ke_kf_la_lb_oa_os_ob_oc_od_oe_of_lc_m00_n00_s00_og_oh_oo_op_oq_or_om_on_ok_ol_oi_oj_ad0.0.0.0.0.0.0.0.0.0

4-shocked=54**aa9.72.1.47.88.6.59.1.26.21_ab_ac_ba44_bb7.1_bc185.500.9.0.1.0_bd5_be178_ca66.0.40.66.30.40.50.0.20.0.60.80_da1.0.0.100_db_dd9.1.40.45.25.50_dh2.45.57.53.0_di7_qa_qb_dc0.3.1.1.1_eh2.23.100_ea32.3E7A5F.3E7A5F.56.0.0_ec7.50.3E7A5F.3E7A5F.56.42.60.0_ed4.58.0.1.3E7A5F.56_ef_eg_r0218.3E7A5F.3E7A5F.56.1.2.33.33.85.572.603.0_fa12.50.50.60.50.65.56_fb7_fh_fc0.33.55.0.33.55.50.32.32.50.50.50_fj0.0.0_fd1.0.40.3E7A5F.56_fe58.61_ff0000000000_fg2.52.56.0.0.1.0.0_fi_pa0.0.0.0.40.50.85.85.0.0_t00_pb_pc_pd_pe_ga0_gb1_gc30.0_ge0000000000_gh_gf_gg_gd0000000_ha89.89_hb49.1.44.99_hc0.59.39.0.59.39_hd38.1.49.49_ia_if_ib_id_ic_jc_ie_ja_jb_jd_je_jf_jg_ka_kb9.41A9B8.59.42_kc_kd_ke_kf_la_lb_oa_os_ob_oc_od_oe_of_lc_m00_n00_s00_og_oh_oo_op_oq_or_om_on_ok_ol_oi_oj_ad0.0.0.0.0.0.0.0.0.0

4-happy=54**aa59.25.1.16.45.90.7.1.29.50_ab_ac_ba46_bb52.0_bc185.500.9.0.1.0_bd17_be178_ca66.0.40.66.30.40.50.0.20.0.60.80_da1.0.0.100_db_dd9.1.40.45.25.50_dh2.45.57.53.0_di7_qa_qb_dc0.3.1.1.1_eh2.23.100_ea32.3E7A5F.3E7A5F.56.0.0_ec7.50.3E7A5F.3E7A5F.56.42.60.0_ed4.58.0.1.3E7A5F.56_ef_eg_r0218.3E7A5F.3E7A5F.56.1.2.33.33.85.572.603.0_fa12.50.50.60.50.65.56_fb7_fh_fc0.33.55.0.33.55.50.32.32.50.50.50_fj0.0.0_fd1.0.40.3E7A5F.56_fe58.61_ff0000000000_fg2.52.56.0.0.1.0.0_fi_pa0.0.0.0.40.50.85.85.0.0_t00_pb_pc_pd_pe_ga0_gb1_gc6.0_ge0000000000_gh_gf_gg_gd0000000_ha74.74_hb49.1.44.99_hc0.59.39.0.59.39_hd23.1.49.49_ia_if_ib_id_ic_jc_ie_ja_jb_jd_je_jf_jg_ka_kb9.41A9B8.59.42_kc_kd_ke_kf_la_lb_oa_os_ob_oc_od_oe_of_lc_m00_n00_s00_og_oh_oo_op_oq_or_om_on_ok_ol_oi_oj_ad1.1.0.0.0.0.0.0.0.0

4-interested=54**aa30.75.0.0.100.30.75.0.0.100_ab_ac_ba39_bb8.1_bc185.500.9.0.1.0_bd17_be181_ca66.0.40.66.30.40.50.0.20.0.60.80_da1.0.0.100_db_dd9.1.40.45.25.50_dh2.45.57.53.0_di7_qa_qb_dc0.3.1.1.1_eh2.23.100_ea32.3E7A5F.3E7A5F.56.0.0_ec7.50.3E7A5F.3E7A5F.56.42.60.0_ed4.58.0.1.3E7A5F.56_ef_eg_r0218.3E7A5F.3E7A5F.56.1.2.33.33.85.572.603.0_fa12.50.50.60.50.65.56_fb7_fh_fc0.33.55.0.33.55.50.32.32.50.50.50_fj0.0.0_fd1.0.40.3E7A5F.56_fe58.61_ff0000000000_fg2.52.56.0.0.1.0.0_fi_pa0.0.0.0.40.50.85.85.0.0_t00_pb_pc_pd_pe_ga0_gb1_gc8.0_ge0000000000_gh_gf_gg_gd0000000_ha89.89_hb49.1.44.99_hc0.59.39.0.59.39_hd24.1.49.49_ia_if_ib_id_ic_jc_ie_ja_jb_jd_je_jf_jg_ka_kb9.41A9B8.59.42_kc_kd_ke_kf_la_lb_oa_os_ob_oc_od_oe_of_lc_m00_n00_s00_og_oh_oo_op_oq_or_om_on_ok_ol_oi_oj_ad0.0.0.0.0.0.0.0.0.0

4-angry=54**aa25.72.1.16.35.0.11.0.29.57_ab_ac_ba51_bb13.1_bc185.500.9.0.1.0_bd19_be180_ca66.0.40.66.30.40.50.0.20.0.60.80_da1.0.0.100_db_dd9.1.40.45.25.50_dh2.45.57.53.0_di7_qa_qb_dc0.3.1.1.1_eh2.23.100_ea32.3E7A5F.3E7A5F.56.0.0_ec7.50.3E7A5F.3E7A5F.56.42.60.0_ed4.58.0.1.3E7A5F.56_ef_eg_r0218.3E7A5F.3E7A5F.56.1.2.33.33.85.572.603.0_fa12.50.50.60.50.65.56_fb7_fh_fc0.33.55.0.33.55.50.32.32.50.50.50_fj0.0.0_fd1.0.40.3E7A5F.56_fe58.61_ff0000000000_fg2.52.56.0.0.1.0.0_fi_pa0.0.0.0.40.50.85.85.0.0_t00_pb_pc_pd_pe_ga0_gb1_gc48.15_ge0100000000_gh_gf_gg_gd0000000_ha75.75_hb49.1.44.99_hc1.15.29.1.15.29_hd52.1.49.49_ia_if_ib_id_ic_jc_ie_ja_jb_jd_je_jf_jg_ka_kb9.41A9B8.59.42_kc_kd_ke_kf_la_lb_oa_os_ob_oc_od_oe_of_lc_m00_n00_s00_og_oh_oo_op_oq_or_om_on_ok_ol_oi_oj_ad0.0.0.0.0.0.0.0.0.0

4-sad=54**aa15.77.1.16.54.17.76.1.17.47_ab_ac_ba44_bb3.0_bc185.500.9.0.1.0_bd45_be178_ca66.0.40.66.30.40.50.0.20.0.60.80_da1.0.0.100_db_dd9.1.40.45.25.50_dh2.45.57.53.0_di7_qa_qb_dc0.3.1.1.1_eh2.23.100_ea32.3E7A5F.3E7A5F.56.0.0_ec7.50.3E7A5F.3E7A5F.56.42.60.0_ed4.58.0.1.3E7A5F.56_ef_eg_r0218.3E7A5F.3E7A5F.56.1.2.33.33.85.572.603.0_fa12.50.50.60.50.65.56_fb7_fh_fc0.33.55.0.33.55.50.32.32.50.50.50_fj0.0.0_fd1.0.40.3E7A5F.56_fe58.61_ff0000000000_fg2.52.56.0.0.1.0.0_fi_pa0.0.0.0.40.50.85.85.0.0_t00_pb_pc_pd_pe_ga0_gb1_gc6.0_ge0000000000_gh_gf_gg_gd0000000_ha89.89_hb49.1.50.99_hc3.44.16.3.44.16_hd39.1.49.49_ia_if_ib_id_ic_jc_ie_ja_jb_jd_je_jf_jg_ka_kb9.41A9B8.59.42_kc_kd_ke_kf_la_lb_oa_os_ob_oc_od_oe_of_lc_m00_n00_s00_og_oh_oo_op_oq_or_om_on_ok_ol_oi_oj_ad0.0.0.0.0.0.0.0.0.0

4-excited=54**aa10.54.1.16.45.12.54.1.16.41_ab_ac_ba51_bb9.1_bc185.500.9.0.1.0_bd9_be180_ca66.0.40.66.30.40.50.0.20.0.60.80_da1.0.0.100_db_dd9.1.40.45.25.50_dh2.45.57.53.0_di7_qa_qb_dc0.3.1.1.1_eh2.23.100_ea32.3E7A5F.3E7A5F.56.0.0_ec7.50.3E7A5F.3E7A5F.56.42.60.0_ed4.58.0.1.3E7A5F.56_ef_eg_r0218.3E7A5F.3E7A5F.56.1.2.33.33.85.572.603.0_fa12.50.50.60.50.65.56_fb7_fh_fc0.33.55.0.33.55.50.32.32.50.50.50_fj0.0.0_fd1.0.40.3E7A5F.56_fe58.61_ff0000000000_fg2.52.56.0.0.1.0.0_fi_pa0.0.0.0.40.50.85.85.0.0_t00_pb_pc_pd_pe_ga0_gb1_gc15.0_ge0000000000_gh_gf_gg_gd0000000_ha89.89_hb50.1.50.99_hc0.24.20.0.24.20_hd24.1.49.49_ia_if_ib_id_ic_jc_ie_ja_jb_jd_je_jf_jg_ka_kb9.41A9B8.59.42_kc_kd_ke_kf_la_lb_oa_os_ob_oc_od_oe_of_lc_m00_n00_s00_og_oh_oo_op_oq_or_om_on_ok_ol_oi_oj_ad0.0.0.0.0.0.0.0.0.0

4-concerned=54**aa8.60.1.27.31.8.56.1.27.47_ab_ac_ba39_bb0.1_bc185.500.9.0.1.0_bd43_be174_ca66.0.40.66.30.40.50.0.20.0.60.80_da1.0.0.100_db_dd9.1.40.45.25.50_dh2.45.57.53.0_di7_qa_qb_dc0.3.1.1.1_eh2.23.100_ea32.3E7A5F.3E7A5F.56.0.0_ec7.50.3E7A5F.3E7A5F.56.42.60.0_ed4.58.0.1.3E7A5F.56_ef_eg_r0218.3E7A5F.3E7A5F.56.1.2.33.33.85.572.603.0_fa12.50.50.60.50.65.56_fb7_fh_fc0.33.55.0.33.55.50.32.32.50.50.50_fj0.0.0_fd1.0.40.3E7A5F.56_fe58.61_ff0000000000_fg2.52.56.0.0.1.0.0_fi_pa0.0.0.0.40.50.85.85.0.0_t00_pb_pc_pd_pe_ga0_gb1_gc32.15_ge0000000000_gh_gf_gg_gd0000000_ha89.89_hb50.1.50.99_hc3.100.54.3.100.54_hd32.1.49.49_ia_if_ib_id_ic_jc_ie_ja_jb_jd_je_jf_jg_ka_kb9.41A9B8.59.42_kc_kd_ke_kf_la_lb_oa_os_ob_oc_od_oe_of_lc_m00_n00_s00_og_oh_oo_op_oq_or_om_on_ok_ol_oi_oj_ad0.0.0.0.0.0.0.0.0.0

4-horny=54**aa7.85.1.23.52.10.79.1.17.56_ab_ac_ba40_bb0.1_bc185.500.9.0.1.0_bd43_be176_ca66.0.40.66.30.40.50.0.20.0.60.80_da1.0.0.100_db_dd9.1.40.45.25.50_dh2.45.57.53.0_di7_qa_qb_dc0.3.1.1.1_eh2.23.100_ea32.3E7A5F.3E7A5F.56.0.0_ec7.50.3E7A5F.3E7A5F.56.42.60.0_ed4.58.0.1.3E7A5F.56_ef_eg_r0218.3E7A5F.3E7A5F.56.1.2.33.33.85.572.603.0_fa12.50.50.60.50.65.56_fb7_fh_fc0.33.55.0.33.55.50.32.32.50.50.50_fj0.0.0_fd1.0.40.3E7A5F.56_fe58.61_ff0000000000_fg2.52.56.0.0.1.0.0_fi_pa0.0.0.0.40.50.85.85.0.0_t00_pb_pc_pd_pe_ga0_gb1_gc20.0_ge0000000000_gh_gf_gg_gd0000000_ha89.89_hb100.1.0.99_hc0.82.39.0.82.39_hd23.1.54.48_ia_if_ib_id_ic_jc_ie_ja_jb_jd_je_jf_jg_ka_kb9.41A9B8.59.42_kc_kd_ke_kf_la_lb_oa_os_ob_oc_od_oe_of_lc_m00_n00_s00_og_oh_oo_op_oq_or_om_on_ok_ol_oi_oj_ad0.0.0.0.0.0.0.0.0.0

4-loss=54**aa15.54.1.26.43.24.56.1.26.17_ab_ac_ba51_bb47.1_bc185.500.9.0.1.0_bd7_be181_ca66.0.40.66.30.40.50.0.20.0.60.80_da1.0.0.100_db_dd9.1.40.45.25.50_dh2.45.57.53.0_di7_qa_qb_dc0.3.1.1.1_eh2.23.100_ea32.3E7A5F.3E7A5F.56.0.0_ec7.50.3E7A5F.3E7A5F.56.42.60.0_ed4.58.0.1.3E7A5F.56_ef_eg_r0218.3E7A5F.3E7A5F.56.1.2.33.33.85.572.603.0_fa12.50.50.60.50.65.56_fb7_fh_fc0.33.55.0.33.55.50.32.32.50.50.50_fj0.0.0_fd1.0.40.3E7A5F.56_fe58.61_ff0000000000_fg2.52.56.0.0.1.0.0_fi_pa0.0.0.0.40.50.85.85.0.0_t00_pb_pc_pd_pe_ga0_gb1_gc15.0_ge0000000000_gh_gf_gg_gd0000000_ha89.89_hb50.1.50.99_hc0.78.40.0.78.40_hd36.1.49.49_ia_if_ib_id_ic_jc_ie_ja_jb_jd_je_jf_jg_ka_kb9.41A9B8.59.42_kc_kd_ke_kf_la_lb_oa_os_ob_oc_od_oe_of_lc_m00_n00_s00_og_oh_oo_op_oq_or_om_on_ok_ol_oi_oj_ad0.0.0.0.0.0.0.0.0.0

4-strip=54**aa34.79.1.3.50.26.82.1.45.50_ab_ac_ba38_bb43.1_bc185.500.9.0.1.0_bd43_be177_ca66.0.40.66.30.40.50.0.20.0.60.80_daF9DCC3.0.0.100_db_dd9.1.40.45.25.50_dh2.45.57.53.0_di7_qa_qb_dc0.3.F9DCC3.F9DCC3.1_eh2.23.100_ea32.3E7A5F.3E7A5F.56.0.0_ec7.50.3E7A5F.3E7A5F.56.42.60.0_ed4.58.0.1.3E7A5F.56_ef_eg_r0218.3E7A5F.3E7A5F.56.1.2.33.33.85.572.603.0_fa12.50.50.60.50.65.56_fb7_fh_fc0.33.55.0.33.55.50.32.32.50.50.50_fj0.0.0_fd1.0.40.3E7A5F.56_fe58.61_ff0000000000_fg2.52.56.0.0.1.0.0_fi_pa0.0.0.0.40.50.85.85.0.0_t00_pb_pc_pd_pe_ga0_gb1_gc31.0_ge0000000000_gh_gf_gg_gd0000000_ha0.0_hb0.1.23.84_hc3.94.0.3.94.0_hd1.1.100.94_ia_if_ib_id_ic_jc_ie_ja_jb_jd_je_jf_jg_ka_kb9.41A9B8.59.42_kc_kd_ke_kf_la_lb_oa_os_ob_oc_od_oe_of_lc_m00_n00_s00_og_oh_oo_op_oq_or_om_on_ok_ol_oi_oj_ad0.0.0.0.0.0.0.0.0.0

#Stage 8/-3 Lost Panties/Nude

5-stripped=54**aa6.98.0.3.33.6.98.0.4.31_ab_ac_ba43_bb2.0_bc150.500.8.0.1.0_bd46_be174_ca66.0.40.66.30.40.50.0.20.0.60.80_da1.0.0.100_db_dd9.1.40.45.25.50_dh2.45.57.53.0_di7_qa_qb_dc0.3.1.1.1_eh2.23.100_ea32.3E7A5F.3E7A5F.56.0.0_ec7.50.3E7A5F.3E7A5F.56.42.60.0_ed4.58.0.1.3E7A5F.56_ef_eg_r0218.3E7A5F.3E7A5F.56.1.2.33.33.85.572.603.0_fa12.50.50.60.50.65.56_fb7_fh_fc0.33.55.0.33.55.50.32.32.50.50.50_fj0.0.0_fd1.0.40.3E7A5F.56_fe58.61_ff0000000000_fg2.52.56.0.0.1.0.0_fi_pa0.0.0.0.40.50.85.85.0.0_t00_pb_pc_pd_pe_ga0_gb1_gc31.0_ge0000000000_gh_gf_gg_gd0000000_ha88.88_hb50.1.50.70_hc4.43.88.4.43.88_hd31.0.56.100_ia_if_ib_id_ic_jc_ie_ja_jb_jd_je_jf_jg_ka_kb_kc_kd_ke_kf_la_lb_oa_os_ob_oc_od_oe_of_lc_m00_n00_s00_og_oh_oo_op_oq_or_om_on_ok_ol_oi_oj_ad0.0.0.0.0.0.0.0.0.0

5-calm=54**aa6.74.1.49.43.13.72.1.49.70_ab_ac_ba55_bb8.0_bc150.500.8.0.1.0_bd6_be181_ca66.0.40.66.30.40.50.0.20.0.60.80_da1.0.0.100_db_dd9.1.40.45.25.50_dh2.45.57.53.0_di7_qa_qb_dc0.3.1.1.1_eh2.23.100_ea32.3E7A5F.3E7A5F.56.0.0_ec7.50.3E7A5F.3E7A5F.56.42.60.0_ed4.58.0.1.3E7A5F.56_ef_eg_r0218.3E7A5F.3E7A5F.56.1.2.33.33.85.572.603.0_fa12.50.50.60.50.65.56_fb7_fh_fc0.33.55.0.33.55.50.32.32.50.50.50_fj0.0.0_fd1.0.40.3E7A5F.56_fe58.61_ff0000000000_fg2.52.56.0.0.1.0.0_fi_pa0.0.0.0.40.50.85.85.0.0_t00_pb_pc_pd_pe_ga0_gb1_gc8.0_ge0000000000_gh_gf_gg_gd0000000_ha89.89_hb49.1.44.99_hc0.59.39.0.59.39_hd0.1.49.49_ia_if_ib_id_ic_jc_ie_ja_jb_jd_je_jf_jg_ka_kb_kc_kd_ke_kf_la_lb_oa_os_ob_oc_od_oe_of_lc_m00_n00_s067.26.26.56.0.75.0.500.993.1.8.0.50.0.61_og_oh_oo_op_oq_or_om_on_ok_ol_oi_oj_ad0.0.0.0.0.0.0.0.0.0

5-shocked=54**aa6.61.1.47.20.6.59.1.26.20_ab_ac_ba44_bb7.1_bc150.500.8.0.1.0_bd7_be178_ca66.0.40.66.30.40.50.0.20.0.60.80_da1.0.0.100_db_dd9.1.40.45.25.50_dh2.45.57.53.0_di7_qa_qb_dc0.3.1.1.1_eh2.23.100_ea32.3E7A5F.3E7A5F.56.0.0_ec7.50.3E7A5F.3E7A5F.56.42.60.0_ed4.58.0.1.3E7A5F.56_ef_eg_r0218.3E7A5F.3E7A5F.56.1.2.33.33.85.572.603.0_fa12.50.50.60.50.65.56_fb7_fh_fc0.33.55.0.33.55.50.32.32.50.50.50_fj0.0.0_fd1.0.40.3E7A5F.56_fe58.61_ff0000000000_fg2.52.56.0.0.1.0.0_fi_pa0.0.0.0.40.50.85.85.0.0_t00_pb_pc_pd_pe_ga0_gb1_gc31.0_ge0000000000_gh_gf_gg_gd0000000_ha89.89_hb49.1.44.99_hc0.59.39.0.59.39_hd40.1.49.49_ia_if_ib_id_ic_jc_ie_ja_jb_jd_je_jf_jg_ka_kb_kc_kd_ke_kf_la_lb_oa_os_ob_oc_od_oe_of_lc_m00_n00_s00_og_oh_oo_op_oq_or_om_on_ok_ol_oi_oj_ad0.0.0.0.0.0.0.0.0.0

5-happy=54**aa91.5.1.29.64.69.22.1.16.50_ab_ac_ba46_bb14.1_bc150.500.8.0.1.0_bd48_be178_ca66.0.40.66.30.40.50.0.20.0.60.80_da1.0.0.100_db_dd9.1.40.45.25.50_dh2.45.57.53.0_di7_qa_qb_dc0.3.1.1.1_eh2.23.100_ea32.3E7A5F.3E7A5F.56.0.0_ec7.50.3E7A5F.3E7A5F.56.42.60.0_ed4.58.0.1.3E7A5F.56_ef_eg_r0218.3E7A5F.3E7A5F.56.1.2.33.33.85.572.603.0_fa12.50.50.60.50.65.56_fb7_fh_fc0.33.55.0.33.55.50.32.32.50.50.50_fj0.0.0_fd1.0.40.3E7A5F.56_fe58.61_ff0000000000_fg2.52.56.0.0.1.0.0_fi_pa0.0.0.0.40.50.85.85.0.0_t00_pb_pc_pd_pe_ga0_gb1_gc7.0_ge0000000000_gh_gf_gg_gd0000000_ha89.89_hb49.1.44.99_hc0.59.39.0.59.39_hd23.1.49.49_ia_if_ib_id_ic_jc_ie_ja_jb_jd_je_jf_jg_ka_kb_kc_kd_ke_kf_la_lb_oa_os_ob_oc_od_oe_of_lc_m00_n00_s00_og_oh_oo_op_oq_or_om_on_ok_ol_oi_oj_ad1.1.0.0.0.0.0.0.0.0

5-interested=54**aa30.75.0.0.100.30.75.0.0.100_ab_ac_ba39_bb8.1_bc150.500.8.0.1.0_bd17_be181_ca66.0.40.66.30.40.50.0.20.0.60.80_da1.0.0.100_db_dd9.1.40.45.25.50_dh2.45.57.53.0_di7_qa_qb_dc0.3.1.1.1_eh2.23.100_ea32.3E7A5F.3E7A5F.56.0.0_ec7.50.3E7A5F.3E7A5F.56.42.60.0_ed4.58.0.1.3E7A5F.56_ef_eg_r0218.3E7A5F.3E7A5F.56.1.2.33.33.85.572.603.0_fa12.50.50.60.50.65.56_fb7_fh_fc0.33.55.0.33.55.50.32.32.50.50.50_fj0.0.0_fd1.0.40.3E7A5F.56_fe58.61_ff0000000000_fg2.52.56.0.0.1.0.0_fi_pa0.0.0.0.40.50.85.85.0.0_t00_pb_pc_pd_pe_ga0_gb1_gc9.0_ge0000000000_gh_gf_gg_gd0000000_ha89.89_hb49.1.44.99_hc0.59.39.0.59.39_hd24.1.49.49_ia_if_ib_id_ic_jc_ie_ja_jb_jd_je_jf_jg_ka_kb_kc_kd_ke_kf_la_lb_oa_os_ob_oc_od_oe_of_lc_m00_n00_s00_og_oh_oo_op_oq_or_om_on_ok_ol_oi_oj_ad0.0.0.0.0.0.0.0.0.0

5-angry=54**aa6.74.1.49.43.13.72.1.49.70_ab_ac_ba51_bb25.1_bc150.500.8.0.1.0_bd0_be180_ca66.0.40.66.30.40.50.0.20.0.60.80_da1.0.0.100_db_dd9.1.40.45.25.50_dh2.45.57.53.0_di7_qa_qb_dc0.3.1.1.1_eh2.23.100_ea32.3E7A5F.3E7A5F.56.0.0_ec7.50.3E7A5F.3E7A5F.56.42.60.0_ed4.58.0.1.3E7A5F.56_ef_eg_r0218.3E7A5F.3E7A5F.56.1.2.33.33.85.572.603.0_fa12.50.50.60.50.65.56_fb7_fh_fc0.33.55.0.33.55.50.32.32.50.50.50_fj0.0.0_fd1.0.40.3E7A5F.56_fe58.61_ff0000000000_fg2.52.56.0.0.1.0.0_fi_pa0.0.0.0.40.50.85.85.0.0_t00_pb_pc_pd_pe_ga0_gb1_gc49.15_ge0100000000_gh_gf_gg_gd0000000_ha75.75_hb100.1.100.99_hc1.15.29.1.15.29_hd48.1.49.49_ia_if_ib_id_ic_jc_ie_ja_jb_jd_je_jf_jg_ka_kb_kc_kd_ke_kf_la_lb_oa_os_ob_oc_od_oe_of_lc_m00_n00_s00_og_oh_oo_op_oq_or_om_on_ok_ol_oi_oj_ad0.0.0.0.0.0.0.0.0.0

5-sad=54**aa15.77.1.16.54.17.76.1.17.47_ab_ac_ba44_bb3.0_bc150.500.8.0.1.0_bd45_be178_ca66.0.40.66.30.40.50.0.20.0.60.80_da1.0.0.100_db_dd9.1.40.45.25.50_dh2.45.57.53.0_di7_qa_qb_dc0.3.1.1.1_eh2.23.100_ea32.3E7A5F.3E7A5F.56.0.0_ec7.50.3E7A5F.3E7A5F.56.42.60.0_ed4.58.0.1.3E7A5F.56_ef_eg_r0218.3E7A5F.3E7A5F.56.1.2.33.33.85.572.603.0_fa12.50.50.60.50.65.56_fb7_fh_fc0.33.55.0.33.55.50.32.32.50.50.50_fj0.0.0_fd1.0.40.3E7A5F.56_fe58.61_ff0000000000_fg2.52.56.0.0.1.0.0_fi_pa0.0.0.0.40.50.85.85.0.0_t00_pb_pc_pd_pe_ga0_gb1_gc7.0_ge0000000000_gh_gf_gg_gd0000000_ha89.89_hb49.1.50.99_hc3.44.16.3.44.16_hd39.1.49.49_ia_if_ib_id_ic_jc_ie_ja_jb_jd_je_jf_jg_ka_kb_kc_kd_ke_kf_la_lb_oa_os_ob_oc_od_oe_of_lc_m00_n00_s00_og_oh_oo_op_oq_or_om_on_ok_ol_oi_oj_ad0.0.0.0.0.0.0.0.0.0

5-excited=54**aa10.54.1.16.45.12.54.1.16.41_ab_ac_ba51_bb9.1_bc150.500.8.0.1.0_bd9_be180_ca66.0.40.66.30.40.50.0.20.0.60.80_da1.0.0.100_db_dd9.1.40.45.25.50_dh2.45.57.53.0_di7_qa_qb_dc0.3.1.1.1_eh2.23.100_ea32.3E7A5F.3E7A5F.56.0.0_ec7.50.3E7A5F.3E7A5F.56.42.60.0_ed4.58.0.1.3E7A5F.56_ef_eg_r0218.3E7A5F.3E7A5F.56.1.2.33.33.85.572.603.0_fa12.50.50.60.50.65.56_fb7_fh_fc0.33.55.0.33.55.50.32.32.50.50.50_fj0.0.0_fd1.0.40.3E7A5F.56_fe58.61_ff0000000000_fg2.52.56.0.0.1.0.0_fi_pa0.0.0.0.40.50.85.85.0.0_t00_pb_pc_pd_pe_ga0_gb1_gc15.0_ge0000000000_gh_gf_gg_gd0000000_ha89.89_hb50.1.50.99_hc0.24.20.0.24.20_hd24.1.49.49_ia_if_ib_id_ic_jc_ie_ja_jb_jd_je_jf_jg_ka_kb_kc_kd_ke_kf_la_lb_oa_os_ob_oc_od_oe_of_lc_m00_n00_s00_og_oh_oo_op_oq_or_om_on_ok_ol_oi_oj_ad0.0.0.0.0.0.0.0.0.0

5-concerned=54**aa8.60.1.27.31.8.56.1.27.47_ab_ac_ba39_bb0.1_bc150.500.8.0.1.0_bd43_be174_ca66.0.40.66.30.40.50.0.20.0.60.80_da1.0.0.100_db_dd9.1.40.45.25.50_dh2.45.57.53.0_di7_qa_qb_dc0.3.1.1.1_eh2.23.100_ea32.3E7A5F.3E7A5F.56.0.0_ec7.50.3E7A5F.3E7A5F.56.42.60.0_ed4.58.0.1.3E7A5F.56_ef_eg_r0218.3E7A5F.3E7A5F.56.1.2.33.33.85.572.603.0_fa12.50.50.60.50.65.56_fb7_fh_fc0.33.55.0.33.55.50.32.32.50.50.50_fj0.0.0_fd1.0.40.3E7A5F.56_fe58.61_ff0000000000_fg2.52.56.0.0.1.0.0_fi_pa0.0.0.0.40.50.85.85.0.0_t00_pb_pc_pd_pe_ga0_gb1_gc32.15_ge0000000000_gh_gf_gg_gd0000000_ha89.89_hb50.1.50.99_hc3.100.54.3.100.54_hd32.1.49.49_ia_if_ib_id_ic_jc_ie_ja_jb_jd_je_jf_jg_ka_kb_kc_kd_ke_kf_la_lb_oa_os_ob_oc_od_oe_of_lc_m00_n00_s00_og_oh_oo_op_oq_or_om_on_ok_ol_oi_oj_ad0.0.0.0.0.0.0.0.0.0

5-horny=54**aa7.85.1.27.66.10.79.1.17.56_ab_ac_ba40_bb0.1_bc150.500.8.0.1.0_bd43_be176_ca66.0.40.66.30.40.50.0.20.0.60.80_da1.0.0.100_db_dd9.1.40.45.25.50_dh2.45.57.53.0_di7_qa_qb_dc0.3.1.1.1_eh2.23.100_ea32.3E7A5F.3E7A5F.56.0.0_ec7.50.3E7A5F.3E7A5F.56.42.60.0_ed4.58.0.1.3E7A5F.56_ef_eg_r0218.3E7A5F.3E7A5F.56.1.2.33.33.85.572.603.0_fa12.50.50.60.50.65.56_fb7_fh_fc0.33.55.0.33.55.50.32.32.50.50.50_fj0.0.0_fd1.0.40.3E7A5F.56_fe58.61_ff0000000000_fg2.52.56.0.0.1.0.0_fi_pa0.0.0.0.40.50.85.85.0.0_t00_pb_pc_pd_pe_ga0_gb1_gc20.0_ge0000000000_gh_gf_gg_gd0000000_ha89.89_hb100.1.0.99_hc0.82.39.0.82.39_hd23.1.54.48_ia_if_ib_id_ic_jc_ie_ja_jb_jd_je_jf_jg_ka_kb_kc_kd_ke_kf_la_lb_oa_os_ob_oc_od_oe_of_lc_m00_n00_s00_og_oh_oo_op_oq_or_om_on_ok_ol_oi_oj_ad0.0.0.0.0.0.0.0.0.0

5-loss=54**aa19.74.0.27.86.19.74.0.25.33_ab_ac_ba54_bb30.1_bc150.500.8.0.1.0_bd14_be183_ca66.0.40.66.30.40.50.0.20.0.60.80_da1.0.0.100_db_dd9.1.40.45.25.50_dh2.45.57.53.0_di7_qa_qb_dc34.3.1.1.1_eh2.23.100_ea32.3E7A5F.3E7A5F.56.0.0_ec7.50.3E7A5F.3E7A5F.56.42.60.0_ed4.58.0.1.3E7A5F.56_ef_eg_r0218.3E7A5F.3E7A5F.56.1.2.33.33.85.572.603.0_fa12.50.50.60.50.65.56_fb7_fh_fc0.33.55.0.33.55.50.32.32.50.50.50_fj0.0.0_fd1.0.40.3E7A5F.56_fe58.61_ff0000000000_fg2.52.56.0.0.1.0.0_fi_pa0.0.0.0.40.50.85.85.0.0_t00_pb_pc_pd_pe_ga0_gb1_gc30.0_ge1000000000_gh0_gf_gg_gd0000000_ha92.92_hb0.1.1.99_hc4.78.66.4.78.66_hd35.1.60.52_ia_if_ib_id_ic_jc_ie_ja_jb_jd_je_jf_jg_ka_kb_kc_kd_ke_kf_la_lb_oa_os_ob_oc_od_oe_of_lc_m00_n00_s00_og_oh_oo_op_oq_or_om_on_ok_ol_oi_oj_ad0.0.0.0.0.0.0.0.0.0

5-starting=54**aa7.86.1.27.100.6.56.1.16.7_ab_ac_ba38_bb45.1_bc150.500.8.0.1.0_bd47_be177_ca66.0.40.66.30.40.50.0.20.0.60.80_daF9DCC3.0.0.100_db_dd9.1.40.45.25.50_dh2.45.57.53.0_di7_qa_qb_dc42.3.F9DCC3.F9DCC3.1_eh2.23.100_ea32.3E7A5F.3E7A5F.56.0.0_ec7.50.3E7A5F.3E7A5F.56.42.60.0_ed4.58.0.1.3E7A5F.56_ef_eg_r0218.3E7A5F.3E7A5F.56.1.2.33.33.85.572.603.0_fa12.50.50.60.50.65.56_fb7_fh_fc0.33.55.0.33.55.50.32.32.50.50.50_fj0.0.0_fd1.0.40.3E7A5F.56_fe58.61_ff0000000000_fg2.52.56.0.0.1.0.0_fi_pa0.0.0.0.40.50.85.85.0.0_t00_pb_pc_pd_pe_ga0_gb1_gc35.0_ge0000000000_gh_gf_gg_gd0000000_ha56.56_hb50.1.0.68_hc1.100.15.1.100.15_hd1.1.100.94_ia_if_ib_id_ic_jc_ie_ja_jb_jd_je_jf_jg_ka_kb_kc_kd_ke_kf_la_lb_oa_os_ob_oc_od_oe_of_lc_m00_n00_s00_og_oh_oo_op_oq_or_om_on_ok_ol_oi_oj_ad0.0.0.0.0.0.0.0.0.0

#Stage 9/-2 Masturbation

6-calm=54**aa6.92.1.49.58.7.68.1.49.100_ab_ac_ba55_bb45.0_bc150.500.8.0.1.0_bd43_be181_ca66.0.40.66.30.40.50.0.20.0.60.80_da1.0.0.100_db_dd9.1.40.45.25.50_dh2.45.57.53.0_di7_qa_qb_dc0.3.1.1.1_eh2.23.100_ea32.3E7A5F.3E7A5F.56.0.0_ec7.50.3E7A5F.3E7A5F.56.42.60.0_ed4.58.0.1.3E7A5F.56_ef_eg_r0218.3E7A5F.3E7A5F.56.1.2.33.33.85.572.603.0_fa12.50.50.60.50.65.56_fb7_fh_fc0.33.55.0.33.55.50.32.32.50.50.50_fj0.0.0_fd1.0.40.3E7A5F.56_fe58.61_ff0000000000_fg2.52.56.0.0.1.0.0_fi_pa0.0.0.0.40.50.85.85.0.0_t00_pb_pc_pd_pe_ga0_gb1_gc35.0_ge0000000000_gh_gf_gg_gd0000000_ha64.64_hb49.1.44.99_hc0.82.39.0.82.39_hd23.1.49.49_ia_if_ib_id_ic_jc_ie_ja_jb_jd_je_jf_jg_ka_kb_kc_kd_ke_kf_la_lb_oa_os_ob_oc_od_oe_of_lc_m00_n00_s00_og_oh_oo_op_oq_or_om_on_ok_ol_oi_oj_ad0.0.0.0.0.0.0.0.0.0

6-shocked=54**aa6.91.1.23.45.6.59.1.26.21_ab_ac_ba44_bb7.1_bc150.500.8.0.1.0_bd5_be178_ca66.0.40.66.30.40.50.0.20.0.60.80_da1.0.0.100_db_dd9.1.40.45.25.50_dh2.45.57.53.0_di7_qa_qb_dc50.3.1.1.1_eh2.23.100_ea32.3E7A5F.3E7A5F.56.0.0_ec7.50.3E7A5F.3E7A5F.56.42.60.0_ed4.58.0.1.3E7A5F.56_ef_eg_r0218.3E7A5F.3E7A5F.56.1.2.33.33.85.572.603.0_fa12.50.50.60.50.65.56_fb7_fh_fc0.33.55.0.33.55.50.32.32.50.50.50_fj0.0.0_fd1.0.40.3E7A5F.56_fe58.61_ff0000000000_fg2.52.56.0.0.1.0.0_fi_pa0.0.0.0.40.50.85.85.0.0_t00_pb_pc_pd_pe_ga0_gb1_gc35.0_ge0000000000_gh_gf_gg_gd0000000_ha70.70_hb49.1.44.74_hc0.100.39.0.100.39_hd38.1.49.49_ia_if_ib_id_ic_jc_ie_ja_jb_jd_je_jf_jg_ka_kb_kc_kd_ke_kf_la_lb_oa_os_ob_oc_od_oe_of_lc_m00_n00_s00_og_oh_oo_op_oq_or_om_on_ok_ol_oi_oj_ad0.0.0.0.0.0.0.0.0.0

6-happy=54**aa91.5.1.29.64.7.90.1.4.76_ab_ac_ba46_bb14.1_bc150.500.8.0.1.0_bd48_be178_ca66.0.40.66.30.40.50.0.20.0.60.80_da1.0.0.100_db_dd9.1.40.45.25.50_dh2.45.57.53.0_di7_qa_qb_dc49.3.1.1.1_eh2.23.100_ea32.3E7A5F.3E7A5F.56.0.0_ec7.50.3E7A5F.3E7A5F.56.42.60.0_ed4.58.0.1.3E7A5F.56_ef_eg_r0218.3E7A5F.3E7A5F.56.1.2.33.33.85.572.603.0_fa12.50.50.60.50.65.56_fb7_fh_fc0.33.55.0.33.55.50.32.32.50.50.50_fj0.0.0_fd1.0.40.3E7A5F.56_fe58.61_ff0000000000_fg2.52.56.0.0.1.0.0_fi_pa0.0.0.0.40.50.85.85.0.0_t00_pb_pc_pd_pe_ga0_gb1_gc30.0_ge0000000000_gh_gf_gg_gd0000000_ha57.57_hb49.1.44.80_hc0.94.39.0.94.39_hd31.1.100.100_ia_if_ib_id_ic_jc_ie_ja_jb_jd_je_jf_jg_ka_kb_kc_kd_ke_kf_la_lb_oa_os_ob_oc_od_oe_of_lc_m00_n00_s00_og_oh_oo_op_oq_or_om_on_ok_ol_oi_oj_ad1.1.0.0.0.0.0.0.0.0

6-interested=54**aa30.75.0.0.100.6.91.1.49.49_ab_ac_ba39_bb8.1_bc150.500.8.0.1.0_bd17_be181_ca66.0.40.66.30.40.50.0.20.0.60.80_da1.0.0.100_db_dd9.1.40.45.25.50_dh2.45.57.53.0_di7_qa_qb_dc58.3.1.1.1_eh2.23.100_ea32.3E7A5F.3E7A5F.56.0.0_ec7.50.3E7A5F.3E7A5F.56.42.60.0_ed4.58.0.1.3E7A5F.56_ef_eg_r0218.3E7A5F.3E7A5F.56.1.2.33.33.85.572.603.0_fa12.50.50.60.50.65.56_fb7_fh_fc0.33.55.0.33.55.50.32.32.50.50.50_fj0.0.0_fd1.0.40.3E7A5F.56_fe58.61_ff0000000000_fg2.52.56.0.0.1.0.0_fi_pa0.0.0.0.40.50.85.85.0.0_t00_pb_pc_pd_pe_ga0_gb1_gc30.0_ge0000000000_gh_gf_gg_gd0000000_ha64.64_hb49.1.44.80_hc0.86.39.0.86.39_hd24.1.72.28_ia_if_ib_id_ic_jc_ie_ja_jb_jd_je_jf_jg_ka_kb_kc_kd_ke_kf_la_lb_oa_os_ob_oc_od_oe_of_lc_m00_n00_s00_og_oh_oo_op_oq_or_om_on_ok_ol_oi_oj_ad0.0.0.0.0.0.0.0.0.0

6-angry=54**aa8.87.1.27.80.0.11.0.29.57_ab_ac_ba51_bb13.1_bc150.500.8.0.1.0_bd19_be180_ca66.0.40.66.30.40.50.0.20.0.60.80_da1.0.0.100_db_dd9.1.40.45.25.50_dh2.45.57.53.0_di7_qa_qb_dc61.3.1.1.1_eh2.23.100_ea32.3E7A5F.3E7A5F.56.0.0_ec7.50.3E7A5F.3E7A5F.56.42.60.0_ed4.58.0.1.3E7A5F.56_ef_eg_r0218.3E7A5F.3E7A5F.56.1.2.33.33.85.572.603.0_fa12.50.50.60.50.65.56_fb7_fh_fc0.33.55.0.33.55.50.32.32.50.50.50_fj0.0.0_fd1.0.40.3E7A5F.56_fe58.61_ff0000000000_fg2.52.56.0.0.1.0.0_fi_pa0.0.0.0.40.50.85.85.0.0_t00_pb_pc_pd_pe_ga0_gb1_gc49.15_ge0100000000_gh_gf_gg_gd0000000_ha40.40_hb49.1.44.78_hc1.15.29.1.15.29_hd50.1.100.100_ia_if_ib_id_ic_jc_ie_ja_jb_jd_je_jf_jg_ka_kb_kc_kd_ke_kf_la_lb_oa_os_ob_oc_od_oe_of_lc_m00_n00_s00_og_oh_oo_op_oq_or_om_on_ok_ol_oi_oj_ad0.0.0.0.0.0.0.0.0.0

6-sad=54**aa6.92.1.45.58.14.54.1.8.100_ab_ac_ba44_bb3.0_bc150.500.8.0.1.0_bd45_be178_ca66.0.40.66.30.40.50.0.20.0.60.80_da1.0.0.100_db_dd9.1.40.45.25.50_dh2.45.57.53.0_di7_qa_qb_dc91.3.1.1.1_eh2.23.100_ea32.3E7A5F.3E7A5F.56.0.0_ec7.50.3E7A5F.3E7A5F.56.42.60.0_ed4.58.0.1.3E7A5F.56_ef_eg_r0218.3E7A5F.3E7A5F.56.1.2.33.33.85.572.603.0_fa12.50.50.60.50.65.56_fb7_fh_fc0.33.55.0.33.55.50.32.32.50.50.50_fj0.0.0_fd1.0.40.3E7A5F.56_fe58.61_ff0000000000_fg2.52.56.0.0.1.0.0_fi_pa0.0.0.0.40.50.85.85.0.0_t00_pb_pc_pd_pe_ga0_gb1_gc30.0_ge0000000000_gh_gf_gg_gd0000000_ha68.68_hb49.1.50.99_hc3.44.16.3.44.16_hd40.1.49.49_ia_if_ib_id_ic_jc_ie_ja_jb_jd_je_jf_jg_ka_kb_kc_kd_ke_kf_la_lb_oa_os_ob_oc_od_oe_of_lc_m00_n00_s00_og_oh_oo_op_oq_or_om_on_ok_ol_oi_oj_ad0.0.0.0.0.0.0.0.1.0

6-excited=54**aa6.92.1.17.45.6.92.1.17.41_ab_ac_ba51_bb9.1_bc150.500.8.0.1.0_bd9_be180_ca66.0.40.66.30.40.50.0.20.0.60.80_da1.0.0.100_db_dd9.1.40.45.25.50_dh2.45.57.53.0_di7_qa_qb_dc64.3.1.1.1_eh2.23.100_ea32.3E7A5F.3E7A5F.56.0.0_ec7.50.3E7A5F.3E7A5F.56.42.60.0_ed4.58.0.1.3E7A5F.56_ef_eg_r0218.3E7A5F.3E7A5F.56.1.2.33.33.85.572.603.0_fa12.50.50.60.50.65.56_fb7_fh_fc0.33.55.0.33.55.50.32.32.50.50.50_fj0.0.0_fd1.0.40.3E7A5F.56_fe58.61_ff0000000000_fg2.52.56.0.0.1.0.0_fi_pa0.0.0.0.40.50.85.85.0.0_t00_pb_pc_pd_pe_ga0_gb1_gc30.0_ge0000000000_gh_gf_gg_gd0000000_ha0.0_hb50.1.50.92_hc0.100.20.0.100.20_hd31.1.46.88_ia_if_ib_id_ic_jc_ie_ja_jb_jd_je_jf_jg_ka_kb_kc_kd_ke_kf_la_lb_oa_os_ob_oc_od_oe_of_lc_m00_n00_s00_og_oh_oo_op_oq_or_om_on_ok_ol_oi_oj_ad0.0.0.0.0.0.0.0.0.0

6-concerned=54**aa6.90.1.21.84.8.56.1.27.47_ab_ac_ba39_bb0.1_bc150.500.8.0.1.0_bd43_be174_ca66.0.40.66.30.40.50.0.20.0.60.80_da1.0.0.100_db_dd9.1.40.45.25.50_dh2.45.57.53.0_di7_qa_qb_dc55.3.1.1.1_eh2.23.100_ea32.3E7A5F.3E7A5F.56.0.0_ec7.50.3E7A5F.3E7A5F.56.42.60.0_ed4.58.0.1.3E7A5F.56_ef_eg_r0218.3E7A5F.3E7A5F.56.1.2.33.33.85.572.603.0_fa12.50.50.60.50.65.56_fb7_fh_fc0.33.55.0.33.55.50.32.32.50.50.50_fj0.0.0_fd1.0.40.3E7A5F.56_fe58.61_ff0000000000_fg2.52.56.0.0.1.0.0_fi_pa0.0.0.0.40.50.85.85.0.0_t00_pb_pc_pd_pe_ga0_gb1_gc30.0_ge0000000000_gh_gf_gg_gd0000000_ha70.70_hb50.1.50.99_hc3.100.54.3.100.54_hd32.1.49.49_ia_if_ib_id_ic_jc_ie_ja_jb_jd_je_jf_jg_ka_kb_kc_kd_ke_kf_la_lb_oa_os_ob_oc_od_oe_of_lc_m00_n00_s00_og_oh_oo_op_oq_or_om_on_ok_ol_oi_oj_ad0.0.0.0.0.0.0.0.0.0

6-horny=54**aa7.53.1.27.81.6.92.1.23.41_ab_ac_ba45_bb47.0_bc150.500.8.0.1.0_bd49_be174_ca66.0.40.66.30.40.50.0.20.0.60.80_da1.0.0.100_db_dd9.1.40.45.25.50_dh2.45.57.53.0_di7_qa_qb_dc61.3.1.1.1_eh2.23.100_ea32.3E7A5F.3E7A5F.56.0.0_ec7.50.3E7A5F.3E7A5F.56.42.60.0_ed4.58.0.1.3E7A5F.56_ef_eg_r0218.3E7A5F.3E7A5F.56.1.2.33.33.85.572.603.0_fa12.50.50.60.50.65.56_fb7_fh_fc0.33.55.0.33.55.50.32.32.50.50.50_fj0.0.0_fd1.0.40.3E7A5F.56_fe58.61_ff0000000000_fg2.52.56.0.0.1.0.0_fi_pa0.0.0.0.40.50.85.85.0.0_t00_pb_pc_pd_pe_ga0_gb1_gc30.0_ge0000000000_gh_gf_gg_gd0000000_ha28.28_hb49.1.44.99_hc3.59.39.3.59.39_hd38.1.82.90_ia_if_ib_id_ic_jc_ie_ja_jb_jd_je_jf_jg_ka_kb_kc_kd_ke_kf_la_lb_oa_os_ob_oc_od_oe_of_lc_m00_n00_s00_og_oh_oo_op_oq_or_om_on_ok_ol_oi_oj_ad0.0.0.0.0.0.0.0.0.0

6-heavy=54**aa8.89.0.39.68.6.90.1.17.76_ab_ac_ba21_bb46.0_bc150.500.8.0.1.0_bd37_be171_ca66.0.40.66.30.40.50.0.20.0.60.80_da1.0.0.100_db_dd9.1.40.33.25.50_dh2.45.57.53.0_di7_qa_qb_dc76.3.1.1.1_eh2.23.100_ea32.3E7A5F.3E7A5F.56.0.0_ec7.50.3E7A5F.3E7A5F.56.42.60.0_ed4.58.0.1.3E7A5F.56_ef_eg_r0218.3E7A5F.3E7A5F.56.1.2.33.33.85.572.603.0_fa12.50.72.60.50.65.56_fb7_fh_fc0.33.55.0.33.55.50.32.32.50.50.50_fj0.0.0_fd1.0.40.3E7A5F.56_fe58.72_ff0000000000_fg2.62.56.0.0.1.0.0_fi_pa0.0.0.0.40.50.85.85.0.0_t00_pb_pc_pd_pe_ga0_gb1_gc30.0_ge0000000000_gh_gf_gg_gd0000000_ha42.42_hb45.1.100.79_hc4.100.25.4.100.25_hd48.1.82.90_ia_if_ib_id_ic_jc_ie_ja_jb_jd_je_jf_jg_ka_kb_kc_kd_ke_kf_la_lb_oa_os_ob_oc_od_oe_of_lc_m00_n00_s00_og_oh_oo_op_oq_or_om_on_ok_ol_oi_oj_ad1.1.0.0.0.0.0.0.0.0

#Stage 10/-1 Finished

7-calm=54**aa6.74.1.49.43.13.72.1.49.70_ab_ac_ba55_bb8.0_bc150.500.8.0.1.0_bd6_be181_ca66.0.40.66.30.40.50.0.20.0.60.80_da1.0.0.100_db_dd9.1.40.45.25.50_dh2.45.57.53.0_di7_qa_qb_dc150.3.1.1.1_eh2.23.100_ea32.3E7A5F.3E7A5F.56.0.0_ec7.50.3E7A5F.3E7A5F.56.42.60.0_ed4.58.0.1.3E7A5F.56_ef_eg_r0218.3E7A5F.3E7A5F.56.1.2.33.33.85.572.603.0_fa12.50.50.60.50.65.56_fb7_fh_fc0.33.55.0.33.55.50.32.32.50.50.50_fj0.0.0_fd1.0.40.3E7A5F.56_fe58.61_ff0000000000_fg2.52.56.0.0.1.0.0_fi_pa0.0.0.0.40.50.85.85.0.0_t00_pb_pc_pd_pe_ga0_gb1_gc8.0_ge0000000000_gh_gf_gg_gd0000000_ha89.89_hb49.1.44.99_hc0.59.39.0.59.39_hd0.1.49.49_ia_if_ib_id_ic_jc_ie_ja_jb_jd_je_jf_jg_ka_kb_kc_kd_ke_kf_la_lb_oa_os_ob_oc_od_oe_of_lc_m00_n00_s067.26.26.56.0.75.0.500.993.1.8.0.50.0.61_og_oh_oo_op_oq_or_om_on_ok_ol_oi_oj_ad0.0.0.0.0.0.0.0.0.0

7-shocked=54**aa9.72.1.47.88.6.59.1.26.21_ab_ac_ba44_bb7.1_bc150.500.8.0.1.0_bd5_be178_ca66.0.40.66.30.40.50.0.20.0.60.80_da1.0.0.100_db_dd9.1.40.45.25.50_dh2.45.57.53.0_di7_qa_qb_dc160.3.1.1.1_eh2.23.100_ea32.3E7A5F.3E7A5F.56.0.0_ec7.50.3E7A5F.3E7A5F.56.42.60.0_ed4.58.0.1.3E7A5F.56_ef_eg_r0218.3E7A5F.3E7A5F.56.1.2.33.33.85.572.603.0_fa12.50.50.60.50.65.56_fb7_fh_fc0.33.55.0.33.55.50.32.32.50.50.50_fj0.0.0_fd1.0.40.3E7A5F.56_fe58.61_ff0000000000_fg2.52.56.0.0.1.0.0_fi_pa0.0.0.0.40.50.85.85.0.0_t00_pb_pc_pd_pe_ga0_gb1_gc31.0_ge0000000000_gh_gf_gg_gd0000000_ha89.89_hb49.1.44.99_hc0.59.39.0.59.39_hd38.1.49.49_ia_if_ib_id_ic_jc_ie_ja_jb_jd_je_jf_jg_ka_kb_kc_kd_ke_kf_la_lb_oa_os_ob_oc_od_oe_of_lc_m00_n00_s067.26.26.56.0.75.0.500.993.1.8.0.50.0.61_og_oh_oo_op_oq_or_om_on_ok_ol_oi_oj_ad0.0.0.0.0.0.0.0.0.0

7-happy=54**aa91.5.1.29.64.69.22.1.16.50_ab_ac_ba46_bb14.1_bc150.500.8.0.1.0_bd48_be178_ca66.0.40.66.30.40.50.0.20.0.60.80_da1.0.0.100_db_dd9.1.40.45.25.50_dh2.45.57.53.0_di7_qa_qb_dc191.3.1.1.1_eh2.23.100_ea32.3E7A5F.3E7A5F.56.0.0_ec7.50.3E7A5F.3E7A5F.56.42.60.0_ed4.58.0.1.3E7A5F.56_ef_eg_r0218.3E7A5F.3E7A5F.56.1.2.33.33.85.572.603.0_fa12.50.50.60.50.65.56_fb7_fh_fc0.33.55.0.33.55.50.32.32.50.50.50_fj0.0.0_fd1.0.40.3E7A5F.56_fe58.61_ff0000000000_fg2.52.56.0.0.1.0.0_fi_pa0.0.0.0.40.50.85.85.0.0_t00_pb_pc_pd_pe_ga0_gb1_gc7.0_ge0000000000_gh_gf_gg_gd0000000_ha89.89_hb49.1.44.99_hc0.59.39.0.59.39_hd23.1.49.49_ia_if_ib_id_ic_jc_ie_ja_jb_jd_je_jf_jg_ka_kb_kc_kd_ke_kf_la_lb_oa_os_ob_oc_od_oe_of_lc_m00_n00_s00_og_oh_oo_op_oq_or_om_on_ok_ol_oi_oj_ad1.1.0.0.0.0.0.0.0.0

7-interested=54**aa30.75.0.0.100.30.75.0.0.100_ab_ac_ba39_bb8.1_bc150.500.8.0.1.0_bd17_be181_ca66.0.40.66.30.40.50.0.20.0.60.80_da1.0.0.100_db_dd9.1.40.45.25.50_dh2.45.57.53.0_di7_qa_qb_dc184.3.1.1.1_eh2.23.100_ea32.3E7A5F.3E7A5F.56.0.0_ec7.50.3E7A5F.3E7A5F.56.42.60.0_ed4.58.0.1.3E7A5F.56_ef_eg_r0218.3E7A5F.3E7A5F.56.1.2.33.33.85.572.603.0_fa12.50.50.60.50.65.56_fb7_fh_fc0.33.55.0.33.55.50.32.32.50.50.50_fj0.0.0_fd1.0.40.3E7A5F.56_fe58.61_ff0000000000_fg2.52.56.0.0.1.0.0_fi_pa0.0.0.0.40.50.85.85.0.0_t00_pb_pc_pd_pe_ga0_gb1_gc9.0_ge0000000000_gh_gf_gg_gd0000000_ha89.89_hb49.1.44.99_hc0.59.39.0.59.39_hd24.1.49.49_ia_if_ib_id_ic_jc_ie_ja_jb_jd_je_jf_jg_ka_kb_kc_kd_ke_kf_la_lb_oa_os_ob_oc_od_oe_of_lc_m00_n00_s00_og_oh_oo_op_oq_or_om_on_ok_ol_oi_oj_ad0.0.0.0.0.0.0.0.0.0

7-angry=54**aa25.72.1.16.35.0.11.0.29.57_ab_ac_ba51_bb13.1_bc150.500.8.0.1.0_bd19_be180_ca66.0.40.66.30.40.50.0.20.0.60.80_da1.0.0.100_db_dd9.1.40.45.25.50_dh2.45.57.53.0_di7_qa_qb_dc202.3.1.1.1_eh2.23.100_ea32.3E7A5F.3E7A5F.56.0.0_ec7.50.3E7A5F.3E7A5F.56.42.60.0_ed4.58.0.1.3E7A5F.56_ef_eg_r0218.3E7A5F.3E7A5F.56.1.2.33.33.85.572.603.0_fa12.50.50.60.50.65.56_fb7_fh_fc0.33.55.0.33.55.50.32.32.50.50.50_fj0.0.0_fd1.0.40.3E7A5F.56_fe58.61_ff0000000000_fg2.52.56.0.0.1.0.0_fi_pa0.0.0.0.40.50.85.85.0.0_t00_pb_pc_pd_pe_ga0_gb1_gc49.15_ge0100000000_gh_gf_gg_gd0000000_ha75.75_hb49.1.44.99_hc1.15.29.1.15.29_hd52.1.49.49_ia_if_ib_id_ic_jc_ie_ja_jb_jd_je_jf_jg_ka_kb_kc_kd_ke_kf_la_lb_oa_os_ob_oc_od_oe_of_lc_m00_n00_s00_og_oh_oo_op_oq_or_om_on_ok_ol_oi_oj_ad0.0.0.0.0.0.0.0.0.0

7-sad=54**aa15.77.1.16.54.17.76.1.17.47_ab_ac_ba44_bb3.0_bc150.500.8.0.1.0_bd45_be178_ca66.0.40.66.30.40.50.0.20.0.60.80_da1.0.0.100_db_dd9.1.40.45.25.50_dh2.45.57.53.0_di7_qa_qb_dc192.3.1.1.1_eh2.23.100_ea32.3E7A5F.3E7A5F.56.0.0_ec7.50.3E7A5F.3E7A5F.56.42.60.0_ed4.58.0.1.3E7A5F.56_ef_eg_r0218.3E7A5F.3E7A5F.56.1.2.33.33.85.572.603.0_fa12.50.50.60.50.65.56_fb7_fh_fc0.33.55.0.33.55.50.32.32.50.50.50_fj0.0.0_fd1.0.40.3E7A5F.56_fe58.61_ff0000000000_fg2.52.56.0.0.1.0.0_fi_pa0.0.0.0.40.50.85.85.0.0_t00_pb_pc_pd_pe_ga0_gb1_gc7.0_ge0000000000_gh_gf_gg_gd0000000_ha89.89_hb49.1.50.99_hc3.44.16.3.44.16_hd39.1.49.49_ia_if_ib_id_ic_jc_ie_ja_jb_jd_je_jf_jg_ka_kb_kc_kd_ke_kf_la_lb_oa_os_ob_oc_od_oe_of_lc_m00_n00_s00_og_oh_oo_op_oq_or_om_on_ok_ol_oi_oj_ad0.0.0.0.0.0.0.0.0.0

7-excited=54**aa10.54.1.16.45.12.54.1.16.41_ab_ac_ba51_bb9.1_bc150.500.8.0.1.0_bd9_be180_ca66.0.40.66.30.40.50.0.20.0.60.80_da1.0.0.100_db_dd9.1.40.45.25.50_dh2.45.57.53.0_di7_qa_qb_dc184.3.1.1.1_eh2.23.100_ea32.3E7A5F.3E7A5F.56.0.0_ec7.50.3E7A5F.3E7A5F.56.42.60.0_ed4.58.0.1.3E7A5F.56_ef_eg_r0218.3E7A5F.3E7A5F.56.1.2.33.33.85.572.603.0_fa12.50.50.60.50.65.56_fb7_fh_fc0.33.55.0.33.55.50.32.32.50.50.50_fj0.0.0_fd1.0.40.3E7A5F.56_fe58.61_ff0000000000_fg2.52.56.0.0.1.0.0_fi_pa0.0.0.0.40.50.85.85.0.0_t00_pb_pc_pd_pe_ga0_gb1_gc15.0_ge0000000000_gh_gf_gg_gd0000000_ha89.89_hb50.1.50.99_hc0.24.20.0.24.20_hd24.1.49.49_ia_if_ib_id_ic_jc_ie_ja_jb_jd_je_jf_jg_ka_kb_kc_kd_ke_kf_la_lb_oa_os_ob_oc_od_oe_of_lc_m00_n00_s00_og_oh_oo_op_oq_or_om_on_ok_ol_oi_oj_ad0.0.0.0.0.0.0.0.0.0

7-concerned=54**aa8.60.1.27.31.8.56.1.27.47_ab_ac_ba39_bb0.1_bc150.500.8.0.1.0_bd43_be174_ca66.0.40.66.30.40.50.0.20.0.60.80_da1.0.0.100_db_dd9.1.40.45.25.50_dh2.45.57.53.0_di7_qa_qb_dc193.3.1.1.1_eh2.23.100_ea32.3E7A5F.3E7A5F.56.0.0_ec7.50.3E7A5F.3E7A5F.56.42.60.0_ed4.58.0.1.3E7A5F.56_ef_eg_r0218.3E7A5F.3E7A5F.56.1.2.33.33.85.572.603.0_fa12.50.50.60.50.65.56_fb7_fh_fc0.33.55.0.33.55.50.32.32.50.50.50_fj0.0.0_fd1.0.40.3E7A5F.56_fe58.61_ff0000000000_fg2.52.56.0.0.1.0.0_fi_pa0.0.0.0.40.50.85.85.0.0_t00_pb_pc_pd_pe_ga0_gb1_gc32.15_ge0000000000_gh_gf_gg_gd0000000_ha89.89_hb50.1.50.99_hc3.100.54.3.100.54_hd32.1.49.49_ia_if_ib_id_ic_jc_ie_ja_jb_jd_je_jf_jg_ka_kb_kc_kd_ke_kf_la_lb_oa_os_ob_oc_od_oe_of_lc_m00_n00_s00_og_oh_oo_op_oq_or_om_on_ok_ol_oi_oj_ad0.0.0.0.0.0.0.0.0.0

7-horny=54**aa11.85.1.27.66.10.82.1.17.27_ab_ac_ba40_bb0.1_bc150.500.8.0.1.0_bd43_be176_ca66.0.40.66.30.40.50.0.20.0.60.80_da1.0.0.100_db_dd9.1.40.45.25.50_dh2.45.57.53.0_di7_qa_qb_dc142.3.1.1.1_eh2.23.100_ea32.3E7A5F.3E7A5F.56.0.0_ec7.50.3E7A5F.3E7A5F.56.42.60.0_ed4.58.0.1.3E7A5F.56_ef_eg_r0218.3E7A5F.3E7A5F.56.1.2.33.33.85.572.603.0_fa12.50.50.60.50.65.56_fb7_fh_fc0.33.55.0.33.55.50.32.32.50.50.50_fj0.0.0_fd1.0.40.3E7A5F.56_fe58.61_ff0000000000_fg2.52.56.0.0.1.0.0_fi_pa0.0.0.0.40.50.85.85.0.0_t00_pb_pc_pd_pe_ga0_gb1_gc30.0_ge0000000000_gh_gf_gg_gd0000000_ha75.75_hb100.1.0.99_hc0.82.39.0.82.39_hd23.1.72.34_ia_if_ib_id_ic_jc_ie_ja_jb_jd_je_jf_jg_ka_kb_kc_kd_ke_kf_la_lb_oa_os_ob_oc_od_oe_of_lc_m00_n00_s00_og_oh_oo_op_oq_or_om_on_ok_ol_oi_oj_ad0.0.0.0.0.0.0.0.0.0


6-finishing=47***aa19.0.1.0.50.6.100.0.0.50_ab_ac_ba50_bb98.1_bc217.500.0.0.1_bd17_be180_ca70.0.46.62.18.32.34.0.0_cb0_da1.0.E4CCE8.100_db_dd0.1.34.50.50.50_dh4.30.50.57.4_di7_qa_qb_dc0.1.1.1.1_eh4.40_ea24.40.40.56.0.0_ec_ed0.16.1.1.40.56_ef0.0.50.40.40.56_eg0.0.50.40.40.56_r00_fa2.50.57.12.64.65.56_fb7_fh2_fc0.19.55.0.19.55.44.61.61.50.50.50_fd1.1.41.40.56_fe50.61_ff0000000000_fg0.50_pa0.0.0.0.40.50.85.85.0.0_t00_pb_pc_pd_pe_ga0_gb1_gc0.0_ge0000000000_gh_gf_gg_gd10000000_ha89.89_hb49.1.44.99_hc0.59.39.0.59.39_hd0.1.49.49_ia_if_ib7.44.49.60.0.0.0.1.1.0.0.1.0.0.15_id_ic_jc_ie4.56.56.0.2.60.60.0.2.60.60.0.0_ja13.60.2.0_jb13.60.2.0_jd_je14.55.44.60_jf_jg_ka0.43.43.1.0_kb_kc_kd_ke_kf_la18.67CD5F.55.0.1_lb_oa_os_ob_oc_od_oe_of_lc_m013.4EBA43.3.0.2.0.44.0.0.79.3.61_n00_s003.34.34.34.0.38.0.573.534.3.0.0.38.4.61_og_oh_oo_op_oq_or_om_on_ok_ol_oi7.55.60.34.0_oj7.55.60.34.0_ad0.0.0.0.0.0.0.0.0.0*0*0*0*0*0*0*0*0#/]a00_b00_c00_d00_w00_x00_e00_y00_z00_ua1.0.0.0.100_uf0.3.0.0_ue_ub_u0_v0_uc7.0.30_ud7.8
crop_pixels=0,0,800,1400
1-strip=54**aa11.89.1.27.43.12.98.1.3.35_ab_ac_ba51_bb54.1_bc185.500.3.0.1.0_bd97_be182_ca66.0.40.66.30.40.50.0.20.0.60.80_da1.0.0.100_db_dd9.1.40.45.25.50_dh2.45.57.53.0_di7_qa_qb_dc0.3.1.1.1_eh2.23.100_ea32.3E7A5F.3E7A5F.56.0.0_ec2.20.3E7A5F.3E7A5F.56.29.49.0_ed4.58.0.1.3E7A5F.56_ef_eg_r0037.3E7A5F.3E7A5F.56.2.0.50.50.350.489.625.0_r0218.3E7A5F.3E7A5F.56.1.2.33.33.85.572.603.0_fa12.50.50.60.50.65.56_fb7_fh_fc0.33.55.0.33.55.50.32.32.50.50.57_fj0.0.0_fd1.0.40.3E7A5F.56_fe58.61_ff0000000000_fg2.52.56.0.0.1.0.0_fi_pa0.0.0.0.40.50.85.85.0.0_t00_pb_pc_pd_pe_ga0_gb1_gc15.0_ge0000000000_gh_gf_gg_gd0000000_ha79.79_hb59.1.51.99_hc0.26.8.0.26.8_hd33.1.41.53_ia_if_ib_id_ic_jc_ie_ja_jb_jd2.AB7044.AB7044.50_je2.AB7044.AB7044.50_jf_jg_ka9.41A9B8.59.0.0_kb9.41A9B8.59.0_kc_kd_ke_kf_la_lb_oa_os_ob_oc_od_oe_of_lc_m0046.50.3.0.2.1.40.1.6.80.3.61_n00_s00_og_oh_oo_op_oq_or_om_on_ok_ol_oi_oj_ad0.0.0.0.0.0.0.0.0.0

6-finishing=54**aa88.21.1.42.0.15.79.1.26.100_ab_ac_ba7_bb59.0_bc185.500.3.0.1.0_bd85_be172_ca66.0.40.66.30.40.50.0.20.0.60.80_da1.0.0.100_db_dd9.1.40.33.25.50_dh2.45.57.53.0_di7_qa_qb_dc141.3.1.1.1_eh2.23.100_ea32.3E7A5F.3E7A5F.56.0.0_ec7.50.3E7A5F.3E7A5F.56.42.60.0_ed4.58.0.1.3E7A5F.56_ef_eg_r0218.3E7A5F.3E7A5F.56.1.2.33.33.85.572.603.0_fa12.50.72.60.50.65.56_fb7_fh_fc0.33.55.0.33.55.50.32.32.50.50.50_fj0.0.0_fd1.0.40.3E7A5F.56_fe58.72_ff0000000000_fg2.62.56.0.0.1.0.0_fi_pa0.0.0.0.40.50.85.85.0.0_t00_pb_pc_pd_pe_ga0_gb1_gc30.0_ge0000000000_gh_gf_gg_gd0000000_ha42.42_hb45.1.80.56_hc4.100.90.4.100.90_hd25.1.100.100_ia_if_ib_id_ic_jc_ie_ja_jb_jd_je_jf_jg_ka_kb_kc_kd_ke_kf_la_lb_oa_os_ob_oc_od_oe_of_lc_m00_n00_s00_og_oh_oo_op_oq_or_om_on_ok_ol_oi_oj_ad1.1.0.0.0.0.0.0.0.0
