#Fully clothed
0-calm=54**aa5.2.0.0.50.5.2.0.0.50_ab_ac_ba50_bb5.1_bc150.500.8.0.1.0_bd5_be180_ca68.0.45.68.34.30.34.0.0.0.60.80_da0.0.0.100_db_dd0.3.5.45.0.50_dh2.30.50.50.2_di7_qa_qb_dc0.1.0.0.0_eh4.916A43.100_ea10.916A43.916A43.56.0.0_ec5.70.916A43.916A43.56.40.64.1_ed28.100.0.1.916A43.56_ef_eg_r00_fa11.56.74.40.16.20.56_fb9_fh5_fc0.A9D0F8.55.0.A9D0F8.55.49.61.61.49.50.50_fj0.0.0_fd16.0.21.916A43.56_fe50.60_ff0000000000_fg2.35.56.0.0.1.0.0_fi_pa2.0.0.0.20.61.85.77.0.0_t00_pb_pc_pd_pe_ga0_gb0_gc1.0_ge0000000000_gh_gf_gg_gd0000000_ha89.89_hb49.1.44.99_hc0.29.39.0.29.39_hd0.1.49.49_ia_if_ib_id_ic_jc_ie_ja_jb_jd2.48.48.50_je2.48.48.50_jf_jg_ka30.81477F.81477F.81477F.0_kb20.81477F.81477F.81477F_kc_kd_ke_kf_la_lb_oa_os_ob_oc_od_oe_of_lc14.E3B464.B38E4E.19.0_m00_n002.58.0.0.0.50.33.56.7.2.61_n010.58.0.0.0.50.0.67.30.2.61_n020.58.0.0.0.33.0.62.17.2.61_n030.58.0.0.0.50.42.64.19.2.61_n040.58.0.0.0.50.8.65.23.2.61_n050.58.0.0.0.50.43.65.28.2.61_n060.55.0.0.0.50.7.62.13.2.61_s00_og_oh_oo_op_oq_or_om_on_ok_ol_oi_oj_ad0.0.0.0.0.0.0.0.0.0

0-embarrassed=54**aa7.92.1.16.37.7.92.1.16.37_ab_ac_ba50_bb4.1_bc150.500.0.0.1.0_bd4_be180_ca68.0.45.68.34.30.34.0.0.0.60.80_da0.0.0.100_db_dd0.3.5.45.0.50_dh2.30.50.50.2_di7_qa_qb_dc0.1.0.0.0_eh4.916A43.100_ea10.916A43.916A43.56.0.0_ec5.70.916A43.916A43.56.40.64.1_ed28.100.0.1.916A43.56_ef_eg_r00_fa11.56.74.40.16.20.56_fb9_fh5_fc0.A9D0F8.55.0.A9D0F8.55.49.61.61.49.50.50_fj0.0.0_fd16.0.21.916A43.56_fe50.60_ff0000000000_fg2.35.56.0.0.1.0.0_fi_pa2.0.0.0.20.61.85.77.0.0_t00_pb_pc_pd_pe_ga0_gb0_gc15.0_ge0000000000_gh_gf_gg_gd0000000_ha75.75_hb100.1.0.100_hc0.81.58.0.81.58_hd37.1.49.49_ia_if_ib_id_ic_jc_ie_ja_jb_jd2.48.48.50_je2.48.48.50_jf_jg_ka30.81477F.81477F.81477F.0_kb20.81477F.81477F.81477F_kc_kd_ke_kf_la_lb_oa_os_ob_oc_od_oe_of_lc14.E3B464.B38E4E.19.0_m00_n002.58.0.0.0.50.33.56.7.2.61_n010.58.0.0.0.50.0.67.30.2.61_n020.58.0.0.0.33.0.62.17.2.61_n030.58.0.0.0.50.42.64.19.2.61_n040.58.0.0.0.50.8.65.23.2.61_n050.58.0.0.0.50.43.65.28.2.61_n060.55.0.0.0.50.7.62.13.2.61_s00_og_oh_oo_op_oq_or_om_on_ok_ol_oi_oj_ad0.0.0.0.0.0.0.0.0.0

0-excited=54**aa13.59.1.26.64.5.4.0.0.57_ab_ac_ba50_bb4.1_bc150.500.0.0.1.0_bd4_be180_ca68.0.45.68.34.30.34.0.0.0.60.80_da0.0.0.100_db_dd0.3.5.45.0.50_dh2.30.50.50.2_di7_qa_qb_dc0.1.0.0.0_eh4.916A43.100_ea10.916A43.916A43.56.0.0_ec5.70.916A43.916A43.56.40.64.1_ed28.100.0.1.916A43.56_ef_eg_r00_fa11.56.74.40.16.20.56_fb9_fh5_fc0.A9D0F8.55.0.A9D0F8.55.49.61.61.49.50.50_fj0.0.0_fd16.0.21.916A43.56_fe50.60_ff0000000000_fg2.35.56.0.0.1.0.0_fi_pa2.0.0.0.20.61.85.77.0.0_t00_pb_pc_pd_pe_ga0_gb0_gc0.0_ge0000000000_gh_gf_gg_gd0000000_ha89.89_hb50.1.50.100_hc0.55.81.0.55.81_hd23.1.49.49_ia_if_ib_id_ic_jc_ie_ja_jb_jd2.48.48.50_je2.48.48.50_jf_jg_ka30.81477F.81477F.81477F.0_kb20.81477F.81477F.81477F_kc_kd_ke_kf_la_lb_oa_os_ob_oc_od_oe_of_lc14.E3B464.B38E4E.19.0_m00_n002.58.0.0.0.50.33.56.7.2.61_n010.58.0.0.0.50.0.67.30.2.61_n020.58.0.0.0.33.0.62.17.2.61_n030.58.0.0.0.50.42.64.19.2.61_n040.58.0.0.0.50.8.65.23.2.61_n050.58.0.0.0.50.43.65.28.2.61_n060.55.0.0.0.50.7.62.13.2.61_s00_og_oh_oo_op_oq_or_om_on_ok_ol_oi_oj_ad0.0.0.0.0.0.0.0.0.0

0-happy=54**aa7.57.1.16.45.7.57.1.16.45_ab_ac_ba50_bb5.1_bc150.500.0.0.1.0_bd5_be180_ca68.0.45.68.34.30.34.0.0.0.60.80_da0.0.0.100_db_dd0.3.5.45.0.50_dh2.30.50.50.2_di7_qa_qb_dc0.1.0.0.0_eh4.916A43.100_ea10.916A43.916A43.56.0.0_ec5.70.916A43.916A43.56.40.64.1_ed28.100.0.1.916A43.56_ef_eg_r00_fa11.56.74.40.16.20.56_fb9_fh5_fc0.A9D0F8.55.0.A9D0F8.55.49.61.61.49.50.50_fj0.0.0_fd16.0.21.916A43.56_fe50.60_ff0000000000_fg2.35.56.0.0.1.0.0_fi_pa2.0.0.0.20.61.85.77.0.0_t00_pb_pc_pd_pe_ga0_gb0_gc1.0_ge0000000000_gh_gf_gg_gd0000000_ha0.0_hb49.1.44.99_hc0.66.39.0.66.39_hd25.1.49.49_ia_if_ib_id_ic_jc_ie_ja_jb_jd2.48.48.50_je2.48.48.50_jf_jg_ka30.81477F.81477F.81477F.0_kb20.81477F.81477F.81477F_kc_kd_ke_kf_la_lb_oa_os_ob_oc_od_oe_of_lc14.E3B464.B38E4E.19.0_m00_n002.58.0.0.0.50.33.56.7.2.61_n010.58.0.0.0.50.0.67.30.2.61_n020.58.0.0.0.33.0.62.17.2.61_n030.58.0.0.0.50.42.64.19.2.61_n040.58.0.0.0.50.8.65.23.2.61_n050.58.0.0.0.50.43.65.28.2.61_n060.55.0.0.0.50.7.62.13.2.61_s00_og_oh_oo_op_oq_or_om_on_ok_ol_oi_oj_ad0.0.0.0.0.0.0.0.0.0

0-horny=54**aa7.77.1.16.37.7.77.1.16.37_ab_ac_ba50_bb4.1_bc150.500.0.0.1.0_bd4_be180_ca68.0.45.68.34.30.34.0.0.0.60.80_da0.0.0.100_db_dd0.3.5.45.0.50_dh2.30.50.50.2_di7_qa_qb_dc0.1.0.0.0_eh4.916A43.100_ea10.916A43.916A43.56.0.0_ec5.70.916A43.916A43.56.40.64.1_ed28.100.0.1.916A43.56_ef_eg_r00_fa11.56.74.40.16.20.56_fb9_fh5_fc0.A9D0F8.55.0.A9D0F8.55.49.61.61.49.50.50_fj0.0.0_fd16.0.21.916A43.56_fe50.60_ff0000000000_fg2.35.56.0.0.1.0.0_fi_pa2.0.0.0.20.61.85.77.0.0_t00_pb_pc_pd_pe_ga0_gb0_gc15.0_ge0000000000_gh_gf_gg_gd0000000_ha75.75_hb50.1.50.100_hc0.51.58.0.51.58_hd10.1.49.49_ia_if_ib_id_ic_jc_ie_ja_jb_jd2.48.48.50_je2.48.48.50_jf_jg_ka30.81477F.81477F.81477F.0_kb20.81477F.81477F.81477F_kc_kd_ke_kf_la_lb_oa_os_ob_oc_od_oe_of_lc14.E3B464.B38E4E.19.0_m00_n002.58.0.0.0.50.33.56.7.2.61_n010.58.0.0.0.50.0.67.30.2.61_n020.58.0.0.0.33.0.62.17.2.61_n030.58.0.0.0.50.42.64.19.2.61_n040.58.0.0.0.50.8.65.23.2.61_n050.58.0.0.0.50.43.65.28.2.61_n060.55.0.0.0.50.7.62.13.2.61_s00_og_oh_oo_op_oq_or_om_on_ok_ol_oi_oj_ad0.0.0.0.0.0.0.0.0.0

0-interested=54**aa10.57.1.47.35.8.91.0.0.50_ab_ac_ba50_bb5.1_bc150.500.0.0.1.0_bd5_be180_ca68.0.45.68.34.30.34.0.0.0.60.80_da0.0.0.100_db_dd0.3.5.45.0.50_dh2.30.50.50.2_di7_qa_qb_dc0.1.0.0.0_eh4.916A43.100_ea10.916A43.916A43.56.0.0_ec5.70.916A43.916A43.56.40.64.1_ed28.100.0.1.916A43.56_ef_eg_r00_fa11.56.74.40.16.20.56_fb9_fh5_fc0.A9D0F8.55.0.A9D0F8.55.49.61.61.49.50.50_fj0.0.0_fd16.0.21.916A43.56_fe50.60_ff0000000000_fg2.35.56.0.0.1.0.0_fi_pa2.0.0.0.20.61.85.77.0.0_t00_pb_pc_pd_pe_ga0_gb0_gc1.0_ge0000000000_gh_gf_gg_gd0000000_ha89.89_hb49.1.44.99_hc1.53.38.1.80.80_hd22.1.49.49_ia_if_ib_id_ic_jc_ie_ja_jb_jd2.48.48.50_je2.48.48.50_jf_jg_ka30.81477F.81477F.81477F.0_kb20.81477F.81477F.81477F_kc_kd_ke_kf_la_lb_oa_os_ob_oc_od_oe_of_lc14.E3B464.B38E4E.19.0_m00_n002.58.0.0.0.50.33.56.7.2.61_n010.58.0.0.0.50.0.67.30.2.61_n020.58.0.0.0.33.0.62.17.2.61_n030.58.0.0.0.50.42.64.19.2.61_n040.58.0.0.0.50.8.65.23.2.61_n050.58.0.0.0.50.43.65.28.2.61_n060.55.0.0.0.50.7.62.13.2.61_s00_og_oh_oo_op_oq_or_om_on_ok_ol_oi_oj_ad0.0.0.0.0.0.0.0.0.0

0-sad=54**aa14.59.1.28.35.14.59.1.28.35_ab_ac_ba50_bb5.1_bc150.500.0.0.1.0_bd5_be180_ca68.0.45.68.34.30.34.0.0.0.60.80_da0.0.0.100_db_dd0.3.5.45.0.50_dh2.30.50.50.2_di7_qa_qb_dc0.1.0.0.0_eh4.916A43.100_ea10.916A43.916A43.56.0.0_ec5.70.916A43.916A43.56.40.64.1_ed28.100.0.1.916A43.56_ef_eg_r00_fa11.56.74.40.16.20.56_fb9_fh5_fc0.A9D0F8.55.0.A9D0F8.55.49.61.61.49.50.50_fj0.0.0_fd16.0.21.916A43.56_fe50.60_ff0000000000_fg2.35.56.0.0.1.0.0_fi_pa2.0.0.0.20.61.85.77.0.0_t00_pb_pc_pd_pe_ga0_gb0_gc1.0_ge0000000000_gh_gf_gg_gd0000000_ha21.21_hb49.1.44.99_hc1.98.39.1.98.39_hd4.1.49.49_ia_if_ib_id_ic_jc_ie_ja_jb_jd2.48.48.50_je2.48.48.50_jf_jg_ka30.81477F.81477F.81477F.0_kb20.81477F.81477F.81477F_kc_kd_ke_kf_la_lb_oa_os_ob_oc_od_oe_of_lc14.E3B464.B38E4E.19.0_m00_n002.58.0.0.0.50.33.56.7.2.61_n010.58.0.0.0.50.0.67.30.2.61_n020.58.0.0.0.33.0.62.17.2.61_n030.58.0.0.0.50.42.64.19.2.61_n040.58.0.0.0.50.8.65.23.2.61_n050.58.0.0.0.50.43.65.28.2.61_n060.55.0.0.0.50.7.62.13.2.61_s00_og_oh_oo_op_oq_or_om_on_ok_ol_oi_oj_ad0.0.0.0.0.0.0.0.0.0

0-shocked=54**aa13.59.1.26.64.5.4.0.3.66_ab_ac_ba50_bb6.1_bc150.500.0.0.1.0_bd6_be180_ca68.0.45.68.34.30.34.0.0.0.60.80_da0.0.0.100_db_dd0.3.5.45.0.50_dh2.30.50.50.2_di7_qa_qb_dc0.1.0.0.0_eh4.916A43.100_ea10.916A43.916A43.56.0.0_ec5.70.916A43.916A43.56.40.64.1_ed28.100.0.1.916A43.56_ef_eg_r00_fa11.56.74.40.16.20.56_fb9_fh5_fc0.A9D0F8.55.0.A9D0F8.55.49.61.61.49.50.50_fj0.0.0_fd16.0.21.916A43.56_fe50.60_ff0000000000_fg2.35.56.0.0.1.0.0_fi_pa2.0.0.0.20.61.85.77.0.0_t00_pb_pc_pd_pe_ga0_gb0_gc1.0_ge0000000000_gh_gf_gg_gd0000000_ha90.90_hb49.1.44.50_hc0.78.70.0.78.70_hd36.1.49.49_ia_if_ib_id_ic_jc_ie_ja_jb_jd2.48.48.50_je2.48.48.50_jf_jg_ka30.81477F.81477F.81477F.0_kb20.81477F.81477F.81477F_kc_kd_ke_kf_la_lb_oa_os_ob_oc_od_oe_of_lc14.E3B464.B38E4E.19.0_m00_n002.58.0.0.0.50.33.56.7.2.61_n010.58.0.0.0.50.0.67.30.2.61_n020.58.0.0.0.33.0.62.17.2.61_n030.58.0.0.0.50.42.64.19.2.61_n040.58.0.0.0.50.8.65.23.2.61_n050.58.0.0.0.50.43.65.28.2.61_n060.55.0.0.0.50.7.62.13.2.61_s00_og_oh_oo_op_oq_or_om_on_ok_ol_oi_oj_ad0.0.0.0.0.0.0.0.0.0

0-worried=54**aa7.92.1.16.37.7.92.1.16.37_ab_ac_ba50_bb4.1_bc150.500.0.0.1.0_bd4_be180_ca68.0.45.68.34.30.34.0.0.0.60.80_da0.0.0.100_db_dd0.3.5.45.0.50_dh2.30.50.50.2_di7_qa_qb_dc0.1.0.0.0_eh4.916A43.100_ea10.916A43.916A43.56.0.0_ec5.70.916A43.916A43.56.40.64.1_ed28.100.0.1.916A43.56_ef_eg_r00_fa11.56.74.40.16.20.56_fb9_fh5_fc0.A9D0F8.55.0.A9D0F8.55.49.61.61.49.50.50_fj0.0.0_fd16.0.21.916A43.56_fe50.60_ff0000000000_fg2.35.56.0.0.1.0.0_fi_pa2.0.0.0.20.61.85.77.0.0_t00_pb_pc_pd_pe_ga0_gb0_gc1.0_ge0000000000_gh_gf_gg_gd0000000_ha90.90_hb49.1.0.100_hc1.81.70.1.81.70_hd9.1.49.49_ia_if_ib_id_ic_jc_ie_ja_jb_jd2.48.48.50_je2.48.48.50_jf_jg_ka30.81477F.81477F.81477F.0_kb20.81477F.81477F.81477F_kc_kd_ke_kf_la_lb_oa_os_ob_oc_od_oe_of_lc14.E3B464.B38E4E.19.0_m00_n002.58.0.0.0.50.33.56.7.2.61_n010.58.0.0.0.50.0.67.30.2.61_n020.58.0.0.0.33.0.62.17.2.61_n030.58.0.0.0.50.42.64.19.2.61_n040.58.0.0.0.50.8.65.23.2.61_n050.58.0.0.0.50.43.65.28.2.61_n060.55.0.0.0.50.7.62.13.2.61_s00_og_oh_oo_op_oq_or_om_on_ok_ol_oi_oj_ad0.0.0.0.0.0.0.0.0.0

0-strip=54**aa6.98.1.16.50.6.98.1.16.50_ab_ac_ba50_bb5.1_bc150.500.8.0.1.0_bd5_be180_ca68.0.45.68.34.30.34.0.0.0.60.80_da0.0.0.100_db_dd0.3.5.45.0.50_dh2.30.50.50.2_di7_qa_qb_dc0.1.0.0.0_eh4.916A43.100_ea10.916A43.916A43.56.0.0_ec5.70.916A43.916A43.56.40.64.1_ed28.100.0.1.916A43.56_ef_eg_r00_fa11.56.74.40.16.20.56_fb9_fh5_fc0.A9D0F8.55.0.A9D0F8.55.49.61.61.49.50.50_fj0.0.0_fd16.0.21.916A43.56_fe50.60_ff0000000000_fg2.35.56.0.0.1.0.0_fi_pa2.0.0.0.20.61.85.77.0.0_t00_pb_pc_pd_pe_ga0_gb0_gc1.0_ge0000000000_gh_gf_gg_gd0000000_ha89.89_hb49.1.0.99_hc0.29.39.0.29.39_hd4.1.49.49_ia_if_ib_id_ic_jc_ie_ja_jb_jd2.48.48.50_je_jf_jg_ka30.81477F.81477F.81477F.0_kb20.81477F.81477F.81477F_kc_kd_ke_kf_la_lb_oa_os_ob_oc_od_oe_of_lc14.E3B464.B38E4E.19.0_m00_n002.58.0.0.0.50.33.56.7.2.61_n010.58.0.0.0.50.0.67.30.2.61_n020.58.0.0.0.33.0.62.17.2.61_n030.58.0.0.0.50.42.64.19.2.61_n040.58.0.0.0.50.8.65.23.2.61_n050.58.0.0.0.50.43.65.28.2.61_n060.55.0.0.0.50.7.62.13.2.61_s00_og_oh_oo_op_oq_or_om_on_ok_ol_oi_oj_ad0.0.0.0.0.0.0.0.0.0

#Lost Boots
1-stripped=54**aa6.92.0.16.50.6.92.0.16.50_ab_ac_ba50_bb5.1_bc150.500.8.0.1.0_bd5_be180_ca68.0.45.68.34.30.34.0.0.0.60.80_da0.0.0.100_db_dd0.3.5.45.0.50_dh2.30.50.50.2_di7_qa_qb_dc0.1.0.0.0_eh4.916A43.100_ea10.916A43.916A43.56.0.0_ec5.70.916A43.916A43.56.40.64.1_ed28.100.0.1.916A43.56_ef_eg_r00_fa11.56.74.40.16.20.56_fb9_fh5_fc0.A9D0F8.55.0.A9D0F8.55.49.61.61.49.50.50_fj0.0.0_fd16.0.21.916A43.56_fe50.60_ff0000000000_fg2.35.56.0.0.1.0.0_fi_pa2.0.0.0.20.61.85.77.0.0_t00_pb_pc_pd_pe_ga0_gb0_gc1.0_ge0000000000_gh_gf_gg_gd0000000_ha89.89_hb49.1.50.99_hc0.29.39.0.29.39_hd4.1.49.49_ia_if_ib_id_ic_jc_ie_ja_jb_jd_je_jf_jg_ka30.81477F.81477F.81477F.0_kb20.81477F.81477F.81477F_kc_kd_ke_kf_la_lb_oa_os_ob_oc_od_oe_of_lc14.E3B464.B38E4E.19.0_m00_n002.58.0.0.0.50.33.56.7.2.61_n010.58.0.0.0.50.0.67.30.2.61_n020.58.0.0.0.33.0.62.17.2.61_n030.58.0.0.0.50.42.64.19.2.61_n040.58.0.0.0.50.8.65.23.2.61_n050.58.0.0.0.50.43.65.28.2.61_n060.55.0.0.0.50.7.62.13.2.61_s00_og_oh_oo_op_oq_or_om_on_ok_ol_oi_oj_ad0.0.0.0.0.0.0.0.0.0

1-calm=54**aa5.2.0.0.50.5.2.0.0.50_ab_ac_ba50_bb5.1_bc150.500.8.0.1.0_bd5_be180_ca68.0.45.68.34.30.34.0.0.0.60.80_da0.0.0.100_db_dd0.3.5.45.0.50_dh2.30.50.50.2_di7_qa_qb_dc0.1.0.0.0_eh4.916A43.100_ea10.916A43.916A43.56.0.0_ec5.70.916A43.916A43.56.40.64.1_ed28.100.0.1.916A43.56_ef_eg_r00_fa11.56.74.40.16.20.56_fb9_fh5_fc0.A9D0F8.55.0.A9D0F8.55.49.61.61.49.50.50_fj0.0.0_fd16.0.21.916A43.56_fe50.60_ff0000000000_fg2.35.56.0.0.1.0.0_fi_pa2.0.0.0.20.61.85.77.0.0_t00_pb_pc_pd_pe_ga0_gb0_gc1.0_ge0000000000_gh_gf_gg_gd0000000_ha89.89_hb49.1.44.99_hc0.29.39.0.29.39_hd0.1.49.49_ia_if_ib_id_ic_jc_ie_ja_jb_jd_je_jf_jg_ka30.81477F.81477F.81477F.0_kb20.81477F.81477F.81477F_kc_kd_ke_kf_la_lb_oa_os_ob_oc_od_oe_of_lc14.E3B464.B38E4E.19.0_m00_n002.58.0.0.0.50.33.56.7.2.61_n010.58.0.0.0.50.0.67.30.2.61_n020.58.0.0.0.33.0.62.17.2.61_n030.58.0.0.0.50.42.64.19.2.61_n040.58.0.0.0.50.8.65.23.2.61_n050.58.0.0.0.50.43.65.28.2.61_n060.55.0.0.0.50.7.62.13.2.61_s00_og_oh_oo_op_oq_or_om_on_ok_ol_oi_oj_ad0.0.0.0.0.0.0.0.0.0

1-embarrassed=54**aa7.92.1.16.37.7.92.1.16.37_ab_ac_ba50_bb4.1_bc150.500.8.0.1.0_bd4_be180_ca68.0.45.68.34.30.34.0.0.0.60.80_da0.0.0.100_db_dd0.3.5.45.0.50_dh2.30.50.50.2_di7_qa_qb_dc0.1.0.0.0_eh4.916A43.100_ea10.916A43.916A43.56.0.0_ec5.70.916A43.916A43.56.40.64.1_ed28.100.0.1.916A43.56_ef_eg_r00_fa11.56.74.40.16.20.56_fb9_fh5_fc0.A9D0F8.55.0.A9D0F8.55.49.61.61.49.50.50_fj0.0.0_fd16.0.21.916A43.56_fe50.60_ff0000000000_fg2.35.56.0.0.1.0.0_fi_pa2.0.0.0.20.61.85.77.0.0_t00_pb_pc_pd_pe_ga0_gb0_gc15.0_ge0000000000_gh_gf_gg_gd0000000_ha75.75_hb100.1.0.100_hc0.81.58.0.81.58_hd37.1.49.49_ia_if_ib_id_ic_jc_ie_ja_jb_jd_je_jf_jg_ka30.81477F.81477F.81477F.0_kb20.81477F.81477F.81477F_kc_kd_ke_kf_la_lb_oa_os_ob_oc_od_oe_of_lc14.E3B464.B38E4E.19.0_m00_n002.58.0.0.0.50.33.56.7.2.61_n010.58.0.0.0.50.0.67.30.2.61_n020.58.0.0.0.33.0.62.17.2.61_n030.58.0.0.0.50.42.64.19.2.61_n040.58.0.0.0.50.8.65.23.2.61_n050.58.0.0.0.50.43.65.28.2.61_n060.55.0.0.0.50.7.62.13.2.61_s00_og_oh_oo_op_oq_or_om_on_ok_ol_oi_oj_ad0.0.0.0.0.0.0.0.0.0

1-excited=54**aa13.59.1.26.64.5.4.0.0.57_ab_ac_ba50_bb4.1_bc150.500.8.0.1.0_bd4_be180_ca68.0.45.68.34.30.34.0.0.0.60.80_da0.0.0.100_db_dd0.3.5.45.0.50_dh2.30.50.50.2_di7_qa_qb_dc0.1.0.0.0_eh4.916A43.100_ea10.916A43.916A43.56.0.0_ec5.70.916A43.916A43.56.40.64.1_ed28.100.0.1.916A43.56_ef_eg_r00_fa11.56.74.40.16.20.56_fb9_fh5_fc0.A9D0F8.55.0.A9D0F8.55.49.61.61.49.50.50_fj0.0.0_fd16.0.21.916A43.56_fe50.60_ff0000000000_fg2.35.56.0.0.1.0.0_fi_pa2.0.0.0.20.61.85.77.0.0_t00_pb_pc_pd_pe_ga0_gb0_gc0.0_ge0000000000_gh_gf_gg_gd0000000_ha89.89_hb50.1.50.100_hc0.55.81.0.55.81_hd23.1.49.49_ia_if_ib_id_ic_jc_ie_ja_jb_jd_je_jf_jg_ka30.81477F.81477F.81477F.0_kb20.81477F.81477F.81477F_kc_kd_ke_kf_la_lb_oa_os_ob_oc_od_oe_of_lc14.E3B464.B38E4E.19.0_m00_n002.58.0.0.0.50.33.56.7.2.61_n010.58.0.0.0.50.0.67.30.2.61_n020.58.0.0.0.33.0.62.17.2.61_n030.58.0.0.0.50.42.64.19.2.61_n040.58.0.0.0.50.8.65.23.2.61_n050.58.0.0.0.50.43.65.28.2.61_n060.55.0.0.0.50.7.62.13.2.61_s00_og_oh_oo_op_oq_or_om_on_ok_ol_oi_oj_ad0.0.0.0.0.0.0.0.0.0

1-happy=54**aa7.57.1.16.45.7.57.1.16.45_ab_ac_ba50_bb5.1_bc150.500.8.0.1.0_bd5_be180_ca68.0.45.68.34.30.34.0.0.0.60.80_da0.0.0.100_db_dd0.3.5.45.0.50_dh2.30.50.50.2_di7_qa_qb_dc0.1.0.0.0_eh4.916A43.100_ea10.916A43.916A43.56.0.0_ec5.70.916A43.916A43.56.40.64.1_ed28.100.0.1.916A43.56_ef_eg_r00_fa11.56.74.40.16.20.56_fb9_fh5_fc0.A9D0F8.55.0.A9D0F8.55.49.61.61.49.50.50_fj0.0.0_fd16.0.21.916A43.56_fe50.60_ff0000000000_fg2.35.56.0.0.1.0.0_fi_pa2.0.0.0.20.61.85.77.0.0_t00_pb_pc_pd_pe_ga0_gb0_gc1.0_ge0000000000_gh_gf_gg_gd0000000_ha0.0_hb49.1.44.99_hc0.66.39.0.66.39_hd25.1.49.49_ia_if_ib_id_ic_jc_ie_ja_jb_jd_je_jf_jg_ka30.81477F.81477F.81477F.0_kb20.81477F.81477F.81477F_kc_kd_ke_kf_la_lb_oa_os_ob_oc_od_oe_of_lc14.E3B464.B38E4E.19.0_m00_n002.58.0.0.0.50.33.56.7.2.61_n010.58.0.0.0.50.0.67.30.2.61_n020.58.0.0.0.33.0.62.17.2.61_n030.58.0.0.0.50.42.64.19.2.61_n040.58.0.0.0.50.8.65.23.2.61_n050.58.0.0.0.50.43.65.28.2.61_n060.55.0.0.0.50.7.62.13.2.61_s00_og_oh_oo_op_oq_or_om_on_ok_ol_oi_oj_ad0.0.0.0.0.0.0.0.0.0

1-horny=54**aa7.77.1.16.37.7.77.1.16.37_ab_ac_ba50_bb4.1_bc150.500.8.0.1.0_bd4_be180_ca68.0.45.68.34.30.34.0.0.0.60.80_da0.0.0.100_db_dd0.3.5.45.0.50_dh2.30.50.50.2_di7_qa_qb_dc0.1.0.0.0_eh4.916A43.100_ea10.916A43.916A43.56.0.0_ec5.70.916A43.916A43.56.40.64.1_ed28.100.0.1.916A43.56_ef_eg_r00_fa11.56.74.40.16.20.56_fb9_fh5_fc0.A9D0F8.55.0.A9D0F8.55.49.61.61.49.50.50_fj0.0.0_fd16.0.21.916A43.56_fe50.60_ff0000000000_fg2.35.56.0.0.1.0.0_fi_pa2.0.0.0.20.61.85.77.0.0_t00_pb_pc_pd_pe_ga0_gb0_gc15.0_ge0000000000_gh_gf_gg_gd0000000_ha75.75_hb50.1.50.100_hc0.51.58.0.51.58_hd10.1.49.49_ia_if_ib_id_ic_jc_ie_ja_jb_jd_je_jf_jg_ka30.81477F.81477F.81477F.0_kb20.81477F.81477F.81477F_kc_kd_ke_kf_la_lb_oa_os_ob_oc_od_oe_of_lc14.E3B464.B38E4E.19.0_m00_n002.58.0.0.0.50.33.56.7.2.61_n010.58.0.0.0.50.0.67.30.2.61_n020.58.0.0.0.33.0.62.17.2.61_n030.58.0.0.0.50.42.64.19.2.61_n040.58.0.0.0.50.8.65.23.2.61_n050.58.0.0.0.50.43.65.28.2.61_n060.55.0.0.0.50.7.62.13.2.61_s00_og_oh_oo_op_oq_or_om_on_ok_ol_oi_oj_ad0.0.0.0.0.0.0.0.0.0

1-interested=54**aa10.57.1.47.35.8.91.0.0.50_ab_ac_ba50_bb5.1_bc150.500.8.0.1.0_bd5_be180_ca68.0.45.68.34.30.34.0.0.0.60.80_da0.0.0.100_db_dd0.3.5.45.0.50_dh2.30.50.50.2_di7_qa_qb_dc0.1.0.0.0_eh4.916A43.100_ea10.916A43.916A43.56.0.0_ec5.70.916A43.916A43.56.40.64.1_ed28.100.0.1.916A43.56_ef_eg_r00_fa11.56.74.40.16.20.56_fb9_fh5_fc0.A9D0F8.55.0.A9D0F8.55.49.61.61.49.50.50_fj0.0.0_fd16.0.21.916A43.56_fe50.60_ff0000000000_fg2.35.56.0.0.1.0.0_fi_pa2.0.0.0.20.61.85.77.0.0_t00_pb_pc_pd_pe_ga0_gb0_gc1.0_ge0000000000_gh_gf_gg_gd0000000_ha89.89_hb49.1.44.99_hc1.53.38.1.80.80_hd22.1.49.49_ia_if_ib_id_ic_jc_ie_ja_jb_jd_je_jf_jg_ka30.81477F.81477F.81477F.0_kb20.81477F.81477F.81477F_kc_kd_ke_kf_la_lb_oa_os_ob_oc_od_oe_of_lc14.E3B464.B38E4E.19.0_m00_n002.58.0.0.0.50.33.56.7.2.61_n010.58.0.0.0.50.0.67.30.2.61_n020.58.0.0.0.33.0.62.17.2.61_n030.58.0.0.0.50.42.64.19.2.61_n040.58.0.0.0.50.8.65.23.2.61_n050.58.0.0.0.50.43.65.28.2.61_n060.55.0.0.0.50.7.62.13.2.61_s00_og_oh_oo_op_oq_or_om_on_ok_ol_oi_oj_ad0.0.0.0.0.0.0.0.0.0

1-sad=54**aa14.59.1.28.35.14.59.1.28.35_ab_ac_ba50_bb5.1_bc150.500.8.0.1.0_bd5_be180_ca68.0.45.68.34.30.34.0.0.0.60.80_da0.0.0.100_db_dd0.3.5.45.0.50_dh2.30.50.50.2_di7_qa_qb_dc0.1.0.0.0_eh4.916A43.100_ea10.916A43.916A43.56.0.0_ec5.70.916A43.916A43.56.40.64.1_ed28.100.0.1.916A43.56_ef_eg_r00_fa11.56.74.40.16.20.56_fb9_fh5_fc0.A9D0F8.55.0.A9D0F8.55.49.61.61.49.50.50_fj0.0.0_fd16.0.21.916A43.56_fe50.60_ff0000000000_fg2.35.56.0.0.1.0.0_fi_pa2.0.0.0.20.61.85.77.0.0_t00_pb_pc_pd_pe_ga0_gb0_gc1.0_ge0000000000_gh_gf_gg_gd0000000_ha21.21_hb49.1.44.99_hc1.98.39.1.98.39_hd4.1.49.49_ia_if_ib_id_ic_jc_ie_ja_jb_jd_je_jf_jg_ka30.81477F.81477F.81477F.0_kb20.81477F.81477F.81477F_kc_kd_ke_kf_la_lb_oa_os_ob_oc_od_oe_of_lc14.E3B464.B38E4E.19.0_m00_n002.58.0.0.0.50.33.56.7.2.61_n010.58.0.0.0.50.0.67.30.2.61_n020.58.0.0.0.33.0.62.17.2.61_n030.58.0.0.0.50.42.64.19.2.61_n040.58.0.0.0.50.8.65.23.2.61_n050.58.0.0.0.50.43.65.28.2.61_n060.55.0.0.0.50.7.62.13.2.61_s00_og_oh_oo_op_oq_or_om_on_ok_ol_oi_oj_ad0.0.0.0.0.0.0.0.0.0

1-shocked=54**aa13.59.1.26.64.5.4.0.3.66_ab_ac_ba50_bb6.1_bc150.500.8.0.1.0_bd6_be180_ca68.0.45.68.34.30.34.0.0.0.60.80_da0.0.0.100_db_dd0.3.5.45.0.50_dh2.30.50.50.2_di7_qa_qb_dc0.1.0.0.0_eh4.916A43.100_ea10.916A43.916A43.56.0.0_ec5.70.916A43.916A43.56.40.64.1_ed28.100.0.1.916A43.56_ef_eg_r00_fa11.56.74.40.16.20.56_fb9_fh5_fc0.A9D0F8.55.0.A9D0F8.55.49.61.61.49.50.50_fj0.0.0_fd16.0.21.916A43.56_fe50.60_ff0000000000_fg2.35.56.0.0.1.0.0_fi_pa2.0.0.0.20.61.85.77.0.0_t00_pb_pc_pd_pe_ga0_gb0_gc1.0_ge0000000000_gh_gf_gg_gd0000000_ha90.90_hb49.1.44.50_hc0.78.70.0.78.70_hd36.1.49.49_ia_if_ib_id_ic_jc_ie_ja_jb_jd_je_jf_jg_ka30.81477F.81477F.81477F.0_kb20.81477F.81477F.81477F_kc_kd_ke_kf_la_lb_oa_os_ob_oc_od_oe_of_lc14.E3B464.B38E4E.19.0_m00_n002.58.0.0.0.50.33.56.7.2.61_n010.58.0.0.0.50.0.67.30.2.61_n020.58.0.0.0.33.0.62.17.2.61_n030.58.0.0.0.50.42.64.19.2.61_n040.58.0.0.0.50.8.65.23.2.61_n050.58.0.0.0.50.43.65.28.2.61_n060.55.0.0.0.50.7.62.13.2.61_s00_og_oh_oo_op_oq_or_om_on_ok_ol_oi_oj_ad0.0.0.0.0.0.0.0.0.0

1-worried=54**aa7.92.1.16.37.7.92.1.16.37_ab_ac_ba50_bb4.1_bc150.500.8.0.1.0_bd4_be180_ca68.0.45.68.34.30.34.0.0.0.60.80_da0.0.0.100_db_dd0.3.5.45.0.50_dh2.30.50.50.2_di7_qa_qb_dc0.1.0.0.0_eh4.916A43.100_ea10.916A43.916A43.56.0.0_ec5.70.916A43.916A43.56.40.64.1_ed28.100.0.1.916A43.56_ef_eg_r00_fa11.56.74.40.16.20.56_fb9_fh5_fc0.A9D0F8.55.0.A9D0F8.55.49.61.61.49.50.50_fj0.0.0_fd16.0.21.916A43.56_fe50.60_ff0000000000_fg2.35.56.0.0.1.0.0_fi_pa2.0.0.0.20.61.85.77.0.0_t00_pb_pc_pd_pe_ga0_gb0_gc1.0_ge0000000000_gh_gf_gg_gd0000000_ha90.90_hb49.1.0.100_hc1.81.70.1.81.70_hd9.1.49.49_ia_if_ib_id_ic_jc_ie_ja_jb_jd_je_jf_jg_ka30.81477F.81477F.81477F.0_kb20.81477F.81477F.81477F_kc_kd_ke_kf_la_lb_oa_os_ob_oc_od_oe_of_lc14.E3B464.B38E4E.19.0_m00_n002.58.0.0.0.50.33.56.7.2.61_n010.58.0.0.0.50.0.67.30.2.61_n020.58.0.0.0.33.0.62.17.2.61_n030.58.0.0.0.50.42.64.19.2.61_n040.58.0.0.0.50.8.65.23.2.61_n050.58.0.0.0.50.43.65.28.2.61_n060.55.0.0.0.50.7.62.13.2.61_s00_og_oh_oo_op_oq_or_om_on_ok_ol_oi_oj_ad0.0.0.0.0.0.0.0.0.0

1-strip=54**aa78.29.1.16.57.78.29.1.16.57_ab_ac_ba50_bb5.1_bc150.500.8.0.1.0_bd5_be180_ca68.0.45.68.34.30.34.0.0.0.60.80_da0.0.0.100_db_dd0.3.5.45.0.50_dh2.30.50.50.2_di7_qa_qb_dc0.1.0.0.0_eh4.916A43.100_ea10.916A43.916A43.56.0.0_ec5.70.916A43.916A43.56.40.64.1_ed28.100.0.1.916A43.56_ef_eg_r00_fa11.56.74.40.16.20.56_fb9_fh5_fc0.A9D0F8.55.0.A9D0F8.55.49.61.61.49.50.50_fj0.0.0_fd16.0.21.916A43.56_fe50.60_ff0000000000_fg2.35.56.0.0.1.0.0_fi_pa2.0.0.0.20.61.85.77.0.0_t00_pb_pc_pd_pe_ga0_gb0_gc1.0_ge0000000000_gh_gf_gg_gd0000000_ha21.21_hb49.1.50.99_hc0.29.39.0.29.39_hd4.1.49.49_ia_if_ib_id_ic_jc_ie_ja_jb_jd_je_jf_jg_ka30.81477F.81477F.81477F.0_kb20.81477F.81477F.81477F_kc_kd_ke_kf_la_lb_oa_os_ob_oc_od_oe_of_lc14.E3B464.B38E4E.19.0_m00_n002.58.0.0.0.50.33.56.7.2.61_n010.58.0.0.0.50.0.67.30.2.61_n020.58.0.0.0.33.0.62.17.2.61_n030.58.0.0.0.50.42.64.19.2.61_n040.58.0.0.0.50.8.65.23.2.61_n050.58.0.0.0.50.43.65.28.2.61_n060.55.0.0.0.50.7.62.13.2.61_s00_og_oh_oo_op_oq_or_om_on_ok_ol_oi_oj_ad0.0.0.0.0.0.0.0.0.0


#Lost Tiara
2-stripped=54**aa6.92.0.16.50.6.92.0.16.50_ab_ac_ba50_bb5.1_bc150.500.8.0.1.0_bd5_be180_ca68.0.45.68.34.30.34.0.0.0.60.80_da0.0.0.100_db_dd0.3.5.45.0.50_dh2.30.50.50.2_di7_qa_qb_dc0.1.0.0.0_eh4.916A43.100_ea10.916A43.916A43.56.0.0_ec5.70.916A43.916A43.56.40.64.1_ed28.100.0.1.916A43.56_ef_eg_r00_fa11.56.74.40.16.20.56_fb9_fh5_fc0.A9D0F8.55.0.A9D0F8.55.49.61.61.49.50.50_fj0.0.0_fd16.0.21.916A43.56_fe50.60_ff0000000000_fg2.35.56.0.0.1.0.0_fi_pa2.0.0.0.20.61.85.77.0.0_t00_pb_pc_pd_pe_ga0_gb0_gc1.0_ge0000000000_gh_gf_gg_gd0000000_ha89.89_hb49.1.50.99_hc0.29.39.0.29.39_hd4.1.49.49_ia_if_ib_id_ic_jc_ie_ja_jb_jd_je_jf_jg_ka30.81477F.81477F.81477F.0_kb20.81477F.81477F.81477F_kc_kd_ke_kf_la_lb_oa_os_ob_oc_od_oe_of_lc_m00_n002.58.0.0.0.50.33.56.7.2.61_n010.58.0.0.0.50.0.67.30.2.61_n020.58.0.0.0.33.0.62.17.2.61_n030.58.0.0.0.50.42.64.19.2.61_n040.58.0.0.0.50.8.65.23.2.61_n050.58.0.0.0.50.43.65.28.2.61_n060.55.0.0.0.50.7.62.13.2.61_s00_og_oh_oo_op_oq_or_om_on_ok_ol_oi_oj_ad0.0.0.0.0.0.0.0.0.0

2-calm=54**aa5.2.0.0.50.5.2.0.0.50_ab_ac_ba50_bb5.1_bc150.500.8.0.1.0_bd5_be180_ca68.0.45.68.34.30.34.0.0.0.60.80_da0.0.0.100_db_dd0.3.5.45.0.50_dh2.30.50.50.2_di7_qa_qb_dc0.1.0.0.0_eh4.916A43.100_ea10.916A43.916A43.56.0.0_ec5.70.916A43.916A43.56.40.64.1_ed28.100.0.1.916A43.56_ef_eg_r00_fa11.56.74.40.16.20.56_fb9_fh5_fc0.A9D0F8.55.0.A9D0F8.55.49.61.61.49.50.50_fj0.0.0_fd16.0.21.916A43.56_fe50.60_ff0000000000_fg2.35.56.0.0.1.0.0_fi_pa2.0.0.0.20.61.85.77.0.0_t00_pb_pc_pd_pe_ga0_gb0_gc1.0_ge0000000000_gh_gf_gg_gd0000000_ha89.89_hb49.1.44.99_hc0.29.39.0.29.39_hd0.1.49.49_ia_if_ib_id_ic_jc_ie_ja_jb_jd_je_jf_jg_ka30.81477F.81477F.81477F.0_kb20.81477F.81477F.81477F_kc_kd_ke_kf_la_lb_oa_os_ob_oc_od_oe_of_lc_m00_n002.58.0.0.0.50.33.56.7.2.61_n010.58.0.0.0.50.0.67.30.2.61_n020.58.0.0.0.33.0.62.17.2.61_n030.58.0.0.0.50.42.64.19.2.61_n040.58.0.0.0.50.8.65.23.2.61_n050.58.0.0.0.50.43.65.28.2.61_n060.55.0.0.0.50.7.62.13.2.61_s00_og_oh_oo_op_oq_or_om_on_ok_ol_oi_oj_ad0.0.0.0.0.0.0.0.0.0

2-embarrassed=54**aa7.92.1.16.37.7.92.1.16.37_ab_ac_ba50_bb4.1_bc150.500.8.0.1.0_bd4_be180_ca68.0.45.68.34.30.34.0.0.0.60.80_da0.0.0.100_db_dd0.3.5.45.0.50_dh2.30.50.50.2_di7_qa_qb_dc0.1.0.0.0_eh4.916A43.100_ea10.916A43.916A43.56.0.0_ec5.70.916A43.916A43.56.40.64.1_ed28.100.0.1.916A43.56_ef_eg_r00_fa11.56.74.40.16.20.56_fb9_fh5_fc0.A9D0F8.55.0.A9D0F8.55.49.61.61.49.50.50_fj0.0.0_fd16.0.21.916A43.56_fe50.60_ff0000000000_fg2.35.56.0.0.1.0.0_fi_pa2.0.0.0.20.61.85.77.0.0_t00_pb_pc_pd_pe_ga0_gb0_gc15.0_ge0000000000_gh_gf_gg_gd0000000_ha75.75_hb100.1.0.100_hc0.81.58.0.81.58_hd37.1.49.49_ia_if_ib_id_ic_jc_ie_ja_jb_jd_je_jf_jg_ka30.81477F.81477F.81477F.0_kb20.81477F.81477F.81477F_kc_kd_ke_kf_la_lb_oa_os_ob_oc_od_oe_of_lc_m00_n002.58.0.0.0.50.33.56.7.2.61_n010.58.0.0.0.50.0.67.30.2.61_n020.58.0.0.0.33.0.62.17.2.61_n030.58.0.0.0.50.42.64.19.2.61_n040.58.0.0.0.50.8.65.23.2.61_n050.58.0.0.0.50.43.65.28.2.61_n060.55.0.0.0.50.7.62.13.2.61_s00_og_oh_oo_op_oq_or_om_on_ok_ol_oi_oj_ad0.0.0.0.0.0.0.0.0.0

2-excited=54**aa13.59.1.26.64.5.4.0.0.57_ab_ac_ba50_bb4.1_bc150.500.8.0.1.0_bd4_be180_ca68.0.45.68.34.30.34.0.0.0.60.80_da0.0.0.100_db_dd0.3.5.45.0.50_dh2.30.50.50.2_di7_qa_qb_dc0.1.0.0.0_eh4.916A43.100_ea10.916A43.916A43.56.0.0_ec5.70.916A43.916A43.56.40.64.1_ed28.100.0.1.916A43.56_ef_eg_r00_fa11.56.74.40.16.20.56_fb9_fh5_fc0.A9D0F8.55.0.A9D0F8.55.49.61.61.49.50.50_fj0.0.0_fd16.0.21.916A43.56_fe50.60_ff0000000000_fg2.35.56.0.0.1.0.0_fi_pa2.0.0.0.20.61.85.77.0.0_t00_pb_pc_pd_pe_ga0_gb0_gc0.0_ge0000000000_gh_gf_gg_gd0000000_ha89.89_hb50.1.50.100_hc0.55.81.0.55.81_hd23.1.49.49_ia_if_ib_id_ic_jc_ie_ja_jb_jd_je_jf_jg_ka30.81477F.81477F.81477F.0_kb20.81477F.81477F.81477F_kc_kd_ke_kf_la_lb_oa_os_ob_oc_od_oe_of_lc_m00_n002.58.0.0.0.50.33.56.7.2.61_n010.58.0.0.0.50.0.67.30.2.61_n020.58.0.0.0.33.0.62.17.2.61_n030.58.0.0.0.50.42.64.19.2.61_n040.58.0.0.0.50.8.65.23.2.61_n050.58.0.0.0.50.43.65.28.2.61_n060.55.0.0.0.50.7.62.13.2.61_s00_og_oh_oo_op_oq_or_om_on_ok_ol_oi_oj_ad0.0.0.0.0.0.0.0.0.0

2-happy=54**aa7.57.1.16.45.7.57.1.16.45_ab_ac_ba50_bb5.1_bc150.500.8.0.1.0_bd5_be180_ca68.0.45.68.34.30.34.0.0.0.60.80_da0.0.0.100_db_dd0.3.5.45.0.50_dh2.30.50.50.2_di7_qa_qb_dc0.1.0.0.0_eh4.916A43.100_ea10.916A43.916A43.56.0.0_ec5.70.916A43.916A43.56.40.64.1_ed28.100.0.1.916A43.56_ef_eg_r00_fa11.56.74.40.16.20.56_fb9_fh5_fc0.A9D0F8.55.0.A9D0F8.55.49.61.61.49.50.50_fj0.0.0_fd16.0.21.916A43.56_fe50.60_ff0000000000_fg2.35.56.0.0.1.0.0_fi_pa2.0.0.0.20.61.85.77.0.0_t00_pb_pc_pd_pe_ga0_gb0_gc1.0_ge0000000000_gh_gf_gg_gd0000000_ha0.0_hb49.1.44.99_hc0.66.39.0.66.39_hd25.1.49.49_ia_if_ib_id_ic_jc_ie_ja_jb_jd_je_jf_jg_ka30.81477F.81477F.81477F.0_kb20.81477F.81477F.81477F_kc_kd_ke_kf_la_lb_oa_os_ob_oc_od_oe_of_lc_m00_n002.58.0.0.0.50.33.56.7.2.61_n010.58.0.0.0.50.0.67.30.2.61_n020.58.0.0.0.33.0.62.17.2.61_n030.58.0.0.0.50.42.64.19.2.61_n040.58.0.0.0.50.8.65.23.2.61_n050.58.0.0.0.50.43.65.28.2.61_n060.55.0.0.0.50.7.62.13.2.61_s00_og_oh_oo_op_oq_or_om_on_ok_ol_oi_oj_ad0.0.0.0.0.0.0.0.0.0

2-horny=54**aa7.77.1.16.37.7.77.1.16.37_ab_ac_ba50_bb4.1_bc150.500.8.0.1.0_bd4_be180_ca68.0.45.68.34.30.34.0.0.0.60.80_da0.0.0.100_db_dd0.3.5.45.0.50_dh2.30.50.50.2_di7_qa_qb_dc0.1.0.0.0_eh4.916A43.100_ea10.916A43.916A43.56.0.0_ec5.70.916A43.916A43.56.40.64.1_ed28.100.0.1.916A43.56_ef_eg_r00_fa11.56.74.40.16.20.56_fb9_fh5_fc0.A9D0F8.55.0.A9D0F8.55.49.61.61.49.50.50_fj0.0.0_fd16.0.21.916A43.56_fe50.60_ff0000000000_fg2.35.56.0.0.1.0.0_fi_pa2.0.0.0.20.61.85.77.0.0_t00_pb_pc_pd_pe_ga0_gb0_gc15.0_ge0000000000_gh_gf_gg_gd0000000_ha75.75_hb50.1.50.100_hc0.51.58.0.51.58_hd10.1.49.49_ia_if_ib_id_ic_jc_ie_ja_jb_jd_je_jf_jg_ka30.81477F.81477F.81477F.0_kb20.81477F.81477F.81477F_kc_kd_ke_kf_la_lb_oa_os_ob_oc_od_oe_of_lc_m00_n002.58.0.0.0.50.33.56.7.2.61_n010.58.0.0.0.50.0.67.30.2.61_n020.58.0.0.0.33.0.62.17.2.61_n030.58.0.0.0.50.42.64.19.2.61_n040.58.0.0.0.50.8.65.23.2.61_n050.58.0.0.0.50.43.65.28.2.61_n060.55.0.0.0.50.7.62.13.2.61_s00_og_oh_oo_op_oq_or_om_on_ok_ol_oi_oj_ad0.0.0.0.0.0.0.0.0.0

2-interested=54**aa10.57.1.47.35.8.91.0.0.50_ab_ac_ba50_bb5.1_bc150.500.8.0.1.0_bd5_be180_ca68.0.45.68.34.30.34.0.0.0.60.80_da0.0.0.100_db_dd0.3.5.45.0.50_dh2.30.50.50.2_di7_qa_qb_dc0.1.0.0.0_eh4.916A43.100_ea10.916A43.916A43.56.0.0_ec5.70.916A43.916A43.56.40.64.1_ed28.100.0.1.916A43.56_ef_eg_r00_fa11.56.74.40.16.20.56_fb9_fh5_fc0.A9D0F8.55.0.A9D0F8.55.49.61.61.49.50.50_fj0.0.0_fd16.0.21.916A43.56_fe50.60_ff0000000000_fg2.35.56.0.0.1.0.0_fi_pa2.0.0.0.20.61.85.77.0.0_t00_pb_pc_pd_pe_ga0_gb0_gc1.0_ge0000000000_gh_gf_gg_gd0000000_ha89.89_hb49.1.44.99_hc1.53.38.1.80.80_hd22.1.49.49_ia_if_ib_id_ic_jc_ie_ja_jb_jd_je_jf_jg_ka30.81477F.81477F.81477F.0_kb20.81477F.81477F.81477F_kc_kd_ke_kf_la_lb_oa_os_ob_oc_od_oe_of_lc_m00_n002.58.0.0.0.50.33.56.7.2.61_n010.58.0.0.0.50.0.67.30.2.61_n020.58.0.0.0.33.0.62.17.2.61_n030.58.0.0.0.50.42.64.19.2.61_n040.58.0.0.0.50.8.65.23.2.61_n050.58.0.0.0.50.43.65.28.2.61_n060.55.0.0.0.50.7.62.13.2.61_s00_og_oh_oo_op_oq_or_om_on_ok_ol_oi_oj_ad0.0.0.0.0.0.0.0.0.0

2-sad=54**aa14.59.1.28.35.14.59.1.28.35_ab_ac_ba50_bb5.1_bc150.500.8.0.1.0_bd5_be180_ca68.0.45.68.34.30.34.0.0.0.60.80_da0.0.0.100_db_dd0.3.5.45.0.50_dh2.30.50.50.2_di7_qa_qb_dc0.1.0.0.0_eh4.916A43.100_ea10.916A43.916A43.56.0.0_ec5.70.916A43.916A43.56.40.64.1_ed28.100.0.1.916A43.56_ef_eg_r00_fa11.56.74.40.16.20.56_fb9_fh5_fc0.A9D0F8.55.0.A9D0F8.55.49.61.61.49.50.50_fj0.0.0_fd16.0.21.916A43.56_fe50.60_ff0000000000_fg2.35.56.0.0.1.0.0_fi_pa2.0.0.0.20.61.85.77.0.0_t00_pb_pc_pd_pe_ga0_gb0_gc1.0_ge0000000000_gh_gf_gg_gd0000000_ha21.21_hb49.1.44.99_hc1.98.39.1.98.39_hd4.1.49.49_ia_if_ib_id_ic_jc_ie_ja_jb_jd_je_jf_jg_ka30.81477F.81477F.81477F.0_kb20.81477F.81477F.81477F_kc_kd_ke_kf_la_lb_oa_os_ob_oc_od_oe_of_lc_m00_n002.58.0.0.0.50.33.56.7.2.61_n010.58.0.0.0.50.0.67.30.2.61_n020.58.0.0.0.33.0.62.17.2.61_n030.58.0.0.0.50.42.64.19.2.61_n040.58.0.0.0.50.8.65.23.2.61_n050.58.0.0.0.50.43.65.28.2.61_n060.55.0.0.0.50.7.62.13.2.61_s00_og_oh_oo_op_oq_or_om_on_ok_ol_oi_oj_ad0.0.0.0.0.0.0.0.0.0

2-shocked=54**aa13.59.1.26.64.5.4.0.3.66_ab_ac_ba50_bb6.1_bc150.500.8.0.1.0_bd6_be180_ca68.0.45.68.34.30.34.0.0.0.60.80_da0.0.0.100_db_dd0.3.5.45.0.50_dh2.30.50.50.2_di7_qa_qb_dc0.1.0.0.0_eh4.916A43.100_ea10.916A43.916A43.56.0.0_ec5.70.916A43.916A43.56.40.64.1_ed28.100.0.1.916A43.56_ef_eg_r00_fa11.56.74.40.16.20.56_fb9_fh5_fc0.A9D0F8.55.0.A9D0F8.55.49.61.61.49.50.50_fj0.0.0_fd16.0.21.916A43.56_fe50.60_ff0000000000_fg2.35.56.0.0.1.0.0_fi_pa2.0.0.0.20.61.85.77.0.0_t00_pb_pc_pd_pe_ga0_gb0_gc1.0_ge0000000000_gh_gf_gg_gd0000000_ha90.90_hb49.1.44.50_hc0.78.70.0.78.70_hd36.1.49.49_ia_if_ib_id_ic_jc_ie_ja_jb_jd_je_jf_jg_ka30.81477F.81477F.81477F.0_kb20.81477F.81477F.81477F_kc_kd_ke_kf_la_lb_oa_os_ob_oc_od_oe_of_lc_m00_n002.58.0.0.0.50.33.56.7.2.61_n010.58.0.0.0.50.0.67.30.2.61_n020.58.0.0.0.33.0.62.17.2.61_n030.58.0.0.0.50.42.64.19.2.61_n040.58.0.0.0.50.8.65.23.2.61_n050.58.0.0.0.50.43.65.28.2.61_n060.55.0.0.0.50.7.62.13.2.61_s00_og_oh_oo_op_oq_or_om_on_ok_ol_oi_oj_ad0.0.0.0.0.0.0.0.0.0

2-worried=54**aa7.92.1.16.37.7.92.1.16.37_ab_ac_ba50_bb4.1_bc150.500.8.0.1.0_bd4_be180_ca68.0.45.68.34.30.34.0.0.0.60.80_da0.0.0.100_db_dd0.3.5.45.0.50_dh2.30.50.50.2_di7_qa_qb_dc0.1.0.0.0_eh4.916A43.100_ea10.916A43.916A43.56.0.0_ec5.70.916A43.916A43.56.40.64.1_ed28.100.0.1.916A43.56_ef_eg_r00_fa11.56.74.40.16.20.56_fb9_fh5_fc0.A9D0F8.55.0.A9D0F8.55.49.61.61.49.50.50_fj0.0.0_fd16.0.21.916A43.56_fe50.60_ff0000000000_fg2.35.56.0.0.1.0.0_fi_pa2.0.0.0.20.61.85.77.0.0_t00_pb_pc_pd_pe_ga0_gb0_gc1.0_ge0000000000_gh_gf_gg_gd0000000_ha90.90_hb49.1.0.100_hc1.81.70.1.81.70_hd9.1.49.49_ia_if_ib_id_ic_jc_ie_ja_jb_jd_je_jf_jg_ka30.81477F.81477F.81477F.0_kb20.81477F.81477F.81477F_kc_kd_ke_kf_la_lb_oa_os_ob_oc_od_oe_of_lc_m00_n002.58.0.0.0.50.33.56.7.2.61_n010.58.0.0.0.50.0.67.30.2.61_n020.58.0.0.0.33.0.62.17.2.61_n030.58.0.0.0.50.42.64.19.2.61_n040.58.0.0.0.50.8.65.23.2.61_n050.58.0.0.0.50.43.65.28.2.61_n060.55.0.0.0.50.7.62.13.2.61_s00_og_oh_oo_op_oq_or_om_on_ok_ol_oi_oj_ad0.0.0.0.0.0.0.0.0.0

2-strip=54**aa64.41.1.16.31.6.59.1.27.48_ab_ac_ba50_bb5.1_bc150.500.8.0.1.0_bd5_be180_ca68.0.45.68.34.30.34.0.0.0.60.80_da0.0.0.100_db_dd0.3.5.45.0.50_dh2.30.50.50.2_di7_qa_qb_dc0.1.0.0.0_eh4.916A43.100_ea10.916A43.916A43.56.0.0_ec5.70.916A43.916A43.56.40.64.1_ed28.100.0.1.916A43.56_ef_eg_r00_fa11.56.74.40.16.20.56_fb9_fh5_fc0.A9D0F8.55.0.A9D0F8.55.49.61.61.49.50.50_fj0.0.0_fd16.0.21.916A43.56_fe50.60_ff0000000000_fg2.35.56.0.0.1.0.0_fi_pa2.0.0.0.20.61.85.77.0.0_t00_pb_pc_pd_pe_ga0_gb0_gc1.0_ge0000000000_gh_gf_gg_gd0000000_ha89.89_hb25.1.0.99_hc0.29.39.0.29.39_hd4.1.49.49_ia_if_ib_id_ic_jc_ie_ja_jb_jd_je_jf_jg_ka30.81477F.81477F.81477F.0_kb20.81477F.81477F.81477F_kc_kd_ke_kf_la_lb_oa_os_ob_oc_od_oe_of_lc_m00_n002.58.0.0.0.50.33.56.7.2.61_n010.58.0.0.0.50.0.67.30.2.61_n020.58.0.0.0.33.0.62.17.2.61_n030.58.0.0.0.50.42.64.19.2.61_n040.58.0.0.0.50.8.65.23.2.61_n050.58.0.0.0.50.43.65.28.2.61_n060.55.0.0.0.50.7.62.13.2.61_s00_og_oh_oo_op_oq_or_om_on_ok_ol_oi_oj_ad0.0.0.0.0.0.0.0.0.0


#Lost Embellishment
3-stripped=54**aa10.60.1.16.31.57.45.1.16.42_ab_ac_ba50_bb5.1_bc150.500.8.0.1.0_bd5_be180_ca68.0.45.68.34.30.34.0.0.0.60.80_da0.0.0.100_db_dd0.3.5.45.0.50_dh2.30.50.50.2_di7_qa_qb_dc0.1.0.0.0_eh4.916A43.100_ea10.916A43.916A43.56.0.0_ec5.70.916A43.916A43.56.40.64.1_ed28.100.0.1.916A43.56_ef_eg_r00_fa11.56.74.40.16.20.56_fb9_fh5_fc0.A9D0F8.55.0.A9D0F8.55.49.61.61.49.50.50_fj0.0.0_fd16.0.21.916A43.56_fe50.60_ff0000000000_fg2.35.56.0.0.1.0.0_fi_pa2.0.0.0.20.61.85.77.0.0_t00_pb_pc_pd_pe_ga0_gb0_gc1.0_ge0000000000_gh_gf_gg_gd0000000_ha89.89_hb75.1.0.99_hc0.29.39.0.29.39_hd0.1.49.49_ia_if_ib_id_ic_jc_ie_ja_jb_jd_je_jf_jg_ka30.81477F.81477F.81477F.0_kb20.81477F.81477F.81477F_kc_kd_ke_kf_la_lb_oa_os_ob_oc_od_oe_of_lc_m00_n00_s00_og_oh_oo_op_oq_or_om_on_ok_ol_oi_oj_ad0.0.0.0.0.0.0.0.0.0

3-calm=54**aa5.2.0.0.50.5.2.0.0.50_ab_ac_ba50_bb5.1_bc150.500.8.0.1.0_bd5_be180_ca68.0.45.68.34.30.34.0.0.0.60.80_da0.0.0.100_db_dd0.3.5.45.0.50_dh2.30.50.50.2_di7_qa_qb_dc0.1.0.0.0_eh4.916A43.100_ea10.916A43.916A43.56.0.0_ec5.70.916A43.916A43.56.40.64.1_ed28.100.0.1.916A43.56_ef_eg_r00_fa11.56.74.40.16.20.56_fb9_fh5_fc0.A9D0F8.55.0.A9D0F8.55.49.61.61.49.50.50_fj0.0.0_fd16.0.21.916A43.56_fe50.60_ff0000000000_fg2.35.56.0.0.1.0.0_fi_pa2.0.0.0.20.61.85.77.0.0_t00_pb_pc_pd_pe_ga0_gb0_gc15.0_ge0000000000_gh_gf_gg_gd0000000_ha89.89_hb49.1.44.99_hc0.29.39.0.29.39_hd4.1.49.49_ia_if_ib_id_ic_jc_ie_ja_jb_jd_je_jf_jg_ka30.81477F.81477F.81477F.0_kb20.81477F.81477F.81477F_kc_kd_ke_kf_la_lb_oa_os_ob_oc_od_oe_of_lc_m00_n00_s00_og_oh_oo_op_oq_or_om_on_ok_ol_oi_oj_ad0.0.0.0.0.0.0.0.0.0

3-embarrassed=54**aa7.70.1.16.37.7.70.1.16.37_ab_ac_ba50_bb43.1_bc150.500.8.0.1.0_bd43_be180_ca68.0.45.68.34.30.34.0.0.0.60.80_da0.0.0.100_db_dd0.3.5.45.0.50_dh2.30.50.50.2_di7_qa_qb_dc0.1.0.0.0_eh4.916A43.100_ea10.916A43.916A43.56.0.0_ec5.70.916A43.916A43.56.40.64.1_ed28.100.0.1.916A43.56_ef_eg_r00_fa11.56.74.40.16.20.56_fb9_fh5_fc0.A9D0F8.55.0.A9D0F8.55.49.61.61.49.50.50_fj0.0.0_fd16.0.21.916A43.56_fe50.60_ff0000000000_fg2.35.56.0.0.1.0.0_fi_pa2.0.0.0.20.61.85.77.0.0_t00_pb_pc_pd_pe_ga0_gb1_gc30.0_ge0000000000_gh_gf_gg_gd0000000_ha75.75_hb100.1.0.100_hc2.99.58.2.99.58_hd37.1.49.49_ia_if_ib_id_ic_jc_ie_ja_jb_jd_je_jf_jg_ka30.81477F.81477F.81477F.0_kb20.81477F.81477F.81477F_kc_kd_ke_kf_la_lb_oa_os_ob_oc_od_oe_of_lc_m00_n00_s00_og_oh_oo_op_oq_or_om_on_ok_ol_oi_oj_ad0.0.0.0.0.0.0.0.0.0

3-excited=54**aa13.59.1.26.64.5.4.0.0.57_ab_ac_ba50_bb4.1_bc150.500.8.0.1.0_bd4_be180_ca68.0.45.68.34.30.34.0.0.0.60.80_da0.0.0.100_db_dd0.3.5.45.0.50_dh2.30.50.50.2_di7_qa_qb_dc0.1.0.0.0_eh4.916A43.100_ea10.916A43.916A43.56.0.0_ec5.70.916A43.916A43.56.40.64.1_ed28.100.0.1.916A43.56_ef_eg_r00_fa11.56.74.40.16.20.56_fb9_fh5_fc0.A9D0F8.55.0.A9D0F8.55.49.61.61.49.50.50_fj0.0.0_fd16.0.21.916A43.56_fe50.60_ff0000000000_fg2.35.56.0.0.1.0.0_fi_pa2.0.0.0.20.61.85.77.0.0_t00_pb_pc_pd_pe_ga0_gb0_gc15.0_ge0000000000_gh_gf_gg_gd0000000_ha89.89_hb50.1.50.100_hc1.85.81.1.85.81_hd23.1.49.49_ia_if_ib_id_ic_jc_ie_ja_jb_jd_je_jf_jg_ka30.81477F.81477F.81477F.0_kb20.81477F.81477F.81477F_kc_kd_ke_kf_la_lb_oa_os_ob_oc_od_oe_of_lc_m00_n00_s00_og_oh_oo_op_oq_or_om_on_ok_ol_oi_oj_ad0.0.0.0.0.0.0.0.0.0

3-happy=54**aa7.57.1.16.45.7.57.1.16.45_ab_ac_ba50_bb5.1_bc150.500.8.0.1.0_bd5_be180_ca68.0.45.68.34.30.34.0.0.0.60.80_da0.0.0.100_db_dd0.3.5.45.0.50_dh2.30.50.50.2_di7_qa_qb_dc0.1.0.0.0_eh4.916A43.100_ea10.916A43.916A43.56.0.0_ec5.70.916A43.916A43.56.40.64.1_ed28.100.0.1.916A43.56_ef_eg_r00_fa11.56.74.40.16.20.56_fb9_fh5_fc0.A9D0F8.55.0.A9D0F8.55.49.61.61.49.50.50_fj0.0.0_fd16.0.21.916A43.56_fe50.60_ff0000000000_fg2.35.56.0.0.1.0.0_fi_pa2.0.0.0.20.61.85.77.0.0_t00_pb_pc_pd_pe_ga0_gb1_gc15.0_ge0000000000_gh_gf_gg_gd0000000_ha0.0_hb49.1.44.99_hc1.86.39.1.86.39_hd25.1.49.49_ia_if_ib_id_ic_jc_ie_ja_jb_jd_je_jf_jg_ka30.81477F.81477F.81477F.0_kb20.81477F.81477F.81477F_kc_kd_ke_kf_la_lb_oa_os_ob_oc_od_oe_of_lc_m00_n00_s00_og_oh_oo_op_oq_or_om_on_ok_ol_oi_oj_ad0.0.0.0.0.0.0.0.0.0

3-horny=54**aa7.77.1.16.37.7.77.1.16.37_ab_ac_ba50_bb43.1_bc150.500.8.0.1.0_bd43_be180_ca68.0.45.68.34.30.34.0.0.0.60.80_da0.0.0.100_db_dd0.3.5.45.0.50_dh2.30.50.50.2_di7_qa_qb_dc0.1.0.0.0_eh4.916A43.100_ea10.916A43.916A43.56.0.0_ec5.70.916A43.916A43.56.40.64.1_ed28.100.0.1.916A43.56_ef_eg_r00_fa11.56.74.40.16.20.56_fb9_fh5_fc0.A9D0F8.55.0.A9D0F8.55.49.61.61.49.50.50_fj0.0.0_fd16.0.21.916A43.56_fe50.60_ff0000000000_fg2.35.56.0.0.1.0.0_fi_pa2.0.0.0.20.61.85.77.0.0_t00_pb_pc_pd_pe_ga0_gb0_gc30.0_ge0000000000_gh_gf_gg_gd0000000_ha75.75_hb50.1.50.100_hc1.83.58.1.83.58_hd10.1.49.49_ia_if_ib_id_ic_jc_ie_ja_jb_jd_je_jf_jg_ka30.81477F.81477F.81477F.0_kb20.81477F.81477F.81477F_kc_kd_ke_kf_la_lb_oa_os_ob_oc_od_oe_of_lc_m00_n00_s00_og_oh_oo_op_oq_or_om_on_ok_ol_oi_oj_ad0.0.0.0.0.0.0.0.0.0

3-interested=54**aa10.57.1.47.35.8.91.0.0.50_ab_ac_ba50_bb5.1_bc150.500.8.0.1.0_bd5_be180_ca68.0.45.68.34.30.34.0.0.0.60.80_da0.0.0.100_db_dd0.3.5.45.0.50_dh2.30.50.50.2_di7_qa_qb_dc0.1.0.0.0_eh4.916A43.100_ea10.916A43.916A43.56.0.0_ec5.70.916A43.916A43.56.40.64.1_ed28.100.0.1.916A43.56_ef_eg_r00_fa11.56.74.40.16.20.56_fb9_fh5_fc0.A9D0F8.55.0.A9D0F8.55.49.61.61.49.50.50_fj0.0.0_fd16.0.21.916A43.56_fe50.60_ff0000000000_fg2.35.56.0.0.1.0.0_fi_pa2.0.0.0.20.61.85.77.0.0_t00_pb_pc_pd_pe_ga0_gb1_gc15.0_ge0000000000_gh_gf_gg_gd0000000_ha89.89_hb49.1.44.99_hc1.53.38.1.80.80_hd22.1.49.49_ia_if_ib_id_ic_jc_ie_ja_jb_jd_je_jf_jg_ka30.81477F.81477F.81477F.0_kb20.81477F.81477F.81477F_kc_kd_ke_kf_la_lb_oa_os_ob_oc_od_oe_of_lc_m00_n00_s00_og_oh_oo_op_oq_or_om_on_ok_ol_oi_oj_ad0.0.0.0.0.0.0.0.0.0

3-sad=54**aa14.59.1.28.35.14.59.1.28.35_ab_ac_ba50_bb5.1_bc150.500.8.0.1.0_bd5_be180_ca68.0.45.68.34.30.34.0.0.0.60.80_da0.0.0.100_db_dd0.3.5.45.0.50_dh2.30.50.50.2_di7_qa_qb_dc0.1.0.0.0_eh4.916A43.100_ea10.916A43.916A43.56.0.0_ec5.70.916A43.916A43.56.40.64.1_ed28.100.0.1.916A43.56_ef_eg_r00_fa11.56.74.40.16.20.56_fb9_fh5_fc0.A9D0F8.55.0.A9D0F8.55.49.61.61.49.50.50_fj0.0.0_fd16.0.21.916A43.56_fe50.60_ff0000000000_fg2.35.56.0.0.1.0.0_fi_pa2.0.0.0.20.61.85.77.0.0_t00_pb_pc_pd_pe_ga0_gb0_gc15.0_ge0000000000_gh_gf_gg_gd0000000_ha21.21_hb49.1.44.99_hc3.85.55.3.85.55_hd4.1.49.49_ia_if_ib_id_ic_jc_ie_ja_jb_jd_je_jf_jg_ka30.81477F.81477F.81477F.0_kb20.81477F.81477F.81477F_kc_kd_ke_kf_la_lb_oa_os_ob_oc_od_oe_of_lc_m00_n00_s00_og_oh_oo_op_oq_or_om_on_ok_ol_oi_oj_ad0.0.0.0.0.0.0.0.0.0

3-shocked=54**aa13.59.1.26.64.5.4.0.3.66_ab_ac_ba50_bb6.1_bc150.500.8.0.1.0_bd6_be180_ca68.0.45.68.34.30.34.0.0.0.60.80_da0.0.0.100_db_dd0.3.5.45.0.50_dh2.30.50.50.2_di7_qa_qb_dc0.1.0.0.0_eh4.916A43.100_ea10.916A43.916A43.56.0.0_ec5.70.916A43.916A43.56.40.64.1_ed28.100.0.1.916A43.56_ef_eg_r00_fa11.56.74.40.16.20.56_fb9_fh5_fc0.A9D0F8.55.0.A9D0F8.55.49.61.61.49.50.50_fj0.0.0_fd16.0.21.916A43.56_fe50.60_ff0000000000_fg2.35.56.0.0.1.0.0_fi_pa2.0.0.0.20.61.85.77.0.0_t00_pb_pc_pd_pe_ga0_gb1_gc15.0_ge0000000000_gh_gf_gg_gd0000000_ha90.90_hb49.1.44.50_hc1.100.96.1.100.96_hd36.1.49.49_ia_if_ib_id_ic_jc_ie_ja_jb_jd_je_jf_jg_ka30.81477F.81477F.81477F.0_kb20.81477F.81477F.81477F_kc_kd_ke_kf_la_lb_oa_os_ob_oc_od_oe_of_lc_m00_n00_s00_og_oh_oo_op_oq_or_om_on_ok_ol_oi_oj_ad0.0.0.0.0.0.0.0.0.0

3-worried=54**aa7.70.1.16.37.7.70.1.16.37_ab_ac_ba50_bb4.1_bc150.500.8.0.1.0_bd4_be180_ca68.0.45.68.34.30.34.0.0.0.60.80_da0.0.0.100_db_dd0.3.5.45.0.50_dh2.30.50.50.2_di7_qa_qb_dc0.1.0.0.0_eh4.916A43.100_ea10.916A43.916A43.56.0.0_ec5.70.916A43.916A43.56.40.64.1_ed28.100.0.1.916A43.56_ef_eg_r00_fa11.56.74.40.16.20.56_fb9_fh5_fc0.A9D0F8.55.0.A9D0F8.55.49.61.61.49.50.50_fj0.0.0_fd16.0.21.916A43.56_fe50.60_ff0000000000_fg2.35.56.0.0.1.0.0_fi_pa2.0.0.0.20.61.85.77.0.0_t00_pb_pc_pd_pe_ga0_gb1_gc15.0_ge0000000000_gh_gf_gg_gd0000000_ha90.90_hb49.1.0.100_hc4.81.74.4.81.74_hd9.1.49.49_ia_if_ib_id_ic_jc_ie_ja_jb_jd_je_jf_jg_ka30.81477F.81477F.81477F.0_kb20.81477F.81477F.81477F_kc_kd_ke_kf_la_lb_oa_os_ob_oc_od_oe_of_lc_m00_n00_s00_og_oh_oo_op_oq_or_om_on_ok_ol_oi_oj_ad0.0.0.0.0.0.0.0.0.0

3-strip=54**aa32.65.0.16.37.32.65.0.16.37_ab_ac_ba50_bb5.1_bc150.500.8.0.1.0_bd5_be180_ca68.0.45.68.34.30.34.0.0.0.60.80_da0.0.0.100_db_dd0.3.5.45.0.50_dh2.30.50.50.2_di7_qa_qb_dc0.1.0.0.0_eh4.916A43.100_ea10.916A43.916A43.56.0.0_ec5.70.916A43.916A43.56.40.64.1_ed28.100.0.1.916A43.56_ef_eg_r00_fa11.56.74.40.16.20.56_fb9_fh5_fc0.A9D0F8.55.0.A9D0F8.55.49.61.61.49.50.50_fj0.0.0_fd16.0.21.916A43.56_fe50.60_ff0000000000_fg2.35.56.0.0.1.0.0_fi_pa2.0.0.0.20.61.85.77.0.0_t00_pb_pc_pd_pe_ga0_gb0_gc30.0_ge0000000000_gh_gf_gg_gd0000000_ha21.21_hb50.1.50.99_hc2.100.58.2.100.58_hd8.1.49.49_ia_if_ib_id_ic_jc_ie_ja_jb_jd_je_jf_jg_ka30.81477F.81477F.81477F.0_kb20.81477F.81477F.81477F_kc_kd_ke_kf_la_lb_oa_os_ob_oc_od_oe_of_lc_m00_n00_s00_og_oh_oo_op_oq_or_om_on_ok_ol_oi_oj_ad0.0.0.0.0.0.0.0.0.0


#Lost Bra
4-stripped=54**aa25.82.0.0.70.25.82.0.0.70_ab_ac_ba50_bb6.1_bc150.500.8.0.1.0_bd6_be180_ca68.0.45.68.34.30.34.0.0.0.60.80_da0.0.0.100_db_dd0.3.5.45.0.50_dh2.30.50.50.2_di7_qa_qb_dc0.1.0.0.0_eh4.916A43.100_ea10.916A43.916A43.56.0.0_ec5.70.916A43.916A43.56.40.64.1_ed28.100.0.1.916A43.56_ef_eg_r00_fa11.56.74.40.16.20.56_fb9_fh5_fc0.A9D0F8.55.0.A9D0F8.55.49.61.61.49.50.50_fj0.0.0_fd16.0.21.916A43.56_fe50.60_ff0000000000_fg2.35.56.0.0.1.0.0_fi_pa2.0.0.0.20.61.85.77.0.0_t00_pb_pc_pd_pe_ga0_gb0_gc30.0_ge0000000000_gh_gf_gg_gd0000000_ha21.21_hb49.1.44.99_hc1.57.52.1.57.52_hd8.1.49.49_ia_if_ib_id_ic_jc_ie_ja_jb_jd_je_jf_jg_ka_kb20.81477F.81477F.81477F_kc_kd_ke_kf_la_lb_oa_os_ob_oc_od_oe_of_lc_m00_n00_s00_og_oh_oo_op_oq_or_om_on_ok_ol_oi_oj_ad0.0.0.0.0.0.0.0.0.0

4-calm=54**aa5.2.0.0.50.5.2.0.0.50_ab_ac_ba50_bb5.1_bc150.500.8.0.1.0_bd5_be180_ca68.0.45.68.34.30.34.0.0.0.60.80_da0.0.0.100_db_dd0.3.5.45.0.50_dh2.30.50.50.2_di7_qa_qb_dc0.1.0.0.0_eh4.916A43.100_ea10.916A43.916A43.56.0.0_ec5.70.916A43.916A43.56.40.64.1_ed28.100.0.1.916A43.56_ef_eg_r00_fa11.56.74.40.16.20.56_fb9_fh5_fc0.A9D0F8.55.0.A9D0F8.55.49.61.61.49.50.50_fj0.0.0_fd16.0.21.916A43.56_fe50.60_ff0000000000_fg2.35.56.0.0.1.0.0_fi_pa2.0.0.0.20.61.85.77.0.0_t00_pb_pc_pd_pe_ga0_gb0_gc30.0_ge0000000000_gh_gf_gg_gd0000000_ha89.89_hb49.1.44.99_hc0.29.39.0.29.39_hd4.1.49.49_ia_if_ib_id_ic_jc_ie_ja_jb_jd_je_jf_jg_ka_kb20.81477F.81477F.81477F_kc_kd_ke_kf_la_lb_oa_os_ob_oc_od_oe_of_lc_m00_n00_s00_og_oh_oo_op_oq_or_om_on_ok_ol_oi_oj_ad0.0.0.0.0.0.0.0.0.0

4-embarrassed=54**aa7.70.1.16.37.7.70.1.16.37_ab_ac_ba50_bb43.1_bc150.500.8.0.1.0_bd43_be180_ca68.0.45.68.34.30.34.0.0.0.60.80_da0.0.0.100_db_dd0.3.5.45.0.50_dh2.30.50.50.2_di7_qa_qb_dc0.1.0.0.0_eh4.916A43.100_ea10.916A43.916A43.56.0.0_ec5.70.916A43.916A43.56.40.64.1_ed28.100.0.1.916A43.56_ef_eg_r00_fa11.56.74.40.16.20.56_fb9_fh5_fc0.A9D0F8.55.0.A9D0F8.55.49.61.61.49.50.50_fj0.0.0_fd16.0.21.916A43.56_fe50.60_ff0000000000_fg2.35.56.0.0.1.0.0_fi_pa2.0.0.0.20.61.85.77.0.0_t00_pb_pc_pd_pe_ga0_gb1_gc45.0_ge0000000000_gh_gf_gg_gd0000000_ha75.75_hb100.1.0.100_hc2.99.58.2.99.58_hd37.1.49.49_ia_if_ib_id_ic_jc_ie_ja_jb_jd_je_jf_jg_ka_kb20.81477F.81477F.81477F_kc_kd_ke_kf_la_lb_oa_os_ob_oc_od_oe_of_lc_m00_n00_s00_og_oh_oo_op_oq_or_om_on_ok_ol_oi_oj_ad0.0.0.0.0.0.0.0.0.0

4-excited=54**aa13.59.1.26.64.5.4.0.0.57_ab_ac_ba50_bb4.1_bc150.500.8.0.1.0_bd4_be180_ca68.0.45.68.34.30.34.0.0.0.60.80_da0.0.0.100_db_dd0.3.5.45.0.50_dh2.30.50.50.2_di7_qa_qb_dc0.1.0.0.0_eh4.916A43.100_ea10.916A43.916A43.56.0.0_ec5.70.916A43.916A43.56.40.64.1_ed28.100.0.1.916A43.56_ef_eg_r00_fa11.56.74.40.16.20.56_fb9_fh5_fc0.A9D0F8.55.0.A9D0F8.55.49.61.61.49.50.50_fj0.0.0_fd16.0.21.916A43.56_fe50.60_ff0000000000_fg2.35.56.0.0.1.0.0_fi_pa2.0.0.0.20.61.85.77.0.0_t00_pb_pc_pd_pe_ga0_gb0_gc30.0_ge0000000000_gh_gf_gg_gd0000000_ha89.89_hb50.1.50.100_hc1.85.81.1.85.81_hd23.1.49.49_ia_if_ib_id_ic_jc_ie_ja_jb_jd_je_jf_jg_ka_kb20.81477F.81477F.81477F_kc_kd_ke_kf_la_lb_oa_os_ob_oc_od_oe_of_lc_m00_n00_s00_og_oh_oo_op_oq_or_om_on_ok_ol_oi_oj_ad0.0.0.0.0.0.0.0.0.0

4-happy=54**aa7.57.1.16.45.7.57.1.16.45_ab_ac_ba50_bb5.1_bc150.500.8.0.1.0_bd5_be180_ca68.0.45.68.34.30.34.0.0.0.60.80_da0.0.0.100_db_dd0.3.5.45.0.50_dh2.30.50.50.2_di7_qa_qb_dc0.1.0.0.0_eh4.916A43.100_ea10.916A43.916A43.56.0.0_ec5.70.916A43.916A43.56.40.64.1_ed28.100.0.1.916A43.56_ef_eg_r00_fa11.56.74.40.16.20.56_fb9_fh5_fc0.A9D0F8.55.0.A9D0F8.55.49.61.61.49.50.50_fj0.0.0_fd16.0.21.916A43.56_fe50.60_ff0000000000_fg2.35.56.0.0.1.0.0_fi_pa2.0.0.0.20.61.85.77.0.0_t00_pb_pc_pd_pe_ga0_gb1_gc30.0_ge0000000000_gh_gf_gg_gd0000000_ha0.0_hb49.1.44.99_hc1.86.39.1.86.39_hd25.1.49.49_ia_if_ib_id_ic_jc_ie_ja_jb_jd_je_jf_jg_ka_kb20.81477F.81477F.81477F_kc_kd_ke_kf_la_lb_oa_os_ob_oc_od_oe_of_lc_m00_n00_s00_og_oh_oo_op_oq_or_om_on_ok_ol_oi_oj_ad0.0.0.0.0.0.0.0.0.0

4-horny=54**aa7.77.1.16.37.7.77.1.16.37_ab_ac_ba50_bb43.1_bc150.500.8.0.1.0_bd43_be180_ca68.0.45.68.34.30.34.0.0.0.60.80_da0.0.0.100_db_dd0.3.5.45.0.50_dh2.30.50.50.2_di7_qa_qb_dc0.1.0.0.0_eh4.916A43.100_ea10.916A43.916A43.56.0.0_ec5.70.916A43.916A43.56.40.64.1_ed28.100.0.1.916A43.56_ef_eg_r00_fa11.56.74.40.16.20.56_fb9_fh5_fc0.A9D0F8.55.0.A9D0F8.55.49.61.61.49.50.50_fj0.0.0_fd16.0.21.916A43.56_fe50.60_ff0000000000_fg2.35.56.0.0.1.0.0_fi_pa2.0.0.0.20.61.85.77.0.0_t00_pb_pc_pd_pe_ga0_gb0_gc45.0_ge0000000000_gh_gf_gg_gd0000000_ha75.75_hb50.1.50.100_hc1.83.58.1.83.58_hd10.1.49.49_ia_if_ib_id_ic_jc_ie_ja_jb_jd_je_jf_jg_ka_kb20.81477F.81477F.81477F_kc_kd_ke_kf_la_lb_oa_os_ob_oc_od_oe_of_lc_m00_n00_s00_og_oh_oo_op_oq_or_om_on_ok_ol_oi_oj_ad0.0.0.0.0.0.0.0.0.0

4-interested=54**aa10.57.1.47.35.8.91.0.0.50_ab_ac_ba50_bb5.1_bc150.500.8.0.1.0_bd5_be180_ca68.0.45.68.34.30.34.0.0.0.60.80_da0.0.0.100_db_dd0.3.5.45.0.50_dh2.30.50.50.2_di7_qa_qb_dc0.1.0.0.0_eh4.916A43.100_ea10.916A43.916A43.56.0.0_ec5.70.916A43.916A43.56.40.64.1_ed28.100.0.1.916A43.56_ef_eg_r00_fa11.56.74.40.16.20.56_fb9_fh5_fc0.A9D0F8.55.0.A9D0F8.55.49.61.61.49.50.50_fj0.0.0_fd16.0.21.916A43.56_fe50.60_ff0000000000_fg2.35.56.0.0.1.0.0_fi_pa2.0.0.0.20.61.85.77.0.0_t00_pb_pc_pd_pe_ga0_gb1_gc30.0_ge0000000000_gh_gf_gg_gd0000000_ha89.89_hb49.1.44.99_hc1.53.38.1.80.80_hd22.1.49.49_ia_if_ib_id_ic_jc_ie_ja_jb_jd_je_jf_jg_ka_kb20.81477F.81477F.81477F_kc_kd_ke_kf_la_lb_oa_os_ob_oc_od_oe_of_lc_m00_n00_s00_og_oh_oo_op_oq_or_om_on_ok_ol_oi_oj_ad0.0.0.0.0.0.0.0.0.0

4-sad=54**aa14.59.1.28.35.14.59.1.28.35_ab_ac_ba50_bb5.1_bc150.500.8.0.1.0_bd5_be180_ca68.0.45.68.34.30.34.0.0.0.60.80_da0.0.0.100_db_dd0.3.5.45.0.50_dh2.30.50.50.2_di7_qa_qb_dc0.1.0.0.0_eh4.916A43.100_ea10.916A43.916A43.56.0.0_ec5.70.916A43.916A43.56.40.64.1_ed28.100.0.1.916A43.56_ef_eg_r00_fa11.56.74.40.16.20.56_fb9_fh5_fc0.A9D0F8.55.0.A9D0F8.55.49.61.61.49.50.50_fj0.0.0_fd16.0.21.916A43.56_fe50.60_ff0000000000_fg2.35.56.0.0.1.0.0_fi_pa2.0.0.0.20.61.85.77.0.0_t00_pb_pc_pd_pe_ga0_gb0_gc30.0_ge0000000000_gh_gf_gg_gd0000000_ha21.21_hb49.1.44.99_hc3.85.55.3.85.55_hd4.1.49.49_ia_if_ib_id_ic_jc_ie_ja_jb_jd_je_jf_jg_ka_kb20.81477F.81477F.81477F_kc_kd_ke_kf_la_lb_oa_os_ob_oc_od_oe_of_lc_m00_n00_s00_og_oh_oo_op_oq_or_om_on_ok_ol_oi_oj_ad0.0.0.0.0.0.0.0.0.0

4-shocked=54**aa13.59.1.26.64.5.4.0.3.66_ab_ac_ba50_bb6.1_bc150.500.8.0.1.0_bd6_be180_ca68.0.45.68.34.30.34.0.0.0.60.80_da0.0.0.100_db_dd0.3.5.45.0.50_dh2.30.50.50.2_di7_qa_qb_dc0.1.0.0.0_eh4.916A43.100_ea10.916A43.916A43.56.0.0_ec5.70.916A43.916A43.56.40.64.1_ed28.100.0.1.916A43.56_ef_eg_r00_fa11.56.74.40.16.20.56_fb9_fh5_fc0.A9D0F8.55.0.A9D0F8.55.49.61.61.49.50.50_fj0.0.0_fd16.0.21.916A43.56_fe50.60_ff0000000000_fg2.35.56.0.0.1.0.0_fi_pa2.0.0.0.20.61.85.77.0.0_t00_pb_pc_pd_pe_ga0_gb1_gc30.0_ge0000000000_gh_gf_gg_gd0000000_ha90.90_hb49.1.44.50_hc1.100.96.1.100.96_hd36.1.49.49_ia_if_ib_id_ic_jc_ie_ja_jb_jd_je_jf_jg_ka_kb20.81477F.81477F.81477F_kc_kd_ke_kf_la_lb_oa_os_ob_oc_od_oe_of_lc_m00_n00_s00_og_oh_oo_op_oq_or_om_on_ok_ol_oi_oj_ad0.0.0.0.0.0.0.0.0.0

4-worried=54**aa7.70.1.16.37.7.70.1.16.37_ab_ac_ba50_bb4.1_bc150.500.8.0.1.0_bd4_be180_ca68.0.45.68.34.30.34.0.0.0.60.80_da0.0.0.100_db_dd0.3.5.45.0.50_dh2.30.50.50.2_di7_qa_qb_dc0.1.0.0.0_eh4.916A43.100_ea10.916A43.916A43.56.0.0_ec5.70.916A43.916A43.56.40.64.1_ed28.100.0.1.916A43.56_ef_eg_r00_fa11.56.74.40.16.20.56_fb9_fh5_fc0.A9D0F8.55.0.A9D0F8.55.49.61.61.49.50.50_fj0.0.0_fd16.0.21.916A43.56_fe50.60_ff0000000000_fg2.35.56.0.0.1.0.0_fi_pa2.0.0.0.20.61.85.77.0.0_t00_pb_pc_pd_pe_ga0_gb1_gc30.0_ge0000000000_gh_gf_gg_gd0000000_ha90.90_hb49.1.0.100_hc4.81.74.4.81.74_hd9.1.49.49_ia_if_ib_id_ic_jc_ie_ja_jb_jd_je_jf_jg_ka_kb20.81477F.81477F.81477F_kc_kd_ke_kf_la_lb_oa_os_ob_oc_od_oe_of_lc_m00_n00_s00_og_oh_oo_op_oq_or_om_on_ok_ol_oi_oj_ad0.0.0.0.0.0.0.0.0.0

4-strip=54**aa23.83.1.16.44.23.83.1.16.44_ab_ac_ba50_bb4.1_bc150.500.8.0.1.0_bd4_be180_ca68.0.45.68.34.30.34.0.0.0.60.80_da0.0.0.100_db_dd0.3.5.45.0.50_dh2.30.50.50.2_di7_qa_qb_dc0.1.0.0.0_eh4.916A43.100_ea10.916A43.916A43.56.0.0_ec5.70.916A43.916A43.56.40.64.1_ed28.100.0.1.916A43.56_ef_eg_r00_fa11.56.74.40.16.20.56_fb9_fh5_fc0.A9D0F8.55.0.A9D0F8.55.49.61.61.49.50.50_fj0.0.0_fd16.0.21.916A43.56_fe50.60_ff0000000000_fg2.35.56.0.0.1.0.0_fi_pa2.0.0.0.20.61.85.77.0.0_t00_pb_pc_pd_pe_ga0_gb0_gc30.0_ge0000000000_gh_gf_gg_gd0000000_ha75.75_hb49.1.0.99_hc1.84.36.1.84.36_hd8.1.49.49_ia_if_ib_id_ic_jc_ie_ja_jb_jd_je_jf_jg_ka_kb20.81477F.81477F.81477F_kc_kd_ke_kf_la_lb_oa_os_ob_oc_od_oe_of_lc_m00_n00_s00_og_oh_oo_op_oq_or_om_on_ok_ol_oi_oj_ad0.0.0.0.0.0.0.0.0.0


#Nude
5-stripped=54**aa7.70.1.16.37.7.70.1.16.37_ab_ac_ba50_bb6.1_bc150.500.8.0.1.0_bd6_be180_ca68.0.45.68.34.30.34.0.0.0.60.80_da0.0.0.100_db_dd0.3.5.45.0.50_dh2.30.50.50.2_di7_qa_qb_dc0.1.0.0.0_eh4.916A43.100_ea10.916A43.916A43.56.0.0_ec5.70.916A43.916A43.56.40.64.1_ed28.100.0.1.916A43.56_ef_eg_r00_fa11.56.74.40.16.20.56_fb9_fh5_fc0.A9D0F8.55.0.A9D0F8.55.49.61.61.49.50.50_fj0.0.0_fd16.0.21.916A43.56_fe50.60_ff0000000000_fg2.35.56.0.0.1.0.0_fi_pa2.0.0.0.20.61.85.77.0.0_t00_pb_pc_pd_pe_ga0_gb0_gc45.0_ge0000000000_gh_gf_gg_gd0000000_ha22.22_hb49.1.44.99_hc1.53.39.1.53.39_hd6.1.49.49_ia_if_ib_id_ic_jc_ie_ja_jb_jd_je_jf_jg_ka_kb_kc_kd_ke_kf_la_lb_oa_os_ob_oc_od_oe_of_lc_m00_n00_s00_og_oh_oo_op_oq_or_om_on_ok_ol_oi_oj_ad0.0.0.0.0.0.0.0.0.0

5-calm=54**aa5.2.0.0.50.5.2.0.0.50_ab_ac_ba50_bb5.1_bc150.500.8.0.1.0_bd5_be180_ca68.0.45.68.34.30.34.0.0.0.60.80_da0.0.0.100_db_dd0.3.5.45.0.50_dh2.30.50.50.2_di7_qa_qb_dc0.1.0.0.0_eh4.916A43.100_ea10.916A43.916A43.56.0.0_ec5.70.916A43.916A43.56.40.64.1_ed28.100.0.1.916A43.56_ef_eg_r00_fa11.56.74.40.16.20.56_fb9_fh5_fc0.A9D0F8.55.0.A9D0F8.55.49.61.61.49.50.50_fj0.0.0_fd16.0.21.916A43.56_fe50.60_ff0000000000_fg2.35.56.0.0.1.0.0_fi_pa2.0.0.0.20.61.85.77.0.0_t00_pb_pc_pd_pe_ga0_gb0_gc45.0_ge0000000000_gh_gf_gg_gd0000000_ha89.89_hb49.1.44.99_hc0.29.39.0.29.39_hd4.1.49.49_ia_if_ib_id_ic_jc_ie_ja_jb_jd_je_jf_jg_ka_kb_kc_kd_ke_kf_la_lb_oa_os_ob_oc_od_oe_of_lc_m00_n00_s00_og_oh_oo_op_oq_or_om_on_ok_ol_oi_oj_ad0.0.0.0.0.0.0.0.0.0

5-embarrassed=54**aa7.70.1.16.37.7.70.1.16.37_ab_ac_ba50_bb43.1_bc150.500.8.0.1.0_bd43_be180_ca68.0.45.68.34.30.34.0.0.0.60.80_da0.0.0.100_db_dd0.3.5.45.0.50_dh2.30.50.50.2_di7_qa_qb_dc0.1.0.0.0_eh4.916A43.100_ea10.916A43.916A43.56.0.0_ec5.70.916A43.916A43.56.40.64.1_ed28.100.0.1.916A43.56_ef_eg_r00_fa11.56.74.40.16.20.56_fb9_fh5_fc0.A9D0F8.55.0.A9D0F8.55.49.61.61.49.50.50_fj0.0.0_fd16.0.21.916A43.56_fe50.60_ff0000000000_fg2.35.56.0.0.1.0.0_fi_pa2.0.0.0.20.61.85.77.0.0_t00_pb_pc_pd_pe_ga0_gb1_gc50.0_ge0000000000_gh_gf_gg_gd0000000_ha75.75_hb100.1.0.100_hc2.99.58.2.99.58_hd37.1.49.49_ia_if_ib_id_ic_jc_ie_ja_jb_jd_je_jf_jg_ka_kb_kc_kd_ke_kf_la_lb_oa_os_ob_oc_od_oe_of_lc_m00_n00_s00_og_oh_oo_op_oq_or_om_on_ok_ol_oi_oj_ad0.0.0.0.0.0.0.0.0.0

5-excited=54**aa13.59.1.26.64.5.4.0.0.57_ab_ac_ba50_bb4.1_bc150.500.8.0.1.0_bd4_be180_ca68.0.45.68.34.30.34.0.0.0.60.80_da0.0.0.100_db_dd0.3.5.45.0.50_dh2.30.50.50.2_di7_qa_qb_dc0.1.0.0.0_eh4.916A43.100_ea10.916A43.916A43.56.0.0_ec5.70.916A43.916A43.56.40.64.1_ed28.100.0.1.916A43.56_ef_eg_r00_fa11.56.74.40.16.20.56_fb9_fh5_fc0.A9D0F8.55.0.A9D0F8.55.49.61.61.49.50.50_fj0.0.0_fd16.0.21.916A43.56_fe50.60_ff0000000000_fg2.35.56.0.0.1.0.0_fi_pa2.0.0.0.20.61.85.77.0.0_t00_pb_pc_pd_pe_ga0_gb0_gc45.0_ge0000000000_gh_gf_gg_gd0000000_ha89.89_hb50.1.50.100_hc1.85.81.1.85.81_hd23.1.49.49_ia_if_ib_id_ic_jc_ie_ja_jb_jd_je_jf_jg_ka_kb_kc_kd_ke_kf_la_lb_oa_os_ob_oc_od_oe_of_lc_m00_n00_s00_og_oh_oo_op_oq_or_om_on_ok_ol_oi_oj_ad0.0.0.0.0.0.0.0.0.0

5-happy=54**aa7.57.1.16.45.7.57.1.16.45_ab_ac_ba50_bb5.1_bc150.500.8.0.1.0_bd5_be180_ca68.0.45.68.34.30.34.0.0.0.60.80_da0.0.0.100_db_dd0.3.5.45.0.50_dh2.30.50.50.2_di7_qa_qb_dc0.1.0.0.0_eh4.916A43.100_ea10.916A43.916A43.56.0.0_ec5.70.916A43.916A43.56.40.64.1_ed28.100.0.1.916A43.56_ef_eg_r00_fa11.56.74.40.16.20.56_fb9_fh5_fc0.A9D0F8.55.0.A9D0F8.55.49.61.61.49.50.50_fj0.0.0_fd16.0.21.916A43.56_fe50.60_ff0000000000_fg2.35.56.0.0.1.0.0_fi_pa2.0.0.0.20.61.85.77.0.0_t00_pb_pc_pd_pe_ga0_gb1_gc45.0_ge0000000000_gh_gf_gg_gd0000000_ha0.0_hb49.1.44.99_hc1.86.39.1.86.39_hd25.1.49.49_ia_if_ib_id_ic_jc_ie_ja_jb_jd_je_jf_jg_ka_kb_kc_kd_ke_kf_la_lb_oa_os_ob_oc_od_oe_of_lc_m00_n00_s00_og_oh_oo_op_oq_or_om_on_ok_ol_oi_oj_ad0.0.0.0.0.0.0.0.0.0

5-horny=54**aa7.77.1.16.37.7.77.1.16.37_ab_ac_ba50_bb43.1_bc150.500.8.0.1.0_bd43_be180_ca68.0.45.68.34.30.34.0.0.0.60.80_da0.0.0.100_db_dd0.3.5.45.0.50_dh2.30.50.50.2_di7_qa_qb_dc0.1.0.0.0_eh4.916A43.100_ea10.916A43.916A43.56.0.0_ec5.70.916A43.916A43.56.40.64.1_ed28.100.0.1.916A43.56_ef_eg_r00_fa11.56.74.40.16.20.56_fb9_fh5_fc0.A9D0F8.55.0.A9D0F8.55.49.61.61.49.50.50_fj0.0.0_fd16.0.21.916A43.56_fe50.60_ff0000000000_fg2.35.56.0.0.1.0.0_fi_pa2.0.0.0.20.61.85.77.0.0_t00_pb_pc_pd_pe_ga0_gb0_gc50.0_ge0000000000_gh_gf_gg_gd0000000_ha75.75_hb50.1.50.100_hc1.83.58.1.83.58_hd10.1.49.49_ia_if_ib_id_ic_jc_ie_ja_jb_jd_je_jf_jg_ka_kb_kc_kd_ke_kf_la_lb_oa_os_ob_oc_od_oe_of_lc_m00_n00_s00_og_oh_oo_op_oq_or_om_on_ok_ol_oi_oj_ad0.0.0.0.0.0.0.0.0.0

5-interested=54**aa10.57.1.47.35.8.91.0.0.50_ab_ac_ba50_bb5.1_bc150.500.8.0.1.0_bd5_be180_ca68.0.45.68.34.30.34.0.0.0.60.80_da0.0.0.100_db_dd0.3.5.45.0.50_dh2.30.50.50.2_di7_qa_qb_dc0.1.0.0.0_eh4.916A43.100_ea10.916A43.916A43.56.0.0_ec5.70.916A43.916A43.56.40.64.1_ed28.100.0.1.916A43.56_ef_eg_r00_fa11.56.74.40.16.20.56_fb9_fh5_fc0.A9D0F8.55.0.A9D0F8.55.49.61.61.49.50.50_fj0.0.0_fd16.0.21.916A43.56_fe50.60_ff0000000000_fg2.35.56.0.0.1.0.0_fi_pa2.0.0.0.20.61.85.77.0.0_t00_pb_pc_pd_pe_ga0_gb1_gc45.0_ge0000000000_gh_gf_gg_gd0000000_ha89.89_hb49.1.44.99_hc1.53.38.1.80.80_hd22.1.49.49_ia_if_ib_id_ic_jc_ie_ja_jb_jd_je_jf_jg_ka_kb_kc_kd_ke_kf_la_lb_oa_os_ob_oc_od_oe_of_lc_m00_n00_s00_og_oh_oo_op_oq_or_om_on_ok_ol_oi_oj_ad0.0.0.0.0.0.0.0.0.0

5-sad=54**aa14.59.1.28.35.14.59.1.28.35_ab_ac_ba50_bb5.1_bc150.500.8.0.1.0_bd5_be180_ca68.0.45.68.34.30.34.0.0.0.60.80_da0.0.0.100_db_dd0.3.5.45.0.50_dh2.30.50.50.2_di7_qa_qb_dc0.1.0.0.0_eh4.916A43.100_ea10.916A43.916A43.56.0.0_ec5.70.916A43.916A43.56.40.64.1_ed28.100.0.1.916A43.56_ef_eg_r00_fa11.56.74.40.16.20.56_fb9_fh5_fc0.A9D0F8.55.0.A9D0F8.55.49.61.61.49.50.50_fj0.0.0_fd16.0.21.916A43.56_fe50.60_ff0000000000_fg2.35.56.0.0.1.0.0_fi_pa2.0.0.0.20.61.85.77.0.0_t00_pb_pc_pd_pe_ga0_gb0_gc45.0_ge0000000000_gh_gf_gg_gd0000000_ha21.21_hb49.1.44.99_hc3.85.55.3.85.55_hd4.1.49.49_ia_if_ib_id_ic_jc_ie_ja_jb_jd_je_jf_jg_ka_kb_kc_kd_ke_kf_la_lb_oa_os_ob_oc_od_oe_of_lc_m00_n00_s00_og_oh_oo_op_oq_or_om_on_ok_ol_oi_oj_ad0.0.0.0.0.0.0.0.0.0

5-shocked=54**aa13.59.1.26.64.5.4.0.3.66_ab_ac_ba50_bb6.1_bc150.500.8.0.1.0_bd6_be180_ca68.0.45.68.34.30.34.0.0.0.60.80_da0.0.0.100_db_dd0.3.5.45.0.50_dh2.30.50.50.2_di7_qa_qb_dc0.1.0.0.0_eh4.916A43.100_ea10.916A43.916A43.56.0.0_ec5.70.916A43.916A43.56.40.64.1_ed28.100.0.1.916A43.56_ef_eg_r00_fa11.56.74.40.16.20.56_fb9_fh5_fc0.A9D0F8.55.0.A9D0F8.55.49.61.61.49.50.50_fj0.0.0_fd16.0.21.916A43.56_fe50.60_ff0000000000_fg2.35.56.0.0.1.0.0_fi_pa2.0.0.0.20.61.85.77.0.0_t00_pb_pc_pd_pe_ga0_gb1_gc45.0_ge0000000000_gh_gf_gg_gd0000000_ha90.90_hb49.1.44.50_hc1.100.96.1.100.96_hd36.1.49.49_ia_if_ib_id_ic_jc_ie_ja_jb_jd_je_jf_jg_ka_kb_kc_kd_ke_kf_la_lb_oa_os_ob_oc_od_oe_of_lc_m00_n00_s00_og_oh_oo_op_oq_or_om_on_ok_ol_oi_oj_ad0.0.0.0.0.0.0.0.0.0

5-worried=54**aa7.70.1.16.37.7.70.1.16.37_ab_ac_ba50_bb4.1_bc150.500.8.0.1.0_bd4_be180_ca68.0.45.68.34.30.34.0.0.0.60.80_da0.0.0.100_db_dd0.3.5.45.0.50_dh2.30.50.50.2_di7_qa_qb_dc0.1.0.0.0_eh4.916A43.100_ea10.916A43.916A43.56.0.0_ec5.70.916A43.916A43.56.40.64.1_ed28.100.0.1.916A43.56_ef_eg_r00_fa11.56.74.40.16.20.56_fb9_fh5_fc0.A9D0F8.55.0.A9D0F8.55.49.61.61.49.50.50_fj0.0.0_fd16.0.21.916A43.56_fe50.60_ff0000000000_fg2.35.56.0.0.1.0.0_fi_pa2.0.0.0.20.61.85.77.0.0_t00_pb_pc_pd_pe_ga0_gb1_gc45.0_ge0000000000_gh_gf_gg_gd0000000_ha90.90_hb49.1.0.100_hc4.81.74.4.81.74_hd9.1.49.49_ia_if_ib_id_ic_jc_ie_ja_jb_jd_je_jf_jg_ka_kb_kc_kd_ke_kf_la_lb_oa_os_ob_oc_od_oe_of_lc_m00_n00_s00_og_oh_oo_op_oq_or_om_on_ok_ol_oi_oj_ad0.0.0.0.0.0.0.0.0.0

5-loss=54**aa9.88.1.16.44.9.88.1.16.44_ab_ac_ba50_bb43.1_bc150.500.8.0.1.0_bd43_be180_ca68.0.45.68.34.30.34.0.0.0.60.80_da0.0.0.100_db_dd0.3.5.45.0.50_dh2.30.50.50.2_di7_qa_qb_dc0.1.0.0.0_eh4.916A43.100_ea10.916A43.916A43.56.0.0_ec5.70.916A43.916A43.56.40.64.1_ed28.100.0.1.916A43.56_ef_eg_r00_fa11.56.74.40.16.20.56_fb9_fh5_fc0.A9D0F8.55.0.A9D0F8.55.49.61.61.49.50.50_fj0.0.0_fd16.0.21.916A43.56_fe50.60_ff0000000000_fg2.35.56.0.0.1.0.0_fi_pa2.0.0.0.20.61.85.77.0.0_t00_pb_pc_pd_pe_ga0_gb0_gc50.0_ge0000000000_gh_gf_gg_gd0000000_ha75.75_hb49.1.0.99_hc4.85.55.4.85.55_hd38.1.49.49_ia_if_ib_id_ic_jc_ie_ja_jb_jd_je_jf_jg_ka_kb_kc_kd_ke_kf_la_lb_oa_os_ob_oc_od_oe_of_lc_m00_n00_s00_og_oh_oo_op_oq_or_om_on_ok_ol_oi_oj_ad0.0.0.0.0.0.0.0.0.0

5-starting=54**aa6.91.1.47.57.5.2.0.0.50_ab_ac_ba50_bb55.1_bc150.500.8.0.1.0_bd55_be180_ca68.0.45.68.34.30.34.0.0.0.60.80_da0.0.0.100_db_dd0.3.5.45.0.50_dh2.30.50.50.2_di7_qa_qb_dc0.1.0.0.0_eh4.916A43.100_ea10.916A43.916A43.56.0.0_ec5.70.916A43.916A43.56.40.64.1_ed28.100.0.1.916A43.56_ef_eg_r00_fa11.56.74.40.16.20.56_fb9_fh5_fc0.A9D0F8.55.0.A9D0F8.55.49.61.61.49.50.50_fj0.0.0_fd16.0.21.916A43.56_fe50.60_ff0000000000_fg2.35.56.0.0.1.0.0_fi_pa2.0.0.0.20.61.85.77.0.0_t00_pb_pc_pd_pe_ga0_gb0_gc50.0_ge0000000000_gh_gf_gg_gd0000000_ha89.89_hb49.1.0.99_hc2.85.48.2.85.48_hd38.1.49.49_ia_if_ib_id_ic_jc_ie_ja_jb_jd_je_jf_jg_ka_kb_kc_kd_ke_kf_la_lb_oa_os_ob_oc_od_oe_of_lc_m00_n00_s00_og_oh_oo_op_oq_or_om_on_ok_ol_oi_oj_ad0.0.0.0.0.0.0.0.0.0


#Masturbating
6-calm=54**aa6.91.1.47.57.5.2.0.0.50_ab_ac_ba50_bb55.1_bc150.500.8.0.1.0_bd55_be180_ca68.0.45.68.34.30.34.0.0.0.60.80_da0.0.0.100_db_dd0.3.5.45.0.50_dh2.30.50.50.2_di7_qa_qb_dc34.1.0.0.0_eh4.916A43.100_ea10.916A43.916A43.56.0.0_ec5.70.916A43.916A43.56.40.64.1_ed28.100.0.1.916A43.56_ef_eg_r00_fa11.56.74.40.16.20.56_fb9_fh5_fc0.A9D0F8.55.0.A9D0F8.55.49.61.61.49.50.50_fj0.0.0_fd16.0.21.916A43.56_fe50.60_ff0000000000_fg2.35.56.0.0.1.0.0_fi_pa2.0.0.0.20.61.85.77.0.0_t00_pb_pc_pd_pe_ga0_gb0_gc50.0_ge0000000000_gh_gf_gg_gd0000000_ha89.89_hb49.1.0.99_hc1.85.48.1.85.48_hd10.1.49.49_ia_if_ib_id_ic_jc_ie_ja_jb_jd_je_jf_jg_ka_kb_kc_kd_ke_kf_la_lb_oa_os_ob_oc_od_oe_of_lc_m00_n00_s00_og_oh_oo_op_oq_or_om_on_ok_ol_oi_oj_ad0.0.0.0.0.0.0.0.0.0

6-embarrassed=54**aa6.91.1.47.57.7.70.1.16.37_ab_ac_ba50_bb55.1_bc150.500.8.0.1.0_bd55_be180_ca68.0.45.68.34.30.34.0.0.0.60.80_da0.0.0.100_db_dd0.3.5.45.0.50_dh2.30.50.50.2_di7_qa_qb_dc34.1.0.0.0_eh4.916A43.100_ea10.916A43.916A43.56.0.0_ec5.70.916A43.916A43.56.40.64.1_ed28.100.0.1.916A43.56_ef_eg_r00_fa11.56.74.40.16.20.56_fb9_fh5_fc0.A9D0F8.55.0.A9D0F8.55.49.61.61.49.50.50_fj0.0.0_fd16.0.21.916A43.56_fe50.60_ff0000000000_fg2.35.56.0.0.1.0.0_fi_pa2.0.0.0.20.61.85.77.0.0_t00_pb_pc_pd_pe_ga0_gb1_gc50.0_ge0000000000_gh_gf_gg_gd0000000_ha75.75_hb100.1.0.100_hc4.80.58.4.80.58_hd37.1.49.49_ia_if_ib_id_ic_jc_ie_ja_jb_jd_je_jf_jg_ka_kb_kc_kd_ke_kf_la_lb_oa_os_ob_oc_od_oe_of_lc_m00_n00_s00_og_oh_oo_op_oq_or_om_on_ok_ol_oi_oj_ad0.0.0.0.0.0.0.0.0.0

6-excited=54**aa6.91.1.47.57.13.59.1.26.64_ab_ac_ba50_bb55.1_bc150.500.8.0.1.0_bd55_be180_ca68.0.45.68.34.30.34.0.0.0.60.80_da0.0.0.100_db_dd0.3.5.45.0.50_dh2.30.50.50.2_di7_qa_qb_dc34.1.0.0.0_eh4.916A43.100_ea10.916A43.916A43.56.0.0_ec5.70.916A43.916A43.56.40.64.1_ed28.100.0.1.916A43.56_ef_eg_r00_fa11.56.74.40.16.20.56_fb9_fh5_fc0.A9D0F8.55.0.A9D0F8.55.49.61.61.49.50.50_fj0.0.0_fd16.0.21.916A43.56_fe50.60_ff0000000000_fg2.35.56.0.0.1.0.0_fi_pa2.0.0.0.20.61.85.77.0.0_t00_pb_pc_pd_pe_ga0_gb0_gc50.0_ge0000000000_gh_gf_gg_gd0000000_ha89.89_hb50.1.50.100_hc4.80.81.4.80.81_hd23.1.49.49_ia_if_ib_id_ic_jc_ie_ja_jb_jd_je_jf_jg_ka_kb_kc_kd_ke_kf_la_lb_oa_os_ob_oc_od_oe_of_lc_m00_n00_s00_og_oh_oo_op_oq_or_om_on_ok_ol_oi_oj_ad0.0.0.0.0.0.0.0.0.0

6-happy=54**aa6.91.1.47.57.5.2.0.0.50_ab_ac_ba50_bb55.1_bc150.500.8.0.1.0_bd55_be180_ca68.0.45.68.34.30.34.0.0.0.60.80_da0.0.0.100_db_dd0.3.5.45.0.50_dh2.30.50.50.2_di7_qa_qb_dc34.1.0.0.0_eh4.916A43.100_ea10.916A43.916A43.56.0.0_ec5.70.916A43.916A43.56.40.64.1_ed28.100.0.1.916A43.56_ef_eg_r00_fa11.56.74.40.16.20.56_fb9_fh5_fc0.A9D0F8.55.0.A9D0F8.55.49.61.61.49.50.50_fj0.0.0_fd16.0.21.916A43.56_fe50.60_ff0000000000_fg2.35.56.0.0.1.0.0_fi_pa2.0.0.0.20.61.85.77.0.0_t00_pb_pc_pd_pe_ga0_gb1_gc50.0_ge0000000000_gh_gf_gg_gd0000000_ha75.75_hb49.1.44.99_hc1.86.39.1.86.39_hd0.1.49.49_ia_if_ib_id_ic_jc_ie_ja_jb_jd_je_jf_jg_ka_kb_kc_kd_ke_kf_la_lb_oa_os_ob_oc_od_oe_of_lc_m00_n00_s00_og_oh_oo_op_oq_or_om_on_ok_ol_oi_oj_ad0.0.0.0.0.0.0.0.0.0

6-horny=54**aa6.91.1.47.57.7.77.1.16.37_ab_ac_ba50_bb55.1_bc150.500.8.0.1.0_bd55_be180_ca68.0.45.68.34.30.34.0.0.0.60.80_da0.0.0.100_db_dd0.3.5.45.0.50_dh2.30.50.50.2_di7_qa_qb_dc34.1.0.0.0_eh4.916A43.100_ea10.916A43.916A43.56.0.0_ec5.70.916A43.916A43.56.40.64.1_ed28.100.0.1.916A43.56_ef_eg_r00_fa11.56.74.40.16.20.56_fb9_fh5_fc0.A9D0F8.55.0.A9D0F8.55.49.61.61.49.50.50_fj0.0.0_fd16.0.21.916A43.56_fe50.60_ff0000000000_fg2.35.56.0.0.1.0.0_fi_pa2.0.0.0.20.61.85.77.0.0_t00_pb_pc_pd_pe_ga0_gb0_gc50.0_ge0000000000_gh_gf_gg_gd0000000_ha75.75_hb50.1.50.100_hc4.90.59.4.90.59_hd43.1.49.49_ia_if_ib_id_ic_jc_ie_ja_jb_jd_je_jf_jg_ka_kb_kc_kd_ke_kf_la_lb_oa_os_ob_oc_od_oe_of_lc_m00_n00_s00_og_oh_oo_op_oq_or_om_on_ok_ol_oi_oj_ad0.0.0.0.0.0.0.0.0.0

6-interested=54**aa6.91.1.47.57.10.57.1.47.35_ab_ac_ba50_bb55.1_bc150.500.8.0.1.0_bd55_be180_ca68.0.45.68.34.30.34.0.0.0.60.80_da0.0.0.100_db_dd0.3.5.45.0.50_dh2.30.50.50.2_di7_qa_qb_dc34.1.0.0.0_eh4.916A43.100_ea10.916A43.916A43.56.0.0_ec5.70.916A43.916A43.56.40.64.1_ed28.100.0.1.916A43.56_ef_eg_r00_fa11.56.74.40.16.20.56_fb9_fh5_fc0.A9D0F8.55.0.A9D0F8.55.49.61.61.49.50.50_fj0.0.0_fd16.0.21.916A43.56_fe50.60_ff0000000000_fg2.35.56.0.0.1.0.0_fi_pa2.0.0.0.20.61.85.77.0.0_t00_pb_pc_pd_pe_ga0_gb1_gc45.0_ge0000000000_gh_gf_gg_gd0000000_ha89.89_hb49.1.44.99_hc2.53.38.2.80.80_hd22.1.49.49_ia_if_ib_id_ic_jc_ie_ja_jb_jd_je_jf_jg_ka_kb_kc_kd_ke_kf_la_lb_oa_os_ob_oc_od_oe_of_lc_m00_n00_s00_og_oh_oo_op_oq_or_om_on_ok_ol_oi_oj_ad0.0.0.0.0.0.0.0.0.0

6-sad=54**aa6.91.1.47.57.5.2.0.0.50_ab_ac_ba50_bb55.1_bc150.500.8.0.1.0_bd55_be180_ca68.0.45.68.34.30.34.0.0.0.60.80_da0.0.0.100_db_dd0.3.5.45.0.50_dh2.30.50.50.2_di7_qa_qb_dc34.1.0.0.0_eh4.916A43.100_ea10.916A43.916A43.56.0.0_ec5.70.916A43.916A43.56.40.64.1_ed28.100.0.1.916A43.56_ef_eg_r00_fa11.56.74.40.16.20.56_fb9_fh5_fc0.A9D0F8.55.0.A9D0F8.55.49.61.61.49.50.50_fj0.0.0_fd16.0.21.916A43.56_fe50.60_ff0000000000_fg2.35.56.0.0.1.0.0_fi_pa2.0.0.0.20.61.85.77.0.0_t00_pb_pc_pd_pe_ga0_gb0_gc50.0_ge0000000000_gh_gf_gg_gd0000000_ha21.21_hb49.1.44.99_hc4.90.40.4.90.40_hd4.1.49.49_ia_if_ib_id_ic_jc_ie_ja_jb_jd_je_jf_jg_ka_kb_kc_kd_ke_kf_la_lb_oa_os_ob_oc_od_oe_of_lc_m00_n00_s00_og_oh_oo_op_oq_or_om_on_ok_ol_oi_oj_ad0.0.0.0.0.0.0.0.0.0

6-shocked=54**aa6.91.1.47.57.13.59.1.26.64_ab_ac_ba50_bb55.1_bc150.500.8.0.1.0_bd55_be180_ca68.0.45.68.34.30.34.0.0.0.60.80_da0.0.0.100_db_dd0.3.5.45.0.50_dh2.30.50.50.2_di7_qa_qb_dc34.1.0.0.0_eh4.916A43.100_ea10.916A43.916A43.56.0.0_ec5.70.916A43.916A43.56.40.64.1_ed28.100.0.1.916A43.56_ef_eg_r00_fa11.56.74.40.16.20.56_fb9_fh5_fc0.A9D0F8.55.0.A9D0F8.55.49.61.61.49.50.50_fj0.0.0_fd16.0.21.916A43.56_fe50.60_ff0000000000_fg2.35.56.0.0.1.0.0_fi_pa2.0.0.0.20.61.85.77.0.0_t00_pb_pc_pd_pe_ga0_gb1_gc50.0_ge0000000000_gh_gf_gg_gd0000000_ha90.90_hb49.1.44.50_hc1.100.96.1.100.96_hd36.1.49.49_ia_if_ib_id_ic_jc_ie_ja_jb_jd_je_jf_jg_ka_kb_kc_kd_ke_kf_la_lb_oa_os_ob_oc_od_oe_of_lc_m00_n00_s00_og_oh_oo_op_oq_or_om_on_ok_ol_oi_oj_ad0.0.0.0.0.0.0.0.0.0

6-worried=54**aa6.91.1.47.57.7.70.1.16.37_ab_ac_ba50_bb55.1_bc150.500.8.0.1.0_bd55_be180_ca68.0.45.68.34.30.34.0.0.0.60.80_da0.0.0.100_db_dd0.3.5.45.0.50_dh2.30.50.50.2_di7_qa_qb_dc34.1.0.0.0_eh4.916A43.100_ea10.916A43.916A43.56.0.0_ec5.70.916A43.916A43.56.40.64.1_ed28.100.0.1.916A43.56_ef_eg_r00_fa11.56.74.40.16.20.56_fb9_fh5_fc0.A9D0F8.55.0.A9D0F8.55.49.61.61.49.50.50_fj0.0.0_fd16.0.21.916A43.56_fe50.60_ff0000000000_fg2.35.56.0.0.1.0.0_fi_pa2.0.0.0.20.61.85.77.0.0_t00_pb_pc_pd_pe_ga0_gb1_gc50.0_ge0000000000_gh_gf_gg_gd0000000_ha75.75_hb49.1.0.100_hc4.81.74.4.81.74_hd9.1.49.49_ia_if_ib_id_ic_jc_ie_ja_jb_jd_je_jf_jg_ka_kb_kc_kd_ke_kf_la_lb_oa_os_ob_oc_od_oe_of_lc_m00_n00_s00_og_oh_oo_op_oq_or_om_on_ok_ol_oi_oj_ad0.0.0.0.0.0.0.0.0.0

6-heavy=54**aa6.91.1.16.57.10.70.1.4.19_ab_ac_ba50_bb55.1_bc150.500.8.0.1.0_bd55_be180_ca68.0.45.68.34.30.34.0.0.0.60.80_da0.0.0.100_db_dd0.3.5.45.0.50_dh2.30.50.50.2_di7_qa_qb_dc34.1.0.0.0_eh4.916A43.100_ea10.916A43.916A43.56.0.0_ec5.70.916A43.916A43.56.40.64.1_ed28.100.0.1.916A43.56_ef_eg_r00_fa11.56.74.40.16.20.56_fb9_fh5_fc0.A9D0F8.55.0.A9D0F8.55.49.61.61.49.50.50_fj0.0.0_fd16.0.21.916A43.56_fe50.60_ff0000000000_fg2.35.56.0.0.1.0.0_fi_pa2.0.0.0.20.61.85.77.0.0_t00_pb_pc_pd_pe_ga0_gb0_gc50.0_ge0000000000_gh_gf_gg_gd0000000_ha0.0_hb50.1.0.100_hc4.90.58.4.90.58_hd40.1.49.49_ia_if_ib_id_ic_jc_ie_ja_jb_jd_je_jf_jg_ka_kb_kc_kd_ke_kf_la_lb_oa_os_ob_oc_od_oe_of_lc_m00_n00_s00_og_oh_oo_op_oq_or_om_on_ok_ol_oi_oj_ad0.0.0.0.0.0.0.0.0.0

6-finishing=54**aa6.91.1.47.57.7.93.1.16.51_ab_ac_ba50_bb55.1_bc150.500.8.0.1.0_bd55_be180_ca68.0.45.68.34.30.34.0.0.0.60.80_da0.0.0.100_db_dd0.3.5.45.0.50_dh2.30.50.50.2_di7_qa_qb_dc34.1.0.0.0_eh4.916A43.100_ea10.916A43.916A43.56.0.0_ec5.70.916A43.916A43.56.40.64.1_ed28.100.0.1.916A43.56_ef_eg_r00_fa11.56.74.40.16.20.56_fb9_fh5_fc0.A9D0F8.55.0.A9D0F8.55.49.61.61.49.50.50_fj0.0.0_fd16.0.21.916A43.56_fe50.60_ff0000000000_fg2.35.56.0.0.1.0.0_fi_pa2.0.0.0.20.61.85.77.0.0_t00_pb_pc_pd_pe_ga0_gb0_gc50.0_ge0000000000_gh_gf_gg_gd0000000_ha0.0_hb50.1.50.100_hc4.90.59.4.90.59_hd36.1.49.49_ia_if_ib_id_ic_jc_ie_ja_jb_jd_je_jf_jg_ka_kb_kc_kd_ke_kf_la_lb_oa_os_ob_oc_od_oe_of_lc_m00_n00_s00_og_oh_oo_op_oq_or_om_on_ok_ol_oi_oj_ad0.0.0.0.0.0.0.0.0.0


#Finished
7-finished=54**aa14.59.1.28.35.5.2.1.0.50_ab_ac_ba50_bb5.1_bc150.500.8.0.1.0_bd5_be180_ca68.0.45.68.34.30.34.0.0.0.60.80_da0.0.0.100_db_dd0.3.5.45.0.50_dh2.30.50.50.2_di7_qa_qb_dc103.1.0.0.0_eh4.916A43.100_ea10.916A43.916A43.56.0.0_ec5.70.916A43.916A43.56.40.64.1_ed28.100.0.1.916A43.56_ef_eg_r00_fa11.56.74.40.16.20.56_fb9_fh5_fc0.A9D0F8.55.0.A9D0F8.55.49.61.61.49.50.50_fj0.0.0_fd16.0.21.916A43.56_fe50.60_ff0000000000_fg2.35.56.0.0.1.0.0_fi_pa2.0.0.0.20.61.85.77.0.0_t00_pb_pc_pd_pe_ga0_gb0_gc45.0_ge0000000000_gh_gf_gg_gd0000000_ha21.21_hb49.1.44.99_hc1.90.75.1.90.75_hd37.1.49.49_ia_if_ib_id_ic_jc_ie_ja_jb_jd_je_jf_jg_ka_kb_kc_kd_ke_kf_la_lb_oa_os_ob_oc_od_oe_of_lc_m00_n00_s00_og_oh_oo_op_oq_or_om_on_ok_ol_oi_oj_ad0.0.0.0.0.0.0.0.0.0

7-calm=54**aa5.2.0.0.50.5.2.0.0.50_ab_ac_ba50_bb5.1_bc150.500.8.0.1.0_bd5_be180_ca68.0.45.68.34.30.34.0.0.0.60.80_da0.0.0.100_db_dd0.3.5.45.0.50_dh2.30.50.50.2_di7_qa_qb_dc103.1.0.0.0_eh4.916A43.100_ea10.916A43.916A43.56.0.0_ec5.70.916A43.916A43.56.40.64.1_ed28.100.0.1.916A43.56_ef_eg_r00_fa11.56.74.40.16.20.56_fb9_fh5_fc0.A9D0F8.55.0.A9D0F8.55.49.61.61.49.50.50_fj0.0.0_fd16.0.21.916A43.56_fe50.60_ff0000000000_fg2.35.56.0.0.1.0.0_fi_pa2.0.0.0.20.61.85.77.0.0_t00_pb_pc_pd_pe_ga0_gb0_gc45.0_ge0000000000_gh_gf_gg_gd0000000_ha89.89_hb49.1.44.99_hc0.29.39.0.29.39_hd4.1.49.49_ia_if_ib_id_ic_jc_ie_ja_jb_jd_je_jf_jg_ka_kb_kc_kd_ke_kf_la_lb_oa_os_ob_oc_od_oe_of_lc_m00_n00_s00_og_oh_oo_op_oq_or_om_on_ok_ol_oi_oj_ad0.0.0.0.0.0.0.0.0.0

7-embarrassed=54**aa7.70.1.16.37.7.70.1.16.37_ab_ac_ba50_bb43.1_bc150.500.8.0.1.0_bd43_be180_ca68.0.45.68.34.30.34.0.0.0.60.80_da0.0.0.100_db_dd0.3.5.45.0.50_dh2.30.50.50.2_di7_qa_qb_dc103.1.0.0.0_eh4.916A43.100_ea10.916A43.916A43.56.0.0_ec5.70.916A43.916A43.56.40.64.1_ed28.100.0.1.916A43.56_ef_eg_r00_fa11.56.74.40.16.20.56_fb9_fh5_fc0.A9D0F8.55.0.A9D0F8.55.49.61.61.49.50.50_fj0.0.0_fd16.0.21.916A43.56_fe50.60_ff0000000000_fg2.35.56.0.0.1.0.0_fi_pa2.0.0.0.20.61.85.77.0.0_t00_pb_pc_pd_pe_ga0_gb1_gc50.0_ge0000000000_gh_gf_gg_gd0000000_ha75.75_hb100.1.0.100_hc2.99.58.2.99.58_hd37.1.49.49_ia_if_ib_id_ic_jc_ie_ja_jb_jd_je_jf_jg_ka_kb_kc_kd_ke_kf_la_lb_oa_os_ob_oc_od_oe_of_lc_m00_n00_s00_og_oh_oo_op_oq_or_om_on_ok_ol_oi_oj_ad0.0.0.0.0.0.0.0.0.0

7-excited=54**aa13.59.1.26.64.5.4.0.0.57_ab_ac_ba50_bb4.1_bc150.500.8.0.1.0_bd4_be180_ca68.0.45.68.34.30.34.0.0.0.60.80_da0.0.0.100_db_dd0.3.5.45.0.50_dh2.30.50.50.2_di7_qa_qb_dc103.1.0.0.0_eh4.916A43.100_ea10.916A43.916A43.56.0.0_ec5.70.916A43.916A43.56.40.64.1_ed28.100.0.1.916A43.56_ef_eg_r00_fa11.56.74.40.16.20.56_fb9_fh5_fc0.A9D0F8.55.0.A9D0F8.55.49.61.61.49.50.50_fj0.0.0_fd16.0.21.916A43.56_fe50.60_ff0000000000_fg2.35.56.0.0.1.0.0_fi_pa2.0.0.0.20.61.85.77.0.0_t00_pb_pc_pd_pe_ga0_gb0_gc45.0_ge0000000000_gh_gf_gg_gd0000000_ha89.89_hb50.1.50.100_hc1.85.81.1.85.81_hd23.1.49.49_ia_if_ib_id_ic_jc_ie_ja_jb_jd_je_jf_jg_ka_kb_kc_kd_ke_kf_la_lb_oa_os_ob_oc_od_oe_of_lc_m00_n00_s00_og_oh_oo_op_oq_or_om_on_ok_ol_oi_oj_ad0.0.0.0.0.0.0.0.0.0

7-happy=54**aa7.57.1.16.45.7.57.1.16.45_ab_ac_ba50_bb5.1_bc150.500.8.0.1.0_bd5_be180_ca68.0.45.68.34.30.34.0.0.0.60.80_da0.0.0.100_db_dd0.3.5.45.0.50_dh2.30.50.50.2_di7_qa_qb_dc103.1.0.0.0_eh4.916A43.100_ea10.916A43.916A43.56.0.0_ec5.70.916A43.916A43.56.40.64.1_ed28.100.0.1.916A43.56_ef_eg_r00_fa11.56.74.40.16.20.56_fb9_fh5_fc0.A9D0F8.55.0.A9D0F8.55.49.61.61.49.50.50_fj0.0.0_fd16.0.21.916A43.56_fe50.60_ff0000000000_fg2.35.56.0.0.1.0.0_fi_pa2.0.0.0.20.61.85.77.0.0_t00_pb_pc_pd_pe_ga0_gb1_gc45.0_ge0000000000_gh_gf_gg_gd0000000_ha0.0_hb49.1.44.99_hc1.86.39.1.86.39_hd25.1.49.49_ia_if_ib_id_ic_jc_ie_ja_jb_jd_je_jf_jg_ka_kb_kc_kd_ke_kf_la_lb_oa_os_ob_oc_od_oe_of_lc_m00_n00_s00_og_oh_oo_op_oq_or_om_on_ok_ol_oi_oj_ad0.0.0.0.0.0.0.0.0.0

7-horny=54**aa7.77.1.16.37.7.77.1.16.37_ab_ac_ba50_bb43.1_bc150.500.8.0.1.0_bd43_be180_ca68.0.45.68.34.30.34.0.0.0.60.80_da0.0.0.100_db_dd0.3.5.45.0.50_dh2.30.50.50.2_di7_qa_qb_dc103.1.0.0.0_eh4.916A43.100_ea10.916A43.916A43.56.0.0_ec5.70.916A43.916A43.56.40.64.1_ed28.100.0.1.916A43.56_ef_eg_r00_fa11.56.74.40.16.20.56_fb9_fh5_fc0.A9D0F8.55.0.A9D0F8.55.49.61.61.49.50.50_fj0.0.0_fd16.0.21.916A43.56_fe50.60_ff0000000000_fg2.35.56.0.0.1.0.0_fi_pa2.0.0.0.20.61.85.77.0.0_t00_pb_pc_pd_pe_ga0_gb0_gc50.0_ge0000000000_gh_gf_gg_gd0000000_ha75.75_hb50.1.50.100_hc1.83.58.1.83.58_hd10.1.49.49_ia_if_ib_id_ic_jc_ie_ja_jb_jd_je_jf_jg_ka_kb_kc_kd_ke_kf_la_lb_oa_os_ob_oc_od_oe_of_lc_m00_n00_s00_og_oh_oo_op_oq_or_om_on_ok_ol_oi_oj_ad0.0.0.0.0.0.0.0.0.0

7-interested=54**aa10.57.1.47.35.8.91.0.0.50_ab_ac_ba50_bb5.1_bc150.500.8.0.1.0_bd5_be180_ca68.0.45.68.34.30.34.0.0.0.60.80_da0.0.0.100_db_dd0.3.5.45.0.50_dh2.30.50.50.2_di7_qa_qb_dc103.1.0.0.0_eh4.916A43.100_ea10.916A43.916A43.56.0.0_ec5.70.916A43.916A43.56.40.64.1_ed28.100.0.1.916A43.56_ef_eg_r00_fa11.56.74.40.16.20.56_fb9_fh5_fc0.A9D0F8.55.0.A9D0F8.55.49.61.61.49.50.50_fj0.0.0_fd16.0.21.916A43.56_fe50.60_ff0000000000_fg2.35.56.0.0.1.0.0_fi_pa2.0.0.0.20.61.85.77.0.0_t00_pb_pc_pd_pe_ga0_gb1_gc45.0_ge0000000000_gh_gf_gg_gd0000000_ha89.89_hb49.1.44.99_hc1.53.38.1.80.80_hd22.1.49.49_ia_if_ib_id_ic_jc_ie_ja_jb_jd_je_jf_jg_ka_kb_kc_kd_ke_kf_la_lb_oa_os_ob_oc_od_oe_of_lc_m00_n00_s00_og_oh_oo_op_oq_or_om_on_ok_ol_oi_oj_ad0.0.0.0.0.0.0.0.0.0

7-sad=54**aa14.59.1.28.35.14.59.1.28.35_ab_ac_ba50_bb5.1_bc150.500.8.0.1.0_bd5_be180_ca68.0.45.68.34.30.34.0.0.0.60.80_da0.0.0.100_db_dd0.3.5.45.0.50_dh2.30.50.50.2_di7_qa_qb_dc103.1.0.0.0_eh4.916A43.100_ea10.916A43.916A43.56.0.0_ec5.70.916A43.916A43.56.40.64.1_ed28.100.0.1.916A43.56_ef_eg_r00_fa11.56.74.40.16.20.56_fb9_fh5_fc0.A9D0F8.55.0.A9D0F8.55.49.61.61.49.50.50_fj0.0.0_fd16.0.21.916A43.56_fe50.60_ff0000000000_fg2.35.56.0.0.1.0.0_fi_pa2.0.0.0.20.61.85.77.0.0_t00_pb_pc_pd_pe_ga0_gb0_gc45.0_ge0000000000_gh_gf_gg_gd0000000_ha21.21_hb49.1.44.99_hc3.85.55.3.85.55_hd4.1.49.49_ia_if_ib_id_ic_jc_ie_ja_jb_jd_je_jf_jg_ka_kb_kc_kd_ke_kf_la_lb_oa_os_ob_oc_od_oe_of_lc_m00_n00_s00_og_oh_oo_op_oq_or_om_on_ok_ol_oi_oj_ad0.0.0.0.0.0.0.0.0.0

7-shocked=54**aa13.59.1.26.64.5.4.0.3.66_ab_ac_ba50_bb6.1_bc150.500.8.0.1.0_bd6_be180_ca68.0.45.68.34.30.34.0.0.0.60.80_da0.0.0.100_db_dd0.3.5.45.0.50_dh2.30.50.50.2_di7_qa_qb_dc103.1.0.0.0_eh4.916A43.100_ea10.916A43.916A43.56.0.0_ec5.70.916A43.916A43.56.40.64.1_ed28.100.0.1.916A43.56_ef_eg_r00_fa11.56.74.40.16.20.56_fb9_fh5_fc0.A9D0F8.55.0.A9D0F8.55.49.61.61.49.50.50_fj0.0.0_fd16.0.21.916A43.56_fe50.60_ff0000000000_fg2.35.56.0.0.1.0.0_fi_pa2.0.0.0.20.61.85.77.0.0_t00_pb_pc_pd_pe_ga0_gb1_gc45.0_ge0000000000_gh_gf_gg_gd0000000_ha90.90_hb49.1.44.50_hc1.100.96.1.100.96_hd36.1.49.49_ia_if_ib_id_ic_jc_ie_ja_jb_jd_je_jf_jg_ka_kb_kc_kd_ke_kf_la_lb_oa_os_ob_oc_od_oe_of_lc_m00_n00_s00_og_oh_oo_op_oq_or_om_on_ok_ol_oi_oj_ad0.0.0.0.0.0.0.0.0.0

7-worried=54**aa7.70.1.16.37.7.70.1.16.37_ab_ac_ba50_bb4.1_bc150.500.8.0.1.0_bd4_be180_ca68.0.45.68.34.30.34.0.0.0.60.80_da0.0.0.100_db_dd0.3.5.45.0.50_dh2.30.50.50.2_di7_qa_qb_dc103.1.0.0.0_eh4.916A43.100_ea10.916A43.916A43.56.0.0_ec5.70.916A43.916A43.56.40.64.1_ed28.100.0.1.916A43.56_ef_eg_r00_fa11.56.74.40.16.20.56_fb9_fh5_fc0.A9D0F8.55.0.A9D0F8.55.49.61.61.49.50.50_fj0.0.0_fd16.0.21.916A43.56_fe50.60_ff0000000000_fg2.35.56.0.0.1.0.0_fi_pa2.0.0.0.20.61.85.77.0.0_t00_pb_pc_pd_pe_ga0_gb1_gc45.0_ge0000000000_gh_gf_gg_gd0000000_ha90.90_hb49.1.0.100_hc4.81.74.4.81.74_hd9.1.49.49_ia_if_ib_id_ic_jc_ie_ja_jb_jd_je_jf_jg_ka_kb_kc_kd_ke_kf_la_lb_oa_os_ob_oc_od_oe_of_lc_m00_n00_s00_og_oh_oo_op_oq_or_om_on_ok_ol_oi_oj_ad0.0.0.0.0.0.0.0.0.0
