0-loss=47**aa5.98.0.42.36.5.98.0.42.36_ab_ac_ba50_bb17.0_bc217.0.0.0.1_bd17_be180_ca64.0.38.64.30.15.23.35.7_cb0_da1.0.0.100_db0.2_dd9.3.20.50.45.50_dh1.32.50.50.0_di5_qa_qb_dc0.1.1.1.1_eh1.32_ea6.32.32.56.0.0_ec_ed0.23.0.1.32.56_ef_eg_r0045.32.32.56.1.0.51.51.45.617.548.0_fa2.50.60.60.50.77.56_fb7_fh_fc3.34.55.3.34.55.50.61.61.50.50.50_fd2.0.27.32.56_fe50.64_ff0000000000_fg2.55_pa0.F63BC5.24.0.40.50.85.85.0.0_t00_pb_pc_pd_pe_ga0_gb0_gc0.0_ge0000000000_gh_gf_gg_gd10100000_ha67.67_hb49.1.40.55_hc0.52.0.0.52.0_hd38.1.49.49_ia_if_ib_id_ic_jc_ie_ja_jb_jd3.19.19.50_je3.19.19.50_jf_jg_ka10.19.CE57A8.0.0_kb10.19.CE57A8.0_kc_kd_ke_kf_la_lb_oa_os_ob_oc_od_oe_of_lc_m00_n00_s042.6.6.19.0.61.100.682.889.3.7.1.7.2.61_og_oh_oo_op_oq_or_om_on_ok_ol_oi_oj_ad0.0.0.0.0.0.0.0.0.0

0-awkward=40**aa10.91.1.42.36.10.91.1.42.36_ab_ac_ba50_bb17.0_bc185.500.8.0.1_bd17_be180_ca64.0.38.64.30.15.23.35.7_cb0_da1.0.0.100_db0.2_dd9.3.20.50.45_dh1.32.50.50.0_di5_qa_qb_dc0.1.1.1.1_eh1.32_ea6.32.32.56.0.0_ec_ed0.23.0.1.32.56_ef_eg_r045.32.32.56.1.0.51.51.45.617.548.0_fa2.50.60.60.50.87.56_fb7_fh_fc3.34.55.3.34.55.50.61.61.50.50.50_fd2.0.27.32.56_fe50.64_ff0000000000_fg2.55_pa0.0.0.0.40.50.85.85.0.0_t0_pb_pc_pd_pe_ga0_gb0_gc14.0_ge0000000000_gh_gf_gg_gd10100000_ha60.60_hb0.1.20.36_hc0.66.13.0.66.13_hd39.1.49.49_ia_if_ib_id_ic_jc_ie_ja_jb_jd3.19.19.57_je3.19.19.57_jf_jg_ka10.19.60.60.0_kb10.19.60.60_kc_kd_ke_kf_la_lb_oa_os_ob_oc_od_oe_of_lc_m0_n0_s42.6.6.19.0.61.100.682.889.2.7.1.7.2.61_og_oh_oo_op_oq_or_om_on_ok_ol_oi_oj_ad0.0.0.0.0.0.0.0.0.0

0-angry=40**aa15.44.1.42.49.8.96.1.42.39_ab_ac_ba50_bb17.0_bc185.500.8.0.1_bd17_be180_ca64.0.38.64.30.15.23.35.7_cb0_da1.0.0.100_db0.2_dd9.3.20.50.45_dh1.32.50.50.0_di5_qa_qb_dc0.1.1.1.1_eh1.32_ea6.32.32.56.0.0_ec_ed0.23.0.1.32.56_ef_eg_r045.32.32.56.1.0.51.51.45.617.548.0_fa2.50.60.60.50.27.56_fb7_fh_fc3.34.55.3.34.55.50.61.61.50.50.50_fd2.0.27.32.56_fe50.64_ff0000000000_fg2.55_pa0.0.0.0.40.50.85.85.0.0_t0_pb_pc_pd_pe_ga0_gb0_gc14.0_ge0000000000_gh_gf_gg_gd10100000_ha63.63_hb49.1.50.66_hc0.0.7.0.0.7_hd48.1.49.49_ia_if_ib_id_ic_jc_ie_ja_jb_jd3.19.19.57_je3.19.19.57_jf_jg_ka10.19.60.60.0_kb10.19.60.60_kc_kd_ke_kf_la_lb_oa_os_ob_oc_od_oe_of_lc_m0_n0_s42.6.6.19.0.61.100.682.889.2.7.1.7.2.61_og_oh_oo_op_oq_or_om_on_ok_ol_oi_oj_ad0.0.0.0.0.0.0.0.0.0

0-shocked=40**aa10.0.1.47.52.10.0.1.47.52_ab_ac_ba50_bb17.0_bc185.500.8.0.1_bd17_be180_ca64.0.38.64.30.15.23.35.7_cb0_da1.0.0.100_db0.2_dd0.3.20.50.45_dh1.32.50.50.0_di5_qa_qb_dc0.1.1.1.1_eh1.32_ea6.32.32.56.0.0_ec_ed0.23.0.1.32.56_ef_eg_r045.32.32.56.1.0.51.51.45.617.548.0_fa2.50.60.60.50.77.56_fb7_fh_fc3.34.55.3.34.55.50.61.61.50.50.50_fd2.0.27.32.56_fe50.64_ff0000000000_fg2.55_pa0.0.0.0.40.50.85.85.0.0_t0_pb_pc_pd_pe_ga0_gb0_gc27.0_ge0000000000_gh_gf_gg_gd10100000_ha85.85_hb49.1.50.37_hc0.52.30.0.52.30_hd41.1.49.49_ia_if_ib_id_ic_jc_ie_ja_jb_jd3.19.19.57_je3.19.19.57_jf_jg_ka10.19.60.60.0_kb10.19.60.60_kc_kd_ke_kf_la_lb_oa_os_ob_oc_od_oe_of_lc_m0_n0_s42.6.6.19.0.61.100.682.889.2.7.1.7.2.61_og_oh_oo_op_oq_or_om_on_ok_ol_oi_oj_ad0.0.0.0.0.0.0.0.0.0

0-sad=40**aa14.92.0.42.36.14.92.0.42.36_ab_ac_ba50_bb17.0_bc185.500.8.0.1_bd17_be180_ca64.0.38.64.30.15.23.35.7_cb0_da1.0.0.100_db0.2_dd9.3.20.50.45_dh1.32.50.50.0_di5_qa_qb_dc0.1.1.1.1_eh1.32_ea6.32.32.56.0.0_ec_ed0.23.0.1.32.56_ef_eg_r045.32.32.56.1.0.51.51.45.617.548.0_fa2.50.60.60.50.77.56_fb7_fh_fc3.34.55.3.34.55.50.61.61.50.50.50_fd2.0.27.32.56_fe50.64_ff0000000000_fg2.55_pa0.0.0.0.40.50.85.85.0.0_t0_pb_pc_pd_pe_ga0_gb0_gc0.0_ge0000000000_gh_gf_gg_gd10100000_ha58.58_hb49.1.30.55_hc0.52.0.0.52.0_hd5.1.49.49_ia_if_ib_id_ic_jc_ie_ja_jb_jd3.19.19.57_je3.19.19.57_jf_jg_ka10.19.60.60.0_kb10.19.60.60_kc_kd_ke_kf_la_lb_oa_os_ob_oc_od_oe_of_lc_m0_n0_s42.6.6.19.0.61.100.682.889.2.7.1.7.2.61_og_oh_oo_op_oq_or_om_on_ok_ol_oi_oj_ad0.0.0.0.0.0.0.0.0.0

0-embarrassed=40**aa67.40.1.26.36.67.40.1.26.36_ab_ac_ba50_bb17.0_bc185.500.8.0.1_bd17_be180_ca64.0.38.64.30.15.23.35.7_cb0_da1.0.0.100_db0.2_dd0.3.20.50.45_dh1.32.50.50.0_di5_qa_qb_dc0.1.1.1.1_eh1.32_ea6.32.32.56.0.0_ec_ed0.23.0.1.32.56_ef_eg_r045.32.32.56.1.0.51.51.45.617.548.0_fa2.50.60.60.50.40.56_fb7_fh_fc3.34.55.3.34.55.50.61.61.50.50.50_fd2.0.27.32.56_fe50.64_ff0000000000_fg2.55_pa0.0.0.0.40.50.85.85.0.0_t0_pb_pc_pd_pe_ga0_gb0_gc27.0_ge0000000000_gh_gf_gg_gd10100000_ha90.90_hb49.1.50.90_hc0.0.30.0.0.30_hd40.1.49.49_ia_if_ib_id_ic_jc_ie_ja_jb_jd3.19.19.57_je3.19.19.57_jf_jg_ka10.19.60.60.0_kb10.19.60.60_kc_kd_ke_kf_la_lb_oa_os_ob_oc_od_oe_of_lc_m0_n0_s42.6.6.19.0.61.100.682.889.2.7.1.7.2.61_og_oh_oo_op_oq_or_om_on_ok_ol_oi_oj_ad0.0.0.0.0.0.0.0.0.0

0-interested=40**aa14.73.0.42.36.14.73.0.42.36_ab_ac_ba50_bb17.0_bc185.500.8.0.1_bd17_be180_ca64.0.38.64.30.15.23.35.7_cb0_da1.0.0.100_db0.2_dd9.3.20.50.45_dh1.32.50.50.0_di5_qa_qb_dc0.1.1.1.1_eh1.32_ea6.32.32.56.0.0_ec_ed0.23.0.1.32.56_ef_eg_r045.32.32.56.1.0.51.51.45.617.548.0_fa2.50.60.60.50.77.56_fb7_fh_fc3.34.55.3.34.55.50.61.61.50.50.50_fd2.0.27.32.56_fe50.64_ff0000000000_fg2.55_pa0.0.0.0.40.50.85.85.0.0_t0_pb_pc_pd_pe_ga0_gb0_gc14.0_ge0000000000_gh_gf_gg_gd10100000_ha61.61_hb49.1.50.70_hc0.52.30.0.52.30_hd34.1.49.49_ia_if_ib_id_ic_jc_ie_ja_jb_jd3.19.19.57_je3.19.19.57_jf_jg_ka10.19.60.60.0_kb10.19.60.60_kc_kd_ke_kf_la_lb_oa_os_ob_oc_od_oe_of_lc_m0_n0_s42.6.6.19.0.61.100.682.889.2.7.1.7.2.61_og_oh_oo_op_oq_or_om_on_ok_ol_oi_oj_ad0.0.0.0.0.0.0.0.0.0

0-calm=40**aa35.76.0.42.36.35.76.0.42.36_ab_ac_ba50_bb17.0_bc185.500.8.0.1_bd17_be180_ca64.0.38.64.30.15.23.35.7_cb0_da1.0.0.100_db0.2_dd9.3.20.50.45_dh1.32.50.50.0_di5_qa_qb_dc0.1.1.1.1_eh1.32_ea6.32.32.56.0.0_ec_ed0.23.0.1.32.56_ef_eg_r045.32.32.56.1.0.51.51.45.617.548.0_fa2.50.60.60.50.77.56_fb7_fh_fc3.34.55.3.34.55.50.61.61.50.50.50_fd2.0.27.32.56_fe50.64_ff0000000000_fg2.55_pa0.0.0.0.40.50.85.85.0.0_t0_pb_pc_pd_pe_ga0_gb0_gc0.0_ge0000000000_gh_gf_gg_gd10100000_ha69.69_hb49.1.50.55_hc0.52.30.0.52.30_hd0.1.49.49_ia_if_ib_id_ic_jc_ie_ja_jb_jd3.19.19.57_je3.19.19.57_jf_jg_ka10.19.60.60.0_kb10.19.60.60_kc_kd_ke_kf_la_lb_oa_os_ob_oc_od_oe_of_lc_m0_n0_s42.6.6.19.0.61.100.682.889.2.7.1.7.2.61_og_oh_oo_op_oq_or_om_on_ok_ol_oi_oj_ad0.0.0.0.0.0.0.0.0.0

0-horny=40**aa18.43.0.42.56.18.43.0.42.56_ab_ac_ba50_bb17.0_bc185.500.8.0.1_bd17_be180_ca64.0.38.64.30.15.23.35.7_cb0_da1.0.0.100_db0.2_dd0.3.20.50.45_dh1.32.50.50.0_di5_qa_qb_dc0.1.1.1.1_eh1.32_ea6.32.32.56.0.0_ec_ed0.23.0.1.32.56_ef_eg_r045.32.32.56.1.0.51.51.45.617.548.0_fa2.50.60.60.50.36.56_fb7_fh_fc3.34.55.3.34.55.50.61.61.50.50.50_fd2.0.27.32.56_fe50.64_ff0000000000_fg2.55_pa0.0.0.0.40.50.85.85.0.0_t0_pb_pc_pd_pe_ga0_gb0_gc27.0_ge0000000000_gh_gf_gg_gd10100000_ha75.75_hb49.1.50.80_hc0.18.30.0.18.30_hd25.1.49.49_ia_if_ib_id_ic_jc_ie_ja_jb_jd3.19.19.57_je3.19.19.57_jf_jg_ka10.19.60.60.0_kb10.19.60.60_kc_kd_ke_kf_la_lb_oa_os_ob_oc_od_oe_of_lc_m0_n0_s42.6.6.19.0.61.100.682.889.2.7.1.7.2.61_og_oh_oo_op_oq_or_om_on_ok_ol_oi_oj_ad0.0.0.0.0.0.0.0.0.0

0-happy=40**aa85.0.0.43.53.85.0.0.43.53_ab_ac_ba50_bb2.0_bc185.500.8.0.1_bd27_be180_ca64.0.38.64.30.15.23.35.7_cb0_da1.0.0.100_db0.2_dd9.3.20.50.45_dh1.32.50.50.0_di5_qa_qb_dc0.1.1.1.1_eh1.32_ea6.32.32.56.0.0_ec_ed0.23.0.1.32.56_ef_eg_r045.32.32.56.1.0.51.51.45.617.548.0_fa2.50.60.60.50.77.56_fb7_fh_fc3.34.55.3.34.55.50.61.61.50.50.50_fd2.0.27.32.56_fe50.64_ff0000000000_fg2.55_pa0.0.0.0.40.50.85.85.0.0_t0_pb_pc_pd_pe_ga0_gb0_gc0.0_ge0000000000_gh_gf_gg_gd10100000_ha88.88_hb49.1.50.55_hc0.52.30.0.52.30_hd24.1.49.49_ia_if_ib_id_ic_jc_ie_ja_jb_jd3.19.19.57_je3.19.19.57_jf_jg_ka10.19.60.60.0_kb10.19.60.60_kc_kd_ke_kf_la_lb_oa_os_ob_oc_od_oe_of_lc_m0_n0_s42.6.6.19.0.61.100.682.889.2.7.1.7.2.61_og_oh_oo_op_oq_or_om_on_ok_ol_oi_oj_ad0.0.0.0.0.0.0.0.0.0

1-loss=40**aa5.98.0.42.36.5.98.0.42.36_ab_ac_ba50_bb17.0_bc150.500.8.0.1_bd17_be180_ca64.0.38.64.30.15.23.35.7_cb0_da1.0.0.100_db0.2_dd9.3.20.50.45_dh1.32.50.50.0_di5_qa_qb_dc1.1.1.1.1_eh1.32_ea6.32.32.56.0.0_ec_ed0.23.0.1.32.56_ef_eg_r045.32.32.56.1.0.51.51.45.617.548.0_fa2.50.60.60.50.77.56_fb7_fh_fc3.34.55.3.34.55.50.61.61.50.50.50_fd2.0.27.32.56_fe50.64_ff0000000000_fg2.55_pa0.0.0.0.40.50.85.85.0.0_t0_pb_pc_pd_pe_ga0_gb0_gc0.0_ge0000000000_gh_gf_gg_gd10100000_ha67.67_hb49.1.40.55_hc0.52.0.0.52.0_hd38.1.49.49_ia_if_ib_id_ic_jc_ie_ja_jb_jd_je_jf_jg_ka10.19.42.42.0_kb10.19.42.42_kc_kd_ke_kf_la_lb_oa_os_ob_oc_od_oe_of_lc_m0_n0_s42.6.6.19.0.61.100.682.889.2.7.1.7.2.61_og_oh_oo_op_oq_or_om_on_ok_ol_oi_oj_ad0.0.0.0.0.0.0.0.0.0

1-awkward=40**aa10.91.1.42.36.10.91.1.42.36_ab_ac_ba50_bb17.0_bc237.500.8.0.1_bd17_be180_ca64.0.38.64.30.15.23.35.7_cb0_da1.0.0.100_db0.2_dd9.3.20.50.45_dh1.32.50.50.0_di5_qa_qb_dc1.1.1.1.1_eh1.32_ea6.32.32.56.0.0_ec_ed0.23.0.1.32.56_ef_eg_r045.32.32.56.1.0.51.51.45.617.548.0_fa2.50.60.60.50.87.56_fb7_fh_fc3.34.55.3.34.55.50.61.61.50.50.50_fd2.0.27.32.56_fe50.64_ff0000000000_fg2.55_pa0.0.0.0.40.50.85.85.0.0_t0_pb_pc_pd_pe_ga0_gb0_gc14.0_ge0000000000_gh_gf_gg_gd10100000_ha60.60_hb0.1.20.36_hc0.66.13.0.66.13_hd39.1.49.49_ia_if_ib_id_ic_jc_ie_ja_jb_jd_je_jf_jg_ka10.19.59.0.0_kb10.19.59.0_kc_kd_ke_kf_la_lb_oa_os_ob_oc_od_oe_of_lc_m0_n0_s42.6.6.19.0.61.100.682.889.2.7.1.7.2.61_og_oh_oo_op_oq_or_om_on_ok_ol_oi_oj_ad0.0.0.0.0.0.0.0.0.0

1-angry=40**aa15.44.1.42.49.8.96.1.42.39_ab_ac_ba50_bb17.0_bc325.500.8.0.1_bd17_be180_ca64.0.38.64.30.15.23.35.7_cb0_da1.0.0.100_db0.2_dd9.3.20.50.45_dh1.32.50.50.0_di5_qa_qb_dc1.1.1.1.1_eh1.32_ea6.32.32.56.0.0_ec_ed0.23.0.1.32.56_ef_eg_r045.32.32.56.1.0.51.51.45.617.548.0_fa2.50.60.60.50.27.56_fb7_fh_fc3.34.55.3.34.55.50.61.61.50.50.50_fd2.0.27.32.56_fe50.64_ff0000000000_fg2.55_pa0.0.0.0.40.50.85.85.0.0_t0_pb_pc_pd_pe_ga0_gb0_gc14.0_ge0000000000_gh_gf_gg_gd10100000_ha63.63_hb49.1.50.66_hc0.0.7.0.0.7_hd48.1.49.49_ia_if_ib_id_ic_jc_ie_ja_jb_jd_je_jf_jg_ka10.19.1.1.0_kb10.19.1.1_kc_kd_ke_kf_la_lb_oa_os_ob_oc_od_oe_of_lc_m0_n0_s42.6.6.19.0.61.100.682.889.2.7.1.7.2.61_og_oh_oo_op_oq_or_om_on_ok_ol_oi_oj_ad0.0.0.0.0.0.0.0.0.0

1-shocked=40**aa10.0.1.47.52.10.0.1.47.52_ab_ac_ba50_bb17.0_bc412.500.8.0.1_bd17_be180_ca64.0.38.64.30.15.23.35.7_cb0_da1.0.0.100_db0.2_dd0.3.20.50.45_dh1.32.50.50.0_di5_qa_qb_dc1.1.1.1.1_eh1.32_ea6.32.32.56.0.0_ec_ed0.23.0.1.32.56_ef_eg_r045.32.32.56.1.0.51.51.45.617.548.0_fa2.50.60.60.50.77.56_fb7_fh_fc3.34.55.3.34.55.50.61.61.50.50.50_fd2.0.27.32.56_fe50.64_ff0000000000_fg2.55_pa0.0.0.0.40.50.85.85.0.0_t0_pb_pc_pd_pe_ga0_gb0_gc27.0_ge0000000000_gh_gf_gg_gd10100000_ha85.85_hb49.1.50.37_hc0.52.30.0.52.30_hd41.1.49.49_ia_if_ib_id_ic_jc_ie_ja_jb_jd_je_jf_jg_ka10.19.0.0.0_kb10.19.0.0_kc_kd_ke_kf_la_lb_oa_os_ob_oc_od_oe_of_lc_m0_n0_s42.6.6.19.0.61.100.682.889.2.7.1.7.2.61_og_oh_oo_op_oq_or_om_on_ok_ol_oi_oj_ad0.0.0.0.0.0.0.0.0.0

1-sad=40**aa14.92.0.42.36.14.92.0.42.36_ab_ac_ba50_bb17.0_bc500.500.8.0.1_bd17_be180_ca64.0.38.64.30.15.23.35.7_cb0_da1.0.0.100_db0.2_dd9.3.20.50.45_dh1.32.50.50.0_di5_qa_qb_dc1.1.1.1.1_eh1.32_ea6.32.32.56.0.0_ec_ed0.23.0.1.32.56_ef_eg_r045.32.32.56.1.0.51.51.45.617.548.0_fa2.50.60.60.50.77.56_fb7_fh_fc3.34.55.3.34.55.50.61.61.50.50.50_fd2.0.27.32.56_fe50.64_ff0000000000_fg2.55_pa0.0.0.0.40.50.85.85.0.0_t0_pb_pc_pd_pe_ga0_gb0_gc0.0_ge0000000000_gh_gf_gg_gd10100000_ha58.58_hb49.1.30.55_hc0.52.0.0.52.0_hd5.1.49.49_ia_if_ib_id_ic_jc_ie_ja_jb_jd_je_jf_jg_ka10.19.59.59.0_kb10.19.59.59_kc_kd_ke_kf_la_lb_oa_os_ob_oc_od_oe_of_lc_m0_n0_s42.6.6.19.0.61.100.682.889.2.7.1.7.2.61_og_oh_oo_op_oq_or_om_on_ok_ol_oi_oj_ad0.0.0.0.0.0.0.0.0.0

1-embarrassed=40**aa67.40.1.26.36.67.40.1.26.36_ab_ac_ba50_bb17.0_bc587.500.8.0.1_bd17_be180_ca64.0.38.64.30.15.23.35.7_cb0_da1.0.0.100_db0.2_dd0.3.20.50.45_dh1.32.50.50.0_di5_qa_qb_dc1.1.1.1.1_eh1.32_ea6.32.32.56.0.0_ec_ed0.23.0.1.32.56_ef_eg_r045.32.32.56.1.0.51.51.45.617.548.0_fa2.50.60.60.50.40.56_fb7_fh_fc3.34.55.3.34.55.50.61.61.50.50.50_fd2.0.27.32.56_fe50.64_ff0000000000_fg2.55_pa0.0.0.0.40.50.85.85.0.0_t0_pb_pc_pd_pe_ga0_gb0_gc27.0_ge0000000000_gh_gf_gg_gd10100000_ha90.90_hb49.1.50.90_hc0.0.30.0.0.30_hd40.1.49.49_ia_if_ib_id_ic_jc_ie_ja_jb_jd_je_jf_jg_ka10.19.18.18.0_kb10.19.18.18_kc_kd_ke_kf_la_lb_oa_os_ob_oc_od_oe_of_lc_m0_n0_s42.6.6.19.0.61.100.682.889.2.7.1.7.2.61_og_oh_oo_op_oq_or_om_on_ok_ol_oi_oj_ad0.0.0.0.0.0.0.0.0.0

1-interested=40**aa14.73.0.42.36.14.73.0.42.36_ab_ac_ba50_bb17.0_bc675.500.8.0.1_bd17_be180_ca64.0.38.64.30.15.23.35.7_cb0_da1.0.0.100_db0.2_dd9.3.20.50.45_dh1.32.50.50.0_di5_qa_qb_dc1.1.1.1.1_eh1.32_ea6.32.32.56.0.0_ec_ed0.23.0.1.32.56_ef_eg_r045.32.32.56.1.0.51.51.45.617.548.0_fa2.50.60.60.50.77.56_fb7_fh_fc3.34.55.3.34.55.50.61.61.50.50.50_fd2.0.27.32.56_fe50.64_ff0000000000_fg2.55_pa0.0.0.0.40.50.85.85.0.0_t0_pb_pc_pd_pe_ga0_gb0_gc14.0_ge0000000000_gh_gf_gg_gd10100000_ha61.61_hb49.1.50.70_hc0.52.30.0.52.30_hd34.1.49.49_ia_if_ib_id_ic_jc_ie_ja_jb_jd_je_jf_jg_ka10.19.2.2.0_kb10.19.2.2_kc_kd_ke_kf_la_lb_oa_os_ob_oc_od_oe_of_lc_m0_n0_s42.6.6.19.0.61.100.682.889.2.7.1.7.2.61_og_oh_oo_op_oq_or_om_on_ok_ol_oi_oj_ad0.0.0.0.0.0.0.0.0.0

1-calm=40**aa35.76.0.42.36.35.76.0.42.36_ab_ac_ba50_bb17.0_bc762.500.8.0.1_bd17_be180_ca64.0.38.64.30.15.23.35.7_cb0_da1.0.0.100_db0.2_dd9.3.20.50.45_dh1.32.50.50.0_di5_qa_qb_dc1.1.1.1.1_eh1.32_ea6.32.32.56.0.0_ec_ed0.23.0.1.32.56_ef_eg_r045.32.32.56.1.0.51.51.45.617.548.0_fa2.50.60.60.50.77.56_fb7_fh_fc3.34.55.3.34.55.50.61.61.50.50.50_fd2.0.27.32.56_fe50.64_ff0000000000_fg2.55_pa0.0.0.0.40.50.85.85.0.0_t0_pb_pc_pd_pe_ga0_gb0_gc0.0_ge0000000000_gh_gf_gg_gd10100000_ha69.69_hb49.1.50.55_hc0.52.30.0.52.30_hd0.1.49.49_ia_if_ib_id_ic_jc_ie_ja_jb_jd_je_jf_jg_ka10.19.33.33.0_kb10.19.33.33_kc_kd_ke_kf_la_lb_oa_os_ob_oc_od_oe_of_lc_m0_n0_s42.6.6.19.0.61.100.682.889.2.7.1.7.2.61_og_oh_oo_op_oq_or_om_on_ok_ol_oi_oj_ad0.0.0.0.0.0.0.0.0.0

1-horny=40**aa18.43.0.42.56.18.43.0.42.56_ab_ac_ba50_bb17.0_bc850.500.8.0.1_bd17_be180_ca64.0.38.64.30.15.23.35.7_cb0_da1.0.0.100_db0.2_dd0.3.20.50.45_dh1.32.50.50.0_di5_qa_qb_dc1.1.1.1.1_eh1.32_ea6.32.32.56.0.0_ec_ed0.23.0.1.32.56_ef_eg_r045.32.32.56.1.0.51.51.45.617.548.0_fa2.50.60.60.50.36.56_fb7_fh_fc3.34.55.3.34.55.50.61.61.50.50.50_fd2.0.27.32.56_fe50.64_ff0000000000_fg2.55_pa0.0.0.0.40.50.85.85.0.0_t0_pb_pc_pd_pe_ga0_gb0_gc27.0_ge0000000000_gh_gf_gg_gd10100000_ha75.75_hb49.1.50.80_hc0.18.30.0.18.30_hd25.1.49.49_ia_if_ib_id_ic_jc_ie_ja_jb_jd_je_jf_jg_ka10.19.0.0.0_kb10.19.0.0_kc_kd_ke_kf_la_lb_oa_os_ob_oc_od_oe_of_lc_m0_n0_s42.6.6.19.0.61.100.682.889.2.7.1.7.2.61_og_oh_oo_op_oq_or_om_on_ok_ol_oi_oj_ad0.0.0.0.0.0.0.0.0.0

1-happy=40**aa85.0.0.43.53.85.0.0.43.53_ab_ac_ba50_bb2.0_bc150.500.8.0.1_bd27_be180_ca64.0.38.64.30.15.23.35.7_cb0_da1.0.0.100_db0.2_dd9.3.20.50.45_dh1.32.50.50.0_di5_qa_qb_dc1.1.1.1.1_eh1.32_ea6.32.32.56.0.0_ec_ed0.23.0.1.32.56_ef_eg_r045.32.32.56.1.0.51.51.45.617.548.0_fa2.50.60.60.50.77.56_fb7_fh_fc3.34.55.3.34.55.50.61.61.50.50.50_fd2.0.27.32.56_fe50.64_ff0000000000_fg2.55_pa0.0.0.0.40.50.85.85.0.0_t0_pb_pc_pd_pe_ga0_gb0_gc0.0_ge0000000000_gh_gf_gg_gd10100000_ha88.88_hb49.1.50.55_hc0.52.30.0.52.30_hd24.1.49.49_ia_if_ib_id_ic_jc_ie_ja_jb_jd_je_jf_jg_ka10.19.42.42.0_kb10.19.42.42_kc_kd_ke_kf_la_lb_oa_os_ob_oc_od_oe_of_lc_m0_n0_s42.6.6.19.0.61.100.682.889.2.7.1.7.2.61_og_oh_oo_op_oq_or_om_on_ok_ol_oi_oj_ad0.0.0.0.0.0.0.0.0.0

2-loss=40**aa5.98.0.42.36.5.98.0.42.36_ab_ac_ba50_bb17.0_bc150.500.8.0.1_bd17_be180_ca64.0.38.64.30.15.23.35.7_cb0_da1.0.0.100_db0.2_dd9.3.20.50.45_dh1.32.50.50.0_di5_qa_qb_dc1.1.1.1.1_eh1.32_ea6.32.32.56.0.0_ec19.46.32.32.56.41.63.0_ed0.23.0.1.32.56_ef_eg_r0_fa2.50.60.60.50.77.56_fb7_fh_fc3.34.55.3.34.55.50.61.61.50.50.50_fd2.0.27.32.56_fe50.64_ff0000000000_fg2.55_pa0.0.0.0.40.50.85.85.0.0_t0_pb_pc_pd_pe_ga0_gb0_gc0.0_ge0000000000_gh_gf_gg_gd10100000_ha67.67_hb49.1.40.55_hc0.52.0.0.52.0_hd38.1.49.49_ia_if_ib_id_ic_jc_ie_ja_jb_jd_je_jf_jg_ka10.19.42.42.0_kb10.19.42.42_kc_kd_ke_kf_la_lb_oa_os_ob_oc_od_oe_of_lc_m0_n0_s0_og_oh_oo_op_oq_or_om_on_ok_ol_oi_oj_ad0.0.0.0.0.0.0.0.0.0

2-awkward=40**aa10.91.1.42.36.10.91.1.42.36_ab_ac_ba50_bb17.0_bc237.500.8.0.1_bd17_be180_ca64.0.38.64.30.15.23.35.7_cb0_da1.0.0.100_db0.2_dd9.3.20.50.45_dh1.32.50.50.0_di5_qa_qb_dc1.1.1.1.1_eh1.32_ea6.32.32.56.0.0_ec19.46.32.32.56.41.63.0_ed0.23.0.1.32.56_ef_eg_r0_fa2.50.60.60.50.87.56_fb7_fh_fc3.34.55.3.34.55.50.61.61.50.50.50_fd2.0.27.32.56_fe50.64_ff0000000000_fg2.55_pa0.0.0.0.40.50.85.85.0.0_t0_pb_pc_pd_pe_ga0_gb0_gc14.0_ge0000000000_gh_gf_gg_gd10100000_ha60.60_hb0.1.20.36_hc0.66.13.0.66.13_hd39.1.49.49_ia_if_ib_id_ic_jc_ie_ja_jb_jd_je_jf_jg_ka10.19.59.0.0_kb10.19.59.0_kc_kd_ke_kf_la_lb_oa_os_ob_oc_od_oe_of_lc_m0_n0_s0_og_oh_oo_op_oq_or_om_on_ok_ol_oi_oj_ad0.0.0.0.0.0.0.0.0.0

2-angry=40**aa15.44.1.42.49.8.96.1.42.39_ab_ac_ba50_bb17.0_bc325.500.8.0.1_bd17_be180_ca64.0.38.64.30.15.23.35.7_cb0_da1.0.0.100_db0.2_dd9.3.20.50.45_dh1.32.50.50.0_di5_qa_qb_dc1.1.1.1.1_eh1.32_ea6.32.32.56.0.0_ec19.46.32.32.56.41.63.0_ed0.23.0.1.32.56_ef_eg_r0_fa2.50.60.60.50.27.56_fb7_fh_fc3.34.55.3.34.55.50.61.61.50.50.50_fd2.0.27.32.56_fe50.64_ff0000000000_fg2.55_pa0.0.0.0.40.50.85.85.0.0_t0_pb_pc_pd_pe_ga0_gb0_gc14.0_ge0000000000_gh_gf_gg_gd10100000_ha63.63_hb49.1.50.66_hc0.0.7.0.0.7_hd48.1.49.49_ia_if_ib_id_ic_jc_ie_ja_jb_jd_je_jf_jg_ka10.19.1.1.0_kb10.19.1.1_kc_kd_ke_kf_la_lb_oa_os_ob_oc_od_oe_of_lc_m0_n0_s0_og_oh_oo_op_oq_or_om_on_ok_ol_oi_oj_ad0.0.0.0.0.0.0.0.0.0

2-shocked=40**aa10.0.1.47.52.10.0.1.47.52_ab_ac_ba50_bb17.0_bc412.500.8.0.1_bd17_be180_ca64.0.38.64.30.15.23.35.7_cb0_da1.0.0.100_db0.2_dd0.3.20.50.45_dh1.32.50.50.0_di5_qa_qb_dc1.1.1.1.1_eh1.32_ea6.32.32.56.0.0_ec19.46.32.32.56.41.63.0_ed0.23.0.1.32.56_ef_eg_r0_fa2.50.60.60.50.77.56_fb7_fh_fc3.34.55.3.34.55.50.61.61.50.50.50_fd2.0.27.32.56_fe50.64_ff0000000000_fg2.55_pa0.0.0.0.40.50.85.85.0.0_t0_pb_pc_pd_pe_ga0_gb0_gc27.0_ge0000000000_gh_gf_gg_gd10100000_ha85.85_hb49.1.50.37_hc0.52.30.0.52.30_hd41.1.49.49_ia_if_ib_id_ic_jc_ie_ja_jb_jd_je_jf_jg_ka10.19.0.0.0_kb10.19.0.0_kc_kd_ke_kf_la_lb_oa_os_ob_oc_od_oe_of_lc_m0_n0_s0_og_oh_oo_op_oq_or_om_on_ok_ol_oi_oj_ad0.0.0.0.0.0.0.0.0.0

2-sad=40**aa14.92.0.42.36.14.92.0.42.36_ab_ac_ba50_bb17.0_bc500.500.8.0.1_bd17_be180_ca64.0.38.64.30.15.23.35.7_cb0_da1.0.0.100_db0.2_dd9.3.20.50.45_dh1.32.50.50.0_di5_qa_qb_dc1.1.1.1.1_eh1.32_ea6.32.32.56.0.0_ec19.46.32.32.56.41.63.0_ed0.23.0.1.32.56_ef_eg_r0_fa2.50.60.60.50.77.56_fb7_fh_fc3.34.55.3.34.55.50.61.61.50.50.50_fd2.0.27.32.56_fe50.64_ff0000000000_fg2.55_pa0.0.0.0.40.50.85.85.0.0_t0_pb_pc_pd_pe_ga0_gb0_gc0.0_ge0000000000_gh_gf_gg_gd10100000_ha58.58_hb49.1.30.55_hc0.52.0.0.52.0_hd5.1.49.49_ia_if_ib_id_ic_jc_ie_ja_jb_jd_je_jf_jg_ka10.19.59.59.0_kb10.19.59.59_kc_kd_ke_kf_la_lb_oa_os_ob_oc_od_oe_of_lc_m0_n0_s0_og_oh_oo_op_oq_or_om_on_ok_ol_oi_oj_ad0.0.0.0.0.0.0.0.0.0

2-embarrassed=40**aa67.40.1.26.36.67.40.1.26.36_ab_ac_ba50_bb17.0_bc587.500.8.0.1_bd17_be180_ca64.0.38.64.30.15.23.35.7_cb0_da1.0.0.100_db0.2_dd0.3.20.50.45_dh1.32.50.50.0_di5_qa_qb_dc1.1.1.1.1_eh1.32_ea6.32.32.56.0.0_ec19.46.32.32.56.41.63.0_ed0.23.0.1.32.56_ef_eg_r0_fa2.50.60.60.50.40.56_fb7_fh_fc3.34.55.3.34.55.50.61.61.50.50.50_fd2.0.27.32.56_fe50.64_ff0000000000_fg2.55_pa0.0.0.0.40.50.85.85.0.0_t0_pb_pc_pd_pe_ga0_gb0_gc27.0_ge0000000000_gh_gf_gg_gd10100000_ha90.90_hb49.1.50.90_hc0.0.30.0.0.30_hd40.1.49.49_ia_if_ib_id_ic_jc_ie_ja_jb_jd_je_jf_jg_ka10.19.18.18.0_kb10.19.18.18_kc_kd_ke_kf_la_lb_oa_os_ob_oc_od_oe_of_lc_m0_n0_s0_og_oh_oo_op_oq_or_om_on_ok_ol_oi_oj_ad0.0.0.0.0.0.0.0.0.0

2-interested=40**aa14.73.0.42.36.14.73.0.42.36_ab_ac_ba50_bb17.0_bc675.500.8.0.1_bd17_be180_ca64.0.38.64.30.15.23.35.7_cb0_da1.0.0.100_db0.2_dd9.3.20.50.45_dh1.32.50.50.0_di5_qa_qb_dc1.1.1.1.1_eh1.32_ea6.32.32.56.0.0_ec19.46.32.32.56.41.63.0_ed0.23.0.1.32.56_ef_eg_r0_fa2.50.60.60.50.77.56_fb7_fh_fc3.34.55.3.34.55.50.61.61.50.50.50_fd2.0.27.32.56_fe50.64_ff0000000000_fg2.55_pa0.0.0.0.40.50.85.85.0.0_t0_pb_pc_pd_pe_ga0_gb0_gc14.0_ge0000000000_gh_gf_gg_gd10100000_ha61.61_hb49.1.50.70_hc0.52.30.0.52.30_hd34.1.49.49_ia_if_ib_id_ic_jc_ie_ja_jb_jd_je_jf_jg_ka10.19.2.2.0_kb10.19.2.2_kc_kd_ke_kf_la_lb_oa_os_ob_oc_od_oe_of_lc_m0_n0_s0_og_oh_oo_op_oq_or_om_on_ok_ol_oi_oj_ad0.0.0.0.0.0.0.0.0.0

2-calm=40**aa35.76.0.42.36.35.76.0.42.36_ab_ac_ba50_bb17.0_bc762.500.8.0.1_bd17_be180_ca64.0.38.64.30.15.23.35.7_cb0_da1.0.0.100_db0.2_dd9.3.20.50.45_dh1.32.50.50.0_di5_qa_qb_dc1.1.1.1.1_eh1.32_ea6.32.32.56.0.0_ec19.46.32.32.56.41.63.0_ed0.23.0.1.32.56_ef_eg_r0_fa2.50.60.60.50.77.56_fb7_fh_fc3.34.55.3.34.55.50.61.61.50.50.50_fd2.0.27.32.56_fe50.64_ff0000000000_fg2.55_pa0.0.0.0.40.50.85.85.0.0_t0_pb_pc_pd_pe_ga0_gb0_gc0.0_ge0000000000_gh_gf_gg_gd10100000_ha69.69_hb49.1.50.55_hc0.52.30.0.52.30_hd0.1.49.49_ia_if_ib_id_ic_jc_ie_ja_jb_jd_je_jf_jg_ka10.19.33.33.0_kb10.19.33.33_kc_kd_ke_kf_la_lb_oa_os_ob_oc_od_oe_of_lc_m0_n0_s0_og_oh_oo_op_oq_or_om_on_ok_ol_oi_oj_ad0.0.0.0.0.0.0.0.0.0

2-horny=40**aa18.43.0.42.56.18.43.0.42.56_ab_ac_ba50_bb17.0_bc850.500.8.0.1_bd17_be180_ca64.0.38.64.30.15.23.35.7_cb0_da1.0.0.100_db0.2_dd0.3.20.50.45_dh1.32.50.50.0_di5_qa_qb_dc1.1.1.1.1_eh1.32_ea6.32.32.56.0.0_ec19.46.32.32.56.41.63.0_ed0.23.0.1.32.56_ef_eg_r0_fa2.50.60.60.50.36.56_fb7_fh_fc3.34.55.3.34.55.50.61.61.50.50.50_fd2.0.27.32.56_fe50.64_ff0000000000_fg2.55_pa0.0.0.0.40.50.85.85.0.0_t0_pb_pc_pd_pe_ga0_gb0_gc27.0_ge0000000000_gh_gf_gg_gd10100000_ha75.75_hb49.1.50.80_hc0.18.30.0.18.30_hd25.1.49.49_ia_if_ib_id_ic_jc_ie_ja_jb_jd_je_jf_jg_ka10.19.0.0.0_kb10.19.0.0_kc_kd_ke_kf_la_lb_oa_os_ob_oc_od_oe_of_lc_m0_n0_s0_og_oh_oo_op_oq_or_om_on_ok_ol_oi_oj_ad0.0.0.0.0.0.0.0.0.0

2-happy=40**aa85.0.0.43.53.85.0.0.43.53_ab_ac_ba50_bb2.0_bc150.500.8.0.1_bd27_be180_ca64.0.38.64.30.15.23.35.7_cb0_da1.0.0.100_db0.2_dd9.3.20.50.45_dh1.32.50.50.0_di5_qa_qb_dc1.1.1.1.1_eh1.32_ea6.32.32.56.0.0_ec19.46.32.32.56.41.63.0_ed0.23.0.1.32.56_ef_eg_r0_fa2.50.60.60.50.77.56_fb7_fh_fc3.34.55.3.34.55.50.61.61.50.50.50_fd2.0.27.32.56_fe50.64_ff0000000000_fg2.55_pa0.0.0.0.40.50.85.85.0.0_t0_pb_pc_pd_pe_ga0_gb0_gc0.0_ge0000000000_gh_gf_gg_gd10100000_ha88.88_hb49.1.50.55_hc0.52.30.0.52.30_hd24.1.49.49_ia_if_ib_id_ic_jc_ie_ja_jb_jd_je_jf_jg_ka10.19.42.42.0_kb10.19.42.42_kc_kd_ke_kf_la_lb_oa_os_ob_oc_od_oe_of_lc_m0_n0_s0_og_oh_oo_op_oq_or_om_on_ok_ol_oi_oj_ad0.0.0.0.0.0.0.0.0.0

6-loss=40**aa5.98.0.42.36.5.98.0.42.36_ab_ac_ba50_bb17.0_bc150.500.8.0.1_bd17_be180_ca64.0.38.64.30.15.23.35.7_cb0_da1.0.0.100_db0.2_dd1.3.20.50.45_dh1.32.50.50.0_di5_qa_qb_dc180.1.1.1.1_eh1.32_ea6.32.32.56.0.0_ec19.46.32.32.56.41.63.0_ed0.23.0.1.32.56_ef_eg_r0_fa2.50.60.60.50.77.56_fb7_fh_fc3.34.55.3.34.55.50.61.61.50.50.50_fd2.0.27.32.56_fe50.64_ff0000000000_fg2.55_pa0.0.0.0.40.50.85.85.0.0_t0_pb_pc_pd_pe_ga0_gb0_gc50.0_ge0000000000_gh_gf_gg_gd10100000_ha67.67_hb49.1.40.55_hc0.52.0.0.52.0_hd38.1.49.49_ia_if_ib_id_ic_jc_ie_ja_jb_jd_je_jf_jg_ka_kb_kc_kd_ke_kf_la_lb_oa_os_ob_oc_od_oe_of_lc_m0_n0_s0_og_oh_oo_op_oq_or_om_on_ok_ol_oi_oj_ad0.0.0.0.0.0.0.0.0.0

6-awkward=40**aa10.91.1.42.36.10.91.1.42.36_ab_ac_ba50_bb17.0_bc237.500.8.0.1_bd17_be180_ca64.0.38.64.30.15.23.35.7_cb0_da1.0.0.100_db0.2_dd10.3.20.50.45_dh1.32.50.50.0_di5_qa_qb_dc180.1.1.1.1_eh1.32_ea6.32.32.56.0.0_ec19.46.32.32.56.41.63.0_ed0.23.0.1.32.56_ef_eg_r0_fa2.50.60.60.50.87.56_fb7_fh_fc3.34.55.3.34.55.50.61.61.50.50.50_fd2.0.27.32.56_fe50.64_ff0000000000_fg2.55_pa0.0.0.0.40.50.85.85.0.0_t0_pb_pc_pd_pe_ga0_gb0_gc60.0_ge0000000000_gh_gf_gg_gd10100000_ha60.60_hb0.1.20.36_hc0.66.13.0.66.13_hd39.1.49.49_ia_if_ib_id_ic_jc_ie_ja_jb_jd_je_jf_jg_ka_kb_kc_kd_ke_kf_la_lb_oa_os_ob_oc_od_oe_of_lc_m0_n0_s0_og_oh_oo_op_oq_or_om_on_ok_ol_oi_oj_ad0.0.0.0.0.0.0.0.0.0

6-angry=40**aa15.44.1.42.49.8.96.1.42.39_ab_ac_ba50_bb17.0_bc325.500.8.0.1_bd17_be180_ca64.0.38.64.30.15.23.35.7_cb0_da1.0.0.100_db0.2_dd10.3.20.50.45_dh1.32.50.50.0_di5_qa_qb_dc180.1.1.1.1_eh1.32_ea6.32.32.56.0.0_ec19.46.32.32.56.41.63.0_ed0.23.0.1.32.56_ef_eg_r0_fa2.50.60.60.50.27.56_fb7_fh_fc3.34.55.3.34.55.50.61.61.50.50.50_fd2.0.27.32.56_fe50.64_ff0000000000_fg2.55_pa0.0.0.0.40.50.85.85.0.0_t0_pb_pc_pd_pe_ga0_gb0_gc60.0_ge0000000000_gh_gf_gg_gd10100000_ha63.63_hb49.1.50.66_hc0.0.7.0.0.7_hd48.1.49.49_ia_if_ib_id_ic_jc_ie_ja_jb_jd_je_jf_jg_ka_kb_kc_kd_ke_kf_la_lb_oa_os_ob_oc_od_oe_of_lc_m0_n0_s0_og_oh_oo_op_oq_or_om_on_ok_ol_oi_oj_ad0.0.0.0.0.0.0.0.0.0

6-shocked=40**aa10.0.1.47.52.10.0.1.47.52_ab_ac_ba50_bb17.0_bc412.500.8.0.1_bd17_be180_ca64.0.38.64.30.15.23.35.7_cb0_da1.0.0.100_db0.2_dd12.3.20.50.45_dh1.32.50.50.0_di5_qa_qb_dc180.1.1.1.1_eh1.32_ea6.32.32.56.0.0_ec19.46.32.32.56.41.63.0_ed0.23.0.1.32.56_ef_eg_r0_fa2.50.60.60.50.77.56_fb7_fh_fc3.34.55.3.34.55.50.61.61.50.50.50_fd2.0.27.32.56_fe50.64_ff0000000000_fg2.55_pa0.0.0.0.40.50.85.85.0.0_t0_pb_pc_pd_pe_ga0_gb0_gc70.0_ge0000000000_gh_gf_gg_gd10100000_ha85.85_hb49.1.50.37_hc0.52.30.0.52.30_hd41.1.49.49_ia_if_ib_id_ic_jc_ie_ja_jb_jd_je_jf_jg_ka_kb_kc_kd_ke_kf_la_lb_oa_os_ob_oc_od_oe_of_lc_m0_n0_s0_og_oh_oo_op_oq_or_om_on_ok_ol_oi_oj_ad0.0.0.0.0.0.0.0.0.0

6-sad=40**aa14.92.0.42.36.14.92.0.42.36_ab_ac_ba50_bb17.0_bc500.500.8.0.1_bd17_be180_ca64.0.38.64.30.15.23.35.7_cb0_da1.0.0.100_db0.2_dd1.3.20.50.45_dh1.32.50.50.0_di5_qa_qb_dc180.1.1.1.1_eh1.32_ea6.32.32.56.0.0_ec19.46.32.32.56.41.63.0_ed0.23.0.1.32.56_ef_eg_r0_fa2.50.60.60.50.77.56_fb7_fh_fc3.34.55.3.34.55.50.61.61.50.50.50_fd2.0.27.32.56_fe50.64_ff0000000000_fg2.55_pa0.0.0.0.40.50.85.85.0.0_t0_pb_pc_pd_pe_ga0_gb0_gc50.0_ge0000000000_gh_gf_gg_gd10100000_ha58.58_hb49.1.30.55_hc0.52.0.0.52.0_hd5.1.49.49_ia_if_ib_id_ic_jc_ie_ja_jb_jd_je_jf_jg_ka_kb_kc_kd_ke_kf_la_lb_oa_os_ob_oc_od_oe_of_lc_m0_n0_s0_og_oh_oo_op_oq_or_om_on_ok_ol_oi_oj_ad0.0.0.0.0.0.0.0.0.0

6-embarrassed=40**aa67.40.1.26.36.67.40.1.26.36_ab_ac_ba50_bb17.0_bc587.500.8.0.1_bd17_be180_ca64.0.38.64.30.15.23.35.7_cb0_da1.0.0.100_db0.2_dd12.3.20.50.45_dh1.32.50.50.0_di5_qa_qb_dc180.1.1.1.1_eh1.32_ea6.32.32.56.0.0_ec19.46.32.32.56.41.63.0_ed0.23.0.1.32.56_ef_eg_r0_fa2.50.60.60.50.40.56_fb7_fh_fc3.34.55.3.34.55.50.61.61.50.50.50_fd2.0.27.32.56_fe50.64_ff0000000000_fg2.55_pa0.0.0.0.40.50.85.85.0.0_t0_pb_pc_pd_pe_ga0_gb0_gc70.0_ge0000000000_gh_gf_gg_gd10100000_ha90.90_hb49.1.50.90_hc0.0.30.0.0.30_hd40.1.49.49_ia_if_ib_id_ic_jc_ie_ja_jb_jd_je_jf_jg_ka_kb_kc_kd_ke_kf_la_lb_oa_os_ob_oc_od_oe_of_lc_m0_n0_s0_og_oh_oo_op_oq_or_om_on_ok_ol_oi_oj_ad0.0.0.0.0.0.0.0.0.0

6-interested=40**aa14.73.0.42.36.14.73.0.42.36_ab_ac_ba50_bb17.0_bc675.500.8.0.1_bd17_be180_ca64.0.38.64.30.15.23.35.7_cb0_da1.0.0.100_db0.2_dd10.3.20.50.45_dh1.32.50.50.0_di5_qa_qb_dc180.1.1.1.1_eh1.32_ea6.32.32.56.0.0_ec19.46.32.32.56.41.63.0_ed0.23.0.1.32.56_ef_eg_r0_fa2.50.60.60.50.77.56_fb7_fh_fc3.34.55.3.34.55.50.61.61.50.50.50_fd2.0.27.32.56_fe50.64_ff0000000000_fg2.55_pa0.0.0.0.40.50.85.85.0.0_t0_pb_pc_pd_pe_ga0_gb0_gc60.0_ge0000000000_gh_gf_gg_gd10100000_ha61.61_hb49.1.50.70_hc0.52.30.0.52.30_hd34.1.49.49_ia_if_ib_id_ic_jc_ie_ja_jb_jd_je_jf_jg_ka_kb_kc_kd_ke_kf_la_lb_oa_os_ob_oc_od_oe_of_lc_m0_n0_s0_og_oh_oo_op_oq_or_om_on_ok_ol_oi_oj_ad0.0.0.0.0.0.0.0.0.0

6-calm=40**aa35.76.0.42.36.35.76.0.42.36_ab_ac_ba50_bb17.0_bc762.500.8.0.1_bd17_be180_ca64.0.38.64.30.15.23.35.7_cb0_da1.0.0.100_db0.2_dd1.3.20.50.45_dh1.32.50.50.0_di5_qa_qb_dc180.1.1.1.1_eh1.32_ea6.32.32.56.0.0_ec19.46.32.32.56.41.63.0_ed0.23.0.1.32.56_ef_eg_r0_fa2.50.60.60.50.77.56_fb7_fh_fc3.34.55.3.34.55.50.61.61.50.50.50_fd2.0.27.32.56_fe50.64_ff0000000000_fg2.55_pa0.0.0.0.40.50.85.85.0.0_t0_pb_pc_pd_pe_ga0_gb0_gc50.0_ge0000000000_gh_gf_gg_gd10100000_ha69.69_hb49.1.50.55_hc0.52.30.0.52.30_hd0.1.49.49_ia_if_ib_id_ic_jc_ie_ja_jb_jd_je_jf_jg_ka_kb_kc_kd_ke_kf_la_lb_oa_os_ob_oc_od_oe_of_lc_m0_n0_s0_og_oh_oo_op_oq_or_om_on_ok_ol_oi_oj_ad0.0.0.0.0.0.0.0.0.0

6-horny=40**aa18.43.0.42.56.18.43.0.42.56_ab_ac_ba50_bb17.0_bc850.500.8.0.1_bd17_be180_ca64.0.38.64.30.15.23.35.7_cb0_da1.0.0.100_db0.2_dd12.3.20.50.45_dh1.32.50.50.0_di5_qa_qb_dc180.1.1.1.1_eh1.32_ea6.32.32.56.0.0_ec19.46.32.32.56.41.63.0_ed0.23.0.1.32.56_ef_eg_r0_fa2.50.60.60.50.36.56_fb7_fh_fc3.34.55.3.34.55.50.61.61.50.50.50_fd2.0.27.32.56_fe50.64_ff0000000000_fg2.55_pa0.0.0.0.40.50.85.85.0.0_t0_pb_pc_pd_pe_ga0_gb0_gc70.0_ge0000000000_gh_gf_gg_gd10100000_ha75.75_hb49.1.50.80_hc0.18.30.0.18.30_hd25.1.49.49_ia_if_ib_id_ic_jc_ie_ja_jb_jd_je_jf_jg_ka_kb_kc_kd_ke_kf_la_lb_oa_os_ob_oc_od_oe_of_lc_m0_n0_s0_og_oh_oo_op_oq_or_om_on_ok_ol_oi_oj_ad0.0.0.0.0.0.0.0.0.0

6-happy=40**aa85.0.0.43.53.85.0.0.43.53_ab_ac_ba50_bb2.0_bc850.500.8.0.1_bd27_be180_ca64.0.38.64.30.15.23.35.7_cb0_da1.0.0.100_db0.2_dd1.3.20.50.45_dh1.32.50.50.0_di5_qa_qb_dc180.1.1.1.1_eh1.32_ea6.32.32.56.0.0_ec19.46.32.32.56.41.63.0_ed0.23.0.1.32.56_ef_eg_r0_fa2.50.60.60.50.77.56_fb7_fh_fc3.34.55.3.34.55.50.61.61.50.50.50_fd2.0.27.32.56_fe50.64_ff0000000000_fg2.55_pa0.0.0.0.40.50.85.85.0.0_t0_pb_pc_pd_pe_ga0_gb0_gc50.0_ge0000000000_gh_gf_gg_gd10100000_ha88.88_hb49.1.50.55_hc0.52.30.0.52.30_hd24.1.49.49_ia_if_ib_id_ic_jc_ie_ja_jb_jd_je_jf_jg_ka_kb_kc_kd_ke_kf_la_lb_oa_os_ob_oc_od_oe_of_lc_m0_n0_s0_og_oh_oo_op_oq_or_om_on_ok_ol_oi_oj_ad0.0.0.0.0.0.0.0.0.0

