#character selection screen
0-pose=47**aa55.37.1.10.50.30.78.1.0.88_ab36.24.26.0_ac_ba35_bb13.1_bc185.500.0.0.1_bd3_be180_ca59.0.40.59.24.34.34.0.10_cb0_daEAC2AC.0.0.100_db_dd0.3.34.50.45.50_dhF7B194.30.50.50.0_di8_qa_qb_dc0.1.F7B194.5.F7B194_eh_ea33.13759C.61BCD1.13759C.1.0_ec0.84.13759C.61BCD1.13759C.48.68.0_ed15.70.1.1.13759C.61BCD1_ef_eg_r0057.13759C.7AC6D8.61BCD1.0.0.67.100.360.613.581.1_fa21.50.50.60.50.65.56_fb9_fh1_fc1.6FBEC9.55.1.6FBEC9.55.50.61.61.50.50.50_fd1.0.21.13759C.56_fe58.61_ff0000000000_fg2.50_pa0.0.0.0.40.50.85.85.0.0_t00_pb_pc_pd_pe_ga0_gb1_gc6.0_ge0000000000_gh_gf_gg_gd10000000_ha89.89_hb49.1.44.99_hc0.59.39.0.59.39_hd0.1.49.49_ia_if_ib_id_ic_jc_ie_ja_jb_jd2.60.60.60_je2.60.60.60_jf_jg_ka34.2F3A8A.2F3A8A.2F3A8A.0_kb24.2F3A8A.2F3A8A.2F3A8A_kc_kd_ke_kf_la_lb_oa_os_ob_oc_od_oe_of_lc_m00_n00_s00_og_oh_oo_op_oq_or_om_on_ok_ol_oi_oj_ad0.0.0.0.0.0.0.0.0.0

#fully clothed
0-happy=47**aa34.76.1.28.10.34.76.1.28.10_ab_ac_ba50_bb17.1_bc185.500.0.0.1_bd6_be180_ca59.0.40.59.24.34.34.0.10_cb0_daEAC2AC.0.0.100_db_dd0.3.34.50.45.50_dhF7B194.30.50.50.0_di8_qa_qb_dc0.1.F7B194.5.F7B194_eh_ea33.13759C.61BCD1.13759C.1.0_ec0.84.13759C.61BCD1.13759C.48.68.0_ed15.70.1.1.13759C.61BCD1_ef_eg_r0057.13759C.7AC6D8.61BCD1.0.0.67.100.360.613.581.1_fa21.50.50.60.50.44.56_fb9_fh1_fc1.6FBEC9.55.1.6FBEC9.55.50.61.61.50.50.50_fd0.0.12.13759C.56_fe58.61_ff0000000000_fg2.50_pa0.0.0.0.40.50.85.85.0.0_t00_pb_pc_pd_pe_ga0_gb1_gc6.0_ge0000000000_gh_gf_gg_gd10000000_ha89.89_hb49.1.44.99_hc2.59.39.2.59.39_hd34.1.90.49_ia_if_ib_id_ic_jc_ie_ja_jb_jd2.60.60.60_je2.60.60.60_jf_jg_ka34.2F3A8A.2F3A8A.2F3A8A.0_kb24.2F3A8A.2F3A8A.2F3A8A_kc_kd_ke_kf_la_lb_oa_os_ob_oc_od_oe_of_lc_m00_n00_s00_og_oh_oo_op_oq_or_om_on_ok_ol_oi_oj_ad0.0.0.0.0.0.0.0.0.0
0-angry=47**aa32.78.1.28.10.6.41.1.50.78_ab_ac_ba55_bb26.1_bc185.500.0.0.1_bd15_be180_ca59.0.40.59.24.34.34.0.10_cb0_daEAC2AC.0.0.100_db_dd0.3.34.50.45.50_dhF7B194.30.50.50.0_di8_qa_qb_dc0.1.F7B194.5.F7B194_eh_ea33.13759C.61BCD1.13759C.1.0_ec0.84.13759C.61BCD1.13759C.48.68.0_ed15.70.1.1.13759C.61BCD1_ef_eg_r0057.13759C.7AC6D8.61BCD1.0.0.67.100.360.613.581.1_fa21.50.50.60.50.65.56_fb9_fh1_fc1.6FBEC9.55.1.6FBEC9.55.50.61.61.50.50.50_fd1.0.21.13759C.56_fe58.61_ff0000000000_fg2.50_pa0.0.0.0.40.50.85.85.0.0_t00_pb_pc_pd_pe_ga0_gb1_gc6.0_ge0000000000_gh_gf_gg_gd10000000_ha70.70_hb49.1.44.99_hc2.43.39.2.43.39_hd28.1.100.49_ia_if_ib_id_ic_jc_ie_ja_jb_jd2.60.60.60_je2.60.60.60_jf_jg_ka34.2F3A8A.2F3A8A.2F3A8A.0_kb24.2F3A8A.2F3A8A.2F3A8A_kc_kd_ke_kf_la_lb_oa_os_ob_oc_od_oe_of_lc_m0058.26.55.0.1.2.56.100.100.38.2.61_n00_s00_og_oh_oo_op_oq_or_om_on_ok_ol_oi_oj_ad0.0.0.0.0.0.0.0.0.0
0-shy=47**aa20.79.0.17.50.20.79.0.17.60_ab_ac_ba25_bb44.1_bc185.500.0.0.1_bd13_be180_ca59.0.40.59.24.34.34.0.10_cb0_daEAC2AC.0.0.100_db_dd0.3.34.50.45.50_dhF7B194.30.50.50.0_di8_qa_qb_dc0.1.F7B194.5.F7B194_eh_ea33.13759C.61BCD1.13759C.1.0_ec0.84.13759C.61BCD1.13759C.48.68.0_ed15.70.1.1.13759C.61BCD1_ef_eg_r0057.13759C.7AC6D8.61BCD1.0.0.67.100.360.613.581.1_fa21.50.50.60.50.65.56_fb9_fh1_fc1.6FBEC9.55.1.6FBEC9.55.50.61.61.50.50.50_fd1.0.41.13759C.56_fe58.61_ff0000000000_fg2.50_pa0.0.0.0.40.50.85.85.0.0_t00_pb_pc_pd_pe_ga0_gb1_gc6.0_ge0000000000_gh_gf_gg_gd10000000_ha100.100_hb49.1.44.99_hc2.72.39.2.72.39_hd7.1.84.49_ia_if_ib_id_ic_jc_ie_ja_jb_jd2.60.60.60_je2.60.60.60_jf_jg_ka34.2F3A8A.2F3A8A.2F3A8A.0_kb24.2F3A8A.2F3A8A.2F3A8A_kc_kd_ke_kf_la_lb_oa_os_ob_oc_od_oe_of_lc_m00_n00_s00_og_oh_oo_op_oq_or_om_on_ok_ol_oi_oj_ad0.0.0.0.0.0.0.0.0.0
0-normal=47**aa36.39.1.49.50.30.77.1.0.88_ab_ac_ba35_bb13.1_bc185.500.0.0.1_bd3_be180_ca59.0.40.59.24.34.34.0.10_cb0_daEAC2AC.0.0.100_db_dd0.3.34.50.45.50_dhF7B194.30.50.50.0_di8_qa_qb_dc0.1.F7B194.5.F7B194_eh_ea33.13759C.61BCD1.13759C.1.0_ec0.84.13759C.61BCD1.13759C.48.68.0_ed15.70.1.1.13759C.61BCD1_ef_eg_r0057.13759C.7AC6D8.61BCD1.0.0.67.100.360.613.581.1_fa21.50.50.60.50.65.56_fb9_fh1_fc1.6FBEC9.55.1.6FBEC9.55.50.61.61.50.50.50_fd1.0.21.13759C.56_fe58.61_ff0000000000_fg2.50_pa0.0.0.0.40.50.85.85.0.0_t00_pb_pc_pd_pe_ga0_gb1_gc6.0_ge0000000000_gh_gf_gg_gd10000000_ha89.89_hb49.1.44.99_hc0.59.39.0.59.39_hd0.1.49.49_ia_if_ib_id_ic_jc_ie_ja_jb_jd2.60.60.60_je2.60.60.60_jf_jg_ka34.2F3A8A.2F3A8A.2F3A8A.0_kb24.2F3A8A.2F3A8A.2F3A8A_kc_kd_ke_kf_la_lb_oa_os_ob_oc_od_oe_of_lc_m00_n00_s00_og_oh_oo_op_oq_or_om_on_ok_ol_oi_oj_ad0.0.0.0.0.0.0.0.0.0
0-confident=47**aa86.85.1.11.0.8.30.1.8.96_ab_ac_ba25_bb13.1_bc185.500.0.0.1_bd6_be180_ca59.0.40.59.24.34.34.0.10_cb0_daEAC2AC.0.0.100_db_dd0.3.34.50.45.50_dhF7B194.30.50.50.0_di8_qa_qb_dc0.1.F7B194.5.F7B194_eh_ea33.13759C.61BCD1.13759C.1.0_ec0.84.13759C.61BCD1.13759C.48.68.0_ed15.70.1.1.13759C.61BCD1_ef_eg_r0057.13759C.7AC6D8.61BCD1.0.0.67.100.360.613.581.1_fa21.50.50.60.50.65.56_fb9_fh1_fc1.6FBEC9.55.1.6FBEC9.55.50.61.61.50.50.50_fd1.0.21.13759C.56_fe58.61_ff0000000000_fg2.50_pa0.0.0.0.40.50.85.85.0.0_t00_pb_pc_pd_pe_ga0_gb1_gc6.0_ge0000000000_gh_gf_gg_gd10000000_ha75.75_hb49.1.44.99_hc2.40.39.2.40.39_hd35.1.74.49_ia_if_ib_id_ic_jc_ie_ja_jb_jd2.60.60.60_je2.60.60.60_jf_jg_ka34.2F3A8A.2F3A8A.2F3A8A.0_kb24.2F3A8A.2F3A8A.2F3A8A_kc_kd_ke_kf_la_lb_oa_os_ob_oc_od_oe_of_lc_m00_n00_s00_og_oh_oo_op_oq_or_om_on_ok_ol_oi_oj_ad0.0.0.0.0.0.0.0.0.0
0-despair=47**aa7.55.1.28.44.7.55.1.28.44_ab_ac_ba46_bb14.1_bc185.500.0.0.1_bd7_be180_ca59.0.40.59.24.34.34.0.10_cb0_daEAC2AC.0.0.100_db_dd0.3.34.50.45.50_dhF7B194.30.50.50.0_di8_qa_qb_dc0.1.F7B194.5.F7B194_eh_ea33.13759C.61BCD1.13759C.1.0_ec0.84.13759C.61BCD1.13759C.48.68.0_ed15.70.1.1.13759C.61BCD1_ef_eg_r0057.13759C.7AC6D8.61BCD1.0.0.67.100.360.613.581.1_fa21.50.50.60.50.65.56_fb9_fh1_fc1.6FBEC9.55.1.6FBEC9.55.50.61.61.50.50.50_fd1.0.39.13759C.56_fe58.61_ff0000000000_fg2.50_pa0.0.0.0.40.50.85.85.0.0_t00_pb_pc_pd_pe_ga0_gb1_gc0.0_ge0000000000_gh_gf_gg_gd11000000_ha100.100_hb49.1.44.99_hc0.59.39.0.59.39_hd40.1.49.49_ia_if_ib_id_ic_jc_ie_ja_jb_jd2.60.60.60_je2.60.60.60_jf_jg_ka34.2F3A8A.2F3A8A.2F3A8A.0_kb24.2F3A8A.2F3A8A.2F3A8A_kc_kd_ke_kf_la_lb_oa_os_ob_oc_od_oe_of_lc_m00_n00_s00_og_oh_oo_op_oq_or_om_on_ok_ol_oi_oj_ad0.0.0.0.0.0.0.0.0.0
0-disappointed=47**aa20.59.1.16.50.20.59.1.16.50_ab_ac_ba50_bb6.1_bc185.500.0.0.1_bd6_be180_ca59.0.40.59.24.34.34.0.10_cb0_daEAC2AC.0.0.100_db_dd0.3.34.50.45.50_dhF7B194.30.50.50.0_di8_qa_qb_dc0.1.F7B194.5.F7B194_eh_ea33.13759C.61BCD1.13759C.1.0_ec0.84.13759C.61BCD1.13759C.48.68.0_ed15.70.1.1.13759C.61BCD1_ef_eg_r0057.13759C.7AC6D8.61BCD1.0.0.67.100.360.613.581.1_fa21.50.50.60.50.44.56_fb9_fh1_fc1.6FBEC9.55.1.6FBEC9.55.50.61.61.50.50.50_fd0.0.12.13759C.56_fe58.61_ff0000000000_fg2.50_pa0.0.0.0.40.50.85.85.0.0_t00_pb_pc_pd_pe_ga0_gb1_gc6.0_ge0000000000_gh_gf_gg_gd10000000_ha85.85_hb49.1.44.99_hc3.59.39.3.59.39_hd12.1.90.49_ia_if_ib_id_ic_jc_ie_ja_jb_jd2.60.60.60_je2.60.60.60_jf_jg_ka34.2F3A8A.2F3A8A.2F3A8A.0_kb24.2F3A8A.2F3A8A.2F3A8A_kc_kd_ke_kf_la_lb_oa_os_ob_oc_od_oe_of_lc_m00_n00_s00_og_oh_oo_op_oq_or_om_on_ok_ol_oi_oj_ad0.0.0.0.0.0.0.0.0.0
0-horny=47**aa31.74.1.10.100.61.39.1.11.79_ab_ac_ba35_bb0.1_bc185.500.0.0.1_bd25_be180_ca59.0.40.59.24.34.34.0.10_cb0_daEAC2AC.0.0.100_db_dd0.3.34.50.45.50_dhF7B194.30.50.50.0_di8_qa_qb_dc0.1.F7B194.5.F7B194_eh_ea33.13759C.61BCD1.13759C.1.0_ec0.84.13759C.61BCD1.13759C.48.68.0_ed15.70.1.1.13759C.61BCD1_ef_eg_r0057.13759C.7AC6D8.61BCD1.0.0.67.100.360.613.581.1_fa21.50.50.60.50.65.56_fb9_fh1_fc1.6FBEC9.55.1.6FBEC9.55.50.61.61.50.50.50_fd1.0.21.13759C.56_fe58.61_ff0000000000_fg2.50_pa0.0.0.0.40.50.85.85.0.0_t00_pb_pc_pd_pe_ga0_gb1_gc15.0_ge0000000000_gh_gf_gg_gd10000000_ha75.75_hb49.1.44.99_hc2.41.39.2.41.39_hd20.1.74.49_ia_if_ib_id_ic_jc_ie_ja_jb_jd2.60.60.60_je2.60.60.60_jf_jg_ka34.2F3A8A.2F3A8A.2F3A8A.0_kb24.2F3A8A.2F3A8A.2F3A8A_kc_kd_ke_kf_la_lb_oa_os_ob_oc_od_oe_of_lc_m00_n00_s00_og_oh_oo_op_oq_or_om_on_ok_ol_oi_oj_ad0.0.0.0.0.0.0.0.0.0
0-stripping=47**aa13.84.1.49.50.30.77.1.0.88_ab_ac_ba35_bb13.1_bc185.500.0.0.1_bd92_be180_ca59.0.40.59.24.34.34.0.10_cb0_daEAC2AC.0.0.100_db_dd0.3.34.50.45.50_dhF7B194.30.50.50.0_di8_qa_qb_dc0.1.F7B194.5.F7B194_eh_ea33.13759C.61BCD1.13759C.1.0_ec0.84.13759C.61BCD1.13759C.48.68.0_ed15.70.1.1.13759C.61BCD1_ef_eg_r0057.13759C.7AC6D8.61BCD1.0.0.67.100.360.613.581.1_fa21.50.50.60.50.65.56_fb9_fh1_fc1.6FBEC9.55.1.6FBEC9.55.50.61.61.50.50.50_fd1.0.21.13759C.56_fe58.61_ff0000000000_fg2.50_pa0.0.0.0.40.50.85.85.0.0_t00_pb_pc_pd_pe_ga0_gb1_gc6.0_ge0000000000_gh_gf_gg_gd10000000_ha89.89_hb49.1.44.99_hc0.59.39.0.59.39_hd0.1.49.49_ia_if_ib_id_ic_jc_ie_ja_jb_jd_je2.60.60.60_jf_jg_ka34.2F3A8A.2F3A8A.2F3A8A.0_kb24.2F3A8A.2F3A8A.2F3A8A_kc_kd_ke_kf_la_lb_oa_os_ob_oc_od_oe_of_lc_m00_n00_s00_og_oh_oo_op_oq_or_om_on_ok_ol_oi_oj_ad0.0.0.0.0.0.0.0.0.0

#lost costume (increase blush; note: she no longer makes a flame for angry)
1-happy=47**aa34.76.1.28.10.34.76.1.28.10_ab_ac_ba50_bb17.1_bc185.500.0.0.1_bd6_be180_ca59.0.40.59.24.34.34.0.10_cb0_daEAC2AC.0.0.100_db_dd0.3.34.50.45.50_dhF7B194.30.50.50.0_di8_qa_qb_dc0.1.F7B194.5.F7B194_eh_ea33.13759C.61BCD1.13759C.1.0_ec0.84.13759C.61BCD1.13759C.48.68.0_ed15.70.1.1.13759C.61BCD1_ef_eg_r0057.13759C.7AC6D8.61BCD1.0.0.67.100.360.613.581.1_fa21.50.50.60.50.44.56_fb9_fh1_fc1.6FBEC9.55.1.6FBEC9.55.50.61.61.50.50.50_fd0.0.12.13759C.56_fe58.61_ff0000000000_fg2.50_pa0.0.0.0.40.50.85.85.0.0_t00_pb_pc_pd_pe_ga0_gb1_gc20.0_ge0000000000_gh_gf_gg_gd10000000_ha89.89_hb49.1.44.99_hc2.59.39.2.59.39_hd34.1.90.49_ia_if_ib_id_ic_jc_ie_ja_jb_jd_je_jf_jg_ka34.2F3A8A.2F3A8A.2F3A8A.0_kb24.2F3A8A.2F3A8A.2F3A8A_kc_kd_ke_kf_la_lb_oa_os_ob_oc_od_oe_of_lc_m00_n00_s00_og_oh_oo_op_oq_or_om_on_ok_ol_oi_oj_ad0.0.0.0.0.0.0.0.0.0
1-angry=47**aa32.78.1.27.10.12.44.1.43.78_ab_ac_ba55_bb26.1_bc185.500.0.0.1_bd15_be180_ca59.0.40.59.24.34.34.0.10_cb0_daEAC2AC.0.0.100_db_dd0.3.34.50.45.50_dhF7B194.30.50.50.0_di8_qa_qb_dc0.1.F7B194.5.F7B194_eh_ea33.13759C.61BCD1.13759C.1.0_ec0.84.13759C.61BCD1.13759C.48.68.0_ed15.70.1.1.13759C.61BCD1_ef_eg_r0057.13759C.7AC6D8.61BCD1.0.0.67.100.360.613.581.1_fa21.50.50.60.50.65.56_fb9_fh1_fc1.6FBEC9.55.1.6FBEC9.55.50.61.61.50.50.50_fd1.0.21.13759C.56_fe58.61_ff0000000000_fg2.50_pa0.0.0.0.40.50.85.85.0.0_t00_pb_pc_pd_pe_ga0_gb1_gc20.0_ge0000000000_gh_gf_gg_gd10000000_ha70.70_hb49.1.44.99_hc2.43.39.2.43.39_hd28.1.100.49_ia_if_ib_id_ic_jc_ie_ja_jb_jd_je_jf_jg_ka34.2F3A8A.2F3A8A.2F3A8A.0_kb24.2F3A8A.2F3A8A.2F3A8A_kc_kd_ke_kf_la_lb_oa_os_ob_oc_od_oe_of_lc_m00_n00_s00_og_oh_oo_op_oq_or_om_on_ok_ol_oi_oj_ad0.0.0.0.0.0.0.0.0.0
1-shy=47**aa20.79.0.17.50.20.79.0.17.60_ab_ac_ba25_bb44.1_bc185.500.0.0.1_bd13_be180_ca59.0.40.59.24.34.34.0.10_cb0_daEAC2AC.0.0.100_db_dd0.3.34.50.45.50_dhF7B194.30.50.50.0_di8_qa_qb_dc0.1.F7B194.5.F7B194_eh_ea33.13759C.61BCD1.13759C.1.0_ec0.84.13759C.61BCD1.13759C.48.68.0_ed15.70.1.1.13759C.61BCD1_ef_eg_r0057.13759C.7AC6D8.61BCD1.0.0.67.100.360.613.581.1_fa21.50.50.60.50.65.56_fb9_fh1_fc1.6FBEC9.55.1.6FBEC9.55.50.61.61.50.50.50_fd1.0.41.13759C.56_fe58.61_ff0000000000_fg2.50_pa0.0.0.0.40.50.85.85.0.0_t00_pb_pc_pd_pe_ga0_gb1_gc20.0_ge0000000000_gh_gf_gg_gd10000000_ha100.100_hb49.1.44.99_hc2.72.39.2.72.39_hd7.1.84.49_ia_if_ib_id_ic_jc_ie_ja_jb_jd_je_jf_jg_ka34.2F3A8A.2F3A8A.2F3A8A.0_kb24.2F3A8A.2F3A8A.2F3A8A_kc_kd_ke_kf_la_lb_oa_os_ob_oc_od_oe_of_lc_m00_n00_s00_og_oh_oo_op_oq_or_om_on_ok_ol_oi_oj_ad0.0.0.0.0.0.0.0.0.0
1-normal=47**aa36.39.1.49.50.30.77.1.0.88_ab_ac_ba35_bb13.1_bc185.500.0.0.1_bd3_be180_ca59.0.40.59.24.34.34.0.10_cb0_daEAC2AC.0.0.100_db_dd0.3.34.50.45.50_dhF7B194.30.50.50.0_di8_qa_qb_dc0.1.F7B194.5.F7B194_eh_ea33.13759C.61BCD1.13759C.1.0_ec0.84.13759C.61BCD1.13759C.48.68.0_ed15.70.1.1.13759C.61BCD1_ef_eg_r0057.13759C.7AC6D8.61BCD1.0.0.67.100.360.613.581.1_fa21.50.50.60.50.65.56_fb9_fh1_fc1.6FBEC9.55.1.6FBEC9.55.50.61.61.50.50.50_fd1.0.21.13759C.56_fe58.61_ff0000000000_fg2.50_pa0.0.0.0.40.50.85.85.0.0_t00_pb_pc_pd_pe_ga0_gb1_gc20.0_ge0000000000_gh_gf_gg_gd10000000_ha89.89_hb49.1.44.99_hc0.59.39.0.59.39_hd0.1.49.49_ia_if_ib_id_ic_jc_ie_ja_jb_jd_je_jf_jg_ka34.2F3A8A.2F3A8A.2F3A8A.0_kb24.2F3A8A.2F3A8A.2F3A8A_kc_kd_ke_kf_la_lb_oa_os_ob_oc_od_oe_of_lc_m00_n00_s00_og_oh_oo_op_oq_or_om_on_ok_ol_oi_oj_ad0.0.0.0.0.0.0.0.0.0
1-confident=47**aa86.85.1.11.0.8.30.1.8.96_ab_ac_ba25_bb13.1_bc185.500.0.0.1_bd6_be180_ca59.0.40.59.24.34.34.0.10_cb0_daEAC2AC.0.0.100_db_dd0.3.34.50.45.50_dhF7B194.30.50.50.0_di8_qa_qb_dc0.1.F7B194.5.F7B194_eh_ea33.13759C.61BCD1.13759C.1.0_ec0.84.13759C.61BCD1.13759C.48.68.0_ed15.70.1.1.13759C.61BCD1_ef_eg_r0057.13759C.7AC6D8.61BCD1.0.0.67.100.360.613.581.1_fa21.50.50.60.50.65.56_fb9_fh1_fc1.6FBEC9.55.1.6FBEC9.55.50.61.61.50.50.50_fd1.0.21.13759C.56_fe58.61_ff0000000000_fg2.50_pa0.0.0.0.40.50.85.85.0.0_t00_pb_pc_pd_pe_ga0_gb1_gc20.0_ge0000000000_gh_gf_gg_gd10000000_ha75.75_hb49.1.44.99_hc2.40.39.2.40.39_hd35.1.74.49_ia_if_ib_id_ic_jc_ie_ja_jb_jd_je_jf_jg_ka34.2F3A8A.2F3A8A.2F3A8A.0_kb24.2F3A8A.2F3A8A.2F3A8A_kc_kd_ke_kf_la_lb_oa_os_ob_oc_od_oe_of_lc_m00_n00_s00_og_oh_oo_op_oq_or_om_on_ok_ol_oi_oj_ad0.0.0.0.0.0.0.0.0.0
1-despair=47**aa7.55.1.28.44.7.55.1.28.44_ab_ac_ba46_bb14.1_bc185.500.0.0.1_bd7_be180_ca59.0.40.59.24.34.34.0.10_cb0_daEAC2AC.0.0.100_db_dd0.3.34.50.45.50_dhF7B194.30.50.50.0_di8_qa_qb_dc0.1.F7B194.5.F7B194_eh_ea33.13759C.61BCD1.13759C.1.0_ec0.84.13759C.61BCD1.13759C.48.68.0_ed15.70.1.1.13759C.61BCD1_ef_eg_r0057.13759C.7AC6D8.61BCD1.0.0.67.100.360.613.581.1_fa21.50.50.60.50.65.56_fb9_fh1_fc1.6FBEC9.55.1.6FBEC9.55.50.61.61.50.50.50_fd1.0.39.13759C.56_fe58.61_ff0000000000_fg2.50_pa0.0.0.0.40.50.85.85.0.0_t00_pb_pc_pd_pe_ga0_gb1_gc20.0_ge0000000000_gh_gf_gg_gd11000000_ha100.100_hb49.1.44.99_hc0.59.39.0.59.39_hd40.1.49.49_ia_if_ib_id_ic_jc_ie_ja_jb_jd_je_jf_jg_ka34.2F3A8A.2F3A8A.2F3A8A.0_kb24.2F3A8A.2F3A8A.2F3A8A_kc_kd_ke_kf_la_lb_oa_os_ob_oc_od_oe_of_lc_m00_n00_s00_og_oh_oo_op_oq_or_om_on_ok_ol_oi_oj_ad0.0.0.0.0.0.0.0.0.0
1-disappointed=47**aa20.59.1.16.50.20.59.1.16.50_ab_ac_ba50_bb6.1_bc185.500.0.0.1_bd6_be180_ca59.0.40.59.24.34.34.0.10_cb0_daEAC2AC.0.0.100_db_dd0.3.34.50.45.50_dhF7B194.30.50.50.0_di8_qa_qb_dc0.1.F7B194.5.F7B194_eh_ea33.13759C.61BCD1.13759C.1.0_ec0.84.13759C.61BCD1.13759C.48.68.0_ed15.70.1.1.13759C.61BCD1_ef_eg_r0057.13759C.7AC6D8.61BCD1.0.0.67.100.360.613.581.1_fa21.50.50.60.50.44.56_fb9_fh1_fc1.6FBEC9.55.1.6FBEC9.55.50.61.61.50.50.50_fd0.0.12.13759C.56_fe58.61_ff0000000000_fg2.50_pa0.0.0.0.40.50.85.85.0.0_t00_pb_pc_pd_pe_ga0_gb1_gc20.0_ge0000000000_gh_gf_gg_gd10000000_ha85.85_hb49.1.44.99_hc3.59.39.3.59.39_hd12.1.90.49_ia_if_ib_id_ic_jc_ie_ja_jb_jd_je_jf_jg_ka34.2F3A8A.2F3A8A.2F3A8A.0_kb24.2F3A8A.2F3A8A.2F3A8A_kc_kd_ke_kf_la_lb_oa_os_ob_oc_od_oe_of_lc_m00_n00_s00_og_oh_oo_op_oq_or_om_on_ok_ol_oi_oj_ad0.0.0.0.0.0.0.0.0.0
1-horny=47**aa31.74.1.10.100.61.39.1.11.79_ab_ac_ba35_bb0.1_bc185.500.0.0.1_bd25_be180_ca59.0.40.59.24.34.34.0.10_cb0_daEAC2AC.0.0.100_db_dd0.3.34.50.45.50_dhF7B194.30.50.50.0_di8_qa_qb_dc0.1.F7B194.5.F7B194_eh_ea33.13759C.61BCD1.13759C.1.0_ec0.84.13759C.61BCD1.13759C.48.68.0_ed15.70.1.1.13759C.61BCD1_ef_eg_r0057.13759C.7AC6D8.61BCD1.0.0.67.100.360.613.581.1_fa21.50.50.60.50.65.56_fb9_fh1_fc1.6FBEC9.55.1.6FBEC9.55.50.61.61.50.50.50_fd1.0.21.13759C.56_fe58.61_ff0000000000_fg2.50_pa0.0.0.0.40.50.85.85.0.0_t00_pb_pc_pd_pe_ga0_gb1_gc20.0_ge0000000000_gh_gf_gg_gd10000000_ha75.75_hb49.1.44.99_hc2.41.39.2.41.39_hd20.1.74.49_ia_if_ib_id_ic_jc_ie_ja_jb_jd_je_jf_jg_ka34.2F3A8A.2F3A8A.2F3A8A.0_kb24.2F3A8A.2F3A8A.2F3A8A_kc_kd_ke_kf_la_lb_oa_os_ob_oc_od_oe_of_lc_m00_n00_s00_og_oh_oo_op_oq_or_om_on_ok_ol_oi_oj_ad0.0.0.0.0.0.0.0.0.0
1-stripping=47**aa32.63.0.16.50.32.63.0.16.50_ab_ac_ba50_bb6.1_bc185.500.0.0.1_bd6_be180_ca59.0.40.59.24.34.34.0.10_cb0_daEAC2AC.0.0.100_db_dd0.3.34.50.45.50_dhF7B194.30.50.50.0_di8_qa_qb_dc0.1.F7B194.5.F7B194_eh_ea33.13759C.61BCD1.13759C.1.0_ec0.84.13759C.61BCD1.13759C.48.68.0_ed15.70.1.1.13759C.61BCD1_ef_eg_r0057.13759C.7AC6D8.61BCD1.0.0.67.100.360.613.581.1_fa21.50.50.60.50.44.56_fb9_fh1_fc1.6FBEC9.55.1.6FBEC9.55.50.61.61.50.50.50_fd0.0.12.13759C.56_fe58.61_ff0000000000_fg2.50_pa0.0.0.0.40.50.85.85.0.0_t00_pb_pc_pd_pe_ga0_gb1_gc30.0_ge0000000000_gh_gf_gg_gd10000000_ha85.85_hb49.1.44.99_hc3.59.39.3.59.39_hd12.1.90.49_ia_if_ib_id_ic_jc_ie_ja_jb_jd_je_jf_jg_ka34.2F3A8A.2F3A8A.2F3A8A.0_kb24.2F3A8A.2F3A8A.2F3A8A_kc_kd_ke_kf_la_lb_oa_os_ob_oc_od_oe_of_lc_m00_n00_s00_og_oh_oo_op_oq_or_om_on_ok_ol_oi_oj_ad0.0.0.0.0.0.0.0.0.0

#lost bra (topless) (increase blush; note: several poses changed to cover breasts)
2-happy=47**aa23.43.1.34.51.9.66.1.16.32_ab_ac_ba50_bb17.1_bc185.500.0.0.1_bd6_be180_ca59.0.40.59.24.34.34.0.10_cb0_daEAC2AC.0.0.100_db_dd0.3.34.50.45.50_dhF7B194.30.50.50.0_di8_qa_qb_dc0.1.F7B194.5.F7B194_eh_ea33.13759C.61BCD1.13759C.1.0_ec0.84.13759C.61BCD1.13759C.48.68.0_ed15.70.1.1.13759C.61BCD1_ef_eg_r0057.13759C.7AC6D8.61BCD1.0.0.67.100.360.613.581.1_fa21.50.50.60.50.44.56_fb9_fh1_fc1.6FBEC9.55.1.6FBEC9.55.50.61.61.50.50.50_fd0.0.12.13759C.56_fe58.61_ff0000000000_fg2.50_pa0.0.0.0.40.50.85.85.0.0_t00_pb_pc_pd_pe_ga0_gb1_gc40.0_ge0000000000_gh_gf_gg_gd10000000_ha89.89_hb49.1.44.99_hc2.59.39.2.59.39_hd34.1.90.49_ia_if_ib_id_ic_jc_ie_ja_jb_jd_je_jf_jg_ka_kb24.2F3A8A.2F3A8A.2F3A8A_kc_kd_ke_kf_la_lb_oa_os_ob_oc_od_oe_of_lc_m00_n00_s00_og_oh_oo_op_oq_or_om_on_ok_ol_oi_oj_ad0.0.0.0.0.0.0.0.0.0
2-angry=47**aa11.66.1.16.64.11.66.1.16.64_ab_ac_ba55_bb26.1_bc185.500.0.0.1_bd15_be180_ca59.0.40.59.24.34.34.0.10_cb0_daEAC2AC.0.0.100_db_dd0.3.34.50.45.50_dhF7B194.30.50.50.0_di8_qa_qb_dc0.1.F7B194.5.F7B194_eh_ea33.13759C.61BCD1.13759C.1.0_ec0.84.13759C.61BCD1.13759C.48.68.0_ed15.70.1.1.13759C.61BCD1_ef_eg_r0057.13759C.7AC6D8.61BCD1.0.0.67.100.360.613.581.1_fa21.50.50.60.50.65.56_fb9_fh1_fc1.6FBEC9.55.1.6FBEC9.55.50.61.61.50.50.50_fd1.0.21.13759C.56_fe58.61_ff0000000000_fg2.50_pa0.0.0.0.40.50.85.85.0.0_t00_pb_pc_pd_pe_ga0_gb1_gc40.0_ge0000000000_gh_gf_gg_gd10000000_ha70.70_hb49.1.44.99_hc2.43.39.2.43.39_hd28.1.100.49_ia_if_ib_id_ic_jc_ie_ja_jb_jd_je_jf_jg_ka_kb24.2F3A8A.2F3A8A.2F3A8A_kc_kd_ke_kf_la_lb_oa_os_ob_oc_od_oe_of_lc_m00_n00_s00_og_oh_oo_op_oq_or_om_on_ok_ol_oi_oj_ad0.0.0.0.0.0.0.0.0.0
2-shy=47**aa14.61.1.27.64.14.61.1.27.64_ab_ac_ba25_bb44.1_bc185.500.0.0.1_bd13_be180_ca59.0.40.59.24.34.34.0.10_cb0_daEAC2AC.0.0.100_db_dd0.3.34.50.45.50_dhF7B194.30.50.50.0_di8_qa_qb_dc0.1.F7B194.5.F7B194_eh_ea33.13759C.61BCD1.13759C.1.0_ec0.84.13759C.61BCD1.13759C.48.68.0_ed15.70.1.1.13759C.61BCD1_ef_eg_r0057.13759C.7AC6D8.61BCD1.0.0.67.100.360.613.581.1_fa21.50.50.60.50.65.56_fb9_fh1_fc1.6FBEC9.55.1.6FBEC9.55.50.61.61.50.50.50_fd1.0.41.13759C.56_fe58.61_ff0000000000_fg2.50_pa0.0.0.0.40.50.85.85.0.0_t00_pb_pc_pd_pe_ga0_gb1_gc40.0_ge0000000000_gh_gf_gg_gd10000000_ha100.100_hb49.1.44.99_hc2.72.39.2.72.39_hd7.1.84.49_ia_if_ib_id_ic_jc_ie_ja_jb_jd_je_jf_jg_ka_kb24.2F3A8A.2F3A8A.2F3A8A_kc_kd_ke_kf_la_lb_oa_os_ob_oc_od_oe_of_lc_m00_n00_s00_og_oh_oo_op_oq_or_om_on_ok_ol_oi_oj_ad0.0.0.0.0.0.0.0.0.0
2-normal=47**aa34.76.1.28.19.10.66.1.28.45_ab_ac_ba35_bb13.1_bc185.500.0.0.1_bd3_be180_ca59.0.40.59.24.34.34.0.10_cb0_daEAC2AC.0.0.100_db_dd0.3.34.50.45.50_dhF7B194.30.50.50.0_di8_qa_qb_dc0.1.F7B194.5.F7B194_eh_ea33.13759C.61BCD1.13759C.1.0_ec0.84.13759C.61BCD1.13759C.48.68.0_ed15.70.1.1.13759C.61BCD1_ef_eg_r0057.13759C.7AC6D8.61BCD1.0.0.67.100.360.613.581.1_fa21.50.50.60.50.65.56_fb9_fh1_fc1.6FBEC9.55.1.6FBEC9.55.50.61.61.50.50.50_fd1.0.21.13759C.56_fe58.61_ff0000000000_fg2.50_pa0.0.0.0.40.50.85.85.0.0_t00_pb_pc_pd_pe_ga0_gb1_gc40.0_ge0000000000_gh_gf_gg_gd10000000_ha89.89_hb49.1.44.99_hc0.59.39.0.59.39_hd0.1.49.49_ia_if_ib_id_ic_jc_ie_ja_jb_jd_je_jf_jg_ka_kb24.2F3A8A.2F3A8A.2F3A8A_kc_kd_ke_kf_la_lb_oa_os_ob_oc_od_oe_of_lc_m00_n00_s00_og_oh_oo_op_oq_or_om_on_ok_ol_oi_oj_ad0.0.0.0.0.0.0.0.0.0
2-confident=47**aa86.85.1.11.0.11.63.1.49.91_ab_ac_ba25_bb13.1_bc185.500.0.0.1_bd6_be180_ca59.0.40.59.24.34.34.0.10_cb0_daEAC2AC.0.0.100_db_dd0.3.34.50.45.50_dhF7B194.30.50.50.0_di8_qa_qb_dc0.1.F7B194.5.F7B194_eh_ea33.13759C.61BCD1.13759C.1.0_ec0.84.13759C.61BCD1.13759C.48.68.0_ed15.70.1.1.13759C.61BCD1_ef_eg_r0057.13759C.7AC6D8.61BCD1.0.0.67.100.360.613.581.1_fa21.50.50.60.50.65.56_fb9_fh1_fc1.6FBEC9.55.1.6FBEC9.55.50.61.61.50.50.50_fd1.0.21.13759C.56_fe58.61_ff0000000000_fg2.50_pa0.0.0.0.40.50.85.85.0.0_t00_pb_pc_pd_pe_ga0_gb1_gc40.0_ge0000000000_gh_gf_gg_gd10000000_ha75.75_hb49.1.44.99_hc2.40.39.2.40.39_hd35.1.74.49_ia_if_ib_id_ic_jc_ie_ja_jb_jd_je_jf_jg_ka_kb24.2F3A8A.2F3A8A.2F3A8A_kc_kd_ke_kf_la_lb_oa_os_ob_oc_od_oe_of_lc_m00_n00_s00_og_oh_oo_op_oq_or_om_on_ok_ol_oi_oj_ad0.0.0.0.0.0.0.0.0.0
2-despair=47**aa7.55.1.28.44.7.55.1.28.44_ab_ac_ba46_bb14.1_bc185.500.0.0.1_bd7_be180_ca59.0.40.59.24.34.34.0.10_cb0_daEAC2AC.0.0.100_db_dd0.3.34.50.45.50_dhF7B194.30.50.50.0_di8_qa_qb_dc0.1.F7B194.5.F7B194_eh_ea33.13759C.61BCD1.13759C.1.0_ec0.84.13759C.61BCD1.13759C.48.68.0_ed15.70.1.1.13759C.61BCD1_ef_eg_r0057.13759C.7AC6D8.61BCD1.0.0.67.100.360.613.581.1_fa21.50.50.60.50.65.56_fb9_fh1_fc1.6FBEC9.55.1.6FBEC9.55.50.61.61.50.50.50_fd1.0.39.13759C.56_fe58.61_ff0000000000_fg2.50_pa0.0.0.0.40.50.85.85.0.0_t00_pb_pc_pd_pe_ga0_gb1_gc30.0_ge0000000000_gh_gf_gg_gd11000000_ha100.100_hb49.1.44.99_hc0.59.39.0.59.39_hd40.1.49.49_ia_if_ib_id_ic_jc_ie_ja_jb_jd_je_jf_jg_ka_kb24.2F3A8A.2F3A8A.2F3A8A_kc_kd_ke_kf_la_lb_oa_os_ob_oc_od_oe_of_lc_m00_n00_s00_og_oh_oo_op_oq_or_om_on_ok_ol_oi_oj_ad0.0.0.0.0.0.0.0.0.0
2-disappointed=47**aa20.59.1.16.50.20.59.1.16.50_ab_ac_ba50_bb6.1_bc185.500.0.0.1_bd6_be180_ca59.0.40.59.24.34.34.0.10_cb0_daEAC2AC.0.0.100_db_dd0.3.34.50.45.50_dhF7B194.30.50.50.0_di8_qa_qb_dc0.1.F7B194.5.F7B194_eh_ea33.13759C.61BCD1.13759C.1.0_ec0.84.13759C.61BCD1.13759C.48.68.0_ed15.70.1.1.13759C.61BCD1_ef_eg_r0057.13759C.7AC6D8.61BCD1.0.0.67.100.360.613.581.1_fa21.50.50.60.50.44.56_fb9_fh1_fc1.6FBEC9.55.1.6FBEC9.55.50.61.61.50.50.50_fd0.0.12.13759C.56_fe58.61_ff0000000000_fg2.50_pa0.0.0.0.40.50.85.85.0.0_t00_pb_pc_pd_pe_ga0_gb1_gc40.0_ge0000000000_gh_gf_gg_gd10000000_ha85.85_hb49.1.44.99_hc3.59.39.3.59.39_hd12.1.90.49_ia_if_ib_id_ic_jc_ie_ja_jb_jd_je_jf_jg_ka_kb24.2F3A8A.2F3A8A.2F3A8A_kc_kd_ke_kf_la_lb_oa_os_ob_oc_od_oe_of_lc_m00_n00_s00_og_oh_oo_op_oq_or_om_on_ok_ol_oi_oj_ad0.0.0.0.0.0.0.0.0.0
2-horny=47**aa31.74.1.10.100.61.39.1.11.79_ab_ac_ba35_bb0.1_bc185.500.0.0.1_bd25_be180_ca59.0.40.59.24.34.34.0.10_cb0_daEAC2AC.0.0.100_db_dd0.3.34.50.45.50_dhF7B194.30.50.50.0_di8_qa_qb_dc0.1.F7B194.5.F7B194_eh_ea33.13759C.61BCD1.13759C.1.0_ec0.84.13759C.61BCD1.13759C.48.68.0_ed15.70.1.1.13759C.61BCD1_ef_eg_r0057.13759C.7AC6D8.61BCD1.0.0.67.100.360.613.581.1_fa21.50.50.60.50.65.56_fb9_fh1_fc1.6FBEC9.55.1.6FBEC9.55.50.61.61.50.50.50_fd1.0.21.13759C.56_fe58.61_ff0000000000_fg2.50_pa0.0.0.0.40.50.85.85.0.0_t00_pb_pc_pd_pe_ga0_gb1_gc40.0_ge0000000000_gh_gf_gg_gd10000000_ha75.75_hb49.1.44.99_hc2.41.39.2.41.39_hd20.1.74.49_ia_if_ib_id_ic_jc_ie_ja_jb_jd_je_jf_jg_ka_kb24.2F3A8A.2F3A8A.2F3A8A_kc_kd_ke_kf_la_lb_oa_os_ob_oc_od_oe_of_lc_m00_n00_s00_og_oh_oo_op_oq_or_om_on_ok_ol_oi_oj_ad0.0.0.0.0.0.0.0.0.0
2-stripping=47**aa25.83.1.0.75.25.83.1.0.75_ab_ac_ba25_bb13.1_bc185.500.0.0.1_bd6_be180_ca59.0.40.59.24.34.34.0.10_cb0_daEAC2AC.0.0.100_db_dd0.3.34.50.45.50_dhF7B194.30.50.50.0_di8_qa_qb_dc0.1.F7B194.5.F7B194_eh_ea33.13759C.61BCD1.13759C.1.0_ec0.84.13759C.61BCD1.13759C.48.68.0_ed15.70.1.1.13759C.61BCD1_ef_eg_r0057.13759C.7AC6D8.61BCD1.0.0.67.100.360.613.581.1_fa21.50.50.60.50.65.56_fb9_fh1_fc1.6FBEC9.55.1.6FBEC9.55.50.61.61.50.50.50_fd1.0.21.13759C.56_fe58.61_ff0000000000_fg2.50_pa0.0.0.0.40.50.85.85.0.0_t00_pb_pc_pd_pe_ga0_gb1_gc40.0_ge0000000000_gh_gf_gg_gd10000000_ha75.75_hb49.1.44.99_hc2.40.39.2.40.39_hd35.1.74.49_ia_if_ib_id_ic_jc_ie_ja_jb_jd_je_jf_jg_ka_kb24.2F3A8A.2F3A8A.2F3A8A_kc_kd_ke_kf_la_lb_oa_os_ob_oc_od_oe_of_lc_m00_n00_s00_og_oh_oo_op_oq_or_om_on_ok_ol_oi_oj_ad0.0.0.0.0.0.0.0.0.0

#lost panties (naked) (increase blush; note: several poses now cover crotch)
3-happy=47**aa23.43.1.34.51.9.66.1.16.32_ab_ac_ba50_bb17.1_bc185.500.0.0.1_bd6_be180_ca59.0.40.59.24.34.34.0.10_cb0_daEAC2AC.0.0.100_db_dd0.3.34.50.45.50_dhF7B194.30.50.50.0_di8_qa_qb_dc0.1.F7B194.5.F7B194_eh_ea33.13759C.61BCD1.13759C.1.0_ec0.84.13759C.61BCD1.13759C.48.68.0_ed15.70.1.1.13759C.61BCD1_ef_eg_r0057.13759C.7AC6D8.61BCD1.0.0.67.100.360.613.581.1_fa21.50.50.60.50.44.56_fb9_fh1_fc1.6FBEC9.55.1.6FBEC9.55.50.61.61.50.50.50_fd0.0.12.13759C.56_fe58.61_ff0000000000_fg2.50_pa0.0.0.0.40.50.85.85.0.0_t00_pb_pc_pd_pe_ga0_gb1_gc30.0_ge0000000000_gh_gf_gg_gd10000000_ha89.89_hb49.1.44.99_hc2.59.39.2.59.39_hd34.1.90.49_ia_if_ib_id_ic_jc_ie_ja_jb_jd_je_jf_jg_ka_kb_kc_kd_ke_kf_la_lb_oa_os_ob_oc_od_oe_of_lc_m00_n00_s00_og_oh_oo_op_oq_or_om_on_ok_ol_oi_oj_ad0.0.0.0.0.0.0.0.0.0
3-angry=47**aa11.66.1.16.64.11.66.1.16.64_ab_ac_ba55_bb26.1_bc185.500.0.0.1_bd15_be180_ca59.0.40.59.24.34.34.0.10_cb0_daEAC2AC.0.0.100_db_dd0.3.34.50.45.50_dhF7B194.30.50.50.0_di8_qa_qb_dc0.1.F7B194.5.F7B194_eh_ea33.13759C.61BCD1.13759C.1.0_ec0.84.13759C.61BCD1.13759C.48.68.0_ed15.70.1.1.13759C.61BCD1_ef_eg_r0057.13759C.7AC6D8.61BCD1.0.0.67.100.360.613.581.1_fa21.50.50.60.50.65.56_fb9_fh1_fc1.6FBEC9.55.1.6FBEC9.55.50.61.61.50.50.50_fd1.0.21.13759C.56_fe58.61_ff0000000000_fg2.50_pa0.0.0.0.40.50.85.85.0.0_t00_pb_pc_pd_pe_ga0_gb1_gc30.0_ge0000000000_gh_gf_gg_gd10000000_ha70.70_hb49.1.44.99_hc2.43.39.2.43.39_hd28.1.100.49_ia_if_ib_id_ic_jc_ie_ja_jb_jd_je_jf_jg_ka_kb_kc_kd_ke_kf_la_lb_oa_os_ob_oc_od_oe_of_lc_m00_n00_s00_og_oh_oo_op_oq_or_om_on_ok_ol_oi_oj_ad0.0.0.0.0.0.0.0.0.0
3-shy=47**aa14.61.1.27.64.9.89.1.27.53_ab_ac_ba25_bb44.1_bc185.500.0.0.1_bd13_be180_ca59.0.40.59.24.34.34.0.10_cb0_daEAC2AC.0.0.100_db_dd0.3.34.50.45.50_dhF7B194.30.50.50.0_di8_qa_qb_dc0.1.F7B194.5.F7B194_eh_ea33.13759C.61BCD1.13759C.1.0_ec0.84.13759C.61BCD1.13759C.48.68.0_ed15.70.1.1.13759C.61BCD1_ef_eg_r0057.13759C.7AC6D8.61BCD1.0.0.67.100.360.613.581.1_fa21.50.50.60.50.65.56_fb9_fh1_fc1.6FBEC9.55.1.6FBEC9.55.50.61.61.50.50.50_fd1.0.41.13759C.56_fe58.61_ff0000000000_fg2.50_pa0.0.0.0.40.50.85.85.0.0_t00_pb_pc_pd_pe_ga0_gb1_gc30.0_ge0000000000_gh_gf_gg_gd10000000_ha100.100_hb49.1.44.99_hc2.72.39.2.72.39_hd7.1.84.49_ia_if_ib_id_ic_jc_ie_ja_jb_jd_je_jf_jg_ka_kb_kc_kd_ke_kf_la_lb_oa_os_ob_oc_od_oe_of_lc_m00_n00_s00_og_oh_oo_op_oq_or_om_on_ok_ol_oi_oj_ad0.0.0.0.0.0.0.0.0.0
3-normal=47**aa9.91.1.28.30.10.66.1.28.43_ab_ac_ba35_bb13.1_bc185.500.0.0.1_bd3_be180_ca59.0.40.59.24.34.34.0.10_cb0_daEAC2AC.0.0.100_db_dd0.3.34.50.45.50_dhF7B194.30.50.50.0_di8_qa_qb_dc0.1.F7B194.5.F7B194_eh_ea33.13759C.61BCD1.13759C.1.0_ec0.84.13759C.61BCD1.13759C.48.68.0_ed15.70.1.1.13759C.61BCD1_ef_eg_r0057.13759C.7AC6D8.61BCD1.0.0.67.100.360.613.581.1_fa21.50.50.60.50.65.56_fb9_fh1_fc1.6FBEC9.55.1.6FBEC9.55.50.61.61.50.50.50_fd1.0.21.13759C.56_fe58.61_ff0000000000_fg2.50_pa0.0.0.0.40.50.85.85.0.0_t00_pb_pc_pd_pe_ga0_gb1_gc30.0_ge0000000000_gh_gf_gg_gd10000000_ha89.89_hb49.1.44.99_hc0.59.39.0.59.39_hd0.1.49.49_ia_if_ib_id_ic_jc_ie_ja_jb_jd_je_jf_jg_ka_kb_kc_kd_ke_kf_la_lb_oa_os_ob_oc_od_oe_of_lc_m00_n00_s00_og_oh_oo_op_oq_or_om_on_ok_ol_oi_oj_ad0.0.0.0.0.0.0.0.0.0
3-confident=47**aa86.85.1.11.0.13.95.1.49.64_ab_ac_ba25_bb13.1_bc185.500.0.0.1_bd6_be180_ca59.0.40.59.24.34.34.0.10_cb0_daEAC2AC.0.0.100_db_dd0.3.34.50.45.50_dhF7B194.30.50.50.0_di8_qa_qb_dc0.1.F7B194.5.F7B194_eh_ea33.13759C.61BCD1.13759C.1.0_ec0.84.13759C.61BCD1.13759C.48.68.0_ed15.70.1.1.13759C.61BCD1_ef_eg_r0057.13759C.7AC6D8.61BCD1.0.0.67.100.360.613.581.1_fa21.50.50.60.50.65.56_fb9_fh1_fc1.6FBEC9.55.1.6FBEC9.55.50.61.61.50.50.50_fd1.0.21.13759C.56_fe58.61_ff0000000000_fg2.50_pa0.0.0.0.40.50.85.85.0.0_t00_pb_pc_pd_pe_ga0_gb1_gc30.0_ge0000000000_gh_gf_gg_gd10000000_ha75.75_hb49.1.44.99_hc2.40.39.2.40.39_hd35.1.74.49_ia_if_ib_id_ic_jc_ie_ja_jb_jd_je_jf_jg_ka_kb_kc_kd_ke_kf_la_lb_oa_os_ob_oc_od_oe_of_lc_m00_n00_s00_og_oh_oo_op_oq_or_om_on_ok_ol_oi_oj_ad0.0.0.0.0.0.0.0.0.0
3-despair=47**aa7.55.1.28.44.7.55.1.28.44_ab_ac_ba46_bb14.1_bc185.500.0.0.1_bd7_be180_ca59.0.40.59.24.34.34.0.10_cb0_daEAC2AC.0.0.100_db_dd0.3.34.50.45.50_dhF7B194.30.50.50.0_di8_qa_qb_dc0.1.F7B194.5.F7B194_eh_ea33.13759C.61BCD1.13759C.1.0_ec0.84.13759C.61BCD1.13759C.48.68.0_ed15.70.1.1.13759C.61BCD1_ef_eg_r0057.13759C.7AC6D8.61BCD1.0.0.67.100.360.613.581.1_fa21.50.50.60.50.65.56_fb9_fh1_fc1.6FBEC9.55.1.6FBEC9.55.50.61.61.50.50.50_fd1.0.39.13759C.56_fe58.61_ff0000000000_fg2.50_pa0.0.0.0.40.50.85.85.0.0_t00_pb_pc_pd_pe_ga0_gb1_gc30.0_ge0000000000_gh_gf_gg_gd11000000_ha100.100_hb49.1.44.99_hc0.59.39.0.59.39_hd40.1.49.49_ia_if_ib_id_ic_jc_ie_ja_jb_jd_je_jf_jg_ka_kb_kc_kd_ke_kf_la_lb_oa_os_ob_oc_od_oe_of_lc_m00_n00_s00_og_oh_oo_op_oq_or_om_on_ok_ol_oi_oj_ad0.0.0.0.0.0.0.0.0.0
3-disappointed=47**aa13.63.1.16.50.7.91.1.26.43_ab_ac_ba50_bb6.1_bc185.500.0.0.1_bd6_be180_ca59.0.40.59.24.34.34.0.10_cb0_daEAC2AC.0.0.100_db_dd0.3.34.50.45.50_dhF7B194.30.50.50.0_di8_qa_qb_dc0.1.F7B194.5.F7B194_eh_ea33.13759C.61BCD1.13759C.1.0_ec0.84.13759C.61BCD1.13759C.48.68.0_ed15.70.1.1.13759C.61BCD1_ef_eg_r0057.13759C.7AC6D8.61BCD1.0.0.67.100.360.613.581.1_fa21.50.50.60.50.44.56_fb9_fh1_fc1.6FBEC9.55.1.6FBEC9.55.50.61.61.50.50.50_fd0.0.12.13759C.56_fe58.61_ff0000000000_fg2.50_pa0.0.0.0.40.50.85.85.0.0_t00_pb_pc_pd_pe_ga0_gb1_gc30.0_ge0000000000_gh_gf_gg_gd10000000_ha85.85_hb49.1.44.99_hc3.59.39.3.59.39_hd12.1.90.49_ia_if_ib_id_ic_jc_ie_ja_jb_jd_je_jf_jg_ka_kb_kc_kd_ke_kf_la_lb_oa_os_ob_oc_od_oe_of_lc_m00_n00_s00_og_oh_oo_op_oq_or_om_on_ok_ol_oi_oj_ad0.0.0.0.0.0.0.0.0.0
3-horny=47**aa31.74.1.10.100.61.39.1.11.79_ab_ac_ba35_bb0.1_bc185.500.0.0.1_bd25_be180_ca59.0.40.59.24.34.34.0.10_cb0_daEAC2AC.0.0.100_db_dd0.3.34.50.45.50_dhF7B194.30.50.50.0_di8_qa_qb_dc0.1.F7B194.5.F7B194_eh_ea33.13759C.61BCD1.13759C.1.0_ec0.84.13759C.61BCD1.13759C.48.68.0_ed15.70.1.1.13759C.61BCD1_ef_eg_r0057.13759C.7AC6D8.61BCD1.0.0.67.100.360.613.581.1_fa21.50.50.60.50.65.56_fb9_fh1_fc1.6FBEC9.55.1.6FBEC9.55.50.61.61.50.50.50_fd1.0.21.13759C.56_fe58.61_ff0000000000_fg2.50_pa0.0.0.0.40.50.85.85.0.0_t00_pb_pc_pd_pe_ga0_gb1_gc30.0_ge0000000000_gh_gf_gg_gd10000000_ha75.75_hb49.1.44.99_hc2.41.39.2.41.39_hd20.1.74.49_ia_if_ib_id_ic_jc_ie_ja_jb_jd_je_jf_jg_ka_kb_kc_kd_ke_kf_la_lb_oa_os_ob_oc_od_oe_of_lc_m00_n00_s00_og_oh_oo_op_oq_or_om_on_ok_ol_oi_oj_ad0.0.0.0.0.0.0.0.0.0

#masturbating
4-happy=47**aa23.43.1.34.51.7.91.1.25.38_ab_ac_ba50_bb17.1_bc185.500.0.0.1_bd6_be180_ca59.0.40.59.24.34.34.0.10_cb0_daEAC2AC.0.0.100_db_dd0.3.34.50.45.50_dhF7B194.30.50.50.0_di8_qa_qb_dc34.1.EA8CAD.5.EA8CAD_eh_ea33.13759C.61BCD1.13759C.1.0_ec0.84.13759C.61BCD1.13759C.48.68.0_ed15.70.1.1.13759C.61BCD1_ef_eg_r0057.13759C.7AC6D8.61BCD1.0.0.67.100.360.613.581.1_fa21.50.50.60.50.44.56_fb9_fh1_fc1.6FBEC9.55.1.6FBEC9.55.50.61.61.50.50.50_fd0.0.12.13759C.56_fe58.61_ff0000000000_fg2.50_pa0.0.0.0.40.50.85.85.0.0_t00_pb_pc_pd_pe_ga0_gb1_gc50.0_ge0000000000_gh_gf_gg_gd10000000_ha89.89_hb49.1.44.99_hc2.59.39.2.59.39_hd22.1.90.49_ia_if_ib_id_ic_jc_ie_ja_jb_jd_je_jf_jg_ka_kb_kc_kd_ke_kf_la_lb_oa_os_ob_oc_od_oe_of_lc_m00_n00_s00_og_oh_oo_op_oq_or_om_on_ok_ol_oi_oj_ad0.0.0.0.0.0.0.0.0.0
4-angry=47**aa9.90.1.4.64.6.100.0.43.64_ab_ac_ba55_bb26.1_bc185.500.0.0.1_bd15_be180_ca59.0.40.59.24.34.34.0.10_cb0_daEAC2AC.0.0.100_db_dd0.3.34.50.45.50_dhF7B194.30.50.50.0_di8_qa_qb_dc34.1.EA8CAD.5.EA8CAD_eh_ea33.13759C.61BCD1.13759C.1.0_ec0.84.13759C.61BCD1.13759C.48.68.0_ed15.70.1.1.13759C.61BCD1_ef_eg_r0057.13759C.7AC6D8.61BCD1.0.0.67.100.360.613.581.1_fa21.50.50.60.50.65.56_fb9_fh1_fc1.6FBEC9.55.1.6FBEC9.55.50.61.61.50.50.50_fd1.0.21.13759C.56_fe58.61_ff0000000000_fg2.50_pa0.0.0.0.40.50.85.85.0.0_t00_pb_pc_pd_pe_ga0_gb1_gc50.0_ge0000000000_gh_gf_gg_gd10000000_ha70.70_hb49.1.44.99_hc2.43.39.2.43.39_hd33.1.100.49_ia_if_ib_id_ic_jc_ie_ja_jb_jd_je_jf_jg_ka_kb_kc_kd_ke_kf_la_lb_oa_os_ob_oc_od_oe_of_lc_m00_n00_s00_og_oh_oo_op_oq_or_om_on_ok_ol_oi_oj_ad0.0.0.0.0.0.0.0.0.0
4-shy=47**aa15.68.1.6.49.8.89.1.22.62_ab_ac_ba25_bb44.1_bc185.500.0.0.1_bd13_be180_ca59.0.40.59.24.34.34.0.10_cb0_daEAC2AC.0.0.100_db_dd0.3.34.50.45.50_dhF7B194.30.50.50.0_di8_qa_qb_dc34.1.EA8CAD.5.EA8CAD_eh_ea33.13759C.61BCD1.13759C.1.0_ec0.84.13759C.61BCD1.13759C.48.68.0_ed15.70.1.1.13759C.61BCD1_ef_eg_r0057.13759C.7AC6D8.61BCD1.0.0.67.100.360.613.581.1_fa21.50.50.60.50.65.56_fb9_fh1_fc1.6FBEC9.55.1.6FBEC9.55.50.61.61.50.50.50_fd1.0.41.13759C.56_fe58.61_ff0000000000_fg2.50_pa0.0.0.0.40.50.85.85.0.0_t00_pb_pc_pd_pe_ga0_gb1_gc50.0_ge0000000000_gh_gf_gg_gd10000000_ha18.18_hb49.1.44.99_hc0.59.39.0.59.39_hd9.1.49.49_ia_if_ib_id_ic_jc_ie_ja_jb_jd_je_jf_jg_ka_kb_kc_kd_ke_kf_la_lb_oa_os_ob_oc_od_oe_of_lc_m00_n00_s00_og_oh_oo_op_oq_or_om_on_ok_ol_oi_oj_ad0.0.0.0.0.0.0.0.0.0
4-normal=47**aa7.93.1.5.49.13.66.1.45.45_ab_ac_ba35_bb13.1_bc185.500.0.0.1_bd3_be180_ca59.0.40.59.24.34.34.0.10_cb0_daEAC2AC.0.0.100_db_dd0.3.34.50.45.50_dhF7B194.30.50.50.0_di8_qa_qb_dc34.1.EA8CAD.5.EA8CAD_eh_ea33.13759C.61BCD1.13759C.1.0_ec0.84.13759C.61BCD1.13759C.48.68.0_ed15.70.1.1.13759C.61BCD1_ef_eg_r0057.13759C.7AC6D8.61BCD1.0.0.67.100.360.613.581.1_fa21.50.50.60.50.65.56_fb9_fh1_fc1.6FBEC9.55.1.6FBEC9.55.50.61.61.50.50.50_fd1.0.21.13759C.56_fe58.61_ff0000000000_fg2.50_pa0.0.0.0.40.50.85.85.0.0_t00_pb_pc_pd_pe_ga0_gb1_gc50.0_ge0000000000_gh_gf_gg_gd10000000_ha22.22_hb49.1.44.99_hc0.59.39.0.59.39_hd39.1.49.49_ia_if_ib_id_ic_jc_ie_ja_jb_jd_je_jf_jg_ka_kb_kc_kd_ke_kf_la_lb_oa_os_ob_oc_od_oe_of_lc_m00_n00_s00_og_oh_oo_op_oq_or_om_on_ok_ol_oi_oj_ad0.0.0.0.0.0.0.0.0.0
4-confident=47**aa6.92.1.4.37.6.91.1.45.64_ab_ac_ba25_bb13.1_bc185.500.0.0.1_bd6_be180_ca59.0.40.59.24.34.34.0.10_cb0_daEAC2AC.0.0.100_db_dd0.3.34.50.45.50_dhF7B194.30.50.50.0_di8_qa_qb_dc34.1.EA8CAD.5.EA8CAD_eh_ea33.13759C.61BCD1.13759C.1.0_ec0.84.13759C.61BCD1.13759C.48.68.0_ed15.70.1.1.13759C.61BCD1_ef_eg_r0057.13759C.7AC6D8.61BCD1.0.0.67.100.360.613.581.1_fa21.50.50.60.50.65.56_fb9_fh1_fc1.6FBEC9.55.1.6FBEC9.55.50.61.61.50.50.50_fd1.0.21.13759C.56_fe58.61_ff0000000000_fg2.50_pa0.0.0.0.40.50.85.85.0.0_t00_pb_pc_pd_pe_ga0_gb1_gc50.0_ge0000000000_gh_gf_gg_gd10000000_ha30.75_hb49.1.44.99_hc2.40.39.2.40.39_hd35.1.74.49_ia_if_ib_id_ic_jc_ie_ja_jb_jd_je_jf_jg_ka_kb_kc_kd_ke_kf_la_lb_oa_os_ob_oc_od_oe_of_lc_m00_n00_s00_og_oh_oo_op_oq_or_om_on_ok_ol_oi_oj_ad0.0.0.0.0.0.0.0.0.0
4-despair=47**aa6.99.1.26.44.9.93.1.25.29_ab_ac_ba46_bb14.1_bc185.500.0.0.1_bd7_be180_ca59.0.40.59.24.34.34.0.10_cb0_daEAC2AC.0.0.100_db_dd0.3.34.50.45.50_dhF7B194.30.50.50.0_di8_qa_qb_dc34.1.EA8CAD.5.EA8CAD_eh_ea33.13759C.61BCD1.13759C.1.0_ec0.84.13759C.61BCD1.13759C.48.68.0_ed15.70.1.1.13759C.61BCD1_ef_eg_r0057.13759C.7AC6D8.61BCD1.0.0.67.100.360.613.581.1_fa21.50.50.60.50.65.56_fb9_fh1_fc1.6FBEC9.55.1.6FBEC9.55.50.61.61.50.50.50_fd1.0.39.13759C.56_fe58.61_ff0000000000_fg2.50_pa0.0.0.0.40.50.85.85.0.0_t00_pb_pc_pd_pe_ga0_gb1_gc50.0_ge0000000000_gh_gf_gg_gd11000000_ha40.40_hb49.1.44.99_hc0.59.39.0.59.39_hd43.1.49.49_ia_if_ib_id_ic_jc_ie_ja_jb_jd_je_jf_jg_ka_kb_kc_kd_ke_kf_la_lb_oa_os_ob_oc_od_oe_of_lc_m00_n00_s00_og_oh_oo_op_oq_or_om_on_ok_ol_oi_oj_ad0.0.0.0.0.0.0.0.0.0
4-disappointed=47**aa12.69.1.49.36.10.89.1.27.38_ab_ac_ba50_bb6.1_bc185.500.0.0.1_bd6_be180_ca59.0.40.59.24.34.34.0.10_cb0_daEAC2AC.0.0.100_db_dd0.3.34.50.45.50_dhF7B194.30.50.50.0_di8_qa_qb_dc34.1.EA8CAD.5.EA8CAD_eh_ea33.13759C.61BCD1.13759C.1.0_ec0.84.13759C.61BCD1.13759C.48.68.0_ed15.70.1.1.13759C.61BCD1_ef_eg_r0057.13759C.7AC6D8.61BCD1.0.0.67.100.360.613.581.1_fa21.50.50.60.50.44.56_fb9_fh1_fc1.6FBEC9.55.1.6FBEC9.55.50.61.61.50.50.50_fd0.0.12.13759C.56_fe58.61_ff0000000000_fg2.50_pa0.0.0.0.40.50.85.85.0.0_t00_pb_pc_pd_pe_ga0_gb1_gc50.0_ge0000000000_gh_gf_gg_gd10000000_ha85.85_hb0.1.44.99_hc3.59.39.3.59.39_hd12.1.90.49_ia_if_ib_id_ic_jc_ie_ja_jb_jd_je_jf_jg_ka_kb_kc_kd_ke_kf_la_lb_oa_os_ob_oc_od_oe_of_lc_m00_n00_s00_og_oh_oo_op_oq_or_om_on_ok_ol_oi_oj_ad0.0.0.0.0.0.0.0.0.0
4-horny=47**aa6.90.1.27.68.68.39.1.11.79_ab_ac_ba35_bb0.1_bc185.500.0.0.1_bd25_be180_ca59.0.40.59.24.34.34.0.10_cb0_daEAC2AC.0.0.100_db_dd0.3.34.50.45.50_dhF7B194.30.50.50.0_di8_qa_qb_dc67.1.EA8CAD.5.EA8CAD_eh_ea33.13759C.61BCD1.13759C.1.0_ec0.84.13759C.61BCD1.13759C.48.68.0_ed15.70.1.1.13759C.61BCD1_ef_eg_r0057.13759C.7AC6D8.61BCD1.0.0.67.100.360.613.581.1_fa21.50.50.60.50.65.56_fb9_fh1_fc1.6FBEC9.55.1.6FBEC9.55.50.61.61.50.50.50_fd1.0.21.13759C.56_fe58.61_ff0000000000_fg2.50_pa0.0.0.0.40.50.85.85.0.0_t00_pb_pc_pd_pe_ga0_gb1_gc50.0_ge0000000000_gh_gf_gg_gd10000000_ha75.75_hb49.1.44.99_hc2.41.39.2.41.39_hd55.1.74.49_ia_if_ib_id_ic_jc_ie_ja_jb_jd_je_jf_jg_ka_kb_kc_kd_ke_kf_la_lb_oa_os_ob_oc_od_oe_of_lc_m00_n00_s00_og_oh_oo_op_oq_or_om_on_ok_ol_oi_oj_ad0.0.0.0.0.0.0.0.0.0

#finished
5-happy=47**aa34.76.1.28.10.34.76.1.28.10_ab_ac_ba50_bb17.1_bc185.500.0.0.1_bd6_be180_ca59.0.40.59.24.34.34.0.10_cb0_daEAC2AC.0.0.100_db_dd0.3.34.50.45.50_dhF7B194.30.50.50.0_di8_qa_qb_dc1130.0.EA8CAD.6.5_eh_ea33.13759C.61BCD1.13759C.1.0_ec0.84.13759C.61BCD1.13759C.48.68.0_ed15.70.1.1.13759C.61BCD1_ef_eg_r0057.13759C.7AC6D8.61BCD1.0.0.67.100.360.613.581.1_fa21.50.50.60.50.44.56_fb9_fh1_fc1.6FBEC9.55.1.6FBEC9.55.50.61.61.50.50.50_fd0.0.12.13759C.56_fe58.61_ff0000000000_fg2.50_pa0.0.0.0.40.50.85.85.0.0_t00_pb_pc_pd_pe_ga0_gb1_gc20.0_ge0000000000_gh_gf_gg_gd10000000_ha89.89_hb49.1.44.99_hc2.59.39.2.59.39_hd34.1.90.49_ia_if_ib_id_ic_jc_ie_ja_jb_jd_je_jf_jg_ka_kb_kc_kd_ke_kf_la_lb_oa_os_ob_oc_od_oe_of_lc_m00_n00_s00_og_oh_oo_op_oq_or_om_on_ok_ol_oi_oj_ad0.0.0.0.0.0.0.0.1.0
5-angry=47**aa32.78.1.27.10.12.44.1.43.78_ab_ac_ba55_bb26.1_bc185.500.0.0.1_bd15_be180_ca59.0.40.59.24.34.34.0.10_cb0_daEAC2AC.0.0.100_db_dd0.3.34.50.45.50_dhF7B194.30.50.50.0_di8_qa_qb_dc1172.0.EA8CAD.6.5_eh_ea33.13759C.61BCD1.13759C.1.0_ec0.84.13759C.61BCD1.13759C.48.68.0_ed15.70.1.1.13759C.61BCD1_ef_eg_r0057.13759C.7AC6D8.61BCD1.0.0.67.100.360.613.581.1_fa21.50.50.60.50.65.56_fb9_fh1_fc1.6FBEC9.55.1.6FBEC9.55.50.61.61.50.50.50_fd1.0.21.13759C.56_fe58.61_ff0000000000_fg2.50_pa0.0.0.0.40.50.85.85.0.0_t00_pb_pc_pd_pe_ga0_gb1_gc20.0_ge0000000000_gh_gf_gg_gd10000000_ha70.70_hb49.1.44.99_hc2.43.39.2.43.39_hd28.1.100.49_ia_if_ib_id_ic_jc_ie_ja_jb_jd_je_jf_jg_ka_kb_kc_kd_ke_kf_la_lb_oa_os_ob_oc_od_oe_of_lc_m00_n00_s00_og_oh_oo_op_oq_or_om_on_ok_ol_oi_oj_ad0.0.0.0.0.0.0.0.1.0
5-shy=47**aa20.79.0.17.50.20.79.0.17.60_ab_ac_ba25_bb44.1_bc185.500.0.0.1_bd13_be180_ca59.0.40.59.24.34.34.0.10_cb0_daEAC2AC.0.0.100_db_dd0.3.34.50.45.50_dhF7B194.30.50.50.0_di8_qa_qb_dc1209.0.EA8CAD.6.5_eh_ea33.13759C.61BCD1.13759C.1.0_ec0.84.13759C.61BCD1.13759C.48.68.0_ed15.70.1.1.13759C.61BCD1_ef_eg_r0057.13759C.7AC6D8.61BCD1.0.0.67.100.360.613.581.1_fa21.50.50.60.50.65.56_fb9_fh1_fc1.6FBEC9.55.1.6FBEC9.55.50.61.61.50.50.50_fd1.0.41.13759C.56_fe58.61_ff0000000000_fg2.50_pa0.0.0.0.40.50.85.85.0.0_t00_pb_pc_pd_pe_ga0_gb1_gc20.0_ge0000000000_gh_gf_gg_gd10000000_ha100.100_hb49.1.44.99_hc2.72.39.2.72.39_hd7.1.84.49_ia_if_ib_id_ic_jc_ie_ja_jb_jd_je_jf_jg_ka_kb_kc_kd_ke_kf_la_lb_oa_os_ob_oc_od_oe_of_lc_m00_n00_s00_og_oh_oo_op_oq_or_om_on_ok_ol_oi_oj_ad0.0.0.0.0.0.0.0.1.0
5-normal=47**aa36.39.1.49.50.30.77.1.0.88_ab_ac_ba35_bb13.1_bc185.500.0.0.1_bd3_be180_ca59.0.40.59.24.34.34.0.10_cb0_daEAC2AC.0.0.100_db_dd0.3.34.50.45.50_dhF7B194.30.50.50.0_di8_qa_qb_dc1248.0.EA8CAD.6.5_eh_ea33.13759C.61BCD1.13759C.1.0_ec0.84.13759C.61BCD1.13759C.48.68.0_ed15.70.1.1.13759C.61BCD1_ef_eg_r0057.13759C.7AC6D8.61BCD1.0.0.67.100.360.613.581.1_fa21.50.50.60.50.65.56_fb9_fh1_fc1.6FBEC9.55.1.6FBEC9.55.50.61.61.50.50.50_fd1.0.21.13759C.56_fe58.61_ff0000000000_fg2.50_pa0.0.0.0.40.50.85.85.0.0_t00_pb_pc_pd_pe_ga0_gb1_gc20.0_ge0000000000_gh_gf_gg_gd10000000_ha89.89_hb49.1.44.99_hc0.59.39.0.59.39_hd0.1.49.49_ia_if_ib_id_ic_jc_ie_ja_jb_jd_je_jf_jg_ka_kb_kc_kd_ke_kf_la_lb_oa_os_ob_oc_od_oe_of_lc_m00_n00_s00_og_oh_oo_op_oq_or_om_on_ok_ol_oi_oj_ad0.0.0.0.0.0.0.0.1.0
5-confident=47**aa86.85.1.11.0.8.30.1.8.96_ab_ac_ba25_bb13.1_bc185.500.0.0.1_bd6_be180_ca59.0.40.59.24.34.34.0.10_cb0_daEAC2AC.0.0.100_db_dd0.3.34.50.45.50_dhF7B194.30.50.50.0_di8_qa_qb_dc1255.0.EA8CAD.6.5_eh_ea33.13759C.61BCD1.13759C.1.0_ec0.84.13759C.61BCD1.13759C.48.68.0_ed15.70.1.1.13759C.61BCD1_ef_eg_r0057.13759C.7AC6D8.61BCD1.0.0.67.100.360.613.581.1_fa21.50.50.60.50.65.56_fb9_fh1_fc1.6FBEC9.55.1.6FBEC9.55.50.61.61.50.50.50_fd1.0.21.13759C.56_fe58.61_ff0000000000_fg2.50_pa0.0.0.0.40.50.85.85.0.0_t00_pb_pc_pd_pe_ga0_gb1_gc20.0_ge0000000000_gh_gf_gg_gd10000000_ha75.75_hb49.1.44.99_hc2.40.39.2.40.39_hd35.1.74.49_ia_if_ib_id_ic_jc_ie_ja_jb_jd_je_jf_jg_ka_kb_kc_kd_ke_kf_la_lb_oa_os_ob_oc_od_oe_of_lc_m00_n00_s00_og_oh_oo_op_oq_or_om_on_ok_ol_oi_oj_ad0.0.0.0.0.0.0.0.1.0
5-despair=47**aa7.55.1.28.44.7.55.1.28.44_ab_ac_ba46_bb14.1_bc185.500.0.0.1_bd7_be180_ca59.0.40.59.24.34.34.0.10_cb0_daEAC2AC.0.0.100_db_dd0.3.34.50.45.50_dhF7B194.30.50.50.0_di8_qa_qb_dc1272.0.EA8CAD.6.5_eh_ea33.13759C.61BCD1.13759C.1.0_ec0.84.13759C.61BCD1.13759C.48.68.0_ed15.70.1.1.13759C.61BCD1_ef_eg_r0057.13759C.7AC6D8.61BCD1.0.0.67.100.360.613.581.1_fa21.50.50.60.50.65.56_fb9_fh1_fc1.6FBEC9.55.1.6FBEC9.55.50.61.61.50.50.50_fd1.0.39.13759C.56_fe58.61_ff0000000000_fg2.50_pa0.0.0.0.40.50.85.85.0.0_t00_pb_pc_pd_pe_ga0_gb1_gc20.0_ge0000000000_gh_gf_gg_gd11000000_ha100.100_hb49.1.44.99_hc0.59.39.0.59.39_hd40.1.49.49_ia_if_ib_id_ic_jc_ie_ja_jb_jd_je_jf_jg_ka_kb_kc_kd_ke_kf_la_lb_oa_os_ob_oc_od_oe_of_lc_m00_n00_s00_og_oh_oo_op_oq_or_om_on_ok_ol_oi_oj_ad0.0.0.0.0.0.0.0.1.0
5-disappointed=47**aa20.59.1.16.50.20.59.1.16.50_ab_ac_ba50_bb6.1_bc185.500.0.0.1_bd6_be180_ca59.0.40.59.24.34.34.0.10_cb0_daEAC2AC.0.0.100_db_dd0.3.34.50.45.50_dhF7B194.30.50.50.0_di8_qa_qb_dc1304.0.EA8CAD.6.5_eh_ea33.13759C.61BCD1.13759C.1.0_ec0.84.13759C.61BCD1.13759C.48.68.0_ed15.70.1.1.13759C.61BCD1_ef_eg_r0057.13759C.7AC6D8.61BCD1.0.0.67.100.360.613.581.1_fa21.50.50.60.50.44.56_fb9_fh1_fc1.6FBEC9.55.1.6FBEC9.55.50.61.61.50.50.50_fd0.0.12.13759C.56_fe58.61_ff0000000000_fg2.50_pa0.0.0.0.40.50.85.85.0.0_t00_pb_pc_pd_pe_ga0_gb1_gc20.0_ge0000000000_gh_gf_gg_gd10000000_ha85.85_hb49.1.44.99_hc3.59.39.3.59.39_hd12.1.90.49_ia_if_ib_id_ic_jc_ie_ja_jb_jd_je_jf_jg_ka_kb_kc_kd_ke_kf_la_lb_oa_os_ob_oc_od_oe_of_lc_m00_n00_s00_og_oh_oo_op_oq_or_om_on_ok_ol_oi_oj_ad0.0.0.0.0.0.0.0.1.0
5-horny=47**aa31.74.1.10.100.61.39.1.11.79_ab_ac_ba35_bb0.1_bc185.500.0.0.1_bd25_be180_ca59.0.40.59.24.34.34.0.10_cb0_daEAC2AC.0.0.100_db_dd0.3.34.50.45.50_dhF7B194.30.50.50.0_di8_qa_qb_dc501.1.EA8CAD.5.EA8CAD_eh_ea33.13759C.61BCD1.13759C.1.0_ec0.84.13759C.61BCD1.13759C.48.68.0_ed15.70.1.1.13759C.61BCD1_ef_eg_r0057.13759C.7AC6D8.61BCD1.0.0.67.100.360.613.581.1_fa21.50.50.60.50.65.56_fb9_fh1_fc1.6FBEC9.55.1.6FBEC9.55.50.61.61.50.50.50_fd1.0.21.13759C.56_fe58.61_ff0000000000_fg2.50_pa0.0.0.0.40.50.85.85.0.0_t00_pb_pc_pd_pe_ga0_gb1_gc20.0_ge0000000000_gh_gf_gg_gd10000000_ha75.75_hb49.1.44.99_hc2.41.39.2.41.39_hd20.1.74.49_ia_if_ib_id_ic_jc_ie_ja_jb_jd_je_jf_jg_ka_kb_kc_kd_ke_kf_la_lb_oa_os_ob_oc_od_oe_of_lc_m00_n00_s00_og_oh_oo_op_oq_or_om_on_ok_ol_oi_oj_ad0.0.0.0.0.0.0.0.1.0

