0-calm=47**aa11.0.1.3.100.25.81.0.41.50_ab_ac_ba50_bb15.1_bc185.500.0.0.1_bd15_be180_ca56.0.40.75.50.34.34.0.10_cb0_da1.0.0.100_db_dd9.0.34.30.45.50_dh1.30.50.50.0_di5_qa_qb_dc0.5.1.1.1_eh0.16_ea2.16.16.56.0.0_ec5.47.16.16.56.40.64.1_ed3.50.1.1.16.56_ef3.2.50.16.16.56_eg3.2.50.16.16.56_r00_fa2.50.65.55.65.65.56_fb8_fh_fc2.36.55.2.36.55.55.61.61.55.50.50_fd1.0.25.16.56_fe50.73_ff0000000000_fg0.69_pa0.0.0.0.40.50.85.85.0.0_t00_pb_pc_pd_pe_ga0_gb1_gc0.0_ge0000000000_gh_gf_gg_gd10000000_ha70.70_hb49.1.44.99_hc0.59.39.0.59.39_hd0.1.49.49_ia_if_ib_id_ic_jc_ie_ja_jb_jd3.1.1.50_je3.1.1.50_jf_jg_ka12.1.60.0.0_kb12.1.60.0_kc_kd_ke_kf_la_lb_oa_os_ob_oc_od_oe_of_lc_m0037.43.3.0.0.2.17.13.57.53.3.61_n00_s00_og_oh_oo_op_oq_or_om_on_ok_ol_oi_oj_ad0.0.0.0.0.0.0.0.0.0
0-happy=40**aa28.77.0.0.89.17.41.0.16.51_ab_ac_ba50_bb17.1_bc237.500.8.0.1_bd17_be180_ca56.0.40.75.50.34.34.0.10_cb0_da1.0.0.100_db_dd9.0.34.30.45_dh1.30.50.50.0_di5_qa_qb_dc0.5.1.1.1_eh0.16_ea2.16.16.56.0.0_ec5.47.16.16.56.40.64.1_ed3.50.1.1.16.56_ef3.2.50.16.16.56_eg3.2.50.16.16.56_r0_fa2.50.65.55.65.65.56_fb8_fh_fc2.36.55.2.36.55.55.61.61.55.50.50_fd1.0.25.16.56_fe50.73_ff0000000000_fg0.69_pa0.0.0.0.40.50.85.85.0.0_t0_pb_pc_pd_pe_ga0_gb1_gc0.0_ge0000000000_gh_gf_gg_gd10000000_ha75.75_hb49.1.44.99_hc0.59.39.0.59.39_hd27.1.49.49_ia_if_ib_id_ic_jc_ie_ja_jb_jd3.1.1.57_je3.1.1.57_jf_jg_ka12.1.60.60.0_kb12.1.60.60_kc_kd_ke_kf_la_lb_oa_os_ob_oc_od_oe_of_lc_m037.43.3.0.0.2.17.13.57.53.3.61_n0_s0_og_oh_oo_op_oq_or_om_on_ok_ol_oi_oj_ad0.0.0.0.0.0.0.0.0.0
0-sad=40**aa13.95.1.42.42.13.95.1.42.42_ab_ac_ba50_bb17.1_bc325.500.8.0.1_bd17_be180_ca56.0.40.75.50.34.34.0.10_cb0_da1.0.0.100_db_dd9.0.34.30.45_dh1.30.50.50.0_di5_qa_qb_dc0.5.1.1.1_eh0.16_ea2.16.16.56.0.0_ec5.47.16.16.56.40.64.1_ed3.50.1.1.16.56_ef3.2.50.16.16.56_eg3.2.50.16.16.56_r0_fa2.50.65.55.65.80.56_fb8_fh_fc2.36.55.2.36.55.55.61.61.55.50.50_fd1.0.25.16.56_fe50.73_ff0000000000_fg0.69_pa0.0.0.0.40.50.85.85.0.0_t0_pb_pc_pd_pe_ga0_gb1_gc0.0_ge0000000000_gh_gf_gg_gd10000000_ha66.66_hb49.1.40.99_hc0.59.39.0.59.39_hd39.1.49.49_ia_if_ib_id_ic_jc_ie_ja_jb_jd3.1.1.57_je3.1.1.57_jf_jg_ka12.1.60.60.0_kb12.1.60.60_kc_kd_ke_kf_la_lb_oa_os_ob_oc_od_oe_of_lc_m037.43.3.0.0.2.17.13.57.53.3.61_n0_s0_og_oh_oo_op_oq_or_om_on_ok_ol_oi_oj_ad0.0.0.0.0.0.0.0.0.0
0-loss=40**aa11.93.1.42.26.11.93.1.42.26_ab_ac_ba50_bb17.1_bc412.500.8.0.1_bd17_be180_ca56.0.40.75.50.34.34.0.10_cb0_da1.0.0.100_db_dd9.0.34.30.45_dh1.30.50.50.0_di5_qa_qb_dc0.5.1.1.1_eh0.16_ea2.16.16.56.0.0_ec5.47.16.16.56.40.64.1_ed3.50.1.1.16.56_ef3.2.50.16.16.56_eg3.2.50.16.16.56_r0_fa2.50.65.55.65.46.56_fb8_fh_fc2.36.55.2.36.55.55.61.61.55.50.50_fd1.0.25.16.56_fe50.73_ff0000000000_fg0.69_pa0.0.0.0.40.50.85.85.0.0_t0_pb_pc_pd_pe_ga0_gb1_gc0.0_ge0000000000_gh_gf_gg_gd10000000_ha64.64_hb49.1.40.99_hc0.36.39.0.36.39_hd12.1.49.49_ia_if_ib_id_ic_jc_ie_ja_jb_jd3.1.1.57_je3.1.1.57_jf_jg_ka12.1.60.60.0_kb12.1.60.60_kc_kd_ke_kf_la_lb_oa_os_ob_oc_od_oe_of_lc_m037.43.3.0.0.2.17.13.57.53.3.61_n0_s0_og_oh_oo_op_oq_or_om_on_ok_ol_oi_oj_ad0.0.0.0.0.0.0.0.0.0
0-interested=40**aa21.76.0.0.89.21.76.0.16.51_ab_ac_ba50_bb18.1_bc500.500.8.0.1_bd18_be180_ca56.0.40.75.50.34.34.0.10_cb0_da1.0.0.100_db_dd9.0.34.30.45_dh1.30.50.50.0_di5_qa_qb_dc0.5.1.1.1_eh0.16_ea2.16.16.56.0.0_ec5.47.16.16.56.40.64.1_ed3.50.1.1.16.56_ef3.2.50.16.16.56_eg3.2.50.16.16.56_r0_fa2.50.65.55.65.65.56_fb8_fh_fc2.36.55.2.36.55.55.61.61.55.50.50_fd1.0.25.16.56_fe50.73_ff0000000000_fg0.69_pa0.0.0.0.40.50.85.85.0.0_t0_pb_pc_pd_pe_ga0_gb1_gc10.0_ge0000000000_gh_gf_gg_gd10000000_ha11.80_hb49.1.44.99_hc0.73.39.0.73.39_hd20.1.49.49_ia_if_ib_id_ic_jc_ie_ja_jb_jd3.1.1.57_je3.1.1.57_jf_jg_ka12.1.60.60.0_kb12.1.60.60_kc_kd_ke_kf_la_lb_oa_os_ob_oc_od_oe_of_lc_m037.43.3.0.0.2.17.13.57.53.3.61_n0_s0_og_oh_oo_op_oq_or_om_on_ok_ol_oi_oj_ad0.0.0.0.0.0.0.0.0.0
0-horny=40**aa6.91.1.42.35.6.91.1.42.35_ab_ac_ba50_bb14.1_bc587.500.8.0.1_bd46_be180_ca56.0.40.75.50.34.34.0.10_cb0_da1.0.0.100_db_dd0.0.34.30.45_dh1.30.50.50.0_di5_qa_qb_dc0.5.1.1.1_eh0.16_ea2.16.16.56.0.0_ec5.47.16.16.56.40.64.1_ed3.50.1.1.16.56_ef3.2.50.16.16.56_eg3.2.50.16.16.56_r0_fa2.50.65.55.65.65.56_fb8_fh_fc2.36.55.2.36.55.55.61.61.55.50.50_fd1.0.25.16.56_fe50.73_ff0000000000_fg0.69_pa0.0.0.0.40.50.85.85.0.0_t0_pb_pc_pd_pe_ga0_gb1_gc20.0_ge0000000000_gh_gf_gg_gd10000000_ha85.85_hb49.1.44.99_hc0.59.39.0.59.39_hd24.1.49.49_ia_if_ib_id_ic_jc_ie_ja_jb_jd3.1.1.57_je3.1.1.57_jf_jg_ka12.1.60.60.0_kb12.1.60.60_kc_kd_ke_kf_la_lb_oa_os_ob_oc_od_oe_of_lc_m037.43.3.0.0.2.17.13.57.53.3.61_n0_s0_og_oh_oo_op_oq_or_om_on_ok_ol_oi_oj_ad0.0.0.0.0.0.0.0.0.0
0-shocked=40**aa9.100.1.42.70.9.100.1.42.70_ab_ac_ba50_bb17.1_bc675.500.8.0.1_bd17_be180_ca56.0.40.75.50.34.34.0.10_cb0_da1.0.0.100_db_dd0.0.34.30.45_dh1.30.50.50.0_di5_qa_qb_dc0.5.1.1.1_eh0.16_ea2.16.16.56.0.0_ec5.47.16.16.56.40.64.1_ed3.50.1.1.16.56_ef3.2.50.16.16.56_eg3.2.50.16.16.56_r0_fa2.50.65.55.65.48.56_fb8_fh_fc2.36.55.2.36.55.55.61.61.55.50.50_fd1.0.25.16.56_fe50.73_ff0000000000_fg0.69_pa0.0.0.0.40.50.85.85.0.0_t0_pb_pc_pd_pe_ga0_gb1_gc20.0_ge0000000000_gh_gf_gg_gd10000000_ha85.85_hb49.1.44.50_hc0.59.39.0.59.39_hd41.1.49.49_ia_if_ib_id_ic_jc_ie_ja_jb_jd3.1.1.57_je3.1.1.57_jf_jg_ka12.1.60.60.0_kb12.1.60.60_kc_kd_ke_kf_la_lb_oa_os_ob_oc_od_oe_of_lc_m037.43.3.0.0.2.17.13.57.53.3.61_n0_s0_og_oh_oo_op_oq_or_om_on_ok_ol_oi_oj_ad0.0.0.0.0.0.0.0.0.0
0-awkward=40**aa20.79.1.16.39.20.79.1.16.39_ab_ac_ba50_bb15.1_bc762.500.8.0.1_bd15_be180_ca56.0.40.75.50.34.34.0.10_cb0_da1.0.0.100_db_dd9.0.34.30.45_dh1.30.50.50.0_di5_qa_qb_dc0.5.1.1.1_eh0.16_ea2.16.16.56.0.0_ec5.47.16.16.56.40.64.1_ed3.50.1.1.16.56_ef3.2.50.16.16.56_eg3.2.50.16.16.56_r0_fa2.50.65.55.65.65.56_fb8_fh_fc2.36.55.2.36.55.55.61.61.55.50.50_fd1.0.25.16.56_fe50.73_ff0000000000_fg0.69_pa0.0.0.0.40.50.85.85.0.0_t0_pb_pc_pd_pe_ga0_gb1_gc10.0_ge0000000000_gh_gf_gg_gd10000000_ha60.60_hb0.1.25.60_hc0.70.39.0.70.39_hd47.1.49.49_ia_if_ib_id_ic_jc_ie_ja_jb_jd3.1.1.57_je3.1.1.57_jf_jg_ka12.1.60.60.0_kb12.1.60.60_kc_kd_ke_kf_la_lb_oa_os_ob_oc_od_oe_of_lc_m037.43.3.0.0.2.17.13.57.53.3.61_n0_s0_og_oh_oo_op_oq_or_om_on_ok_ol_oi_oj_ad0.0.0.0.0.0.0.0.0.0
0-angry=40**aa9.55.1.42.29.9.55.1.42.29_ab_ac_ba50_bb15.1_bc850.500.8.0.1_bd15_be180_ca56.0.40.75.50.34.34.0.10_cb0_da1.0.0.100_db_dd9.0.34.30.45_dh1.30.50.50.0_di5_qa_qb_dc0.5.1.1.1_eh0.16_ea2.16.16.56.0.0_ec5.47.16.16.56.40.64.1_ed3.50.1.1.16.56_ef3.2.50.16.16.56_eg3.2.50.16.16.56_r0_fa2.50.65.55.65.18.56_fb8_fh_fc2.36.55.2.36.55.55.61.61.55.50.50_fd1.0.25.16.56_fe50.73_ff0000000000_fg0.69_pa0.0.0.0.40.50.85.85.0.0_t0_pb_pc_pd_pe_ga0_gb1_gc0.0_ge0000000000_gh_gf_gg_gd10000000_ha68.68_hb50.1.50.60_hc0.19.39.0.19.39_hd48.1.49.49_ia_if_ib_id_ic_jc_ie_ja_jb_jd3.1.1.57_je3.1.1.57_jf_jg_ka12.1.60.60.0_kb12.1.60.60_kc_kd_ke_kf_la_lb_oa_os_ob_oc_od_oe_of_lc_m037.43.3.0.0.2.17.13.57.53.3.61_n0_s0_og_oh_oo_op_oq_or_om_on_ok_ol_oi_oj_ad0.0.0.0.0.0.0.0.0.0
0-excited=40**aa91.0.1.39.15.17.100.0.39.82_ab_ac_ba50_bb4.1_bc150.500.8.0.1_bd94_be180_ca56.0.40.75.50.34.34.0.10_cb0_da1.0.0.100_db_dd0.0.34.30.45_dh1.30.50.50.0_di5_qa_qb_dc0.5.1.1.1_eh0.16_ea2.16.16.56.0.0_ec5.47.16.16.56.40.64.1_ed3.50.1.1.16.56_ef3.2.50.16.16.56_eg3.2.50.16.16.56_r0_fa2.50.65.55.65.65.56_fb8_fh_fc2.36.55.2.36.55.55.61.61.55.50.50_fd1.0.25.16.56_fe50.73_ff0000000000_fg0.69_pa0.0.0.0.40.50.85.85.0.0_t0_pb_pc_pd_pe_ga0_gb1_gc20.0_ge0000000000_gh_gf_gg_gd10000000_ha90.90_hb49.1.44.99_hc0.59.39.0.59.39_hd25.1.49.49_ia_if_ib_id_ic_jc_ie_ja_jb_jd3.1.1.57_je3.1.1.57_jf_jg_ka12.1.60.60.0_kb12.1.60.60_kc_kd_ke_kf_la_lb_oa_os_ob_oc_od_oe_of_lc_m037.43.3.0.0.2.17.13.57.53.3.61_n0_s0_og_oh_oo_op_oq_or_om_on_ok_ol_oi_oj_ad0.0.0.0.0.0.0.0.0.0

1-calm=47**aa11.0.1.3.100.25.81.0.41.50_ab_ac_ba50_bb15.1_bc150.500.8.0.1_bd15_be180_ca56.0.40.75.50.34.34.0.10_cb0_da1.0.0.100_db_dd9.0.34.30.45.50_dh1.30.50.50.0_di5_qa_qb_dc2.5.1.1.1_eh0.16_ea2.16.16.56.0.0_ec5.47.16.16.56.40.64.1_ed3.50.1.1.16.56_ef3.2.50.16.16.56_eg3.2.50.16.16.56_r00_fa2.50.65.55.65.65.56_fb8_fh_fc2.36.55.2.36.55.55.61.61.55.50.50_fd1.0.25.16.56_fe50.73_ff0000000000_fg0.69_pa0.0.0.0.40.50.85.85.0.0_t00_pb_pc_pd_pe_ga0_gb1_gc10.0_ge0000000000_gh_gf_gg_gd10000000_ha70.70_hb49.1.44.99_hc0.59.39.0.59.39_hd0.1.49.49_ia_if_ib_id_ic_jc_ie_ja_jb_jd_je_jf_jg_ka12.1.60.59.0_kb12.1.60.59_kc_kd_ke_kf_la_lb_oa_os_ob_oc_od_oe_of_lc_m0037.43.3.0.0.2.17.13.57.53.3.61_n00_s00_og_oh_oo_op_oq_or_om_on_ok_ol_oi_oj_ad0.0.0.0.0.0.0.0.0.0
1-happy=47**aa28.77.0.0.89.17.41.0.16.51_ab_ac_ba50_bb17.1_bc237.500.8.0.1_bd17_be180_ca56.0.40.75.50.34.34.0.10_cb0_da1.0.0.100_db_dd9.0.34.30.45.50_dh1.30.50.50.0_di5_qa_qb_dc2.5.1.1.1_eh0.16_ea2.16.16.56.0.0_ec5.47.16.16.56.40.64.1_ed3.50.1.1.16.56_ef3.2.50.16.16.56_eg3.2.50.16.16.56_r00_fa2.50.65.55.65.65.56_fb8_fh_fc2.36.55.2.36.55.55.61.61.55.50.50_fd1.0.25.16.56_fe50.73_ff0000000000_fg0.69_pa0.0.0.0.40.50.85.85.0.0_t00_pb_pc_pd_pe_ga0_gb1_gc10.0_ge0000000000_gh_gf_gg_gd10000000_ha75.75_hb49.1.44.99_hc0.59.39.0.59.39_hd27.1.49.49_ia_if_ib_id_ic_jc_ie_ja_jb_jd_je_jf_jg_ka12.1.60.18.0_kb12.1.60.18_kc_kd_ke_kf_la_lb_oa_os_ob_oc_od_oe_of_lc_m0037.43.3.0.0.2.17.13.57.53.3.61_n00_s00_og_oh_oo_op_oq_or_om_on_ok_ol_oi_oj_ad0.0.0.0.0.0.0.0.0.0
1-sad=47**aa13.95.1.42.42.13.95.1.42.42_ab_ac_ba50_bb17.1_bc325.500.8.0.1_bd17_be180_ca56.0.40.75.50.34.34.0.10_cb0_da1.0.0.100_db_dd9.0.34.30.45.50_dh1.30.50.50.0_di5_qa_qb_dc2.5.1.1.1_eh0.16_ea2.16.16.56.0.0_ec5.47.16.16.56.40.64.1_ed3.50.1.1.16.56_ef3.2.50.16.16.56_eg3.2.50.16.16.56_r00_fa2.50.65.55.65.80.56_fb8_fh_fc2.36.55.2.36.55.55.61.61.55.50.50_fd1.0.25.16.56_fe50.73_ff0000000000_fg0.69_pa0.0.0.0.40.50.85.85.0.0_t00_pb_pc_pd_pe_ga0_gb1_gc10.0_ge0000000000_gh_gf_gg_gd10000000_ha66.66_hb49.1.40.99_hc0.59.39.0.59.39_hd39.1.49.49_ia_if_ib_id_ic_jc_ie_ja_jb_jd_je_jf_jg_ka12.1.60.0.0_kb12.1.60.0_kc_kd_ke_kf_la_lb_oa_os_ob_oc_od_oe_of_lc_m0037.43.3.0.0.2.17.13.57.53.3.61_n00_s00_og_oh_oo_op_oq_or_om_on_ok_ol_oi_oj_ad0.0.0.0.0.0.0.0.0.0
1-loss=47**aa11.93.1.42.26.11.93.1.42.26_ab_ac_ba50_bb17.1_bc412.500.8.0.1_bd17_be180_ca56.0.40.75.50.34.34.0.10_cb0_da1.0.0.100_db_dd9.0.34.30.45.50_dh1.30.50.50.0_di5_qa_qb_dc2.5.1.1.1_eh0.16_ea2.16.16.56.0.0_ec5.47.16.16.56.40.64.1_ed3.50.1.1.16.56_ef3.2.50.16.16.56_eg3.2.50.16.16.56_r00_fa2.50.65.55.65.46.56_fb8_fh_fc2.36.55.2.36.55.55.61.61.55.50.50_fd1.0.25.16.56_fe50.73_ff0000000000_fg0.69_pa0.0.0.0.40.50.85.85.0.0_t00_pb_pc_pd_pe_ga0_gb1_gc10.0_ge0000000000_gh_gf_gg_gd10000000_ha64.64_hb49.1.40.99_hc0.36.39.0.36.39_hd12.1.49.49_ia_if_ib_id_ic_jc_ie_ja_jb_jd_je_jf_jg_ka12.1.60.0.0_kb12.1.60.0_kc_kd_ke_kf_la_lb_oa_os_ob_oc_od_oe_of_lc_m0037.43.3.0.0.2.17.13.57.53.3.61_n00_s00_og_oh_oo_op_oq_or_om_on_ok_ol_oi_oj_ad0.0.0.0.0.0.0.0.0.0
1-interested=47**aa21.76.0.0.89.21.76.0.16.51_ab_ac_ba50_bb18.1_bc500.500.8.0.1_bd18_be180_ca56.0.40.75.50.34.34.0.10_cb0_da1.0.0.100_db_dd0.0.34.30.45.50_dh1.30.50.50.0_di5_qa_qb_dc2.5.1.1.1_eh0.16_ea2.16.16.56.0.0_ec5.47.16.16.56.40.64.1_ed3.50.1.1.16.56_ef3.2.50.16.16.56_eg3.2.50.16.16.56_r00_fa2.50.65.55.65.65.56_fb8_fh_fc2.36.55.2.36.55.55.61.61.55.50.50_fd1.0.25.16.56_fe50.73_ff0000000000_fg0.69_pa0.0.0.0.40.50.85.85.0.0_t00_pb_pc_pd_pe_ga0_gb1_gc20.0_ge0000000000_gh_gf_gg_gd10000000_ha11.80_hb49.1.44.99_hc0.73.39.0.73.39_hd20.1.49.49_ia_if_ib_id_ic_jc_ie_ja_jb_jd_je_jf_jg_ka12.1.60.17.0_kb12.1.60.17_kc_kd_ke_kf_la_lb_oa_os_ob_oc_od_oe_of_lc_m0037.43.3.0.0.2.17.13.57.53.3.61_n00_s00_og_oh_oo_op_oq_or_om_on_ok_ol_oi_oj_ad0.0.0.0.0.0.0.0.0.0
1-horny=47**aa6.91.1.42.35.6.91.1.42.35_ab_ac_ba50_bb14.1_bc587.500.8.0.1_bd46_be180_ca56.0.40.75.50.34.34.0.10_cb0_da1.0.0.100_db_dd0.0.34.30.45.50_dh1.30.50.50.0_di5_qa_qb_dc2.5.1.1.1_eh0.16_ea2.16.16.56.0.0_ec5.47.16.16.56.40.64.1_ed3.50.1.1.16.56_ef3.2.50.16.16.56_eg3.2.50.16.16.56_r00_fa2.50.65.55.65.65.56_fb8_fh_fc2.36.55.2.36.55.55.61.61.55.50.50_fd1.0.25.16.56_fe50.73_ff0000000000_fg0.69_pa0.0.0.0.40.50.85.85.0.0_t00_pb_pc_pd_pe_ga0_gb1_gc30.0_ge0000000000_gh_gf_gg_gd10000000_ha85.85_hb49.1.44.99_hc0.59.39.0.59.39_hd24.1.49.49_ia_if_ib_id_ic_jc_ie_ja_jb_jd_je_jf_jg_ka12.1.60.1.0_kb12.1.60.1_kc_kd_ke_kf_la_lb_oa_os_ob_oc_od_oe_of_lc_m0037.43.3.0.0.2.17.13.57.53.3.61_n00_s00_og_oh_oo_op_oq_or_om_on_ok_ol_oi_oj_ad0.0.0.0.0.0.0.0.0.0
1-shocked=47**aa9.100.1.42.70.9.100.1.42.70_ab_ac_ba50_bb17.1_bc675.500.8.0.1_bd17_be180_ca56.0.40.75.50.34.34.0.10_cb0_da1.0.0.100_db_dd0.0.34.30.45.50_dh1.30.50.50.0_di5_qa_qb_dc2.5.1.1.1_eh0.16_ea2.16.16.56.0.0_ec5.47.16.16.56.40.64.1_ed3.50.1.1.16.56_ef3.2.50.16.16.56_eg3.2.50.16.16.56_r00_fa2.50.65.55.65.48.56_fb8_fh_fc2.36.55.2.36.55.55.61.61.55.50.50_fd1.0.25.16.56_fe50.73_ff0000000000_fg0.69_pa0.0.0.0.40.50.85.85.0.0_t00_pb_pc_pd_pe_ga0_gb1_gc30.0_ge0000000000_gh_gf_gg_gd10000000_ha85.85_hb49.1.44.50_hc0.59.39.0.59.39_hd41.1.49.49_ia_if_ib_id_ic_jc_ie_ja_jb_jd_je_jf_jg_ka12.1.60.32.0_kb12.1.60.32_kc_kd_ke_kf_la_lb_oa_os_ob_oc_od_oe_of_lc_m0037.43.3.0.0.2.17.13.57.53.3.61_n00_s00_og_oh_oo_op_oq_or_om_on_ok_ol_oi_oj_ad0.0.0.0.0.0.0.0.0.0
1-awkward=47**aa20.79.1.16.39.20.79.1.16.39_ab_ac_ba50_bb15.1_bc762.500.8.0.1_bd15_be180_ca56.0.40.75.50.34.34.0.10_cb0_da1.0.0.100_db_dd0.0.34.30.45.50_dh1.30.50.50.0_di5_qa_qb_dc2.5.1.1.1_eh0.16_ea2.16.16.56.0.0_ec5.47.16.16.56.40.64.1_ed3.50.1.1.16.56_ef3.2.50.16.16.56_eg3.2.50.16.16.56_r00_fa2.50.65.55.65.65.56_fb8_fh_fc2.36.55.2.36.55.55.61.61.55.50.50_fd1.0.25.16.56_fe50.73_ff0000000000_fg0.69_pa0.0.0.0.40.50.85.85.0.0_t00_pb_pc_pd_pe_ga0_gb1_gc20.0_ge0000000000_gh_gf_gg_gd10000000_ha60.60_hb0.1.25.60_hc0.70.39.0.70.39_hd47.1.49.49_ia_if_ib_id_ic_jc_ie_ja_jb_jd_je_jf_jg_ka12.1.60.59.0_kb12.1.60.59_kc_kd_ke_kf_la_lb_oa_os_ob_oc_od_oe_of_lc_m0037.43.3.0.0.2.17.13.57.53.3.61_n00_s00_og_oh_oo_op_oq_or_om_on_ok_ol_oi_oj_ad0.0.0.0.0.0.0.0.0.0
1-angry=47**aa9.55.1.42.29.9.55.1.42.29_ab_ac_ba50_bb15.1_bc850.500.8.0.1_bd15_be180_ca56.0.40.75.50.34.34.0.10_cb0_da1.0.0.100_db_dd9.0.34.30.45.50_dh1.30.50.50.0_di5_qa_qb_dc2.5.1.1.1_eh0.16_ea2.16.16.56.0.0_ec5.47.16.16.56.40.64.1_ed3.50.1.1.16.56_ef3.2.50.16.16.56_eg3.2.50.16.16.56_r00_fa2.50.65.55.65.18.56_fb8_fh_fc2.36.55.2.36.55.55.61.61.55.50.50_fd1.0.25.16.56_fe50.73_ff0000000000_fg0.69_pa0.0.0.0.40.50.85.85.0.0_t00_pb_pc_pd_pe_ga0_gb1_gc10.0_ge0000000000_gh_gf_gg_gd10000000_ha68.68_hb50.1.50.60_hc0.19.39.0.19.39_hd48.1.49.49_ia_if_ib_id_ic_jc_ie_ja_jb_jd_je_jf_jg_ka12.1.60.0.0_kb12.1.60.0_kc_kd_ke_kf_la_lb_oa_os_ob_oc_od_oe_of_lc_m0037.43.3.0.0.2.17.13.57.53.3.61_n00_s00_og_oh_oo_op_oq_or_om_on_ok_ol_oi_oj_ad0.0.0.0.0.0.0.0.0.0
1-excited=47**aa91.0.1.39.15.17.100.0.39.82_ab_ac_ba50_bb4.1_bc325.500.8.0.1_bd94_be180_ca56.0.40.75.50.34.34.0.10_cb0_da1.0.0.100_db_dd0.0.34.30.45.50_dh1.30.50.50.0_di5_qa_qb_dc2.5.1.1.1_eh0.16_ea2.16.16.56.0.0_ec5.47.16.16.56.40.64.1_ed3.50.1.1.16.56_ef3.2.50.16.16.56_eg3.2.50.16.16.56_r00_fa2.50.65.55.65.65.56_fb8_fh_fc2.36.55.2.36.55.55.61.61.55.50.50_fd1.0.25.16.56_fe50.73_ff0000000000_fg0.69_pa0.0.0.0.40.50.85.85.0.0_t00_pb_pc_pd_pe_ga0_gb1_gc30.0_ge0000000000_gh_gf_gg_gd10000000_ha90.90_hb49.1.44.99_hc0.59.39.0.59.39_hd25.1.49.49_ia_if_ib_id_ic_jc_ie_ja_jb_jd_je_jf_jg_ka12.1.60.0.0_kb12.1.60.0_kc_kd_ke_kf_la_lb_oa_os_ob_oc_od_oe_of_lc_m0037.43.3.0.0.2.17.13.57.53.3.61_n00_s00_og_oh_oo_op_oq_or_om_on_ok_ol_oi_oj_ad0.0.0.0.0.0.0.0.0.0

2-calm=40**aa11.0.1.3.100.25.81.0.41.50_ab_ac_ba50_bb15.1_bc150.500.8.0.1_bd15_be180_ca56.0.40.75.50.34.34.0.10_cb0_da1.0.0.100_db_dd0.0.34.30.45_dh1.30.50.50.0_di5_qa_qb_dc5.5.1.1.1_eh0.16_ea2.16.16.56.0.0_ec5.47.16.16.56.40.64.1_ed3.50.1.1.16.56_ef3.2.50.16.16.56_eg3.2.50.16.16.56_r0_fa2.50.65.55.65.65.56_fb8_fh_fc2.36.55.2.36.55.55.61.61.55.50.50_fd1.0.25.16.56_fe50.73_ff0000000000_fg0.69_pa0.0.0.0.40.50.85.85.0.0_t0_pb_pc_pd_pe_ga0_gb1_gc20.0_ge0000000000_gh_gf_gg_gd10000000_ha70.70_hb49.1.44.99_hc0.59.39.0.59.39_hd0.1.49.49_ia_if_ib_id_ic_jc_ie_ja_jb_jd_je_jf_jg_ka_kb12.1.60.60_kc_kd_ke_kf_la_lb_oa_os_ob_oc_od_oe_of_lc_m037.43.3.0.0.2.17.13.57.53.3.61_n0_s0_og_oh_oo_op_oq_or_om_on_ok_ol_oi_oj_ad0.0.0.0.0.0.0.0.0.0
2-happy=40**aa28.77.0.0.89.17.41.0.16.51_ab_ac_ba50_bb17.1_bc237.500.8.0.1_bd17_be180_ca56.0.40.75.50.34.34.0.10_cb0_da1.0.0.100_db_dd0.0.34.30.45_dh1.30.50.50.0_di5_qa_qb_dc5.5.1.1.1_eh0.16_ea2.16.16.56.0.0_ec5.47.16.16.56.40.64.1_ed3.50.1.1.16.56_ef3.2.50.16.16.56_eg3.2.50.16.16.56_r0_fa2.50.65.55.65.65.56_fb8_fh_fc2.36.55.2.36.55.55.61.61.55.50.50_fd1.0.25.16.56_fe50.73_ff0000000000_fg0.69_pa0.0.0.0.40.50.85.85.0.0_t0_pb_pc_pd_pe_ga0_gb1_gc20.0_ge0000000000_gh_gf_gg_gd10000000_ha75.75_hb49.1.44.99_hc0.59.39.0.59.39_hd27.1.49.49_ia_if_ib_id_ic_jc_ie_ja_jb_jd_je_jf_jg_ka_kb12.1.60.60_kc_kd_ke_kf_la_lb_oa_os_ob_oc_od_oe_of_lc_m037.43.3.0.0.2.17.13.57.53.3.61_n0_s0_og_oh_oo_op_oq_or_om_on_ok_ol_oi_oj_ad0.0.0.0.0.0.0.0.0.0
2-sad=40**aa13.95.1.42.42.13.95.1.42.42_ab_ac_ba50_bb17.1_bc325.500.8.0.1_bd17_be180_ca56.0.40.75.50.34.34.0.10_cb0_da1.0.0.100_db_dd0.0.34.30.45_dh1.30.50.50.0_di5_qa_qb_dc5.5.1.1.1_eh0.16_ea2.16.16.56.0.0_ec5.47.16.16.56.40.64.1_ed3.50.1.1.16.56_ef3.2.50.16.16.56_eg3.2.50.16.16.56_r0_fa2.50.65.55.65.80.56_fb8_fh_fc2.36.55.2.36.55.55.61.61.55.50.50_fd1.0.25.16.56_fe50.73_ff0000000000_fg0.69_pa0.0.0.0.40.50.85.85.0.0_t0_pb_pc_pd_pe_ga0_gb1_gc20.0_ge0000000000_gh_gf_gg_gd10000000_ha66.66_hb49.1.40.99_hc0.59.39.0.59.39_hd39.1.49.49_ia_if_ib_id_ic_jc_ie_ja_jb_jd_je_jf_jg_ka_kb12.1.60.60_kc_kd_ke_kf_la_lb_oa_os_ob_oc_od_oe_of_lc_m037.43.3.0.0.2.17.13.57.53.3.61_n0_s0_og_oh_oo_op_oq_or_om_on_ok_ol_oi_oj_ad0.0.0.0.0.0.0.0.0.0
2-loss=40**aa11.93.1.42.26.11.93.1.42.26_ab_ac_ba50_bb17.1_bc412.500.8.0.1_bd17_be180_ca56.0.40.75.50.34.34.0.10_cb0_da1.0.0.100_db_dd0.0.34.30.45_dh1.30.50.50.0_di5_qa_qb_dc5.5.1.1.1_eh0.16_ea2.16.16.56.0.0_ec5.47.16.16.56.40.64.1_ed3.50.1.1.16.56_ef3.2.50.16.16.56_eg3.2.50.16.16.56_r0_fa2.50.65.55.65.46.56_fb8_fh_fc2.36.55.2.36.55.55.61.61.55.50.50_fd1.0.25.16.56_fe50.73_ff0000000000_fg0.69_pa0.0.0.0.40.50.85.85.0.0_t0_pb_pc_pd_pe_ga0_gb1_gc20.0_ge0000000000_gh_gf_gg_gd10000000_ha64.64_hb49.1.40.99_hc0.36.39.0.36.39_hd12.1.49.49_ia_if_ib_id_ic_jc_ie_ja_jb_jd_je_jf_jg_ka_kb12.1.60.60_kc_kd_ke_kf_la_lb_oa_os_ob_oc_od_oe_of_lc_m037.43.3.0.0.2.17.13.57.53.3.61_n0_s0_og_oh_oo_op_oq_or_om_on_ok_ol_oi_oj_ad0.0.0.0.0.0.0.0.0.0
2-interested=40**aa21.76.0.0.89.21.76.0.16.51_ab_ac_ba50_bb18.1_bc500.500.8.0.1_bd18_be180_ca56.0.40.75.50.34.34.0.10_cb0_da1.0.0.100_db_dd0.0.34.30.45_dh1.30.50.50.0_di5_qa_qb_dc5.5.1.1.1_eh0.16_ea2.16.16.56.0.0_ec5.47.16.16.56.40.64.1_ed3.50.1.1.16.56_ef3.2.50.16.16.56_eg3.2.50.16.16.56_r0_fa2.50.65.55.65.65.56_fb8_fh_fc2.36.55.2.36.55.55.61.61.55.50.50_fd1.0.25.16.56_fe50.73_ff0000000000_fg0.69_pa0.0.0.0.40.50.85.85.0.0_t0_pb_pc_pd_pe_ga0_gb1_gc30.0_ge0000000000_gh_gf_gg_gd10000000_ha11.80_hb49.1.44.99_hc0.73.39.0.73.39_hd20.1.49.49_ia_if_ib_id_ic_jc_ie_ja_jb_jd_je_jf_jg_ka_kb12.1.60.60_kc_kd_ke_kf_la_lb_oa_os_ob_oc_od_oe_of_lc_m037.43.3.0.0.2.17.13.57.53.3.61_n0_s0_og_oh_oo_op_oq_or_om_on_ok_ol_oi_oj_ad0.0.0.0.0.0.0.0.0.0
2-horny=40**aa6.91.1.42.35.6.91.1.42.35_ab_ac_ba50_bb14.1_bc587.500.8.0.1_bd46_be180_ca56.0.40.75.50.34.34.0.10_cb0_da1.0.0.100_db_dd10.0.34.30.45_dh1.30.50.50.0_di5_qa_qb_dc5.5.1.1.1_eh0.16_ea2.16.16.56.0.0_ec5.47.16.16.56.40.64.1_ed3.50.1.1.16.56_ef3.2.50.16.16.56_eg3.2.50.16.16.56_r0_fa2.50.65.55.65.65.56_fb8_fh_fc2.36.55.2.36.55.55.61.61.55.50.50_fd1.0.25.16.56_fe50.73_ff0000000000_fg0.69_pa0.0.0.0.40.50.85.85.0.0_t0_pb_pc_pd_pe_ga0_gb1_gc40.0_ge0000000000_gh_gf_gg_gd10000000_ha85.85_hb49.1.44.99_hc0.59.39.0.59.39_hd24.1.49.49_ia_if_ib_id_ic_jc_ie_ja_jb_jd_je_jf_jg_ka_kb12.1.60.60_kc_kd_ke_kf_la_lb_oa_os_ob_oc_od_oe_of_lc_m037.43.3.0.0.2.17.13.57.53.3.61_n0_s0_og_oh_oo_op_oq_or_om_on_ok_ol_oi_oj_ad0.0.0.0.0.0.0.0.0.0
2-shocked=40**aa9.100.1.42.70.9.100.1.42.70_ab_ac_ba50_bb17.1_bc675.500.8.0.1_bd17_be180_ca56.0.40.75.50.34.34.0.10_cb0_da1.0.0.100_db_dd10.0.34.30.45_dh1.30.50.50.0_di5_qa_qb_dc5.5.1.1.1_eh0.16_ea2.16.16.56.0.0_ec5.47.16.16.56.40.64.1_ed3.50.1.1.16.56_ef3.2.50.16.16.56_eg3.2.50.16.16.56_r0_fa2.50.65.55.65.48.56_fb8_fh_fc2.36.55.2.36.55.55.61.61.55.50.50_fd1.0.25.16.56_fe50.73_ff0000000000_fg0.69_pa0.0.0.0.40.50.85.85.0.0_t0_pb_pc_pd_pe_ga0_gb1_gc40.0_ge0000000000_gh_gf_gg_gd10000000_ha85.85_hb49.1.44.50_hc0.59.39.0.59.39_hd41.1.49.49_ia_if_ib_id_ic_jc_ie_ja_jb_jd_je_jf_jg_ka_kb12.1.60.60_kc_kd_ke_kf_la_lb_oa_os_ob_oc_od_oe_of_lc_m037.43.3.0.0.2.17.13.57.53.3.61_n0_s0_og_oh_oo_op_oq_or_om_on_ok_ol_oi_oj_ad0.0.0.0.0.0.0.0.0.0
2-awkward=40**aa20.79.1.16.39.20.79.1.16.39_ab_ac_ba50_bb15.1_bc762.500.8.0.1_bd15_be180_ca56.0.40.75.50.34.34.0.10_cb0_da1.0.0.100_db_dd0.0.34.30.45_dh1.30.50.50.0_di5_qa_qb_dc5.5.1.1.1_eh0.16_ea2.16.16.56.0.0_ec5.47.16.16.56.40.64.1_ed3.50.1.1.16.56_ef3.2.50.16.16.56_eg3.2.50.16.16.56_r0_fa2.50.65.55.65.65.56_fb8_fh_fc2.36.55.2.36.55.55.61.61.55.50.50_fd1.0.25.16.56_fe50.73_ff0000000000_fg0.69_pa0.0.0.0.40.50.85.85.0.0_t0_pb_pc_pd_pe_ga0_gb1_gc30.0_ge0000000000_gh_gf_gg_gd10000000_ha60.60_hb0.1.25.60_hc0.70.39.0.70.39_hd47.1.49.49_ia_if_ib_id_ic_jc_ie_ja_jb_jd_je_jf_jg_ka_kb12.1.60.60_kc_kd_ke_kf_la_lb_oa_os_ob_oc_od_oe_of_lc_m037.43.3.0.0.2.17.13.57.53.3.61_n0_s0_og_oh_oo_op_oq_or_om_on_ok_ol_oi_oj_ad0.0.0.0.0.0.0.0.0.0
2-angry=40**aa9.55.1.42.29.9.55.1.42.29_ab_ac_ba50_bb15.1_bc850.500.8.0.1_bd15_be180_ca56.0.40.75.50.34.34.0.10_cb0_da1.0.0.100_db_dd0.0.34.30.45_dh1.30.50.50.0_di5_qa_qb_dc5.5.1.1.1_eh0.16_ea2.16.16.56.0.0_ec5.47.16.16.56.40.64.1_ed3.50.1.1.16.56_ef3.2.50.16.16.56_eg3.2.50.16.16.56_r0_fa2.50.65.55.65.18.56_fb8_fh_fc2.36.55.2.36.55.55.61.61.55.50.50_fd1.0.25.16.56_fe50.73_ff0000000000_fg0.69_pa0.0.0.0.40.50.85.85.0.0_t0_pb_pc_pd_pe_ga0_gb1_gc20.0_ge0000000000_gh_gf_gg_gd10000000_ha68.68_hb50.1.50.60_hc0.19.39.0.19.39_hd48.1.49.49_ia_if_ib_id_ic_jc_ie_ja_jb_jd_je_jf_jg_ka_kb12.1.60.60_kc_kd_ke_kf_la_lb_oa_os_ob_oc_od_oe_of_lc_m037.43.3.0.0.2.17.13.57.53.3.61_n0_s0_og_oh_oo_op_oq_or_om_on_ok_ol_oi_oj_ad0.0.0.0.0.0.0.0.0.0
2-excited=40**aa91.0.1.39.15.17.100.0.39.82_ab_ac_ba50_bb4.1_bc850.500.8.0.1_bd94_be180_ca56.0.40.75.50.34.34.0.10_cb0_da1.0.0.100_db_dd10.0.34.30.45_dh1.30.50.50.0_di5_qa_qb_dc5.5.1.1.1_eh0.16_ea2.16.16.56.0.0_ec5.47.16.16.56.40.64.1_ed3.50.1.1.16.56_ef3.2.50.16.16.56_eg3.2.50.16.16.56_r0_fa2.50.65.55.65.65.56_fb8_fh_fc2.36.55.2.36.55.55.61.61.55.50.50_fd1.0.25.16.56_fe50.73_ff0000000000_fg0.69_pa0.0.0.0.40.50.85.85.0.0_t0_pb_pc_pd_pe_ga0_gb1_gc40.0_ge0000000000_gh_gf_gg_gd10000000_ha90.90_hb49.1.44.99_hc0.59.39.0.59.39_hd25.1.49.49_ia_if_ib_id_ic_jc_ie_ja_jb_jd_je_jf_jg_ka_kb12.1.60.60_kc_kd_ke_kf_la_lb_oa_os_ob_oc_od_oe_of_lc_m037.43.3.0.0.2.17.13.57.53.3.61_n0_s0_og_oh_oo_op_oq_or_om_on_ok_ol_oi_oj_ad0.0.0.0.0.0.0.0.0.0
