#stage 0 - Full

0-calm=47**aa12.70.1.0.50.12.70.1.0.50_ab_ac_ba50_bb5.1_bc150.500.8.0.1_bd5_be180_ca68.0.30.68.43.45.84.0.16_cb0_da7.0.0.100_db_dd0.0.34.50.50.50_dh7.30.50.50.3_di7_qa_qb_dc0.1.7.1.1_eh4.10_ea13.10.10.56.0.0_ec1.38.10.10.56.38.57.0_ed3.50.1.1.10.56_ef3.2.22.10.10.56_eg3.2.22.10.10.56_r00_fa0.50.50.50.50.65.56_fb7_fh4_fc0.FF0000.55.0.FF0000.55.50.61.61.50.50.50_fd3.0.39.10.56_fe50.61_ff0000000000_fg0.50_pa0.0.0.0.40.50.85.85.0.0_t001.3.3.0.4.4.0.357.334.0_t011.3.3.0.4.4.0.334.380.0_t021.3.3.0.8.4.0.656.379.0_t031.3.3.0.10.6.0.641.314.0_pb_pc_pd_pe_ga0_gb1_gc6.0_ge0000000000_gh_gf_gg_gd10000000_ha89.89_hb49.1.44.99_hc0.14.32.0.14.32_hd1.1.49.49_ia_if_ib_id_ic_jc_ie_ja_jb_jd2.61.61.54_je2.61.61.54_jf_jg_ka32.61.9A0000.3.0_kb22.61.9A0000.3_kc_kd_ke_kf_la_lb_oa_os_ob_oc_od28.61.61.61.0_oe_of_lc_m00_n00_s00_og_oh_oo_op_oq_or_om_on_ok_ol_oi_oj_ad0.0.0.0.0.0.0.0.0.0
0-angry=47**aa27.80.1.0.50.30.40.1.42.50_ab_ac_ba50_bb6.1_bc150.500.8.0.1_bd6_be180_ca68.0.30.68.43.45.84.0.16_cb0_da7.0.0.100_db_dd0.0.34.50.50.50_dh7.30.50.50.3_di7_qa_qb_dc0.1.7.1.1_eh4.10_ea13.10.10.56.0.0_ec1.38.10.10.56.38.57.0_ed3.50.1.1.10.56_ef3.2.22.10.10.56_eg3.2.22.10.10.56_r00_fa0.50.50.50.50.65.56_fb7_fh4_fc0.FF0000.55.0.FF0000.55.50.61.61.50.50.50_fd3.0.39.10.56_fe50.61_ff0000000000_fg0.50_pa0.0.0.0.40.50.85.85.0.0_t001.3.3.0.4.4.0.357.334.0_t011.3.3.0.4.4.0.334.380.0_t021.3.3.0.8.4.0.656.379.0_t031.3.3.0.10.6.0.641.314.0_pb_pc_pd_pe_ga0_gb1_gc6.0_ge0000000000_gh_gf_gg_gd10000000_ha89.89_hb49.1.44.99_hc1.14.15.1.14.15_hd42.1.49.49_ia_if_ib_id_ic_jc_ie_ja_jb_jd2.61.61.54_je2.61.61.54_jf_jg_ka32.61.9A0000.3.0_kb22.61.9A0000.3_kc_kd_ke_kf_la_lb_oa_os_ob_oc_od28.61.61.61.0_oe_of_lc_m00_n00_s00_og_oh_oo_op_oq_or_om_on_ok_ol_oi_oj_ad0.0.0.0.0.0.0.0.0.0
0-happy=47**aa27.47.1.42.50.27.47.1.42.50_ab_ac_ba50_bb6.1_bc150.500.8.0.1_bd6_be180_ca68.0.30.68.43.45.84.0.16_cb0_da7.0.0.100_db_dd0.0.34.50.50.50_dh7.30.50.50.3_di7_qa_qb_dc0.1.7.1.1_eh4.10_ea13.10.10.56.0.0_ec1.38.10.10.56.38.57.0_ed3.50.1.1.10.56_ef3.2.22.10.10.56_eg3.2.22.10.10.56_r00_fa0.50.50.50.50.65.56_fb7_fh4_fc0.FF0000.55.0.FF0000.55.50.61.61.50.50.50_fd3.0.39.10.56_fe50.61_ff0000000000_fg0.50_pa0.0.0.0.40.50.85.85.0.0_t001.3.3.0.4.4.0.357.334.0_t011.3.3.0.4.4.0.334.380.0_t021.3.3.0.8.4.0.656.379.0_t031.3.3.0.10.6.0.641.314.0_pb_pc_pd_pe_ga0_gb1_gc6.0_ge0000000000_gh_gf_gg_gd10000000_ha89.89_hb49.1.44.99_hc0.14.32.0.14.32_hd34.1.49.49_ia_if_ib_id_ic_jc_ie_ja_jb_jd2.61.61.54_je2.61.61.54_jf_jg_ka32.61.9A0000.3.0_kb22.61.9A0000.3_kc_kd_ke_kf_la_lb_oa_os_ob_oc_od28.61.61.61.0_oe_of_lc_m00_n00_s00_og_oh_oo_op_oq_or_om_on_ok_ol_oi_oj_ad0.0.0.0.0.0.0.0.0.0
0-horny=47**aa34.60.1.27.50.18.81.1.18.49_ab_ac_ba50_bb6.1_bc150.500.8.0.1_bd6_be180_ca68.0.30.68.43.45.84.0.16_cb0_da7.0.0.100_db_dd0.0.34.50.50.50_dh7.30.50.50.3_di7_qa_qb_dc0.1.7.1.1_eh4.10_ea13.10.10.56.0.0_ec1.38.10.10.56.38.57.0_ed3.50.1.1.10.56_ef3.2.22.10.10.56_eg3.2.22.10.10.56_r00_fa0.50.50.50.50.65.56_fb7_fh4_fc0.FF0000.55.0.FF0000.55.50.61.61.50.50.50_fd3.0.39.10.56_fe50.61_ff0000000000_fg0.50_pa0.0.0.0.40.50.85.85.0.0_t001.3.3.0.4.4.0.357.334.0_t011.3.3.0.4.4.0.334.380.0_t021.3.3.0.8.4.0.656.379.0_t031.3.3.0.10.6.0.641.314.0_pb_pc_pd_pe_ga0_gb1_gc28.0_ge0000000000_gh_gf_gg_gd10000000_ha89.89_hb49.1.44.99_hc0.14.32.0.14.32_hd20.1.49.49_ia_if_ib_id_ic_jc_ie_ja_jb_jd2.61.61.54_je2.61.61.54_jf_jg_ka32.61.9A0000.3.0_kb22.61.9A0000.3_kc_kd_ke_kf_la_lb_oa_os_ob_oc_od28.61.61.61.0_oe_of_lc_m00_n00_s00_og_oh_oo_op_oq_or_om_on_ok_ol_oi_oj_ad0.0.0.0.0.0.0.0.0.0
0-sad=47**aa4.100.1.23.50.9.75.1.28.49_ab_ac_ba50_bb5.1_bc150.500.8.0.1_bd5_be180_ca68.0.30.68.43.45.84.0.16_cb0_da7.0.0.100_db_dd0.0.34.50.50.50_dh7.30.50.50.3_di7_qa_qb_dc0.1.7.1.1_eh4.10_ea13.10.10.56.0.0_ec1.38.10.10.56.38.57.0_ed3.50.1.1.10.56_ef3.2.22.10.10.56_eg3.2.22.10.10.56_r00_fa0.50.50.50.50.65.56_fb7_fh4_fc0.FF0000.55.0.FF0000.55.50.61.61.50.50.50_fd3.0.39.10.56_fe50.61_ff0000000000_fg0.50_pa0.0.0.0.40.50.85.85.0.0_t001.3.3.0.4.4.0.357.334.0_t011.3.3.0.4.4.0.334.380.0_t021.3.3.0.8.4.0.656.379.0_t031.3.3.0.10.6.0.641.314.0_pb_pc_pd_pe_ga0_gb1_gc0.34_ge0000000000_gh_gf_gg_gd10000000_ha89.89_hb22.1.12.99_hc0.49.32.0.49.32_hd8.1.49.49_ia_if_ib_id_ic_jc_ie_ja_jb_jd2.61.61.54_je2.61.61.54_jf_jg_ka32.61.9A0000.3.0_kb22.61.9A0000.3_kc_kd_ke_kf_la_lb_oa_os_ob_oc_od28.61.61.61.0_oe_of_lc_m00_n00_s00_og_oh_oo_op_oq_or_om_on_ok_ol_oi_oj_ad0.0.0.0.0.0.0.0.0.0
0-embarrassed=47**aa14.49.1.16.50.9.75.1.28.49_ab_ac_ba50_bb5.1_bc150.500.8.0.1_bd5_be180_ca68.0.30.68.43.45.84.0.16_cb0_da7.0.0.100_db_dd0.0.34.50.50.50_dh7.30.50.50.3_di7_qa_qb_dc0.1.7.1.1_eh4.10_ea13.10.10.56.0.0_ec1.38.10.10.56.38.57.0_ed3.50.1.1.10.56_ef3.2.22.10.10.56_eg3.2.22.10.10.56_r00_fa0.50.50.50.50.65.56_fb7_fh4_fc0.FF0000.55.0.FF0000.55.50.61.61.50.50.50_fd3.0.39.10.56_fe50.61_ff0000000000_fg0.50_pa0.0.0.0.40.50.85.85.0.0_t001.3.3.0.4.4.0.357.334.0_t011.3.3.0.4.4.0.334.380.0_t021.3.3.0.8.4.0.656.379.0_t031.3.3.0.10.6.0.641.314.0_pb_pc_pd_pe_ga0_gb1_gc29.0_ge0000000000_gh_gf_gg_gd10000000_ha89.89_hb49.1.44.99_hc0.14.32.0.14.32_hd40.1.49.49_ia_if_ib_id_ic_jc_ie_ja_jb_jd2.61.61.54_je2.61.61.54_jf_jg_ka32.61.9A0000.3.0_kb22.61.9A0000.3_kc_kd_ke_kf_la_lb_oa_os_ob_oc_od28.61.61.61.0_oe_of_lc_m00_n00_s00_og_oh_oo_op_oq_or_om_on_ok_ol_oi_oj_ad0.0.0.0.0.0.0.0.0.0
0-proud=47**aa24.87.1.0.37.24.87.1.0.37_ab_ac_ba50_bb8.1_bc150.500.8.0.1_bd8_be180_ca68.0.30.68.43.45.84.0.16_cb0_da7.0.0.100_db_dd0.0.34.50.50.50_dh7.30.50.50.3_di7_qa_qb_dc0.1.7.1.1_eh4.10_ea13.10.10.56.0.0_ec1.38.10.10.56.38.57.0_ed3.50.1.1.10.56_ef3.2.22.10.10.56_eg3.2.22.10.10.56_r00_fa0.50.50.50.50.65.56_fb7_fh4_fc0.FF0000.55.0.FF0000.55.50.61.61.50.50.50_fd3.0.39.10.56_fe50.61_ff0000000000_fg0.50_pa0.0.0.0.40.50.85.85.0.0_t001.3.3.0.4.4.0.357.334.0_t011.3.3.0.4.4.0.334.380.0_t021.3.3.0.8.4.0.656.379.0_t031.3.3.0.10.6.0.641.314.0_pb_pc_pd_pe_ga0_gb1_gc0.0_ge0000000000_gh_gf_gg39.0.50.50.50.1_gd10000000_ha89.89_hb49.1.44.99_hc0.14.32.0.14.32_hd35.1.62.65_ia_if_ib_id_ic_jc_ie_ja_jb_jd2.61.61.54_je2.61.61.54_jf_jg_ka32.61.9A0000.3.0_kb22.61.9A0000.3_kc_kd_ke_kf_la_lb_oa_os_ob_oc_od28.61.61.61.0_oe_of_lc_m00_n00_s00_og_oh_oo_op_oq_or_om_on_ok_ol_oi_oj_ad0.0.0.0.0.0.0.0.0.0
0-strip=47**aa10.87.1.0.50.30.77.1.0.50_ab_ac_ba50_bb5.1_bc150.500.8.0.1_bd73_be180_ca68.0.30.68.43.45.84.0.16_cb0_da7.0.0.100_db_dd0.0.34.50.50.50_dh7.30.50.50.3_di7_qa_qb_dc0.1.7.1.1_eh4.10_ea13.10.10.56.0.0_ec1.38.10.10.56.38.57.0_ed3.50.1.1.10.56_ef3.2.22.10.10.56_eg3.2.22.10.10.56_r00_fa0.50.50.50.50.65.56_fb7_fh4_fc0.FF0000.55.0.FF0000.55.50.61.61.50.50.50_fd3.0.39.10.56_fe50.61_ff0000000000_fg0.50_pa0.0.0.0.40.50.85.85.0.0_t001.3.3.0.4.4.0.357.334.0_t011.3.3.0.4.4.0.334.380.0_t021.3.3.0.8.4.0.656.379.0_t031.3.3.0.10.6.0.641.314.0_pb_pc_pd_pe_ga0_gb1_gc6.0_ge0000000000_gh_gf_gg_gd10000000_ha89.89_hb62.1.9.99_hc0.0.32.0.0.32_hd4.1.49.49_ia_if_ib_id_ic_jc_ie_ja_jb_jd2.61.61.54_je2.61.61.54_jf_jg_ka32.61.9A0000.3.0_kb22.61.9A0000.3_kc_kd_ke_kf_la_lb_oa_os_ob_oc_od28.61.61.61.0_oe_of_lc_m00_n00_s00_og_oh_oo_op_oq_or_om_on_ok_ol_oi_oj_ad0.0.0.0.0.0.0.0.0.0

#Stage 4 - Pants Gone
1-calm=47**aa12.70.1.0.50.12.70.1.0.50_ab_ac_ba50_bb5.1_bc150.500.8.0.1_bd5_be180_ca68.0.30.68.43.45.84.0.16_cb0_da7.0.0.100_db_dd0.0.34.50.50.50_dh7.30.50.50.3_di7_qa_qb_dc0.1.7.1.1_eh4.10_ea13.10.10.56.0.0_ec1.38.10.10.56.38.57.0_ed3.50.1.1.10.56_ef3.2.22.10.10.56_eg3.2.22.10.10.56_r00_fa0.50.50.50.50.65.56_fb7_fh4_fc0.FF0000.55.0.FF0000.55.50.61.61.50.50.50_fd3.0.39.10.56_fe50.61_ff0000000000_fg0.50_pa0.0.0.0.40.50.85.85.0.0_t001.3.3.0.4.4.0.357.334.0_t011.3.3.0.4.4.0.334.380.0_t021.3.3.0.8.4.0.656.379.0_t031.3.3.0.10.6.0.641.314.0_pb_pc_pd_pe_ga0_gb1_gc43.0_ge0000000000_gh_gf_gg_gd10000000_ha89.89_hb49.1.44.99_hc0.14.32.0.14.32_hd2.1.49.49_ia_if_ib_id_ic_jc_ie_ja_jb_jd_je_jf_jg_ka32.61.9A0000.3.0_kb22.61.9A0000.3_kc_kd_ke_kf_la_lb_oa_os_ob_oc_od28.61.61.61.0_oe_of_lc_m00_n00_s00_og_oh_oo_op_oq_or_om_on_ok_ol_oi_oj_ad0.0.0.0.0.0.0.0.0.0
1-angry=47**aa27.80.1.0.50.30.40.1.42.50_ab_ac_ba50_bb6.1_bc150.500.8.0.1_bd6_be180_ca68.0.30.68.43.45.84.0.16_cb0_da7.0.0.100_db_dd0.0.34.50.50.50_dh7.30.50.50.3_di7_qa_qb_dc0.1.7.1.1_eh4.10_ea13.10.10.56.0.0_ec1.38.10.10.56.38.57.0_ed3.50.1.1.10.56_ef3.2.22.10.10.56_eg3.2.22.10.10.56_r00_fa0.50.50.50.50.65.56_fb7_fh4_fc0.FF0000.55.0.FF0000.55.50.61.61.50.50.50_fd3.0.39.10.56_fe50.61_ff0000000000_fg0.50_pa0.0.0.0.40.50.85.85.0.0_t001.3.3.0.4.4.0.357.334.0_t011.3.3.0.4.4.0.334.380.0_t021.3.3.0.8.4.0.656.379.0_t031.3.3.0.10.6.0.641.314.0_pb_pc_pd_pe_ga0_gb1_gc48.0_ge0000000000_gh_gf_gg_gd10000000_ha89.89_hb49.1.44.99_hc1.14.0.1.14.0_hd44.1.49.49_ia_if_ib_id_ic_jc_ie_ja_jb_jd_je_jf_jg_ka32.61.9A0000.3.0_kb22.61.9A0000.3_kc_kd_ke_kf_la_lb_oa_os_ob_oc_od28.61.61.61.0_oe_of_lc_m00_n00_s00_og_oh_oo_op_oq_or_om_on_ok_ol_oi_oj_ad0.0.0.0.0.0.0.0.0.0
1-happy=47**aa27.47.1.42.50.27.47.1.42.50_ab_ac_ba50_bb6.1_bc150.500.8.0.1_bd6_be180_ca68.0.30.68.43.45.84.0.16_cb0_da7.0.0.100_db_dd0.0.34.50.50.50_dh7.30.50.50.3_di7_qa_qb_dc0.1.7.1.1_eh4.10_ea13.10.10.56.0.0_ec1.38.10.10.56.38.57.0_ed3.50.1.1.10.56_ef3.2.22.10.10.56_eg3.2.22.10.10.56_r00_fa0.50.50.50.50.65.56_fb7_fh4_fc0.FF0000.55.0.FF0000.55.50.61.61.50.50.50_fd3.0.39.10.56_fe50.61_ff0000000000_fg0.50_pa0.0.0.0.40.50.85.85.0.0_t001.3.3.0.4.4.0.357.334.0_t011.3.3.0.4.4.0.334.380.0_t021.3.3.0.8.4.0.656.379.0_t031.3.3.0.10.6.0.641.314.0_pb_pc_pd_pe_ga0_gb1_gc43.0_ge0000000000_gh_gf_gg_gd10000000_ha89.89_hb49.1.44.99_hc0.14.32.0.14.32_hd34.1.49.49_ia_if_ib_id_ic_jc_ie_ja_jb_jd_je_jf_jg_ka32.61.9A0000.3.0_kb22.61.9A0000.3_kc_kd_ke_kf_la_lb_oa_os_ob_oc_od28.61.61.61.0_oe_of_lc_m00_n00_s00_og_oh_oo_op_oq_or_om_on_ok_ol_oi_oj_ad0.0.0.0.0.0.0.0.0.0
1-horny=47**aa34.60.1.27.50.10.90.1.5.49_ab_ac_ba50_bb6.1_bc150.500.8.0.1_bd6_be180_ca68.0.30.68.43.45.84.0.16_cb0_da7.0.0.100_db_dd0.0.34.50.50.50_dh7.30.50.50.3_di7_qa_qb_dc0.1.7.1.1_eh4.10_ea13.10.10.56.0.0_ec1.38.10.10.56.38.57.0_ed3.50.1.1.10.56_ef3.2.22.10.10.56_eg3.2.22.10.10.56_r00_fa0.50.50.50.50.65.56_fb7_fh4_fc0.FF0000.55.0.FF0000.55.50.61.61.50.50.50_fd3.0.39.10.56_fe50.61_ff0000000000_fg0.50_pa0.0.0.0.40.50.85.85.0.0_t001.3.3.0.4.4.0.357.334.0_t011.3.3.0.4.4.0.334.380.0_t021.3.3.0.8.4.0.656.379.0_t031.3.3.0.10.6.0.641.314.0_pb_pc_pd_pe_ga0_gb1_gc70.0_ge0000000000_gh_gf_gg_gd10000000_ha89.89_hb49.1.44.99_hc0.14.32.0.14.32_hd32.1.49.49_ia_if_ib_id_ic_jc_ie_ja_jb_jd_je_jf_jg_ka32.61.9A0000.3.0_kb22.61.9A0000.3_kc_kd_ke_kf_la_lb_oa_os_ob_oc_od28.61.61.61.0_oe_of_lc_m00_n00_s00_og_oh_oo_op_oq_or_om_on_ok_ol_oi_oj_ad0.0.0.0.0.0.0.0.0.0
1-sad=47**aa2.100.1.23.50.9.75.1.28.49_ab_ac_ba50_bb5.1_bc150.500.8.0.1_bd5_be180_ca68.0.30.68.43.45.84.0.16_cb0_da7.0.0.100_db_dd0.0.34.50.50.50_dh7.30.50.50.3_di7_qa_qb_dc0.1.7.1.1_eh4.10_ea13.10.10.56.0.0_ec1.38.10.10.56.38.57.0_ed3.50.1.1.10.56_ef3.2.22.10.10.56_eg3.2.22.10.10.56_r00_fa0.50.50.50.50.65.56_fb7_fh4_fc0.FF0000.55.0.FF0000.55.50.61.61.50.50.50_fd3.0.39.10.56_fe50.61_ff0000000000_fg0.50_pa0.0.0.0.40.50.85.85.0.0_t001.3.3.0.4.4.0.357.334.0_t011.3.3.0.4.4.0.334.380.0_t021.3.3.0.8.4.0.656.379.0_t031.3.3.0.10.6.0.641.314.0_pb_pc_pd_pe_ga0_gb1_gc50.50_ge0000000000_gh_gf_gg_gd10000000_ha89.89_hb22.1.12.99_hc0.59.19.0.59.19_hd51.1.49.49_ia_if_ib_id_ic_jc_ie_ja_jb_jd_je_jf_jg_ka32.61.9A0000.3.0_kb22.61.9A0000.3_kc_kd_ke_kf_la_lb_oa_os_ob_oc_od28.61.61.61.0_oe_of_lc_m00_n00_s00_og_oh_oo_op_oq_or_om_on_ok_ol_oi_oj_ad0.0.0.0.0.0.0.0.0.0
1-embarrassed=47**aa15.84.1.16.50.9.75.1.28.49_ab_ac_ba50_bb5.1_bc150.500.8.0.1_bd5_be180_ca68.0.30.68.43.45.84.0.16_cb0_da7.0.0.100_db_dd0.0.34.50.50.50_dh7.30.50.50.3_di7_qa_qb_dc0.1.7.1.1_eh4.10_ea13.10.10.56.0.0_ec1.38.10.10.56.38.57.0_ed3.50.1.1.10.56_ef3.2.22.10.10.56_eg3.2.22.10.10.56_r00_fa0.50.50.50.50.65.56_fb7_fh4_fc0.FF0000.55.0.FF0000.55.50.61.61.50.50.50_fd3.0.39.10.56_fe50.61_ff0000000000_fg0.50_pa0.0.0.0.40.50.85.85.0.0_t001.3.3.0.4.4.0.357.334.0_t011.3.3.0.4.4.0.334.380.0_t021.3.3.0.8.4.0.656.379.0_t031.3.3.0.10.6.0.641.314.0_pb_pc_pd_pe_ga0_gb1_gc67.0_ge0000000000_gh_gf_gg1.0.50.50.50.1_gd10000000_ha89.89_hb49.1.44.99_hc0.14.32.0.14.32_hd40.1.49.49_ia_if_ib_id_ic_jc_ie_ja_jb_jd_je_jf_jg_ka32.61.9A0000.3.0_kb22.61.9A0000.3_kc_kd_ke_kf_la_lb_oa_os_ob_oc_od28.61.61.61.0_oe_of_lc_m00_n00_s00_og_oh_oo_op_oq_or_om_on_ok_ol_oi_oj_ad0.0.0.0.0.0.0.0.0.0
1-proud=47**aa24.87.1.0.37.24.87.1.0.37_ab_ac_ba50_bb8.1_bc150.500.8.0.1_bd8_be180_ca68.0.30.68.43.45.84.0.16_cb0_da7.0.0.100_db_dd0.0.34.50.50.50_dh7.30.50.50.3_di7_qa_qb_dc0.1.7.1.1_eh4.10_ea13.10.10.56.0.0_ec1.38.10.10.56.38.57.0_ed3.50.1.1.10.56_ef3.2.22.10.10.56_eg3.2.22.10.10.56_r00_fa0.50.50.50.50.65.56_fb7_fh4_fc0.FF0000.55.0.FF0000.55.50.61.61.50.50.50_fd3.0.39.10.56_fe50.61_ff0000000000_fg0.50_pa0.0.0.0.40.50.85.85.0.0_t001.3.3.0.4.4.0.357.334.0_t011.3.3.0.4.4.0.334.380.0_t021.3.3.0.8.4.0.656.379.0_t031.3.3.0.10.6.0.641.314.0_pb_pc_pd_pe_ga0_gb1_gc62.0_ge0000000000_gh_gf_gg_gd10000000_ha89.89_hb49.1.44.99_hc0.14.32.0.14.32_hd35.1.62.65_ia_if_ib_id_ic_jc_ie_ja_jb_jd_je_jf_jg_ka32.61.9A0000.3.0_kb22.61.9A0000.3_kc_kd_ke_kf_la_lb_oa_os_ob_oc_od28.61.61.61.0_oe_of_lc_m00_n00_s00_og_oh_oo_op_oq_or_om_on_ok_ol_oi_oj_ad0.0.0.0.0.0.0.0.0.0
1-strip=47**aa22.62.1.16.50.22.62.1.28.49_ab_ac_ba50_bb5.1_bc150.500.8.0.1_bd5_be180_ca68.0.30.68.43.45.84.0.16_cb0_da7.0.0.100_db_dd0.0.34.50.50.50_dh7.30.50.50.3_di7_qa_qb_dc0.1.7.1.1_eh4.10_ea13.10.10.56.0.0_ec1.38.10.10.56.38.57.0_ed3.50.1.1.10.56_ef3.2.22.10.10.56_eg3.2.22.10.10.56_r00_fa0.50.50.50.50.65.56_fb7_fh4_fc0.FF0000.55.0.FF0000.55.50.61.61.50.50.50_fd3.0.39.10.56_fe50.61_ff0000000000_fg0.50_pa0.0.0.0.40.50.85.85.0.0_t001.3.3.0.4.4.0.357.334.0_t011.3.3.0.4.4.0.334.380.0_t021.3.3.0.8.4.0.656.379.0_t031.3.3.0.10.6.0.641.314.0_pb_pc_pd_pe_ga0_gb1_gc67.0_ge0000000000_gh_gf_gg_gd10000000_ha89.89_hb49.1.44.99_hc0.0.22.0.0.22_hd40.1.49.49_ia_if_ib_id_ic_jc_ie_ja_jb_jd_je_jf_jg_ka32.61.9A0000.3.0_kb22.61.9A0000.3_kc_kd_ke_kf_la_lb_oa_os_ob_oc_od28.61.61.61.0_oe_of_lc_m00_n00_s00_og_oh_oo_op_oq_or_om_on_ok_ol_oi_oj_ad0.0.0.0.0.0.0.0.0.0

#Stage 5 - Top Gone
2-calm=47**aa12.70.1.0.50.12.70.1.0.50_ab_ac_ba50_bb5.1_bc150.500.8.0.1_bd5_be180_ca68.0.30.68.43.45.84.0.16_cb0_da7.0.0.100_db_dd0.0.34.50.50.50_dh7.30.50.50.3_di7_qa_qb_dc0.1.7.1.1_eh4.10_ea13.10.10.56.0.0_ec1.38.10.10.56.38.57.0_ed3.50.1.1.10.56_ef3.2.22.10.10.56_eg3.2.22.10.10.56_r00_fa0.50.50.50.50.65.56_fb7_fh4_fc0.FF0000.55.0.FF0000.55.50.61.61.50.50.50_fd3.0.39.10.56_fe50.61_ff0000000000_fg0.50_pa0.0.0.0.40.50.85.85.0.0_t001.3.3.0.4.4.0.357.334.0_t011.3.3.0.4.4.0.334.380.0_t021.3.3.0.8.4.0.656.379.0_t031.3.3.0.10.6.0.641.314.0_pb_pc_pd_pe_ga0_gb1_gc72.0_ge0000000000_gh_gf_gg_gd10000000_ha89.89_hb49.1.44.99_hc0.14.32.0.14.32_hd2.1.49.49_ia_if_ib_id_ic_jc_ie_ja_jb_jd_je_jf_jg_ka_kb22.61.9A0000.3_kc_kd_ke_kf_la_lb_oa_os_ob_oc_od28.61.61.61.0_oe_of_lc_m00_n00_s00_og_oh_oo_op_oq_or_om_on_ok_ol_oi_oj_ad0.0.0.0.0.0.0.0.0.0
2-angry=47**aa27.80.1.0.50.30.40.1.42.50_ab_ac_ba50_bb6.1_bc150.500.8.0.1_bd6_be180_ca68.0.30.68.43.45.84.0.16_cb0_da7.0.0.100_db_dd0.0.34.50.50.50_dh7.30.50.50.3_di7_qa_qb_dc0.1.7.1.1_eh4.10_ea13.10.10.56.0.0_ec1.38.10.10.56.38.57.0_ed3.50.1.1.10.56_ef3.2.22.10.10.56_eg3.2.22.10.10.56_r00_fa0.50.50.50.50.65.56_fb7_fh4_fc0.FF0000.55.0.FF0000.55.50.61.61.50.50.50_fd3.0.39.10.56_fe50.61_ff0000000000_fg0.50_pa0.0.0.0.40.50.85.85.0.0_t001.3.3.0.4.4.0.357.334.0_t011.3.3.0.4.4.0.334.380.0_t021.3.3.0.8.4.0.656.379.0_t031.3.3.0.10.6.0.641.314.0_pb_pc_pd_pe_ga0_gb1_gc80.0_ge0000000000_gh_gf_gg_gd10000000_ha89.89_hb49.1.44.99_hc1.14.0.1.14.0_hd44.1.49.49_ia_if_ib_id_ic_jc_ie_ja_jb_jd_je_jf_jg_ka_kb22.61.9A0000.3_kc_kd_ke_kf_la_lb_oa_os_ob_oc_od28.61.61.61.0_oe_of_lc_m00_n00_s00_og_oh_oo_op_oq_or_om_on_ok_ol_oi_oj_ad0.0.0.0.0.0.0.0.0.0
2-happy=47**aa27.47.1.42.50.27.47.1.42.50_ab_ac_ba50_bb6.1_bc150.500.8.0.1_bd6_be180_ca68.0.30.68.43.45.84.0.16_cb0_da7.0.0.100_db_dd0.0.34.50.50.50_dh7.30.50.50.3_di7_qa_qb_dc0.1.7.1.1_eh4.10_ea13.10.10.56.0.0_ec1.38.10.10.56.38.57.0_ed3.50.1.1.10.56_ef3.2.22.10.10.56_eg3.2.22.10.10.56_r00_fa0.50.50.50.50.65.56_fb7_fh4_fc0.FF0000.55.0.FF0000.55.50.61.61.50.50.50_fd3.0.39.10.56_fe50.61_ff0000000000_fg0.50_pa0.0.0.0.40.50.85.85.0.0_t001.3.3.0.4.4.0.357.334.0_t011.3.3.0.4.4.0.334.380.0_t021.3.3.0.8.4.0.656.379.0_t031.3.3.0.10.6.0.641.314.0_pb_pc_pd_pe_ga0_gb1_gc79.0_ge0000000000_gh_gf_gg_gd10000000_ha89.89_hb49.1.44.99_hc0.14.32.0.14.32_hd34.1.49.49_ia_if_ib_id_ic_jc_ie_ja_jb_jd_je_jf_jg_ka_kb22.61.9A0000.3_kc_kd_ke_kf_la_lb_oa_os_ob_oc_od28.61.61.61.0_oe_of_lc_m00_n00_s00_og_oh_oo_op_oq_or_om_on_ok_ol_oi_oj_ad0.0.0.0.0.0.0.0.0.0
2-horny=47**aa34.60.1.27.50.10.90.1.5.49_ab_ac_ba50_bb6.1_bc150.500.8.0.1_bd6_be180_ca68.0.30.68.43.45.84.0.16_cb0_da7.0.0.100_db_dd0.0.34.50.50.50_dh7.30.50.50.3_di7_qa_qb_dc0.1.7.1.1_eh4.10_ea13.10.10.56.0.0_ec1.38.10.10.56.38.57.0_ed3.50.1.1.10.56_ef3.2.22.10.10.56_eg3.2.22.10.10.56_r00_fa0.50.50.50.50.65.56_fb7_fh4_fc0.FF0000.55.0.FF0000.55.50.61.61.50.50.50_fd3.0.39.10.56_fe50.61_ff0000000000_fg0.50_pa0.0.0.0.40.50.85.85.0.0_t001.3.3.0.4.4.0.357.334.0_t011.3.3.0.4.4.0.334.380.0_t021.3.3.0.8.4.0.656.379.0_t031.3.3.0.10.6.0.641.314.0_pb_pc_pd_pe_ga0_gb1_gc80.0_ge0000000000_gh_gf_gg_gd10000000_ha89.89_hb49.1.44.99_hc0.14.32.0.14.32_hd32.1.49.49_ia_if_ib_id_ic_jc_ie_ja_jb_jd_je_jf_jg_ka_kb22.61.9A0000.3_kc_kd_ke_kf_la_lb_oa_os_ob_oc_od28.61.61.61.0_oe_of_lc_m00_n00_s00_og_oh_oo_op_oq_or_om_on_ok_ol_oi_oj_ad0.0.0.0.0.0.0.0.0.0
2-sad=47**aa2.100.1.23.50.9.75.1.28.49_ab_ac_ba50_bb5.1_bc150.500.8.0.1_bd5_be180_ca68.0.30.68.43.45.84.0.16_cb0_da7.0.0.100_db_dd0.0.34.50.50.50_dh7.30.50.50.3_di7_qa_qb_dc0.1.7.1.1_eh4.10_ea13.10.10.56.0.0_ec1.38.10.10.56.38.57.0_ed3.50.1.1.10.56_ef3.2.22.10.10.56_eg3.2.22.10.10.56_r00_fa0.50.50.50.50.65.56_fb7_fh4_fc0.FF0000.55.0.FF0000.55.50.61.61.50.50.50_fd3.0.39.10.56_fe50.61_ff0000000000_fg0.50_pa0.0.0.0.40.50.85.85.0.0_t001.3.3.0.4.4.0.357.334.0_t011.3.3.0.4.4.0.334.380.0_t021.3.3.0.8.4.0.656.379.0_t031.3.3.0.10.6.0.641.314.0_pb_pc_pd_pe_ga0_gb1_gc50.50_ge0000000000_gh_gf_gg_gd10000000_ha89.89_hb22.1.12.99_hc0.59.19.0.59.19_hd51.1.49.49_ia_if_ib_id_ic_jc_ie_ja_jb_jd_je_jf_jg_ka_kb22.61.9A0000.3_kc_kd_ke_kf_la_lb_oa_os_ob_oc_od28.61.61.61.0_oe_of_lc_m00_n00_s00_og_oh_oo_op_oq_or_om_on_ok_ol_oi_oj_ad0.0.0.0.0.0.0.0.0.0
2-embarrassed=47**aa15.84.1.16.50.9.75.1.28.49_ab_ac_ba50_bb5.1_bc150.500.8.0.1_bd5_be180_ca68.0.30.68.43.45.84.0.16_cb0_da7.0.0.100_db_dd0.0.34.50.50.50_dh7.30.50.50.3_di7_qa_qb_dc0.1.7.1.1_eh4.10_ea13.10.10.56.0.0_ec1.38.10.10.56.38.57.0_ed3.50.1.1.10.56_ef3.2.22.10.10.56_eg3.2.22.10.10.56_r00_fa0.50.50.50.50.65.56_fb7_fh4_fc0.FF0000.55.0.FF0000.55.50.61.61.50.50.50_fd3.0.39.10.56_fe50.61_ff0000000000_fg0.50_pa0.0.0.0.40.50.85.85.0.0_t001.3.3.0.4.4.0.357.334.0_t011.3.3.0.4.4.0.334.380.0_t021.3.3.0.8.4.0.656.379.0_t031.3.3.0.10.6.0.641.314.0_pb_pc_pd_pe_ga0_gb1_gc67.0_ge0000000000_gh_gf_gg_gd10000000_ha89.89_hb49.1.44.99_hc0.0.32.0.0.32_hd40.1.49.49_ia_if_ib_id_ic_jc_ie_ja_jb_jd_je_jf_jg_ka_kb22.61.9A0000.3_kc_kd_ke_kf_la_lb_oa_os_ob_oc_od28.61.61.61.0_oe_of_lc_m00_n00_s00_og_oh_oo_op_oq_or_om_on_ok_ol_oi_oj_ad0.0.0.0.0.0.0.0.0.0
2-proud=47**aa17.52.1.22.37.24.87.1.0.37_ab_ac_ba50_bb8.1_bc150.500.8.0.1_bd8_be180_ca68.0.30.68.43.45.84.0.16_cb0_da7.0.0.100_db_dd0.0.34.50.50.50_dh7.30.50.50.3_di7_qa_qb_dc0.1.7.1.1_eh4.10_ea13.10.10.56.0.0_ec1.38.10.10.56.38.57.0_ed3.50.1.1.10.56_ef3.2.22.10.10.56_eg3.2.22.10.10.56_r00_fa0.50.50.50.50.65.56_fb7_fh4_fc0.FF0000.55.0.FF0000.55.50.61.61.50.50.50_fd3.0.39.10.56_fe50.61_ff0000000000_fg0.50_pa0.0.0.0.40.50.85.85.0.0_t001.3.3.0.4.4.0.357.334.0_t011.3.3.0.4.4.0.334.380.0_t021.3.3.0.8.4.0.656.379.0_t031.3.3.0.10.6.0.641.314.0_pb_pc_pd_pe_ga0_gb1_gc62.0_ge0000000000_gh_gf_gg_gd10000000_ha89.89_hb49.1.44.99_hc0.14.32.0.14.32_hd35.1.62.65_ia_if_ib_id_ic_jc_ie_ja_jb_jd_je_jf_jg_ka_kb22.61.9A0000.3_kc_kd_ke_kf_la_lb_oa_os_ob_oc_od28.61.61.61.0_oe_of_lc_m00_n00_s00_og_oh_oo_op_oq_or_om_on_ok_ol_oi_oj_ad0.0.0.0.0.0.0.0.0.0
2-strip=47**aa27.84.1.17.46.27.84.1.17.46_ab_ac_ba50_bb5.1_bc150.500.8.0.1_bd5_be180_ca68.0.30.68.43.45.84.0.16_cb0_da7.0.0.100_db_dd0.0.34.50.50.50_dh7.30.50.50.3_di7_qa_qb_dc0.1.7.1.1_eh4.10_ea13.10.10.56.0.0_ec1.38.10.10.56.38.57.0_ed3.50.1.1.10.56_ef3.2.22.10.10.56_eg3.2.22.10.10.56_r00_fa0.50.50.50.50.65.56_fb7_fh4_fc0.FF0000.55.0.FF0000.55.50.61.61.50.50.50_fd3.0.39.10.56_fe50.61_ff0000000000_fg0.50_pa0.0.0.0.40.50.85.85.0.0_t001.3.3.0.4.4.0.357.334.0_t011.3.3.0.4.4.0.334.380.0_t021.3.3.0.8.4.0.656.379.0_t031.3.3.0.10.6.0.641.314.0_pb_pc_pd_pe_ga0_gb1_gc91.0_ge0000000000_gh_gf_gg_gd10000000_ha89.89_hb49.1.44.99_hc0.0.32.0.0.32_hd40.1.49.49_ia_if_ib_id_ic_jc_ie_ja_jb_jd_je_jf_jg_ka_kb22.61.9A0000.3_kc_kd_ke_kf_la_lb_oa_os_ob_oc_od28.61.61.61.0_oe_of_lc_m00_n00_s00_og_oh_oo_op_oq_or_om_on_ok_ol_oi_oj_ad0.0.0.0.0.0.0.0.0.0

#Stage -3 - Naked
3-calm=47**aa12.70.1.0.50.12.70.1.0.50_ab_ac_ba50_bb5.1_bc185.500.0.0.1_bd5_be180_ca68.0.30.68.43.45.84.0.16_cb0_da7.0.0.100_db_dd0.0.34.50.50.50_dh7.30.50.50.3_di7_qa_qb_dc0.1.7.1.1_eh4.10_ea13.10.10.56.0.0_ec1.38.10.10.56.38.57.0_ed3.50.1.1.10.56_ef3.2.22.10.10.56_eg3.2.22.10.10.56_r00_fa0.50.50.50.50.65.56_fb7_fh4_fc0.FF0000.55.0.FF0000.55.50.61.61.50.50.50_fd3.0.39.10.56_fe50.61_ff0000000000_fg0.50_pa0.0.0.0.40.50.85.85.0.0_t001.3.3.0.4.4.0.357.334.0_t011.3.3.0.4.4.0.334.380.0_t021.3.3.0.8.4.0.656.379.0_t031.3.3.0.10.6.0.641.314.0_pb_pc_pd_pe_ga0_gb1_gc85.0_ge0000000000_gh_gf_gg_gd10000000_ha89.89_hb49.1.44.99_hc0.14.32.0.14.32_hd2.1.49.49_ia_if_ib_id_ic_jc_ie_ja_jb_jd_je_jf_jg_ka_kb_kc_kd_ke_kf_la_lb_oa_os_ob_oc_od28.61.61.61.0_oe_of_lc_m00_n00_s00_og_oh_oo_op_oq_or_om_on_ok_ol_oi_oj_ad0.0.0.0.0.0.0.0.0.0
3-angry=47**aa27.80.1.0.50.30.40.1.42.50_ab_ac_ba50_bb6.1_bc185.500.0.0.1_bd6_be180_ca68.0.30.68.43.45.84.0.16_cb0_da7.0.0.100_db_dd0.0.34.50.50.50_dh7.30.50.50.3_di7_qa_qb_dc0.1.7.1.1_eh4.10_ea13.10.10.56.0.0_ec1.38.10.10.56.38.57.0_ed3.50.1.1.10.56_ef3.2.22.10.10.56_eg3.2.22.10.10.56_r00_fa0.50.50.50.50.65.56_fb7_fh4_fc0.FF0000.55.0.FF0000.55.50.61.61.50.50.50_fd3.0.39.10.56_fe50.61_ff0000000000_fg0.50_pa0.0.0.0.40.50.85.85.0.0_t001.3.3.0.4.4.0.357.334.0_t011.3.3.0.4.4.0.334.380.0_t021.3.3.0.8.4.0.656.379.0_t031.3.3.0.10.6.0.641.314.0_pb_pc_pd_pe_ga0_gb1_gc80.0_ge0000000000_gh_gf_gg_gd10000000_ha89.89_hb49.1.44.99_hc1.14.0.1.14.0_hd44.1.49.49_ia_if_ib_id_ic_jc_ie_ja_jb_jd_je_jf_jg_ka_kb_kc_kd_ke_kf_la_lb_oa_os_ob_oc_od28.61.61.61.0_oe_of_lc_m00_n00_s00_og_oh_oo_op_oq_or_om_on_ok_ol_oi_oj_ad0.0.0.0.0.0.0.0.0.0
3-happy=47**aa27.47.1.42.50.27.47.1.42.50_ab_ac_ba50_bb6.1_bc185.500.0.0.1_bd6_be180_ca68.0.30.68.43.45.84.0.16_cb0_da7.0.0.100_db_dd0.0.34.50.50.50_dh7.30.50.50.3_di7_qa_qb_dc0.1.7.1.1_eh4.10_ea13.10.10.56.0.0_ec1.38.10.10.56.38.57.0_ed3.50.1.1.10.56_ef3.2.22.10.10.56_eg3.2.22.10.10.56_r00_fa0.50.50.50.50.65.56_fb7_fh4_fc0.FF0000.55.0.FF0000.55.50.61.61.50.50.50_fd3.0.39.10.56_fe50.61_ff0000000000_fg0.50_pa0.0.0.0.40.50.85.85.0.0_t001.3.3.0.4.4.0.357.334.0_t011.3.3.0.4.4.0.334.380.0_t021.3.3.0.8.4.0.656.379.0_t031.3.3.0.10.6.0.641.314.0_pb_pc_pd_pe_ga0_gb1_gc87.0_ge0000000000_gh_gf_gg_gd10000100_ha89.89_hb49.1.44.99_hc0.14.32.0.14.32_hd34.1.49.49_ia_if_ib_id_ic_jc_ie_ja_jb_jd_je_jf_jg_ka_kb_kc_kd_ke_kf_la_lb_oa_os_ob_oc_od28.61.61.61.0_oe_of_lc_m00_n00_s00_og_oh_oo_op_oq_or_om_on_ok_ol_oi_oj_ad0.0.0.0.0.0.0.0.0.0
3-horny=47**aa34.60.1.27.50.10.90.1.5.49_ab_ac_ba50_bb6.1_bc185.500.0.0.1_bd6_be180_ca68.0.30.68.43.45.84.0.16_cb0_da7.0.0.100_db_dd0.0.34.50.50.50_dh7.30.50.50.3_di7_qa_qb_dc0.1.7.1.1_eh4.10_ea13.10.10.56.0.0_ec1.38.10.10.56.38.57.0_ed3.50.1.1.10.56_ef3.2.22.10.10.56_eg3.2.22.10.10.56_r00_fa0.50.50.50.50.65.56_fb7_fh4_fc0.FF0000.55.0.FF0000.55.50.61.61.50.50.50_fd3.0.39.10.56_fe50.61_ff0000000000_fg0.50_pa0.0.0.0.40.50.85.85.0.0_t001.3.3.0.4.4.0.357.334.0_t011.3.3.0.4.4.0.334.380.0_t021.3.3.0.8.4.0.656.379.0_t031.3.3.0.10.6.0.641.314.0_pb_pc_pd_pe_ga0_gb1_gc80.0_ge0000000000_gh_gf_gg_gd10000110_ha89.89_hb49.1.44.99_hc0.14.32.0.14.32_hd32.1.49.49_ia_if_ib_id_ic_jc_ie_ja_jb_jd_je_jf_jg_ka_kb_kc_kd_ke_kf_la_lb_oa_os_ob_oc_od28.61.61.61.0_oe_of_lc_m00_n00_s00_og_oh_oo_op_oq_or_om_on_ok_ol_oi_oj_ad0.0.0.0.0.0.0.0.0.0
3-sad=47**aa2.100.1.23.50.9.75.1.28.49_ab_ac_ba50_bb5.1_bc185.500.0.0.1_bd5_be180_ca68.0.30.68.43.45.84.0.16_cb0_da7.0.0.100_db_dd0.0.34.50.50.50_dh7.30.50.50.3_di7_qa_qb_dc0.1.7.1.1_eh4.10_ea13.10.10.56.0.0_ec1.38.10.10.56.38.57.0_ed3.50.1.1.10.56_ef3.2.22.10.10.56_eg3.2.22.10.10.56_r00_fa0.50.50.50.50.65.56_fb7_fh4_fc0.FF0000.55.0.FF0000.55.50.61.61.50.50.50_fd3.0.39.10.56_fe50.61_ff0000000000_fg0.50_pa0.0.0.0.40.50.85.85.0.0_t001.3.3.0.4.4.0.357.334.0_t011.3.3.0.4.4.0.334.380.0_t021.3.3.0.8.4.0.656.379.0_t031.3.3.0.10.6.0.641.314.0_pb_pc_pd_pe_ga0_gb1_gc50.50_ge0000000000_gh_gf_gg_gd10000000_ha89.89_hb22.1.12.99_hc0.59.19.0.59.19_hd51.1.49.49_ia_if_ib_id_ic_jc_ie_ja_jb_jd_je_jf_jg_ka_kb_kc_kd_ke_kf_la_lb_oa_os_ob_oc_od28.61.61.61.0_oe_of_lc_m00_n00_s00_og_oh_oo_op_oq_or_om_on_ok_ol_oi_oj_ad0.0.0.0.0.0.0.0.0.0
3-embarrassed=47**aa15.84.1.16.50.9.75.1.28.49_ab_ac_ba50_bb5.1_bc185.500.0.0.1_bd5_be180_ca68.0.30.68.43.45.84.0.16_cb0_da7.0.0.100_db_dd0.0.34.50.50.50_dh7.30.50.50.3_di7_qa_qb_dc0.1.7.1.1_eh4.10_ea13.10.10.56.0.0_ec1.38.10.10.56.38.57.0_ed3.50.1.1.10.56_ef3.2.22.10.10.56_eg3.2.22.10.10.56_r00_fa0.50.50.50.50.65.56_fb7_fh4_fc0.FF0000.55.0.FF0000.55.50.61.61.50.50.50_fd3.0.39.10.56_fe50.61_ff0000000000_fg0.50_pa0.0.0.0.40.50.85.85.0.0_t001.3.3.0.4.4.0.357.334.0_t011.3.3.0.4.4.0.334.380.0_t021.3.3.0.8.4.0.656.379.0_t031.3.3.0.10.6.0.641.314.0_pb_pc_pd_pe_ga0_gb1_gc92.100_ge0000000000_gh_gf_gg_gd10000000_ha89.89_hb49.1.44.99_hc0.0.32.0.0.32_hd40.1.49.49_ia_if_ib_id_ic_jc_ie_ja_jb_jd_je_jf_jg_ka_kb_kc_kd_ke_kf_la_lb_oa_os_ob_oc_od28.61.61.61.0_oe_of_lc_m00_n00_s00_og_oh_oo_op_oq_or_om_on_ok_ol_oi_oj_ad0.0.0.0.0.0.0.0.0.0
3-proud=47**aa17.52.1.22.37.14.87.1.37.37_ab_ac_ba50_bb8.1_bc185.500.0.0.1_bd8_be180_ca68.0.30.68.43.45.84.0.16_cb0_da7.0.0.100_db_dd0.0.34.50.50.50_dh7.30.50.50.3_di7_qa_qb_dc0.1.7.1.1_eh4.10_ea13.10.10.56.0.0_ec1.38.10.10.56.38.57.0_ed3.50.1.1.10.56_ef3.2.22.10.10.56_eg3.2.22.10.10.56_r00_fa0.50.50.50.50.65.56_fb7_fh4_fc0.FF0000.55.0.FF0000.55.50.61.61.50.50.50_fd3.0.39.10.56_fe50.61_ff0000000000_fg0.50_pa0.0.0.0.40.50.85.85.0.0_t001.3.3.0.4.4.0.357.334.0_t011.3.3.0.4.4.0.334.380.0_t021.3.3.0.8.4.0.656.379.0_t031.3.3.0.10.6.0.641.314.0_pb_pc_pd_pe_ga0_gb1_gc92.0_ge0000000000_gh_gf_gg_gd10000000_ha89.89_hb49.1.44.99_hc0.14.32.0.14.32_hd35.1.62.65_ia_if_ib_id_ic_jc_ie_ja_jb_jd_je_jf_jg_ka_kb_kc_kd_ke_kf_la_lb_oa_os_ob_oc_od28.61.61.61.0_oe_of_lc_m00_n00_s00_og_oh_oo_op_oq_or_om_on_ok_ol_oi_oj_ad0.0.0.0.0.0.0.0.0.0

#Stage -2 - Masturbating
4-angry=47**aa9.87.0.22.37.15.85.1.1.37_ab_ac_ba50_bb11.1_bc150.500.8.0.1_bd11_be180_ca68.0.30.68.43.45.84.0.16_cb0_da7.0.0.100_db_dd0.0.34.50.50.50_dh7.30.50.50.3_di7_qa_qb_dc0.1.7.1.1_eh4.10_ea13.10.10.56.0.0_ec1.38.10.10.56.38.57.0_ed3.50.1.1.10.56_ef3.2.22.10.10.56_eg3.2.22.10.10.56_r00_fa0.50.50.50.50.65.56_fb7_fh4_fc0.FF0000.55.0.FF0000.55.50.61.61.50.50.50_fd3.0.39.10.56_fe50.61_ff0000000000_fg0.50_pa0.0.0.0.40.50.85.85.0.0_t001.3.3.0.4.4.0.357.334.0_t011.3.3.0.4.4.0.334.380.0_t021.3.3.0.8.4.0.656.379.0_t031.3.3.0.10.6.0.641.314.0_pb_pc_pd_pe_ga0_gb1_gc100.0_ge0000000000_gh_gf_gg_gd10000100_ha89.89_hb49.1.44.99_hc0.0.32.0.0.32_hd35.1.62.65_ia_if_ib_id_ic_jc_ie_ja_jb_jd_je_jf_jg_ka_kb_kc_kd_ke_kf_la_lb_oa_os_ob_oc_od28.61.61.61.0_oe_of_lc_m00_n00_s00_og_oh_oo_op_oq_or_om_on_ok_ol_oi_oj_ad0.0.0.0.0.0.0.0.0.0
4-horny=47**aa15.85.1.2.37.15.85.1.1.37_ab_ac_ba50_bb40.1_bc150.500.8.0.1_bd40_be180_ca68.0.30.68.43.45.84.0.16_cb0_da7.0.0.100_db_dd0.0.34.50.50.50_dh7.30.50.50.3_di7_qa_qb_dc0.1.7.1.1_eh4.10_ea13.10.10.56.0.0_ec1.38.10.10.56.38.57.0_ed3.50.1.1.10.56_ef3.2.22.10.10.56_eg3.2.22.10.10.56_r00_fa0.50.50.50.50.65.56_fb7_fh4_fc0.FF0000.55.0.FF0000.55.50.61.61.50.50.50_fd3.0.39.10.56_fe50.61_ff0000000000_fg0.50_pa0.0.0.0.40.50.85.85.0.0_t001.3.3.0.4.4.0.357.334.0_t011.3.3.0.4.4.0.334.380.0_t021.3.3.0.8.4.0.656.379.0_t031.3.3.0.10.6.0.641.314.0_pb_pc_pd_pe_ga0_gb1_gc100.0_ge0000000000_gh_gf_gg_gd10000100_ha89.89_hb64.0.100.99_hc0.0.32.0.0.32_hd23.1.62.65_ia_if_ib_id_ic_jc_ie_ja_jb_jd_je_jf_jg_ka_kb_kc_kd_ke_kf_la_lb_oa_os_ob_oc_od28.61.61.61.0_oe_of_lc_m00_n00_s00_og_oh_oo_op_oq_or_om_on_ok_ol_oi_oj_ad0.0.0.0.0.0.0.0.0.0
4-sad=47**aa24.55.1.26.37.15.85.1.1.37_ab_ac_ba50_bb7.1_bc150.500.8.0.1_bd7_be180_ca68.0.30.68.43.45.84.0.16_cb0_da7.0.0.100_db_dd0.0.34.50.50.50_dh7.30.50.50.3_di7_qa_qb_dc0.1.7.1.1_eh4.10_ea13.10.10.56.0.0_ec1.38.10.10.56.38.57.0_ed3.50.1.1.10.56_ef3.2.22.10.10.56_eg3.2.22.10.10.56_r00_fa0.50.50.50.50.65.56_fb7_fh4_fc0.FF0000.55.0.FF0000.55.50.61.61.50.50.50_fd3.0.39.10.56_fe50.61_ff0000000000_fg0.50_pa0.0.0.0.40.50.85.85.0.0_t001.3.3.0.4.4.0.357.334.0_t011.3.3.0.4.4.0.334.380.0_t021.3.3.0.8.4.0.656.379.0_t031.3.3.0.10.6.0.641.314.0_pb_pc_pd_pe_ga0_gb1_gc100.0_ge0000000000_gh_gf_gg_gd10010100_ha89.89_hb49.1.44.99_hc0.44.7.0.44.7_hd37.1.62.65_ia_if_ib_id_ic_jc_ie_ja_jb_jd_je_jf_jg_ka_kb_kc_kd_ke_kf_la_lb_oa_os_ob_oc_od28.61.61.61.0_oe_of_lc_m00_n00_s00_og_oh_oo_op_oq_or_om_on_ok_ol_oi_oj_ad0.0.0.0.0.0.0.0.0.0
4-proud=47**aa15.87.1.24.37.15.87.1.24.37_ab_ac_ba50_bb11.1_bc150.500.8.0.1_bd11_be180_ca68.0.30.68.43.45.84.0.16_cb0_da7.0.0.100_db_dd0.0.34.50.50.50_dh7.30.50.50.3_di7_qa_qb_dc0.1.7.1.1_eh4.10_ea13.10.10.56.0.0_ec1.38.10.10.56.38.57.0_ed3.50.1.1.10.56_ef3.2.22.10.10.56_eg3.2.22.10.10.56_r00_fa0.50.50.50.50.65.56_fb7_fh4_fc0.FF0000.55.0.FF0000.55.50.61.61.50.50.50_fd3.0.39.10.56_fe50.61_ff0000000000_fg0.50_pa0.0.0.0.40.50.85.85.0.0_t001.3.3.0.4.4.0.357.334.0_t011.3.3.0.4.4.0.334.380.0_t021.3.3.0.8.4.0.656.379.0_t031.3.3.0.10.6.0.641.314.0_pb_pc_pd_pe_ga0_gb1_gc100.0_ge0000000000_gh_gf_gg_gd10000110_ha89.89_hb49.1.70.99_hc0.44.7.0.44.7_hd33.1.62.65_ia_if_ib_id_ic_jc_ie_ja_jb_jd_je_jf_jg_ka_kb_kc_kd_ke_kf_la_lb_oa_os_ob_oc_od28.61.61.61.0_oe_of_lc_m00_n00_s00_og_oh_oo_op_oq_or_om_on_ok_ol_oi_oj_ad0.0.0.0.0.0.0.0.0.0

#Stage -1 - Post Masturbation
5-angry=47**aa20.69.1.0.37.20.69.1.0.37_ab_ac_ba50_bb8.1_bc150.500.8.0.1_bd8_be180_ca68.0.30.68.43.45.84.0.16_cb0_da7.0.0.100_db_dd0.0.34.50.50.50_dh7.30.50.50.3_di7_qa_qb_dc52.1.7.1.1_eh4.10_ea13.10.10.56.0.0_ec1.38.10.10.56.38.57.0_ed3.50.1.1.10.56_ef3.2.22.10.10.56_eg3.2.22.10.10.56_r00_fa0.50.50.50.50.65.56_fb7_fh4_fc0.FF0000.55.0.FF0000.55.50.61.61.50.50.50_fd3.0.39.10.56_fe50.61_ff0000000000_fg0.50_pa0.0.0.0.40.50.85.85.0.0_t001.3.3.0.4.4.0.357.334.0_t011.3.3.0.4.4.0.334.380.0_t021.3.3.0.8.4.0.656.379.0_t031.3.3.0.10.6.0.641.314.0_pb_pc_pd_pe_ga0_gb1_gc100.0_ge0000000000_gh_gf_gg_gd10000100_ha89.89_hb49.1.44.99_hc0.0.15.0.0.15_hd5.1.62.65_ia_if_ib_id_ic_jc_ie_ja_jb_jd_je_jf_jg_ka_kb_kc_kd_ke_kf_la_lb_oa_os_ob_oc_od28.61.61.61.0_oe_of_lc_m00_n00_s00_og_oh_oo_op_oq_or_om_on_ok_ol_oi_oj_ad0.0.0.0.0.0.0.0.0.0
5-happy=47**aa19.57.1.13.9.19.57.1.13.9_ab_ac_ba50_bb8.1_bc150.500.8.0.1_bd8_be180_ca68.0.30.68.43.45.84.0.16_cb0_da7.0.0.100_db_dd0.0.34.50.50.50_dh7.30.50.50.3_di7_qa_qb_dc52.1.7.1.1_eh4.10_ea13.10.10.56.0.0_ec1.38.10.10.56.38.57.0_ed3.50.1.1.10.56_ef3.2.22.10.10.56_eg3.2.22.10.10.56_r00_fa0.50.50.50.50.65.56_fb7_fh4_fc0.FF0000.55.0.FF0000.55.50.61.61.50.50.50_fd3.0.39.10.56_fe50.61_ff0000000000_fg0.50_pa0.0.0.0.40.50.85.85.0.0_t001.3.3.0.4.4.0.357.334.0_t011.3.3.0.4.4.0.334.380.0_t021.3.3.0.8.4.0.656.379.0_t031.3.3.0.10.6.0.641.314.0_pb_pc_pd_pe_ga0_gb1_gc100.0_ge0000000000_gh_gf_gg_gd10000100_ha89.89_hb49.1.44.99_hc0.14.32.0.14.32_hd35.1.62.65_ia_if_ib_id_ic_jc_ie_ja_jb_jd_je_jf_jg_ka_kb_kc_kd_ke_kf_la_lb_oa_os_ob_oc_od28.61.61.61.0_oe_of_lc_m00_n00_s00_og_oh_oo_op_oq_or_om_on_ok_ol_oi_oj_ad0.0.0.0.0.0.0.0.0.0
5-horny=47**aa17.52.1.22.37.24.80.1.33.37_ab_ac_ba50_bb8.1_bc150.500.8.0.1_bd8_be180_ca68.0.30.68.43.45.84.0.16_cb0_da7.0.0.100_db_dd0.0.34.50.50.50_dh7.30.50.50.3_di7_qa_qb_dc52.1.7.1.1_eh4.10_ea13.10.10.56.0.0_ec1.38.10.10.56.38.57.0_ed3.50.1.1.10.56_ef3.2.22.10.10.56_eg3.2.22.10.10.56_r00_fa0.50.50.50.50.65.56_fb7_fh4_fc0.FF0000.55.0.FF0000.55.50.61.61.50.50.50_fd3.0.39.10.56_fe50.61_ff0000000000_fg0.50_pa0.0.0.0.40.50.85.85.0.0_t001.3.3.0.4.4.0.357.334.0_t011.3.3.0.4.4.0.334.380.0_t021.3.3.0.8.4.0.656.379.0_t031.3.3.0.10.6.0.641.314.0_pb_pc_pd_pe_ga0_gb1_gc100.0_ge0000000000_gh_gf_gg_gd10000110_ha89.89_hb49.1.44.99_hc0.14.32.0.14.32_hd35.1.62.65_ia_if_ib_id_ic_jc_ie_ja_jb_jd_je_jf_jg_ka_kb_kc_kd_ke_kf_la_lb_oa_os_ob_oc_od28.61.61.61.0_oe_of_lc_m00_n00_s00_og_oh_oo_op_oq_or_om_on_ok_ol_oi_oj_ad0.0.0.0.0.0.0.0.0.0
5-shocked=47**aa12.100.1.27.37.12.100.1.27.37_ab_ac_ba50_bb9.1_bc150.500.8.0.1_bd9_be180_ca68.0.30.68.43.45.84.0.16_cb0_da7.0.0.100_db_dd0.0.34.50.50.50_dh7.30.50.50.3_di7_qa_qb_dc52.1.7.1.1_eh4.10_ea13.10.10.56.0.0_ec1.38.10.10.56.38.57.0_ed3.50.1.1.10.56_ef3.2.22.10.10.56_eg3.2.22.10.10.56_r00_fa0.50.50.50.50.65.56_fb7_fh4_fc0.FF0000.55.0.FF0000.55.50.61.61.50.50.50_fd3.0.39.10.56_fe50.61_ff0000000000_fg0.50_pa0.0.0.0.40.50.85.85.0.0_t001.3.3.0.4.4.0.357.334.0_t011.3.3.0.4.4.0.334.380.0_t021.3.3.0.8.4.0.656.379.0_t031.3.3.0.10.6.0.641.314.0_pb_pc_pd_pe_ga0_gb1_gc100.0_ge0000000000_gh_gf_gg_gd10000100_ha89.89_hb49.1.44.68_hc0.14.32.0.14.32_hd36.1.62.65_ia_if_ib_id_ic_jc_ie_ja_jb_jd_je_jf_jg_ka_kb_kc_kd_ke_kf_la_lb_oa_os_ob_oc_od28.61.61.61.0_oe_of_lc_m00_n00_s00_og_oh_oo_op_oq_or_om_on_ok_ol_oi_oj_ad0.0.0.0.0.0.0.0.0.0
5-sad=47**aa4.100.1.27.37.7.77.1.27.37_ab_ac_ba50_bb7.1_bc150.500.8.0.1_bd7_be180_ca68.0.30.68.43.45.84.0.16_cb0_da7.0.0.100_db_dd0.0.34.50.50.50_dh7.30.50.50.3_di7_qa_qb_dc52.1.7.1.1_eh4.10_ea13.10.10.56.0.0_ec1.38.10.10.56.38.57.0_ed3.50.1.1.10.56_ef3.2.22.10.10.56_eg3.2.22.10.10.56_r00_fa0.50.50.50.50.65.56_fb7_fh4_fc0.FF0000.55.0.FF0000.55.50.61.61.50.50.50_fd3.0.39.10.56_fe50.61_ff0000000000_fg0.50_pa0.0.0.0.40.50.85.85.0.0_t001.3.3.0.4.4.0.357.334.0_t011.3.3.0.4.4.0.334.380.0_t021.3.3.0.8.4.0.656.379.0_t031.3.3.0.10.6.0.641.314.0_pb_pc_pd_pe_ga0_gb1_gc100.84_ge0000000000_gh_gf_gg_gd10010100_ha89.89_hb67.1.14.80_hc0.14.32.0.14.32_hd8.1.62.65_ia_if_ib_id_ic_jc_ie_ja_jb_jd_je_jf_jg_ka_kb_kc_kd_ke_kf_la_lb_oa_os_ob_oc_od28.61.61.61.0_oe_of_lc_m00_n00_s00_og_oh_oo_op_oq_or_om_on_ok_ol_oi_oj_ad0.0.0.0.0.0.0.0.0.0
5-embarrassed=47**aa17.52.1.22.37.24.67.1.22.37_ab_ac_ba50_bb9.1_bc150.500.8.0.1_bd9_be180_ca68.0.30.68.43.45.84.0.16_cb0_da7.0.0.100_db_dd0.0.34.50.50.50_dh7.30.50.50.3_di7_qa_qb_dc52.1.7.1.1_eh4.10_ea13.10.10.56.0.0_ec1.38.10.10.56.38.57.0_ed3.50.1.1.10.56_ef3.2.22.10.10.56_eg3.2.22.10.10.56_r00_fa0.50.50.50.50.65.56_fb7_fh4_fc0.FF0000.55.0.FF0000.55.50.61.61.50.50.50_fd3.0.39.10.56_fe50.61_ff0000000000_fg0.50_pa0.0.0.0.40.50.85.85.0.0_t001.3.3.0.4.4.0.357.334.0_t011.3.3.0.4.4.0.334.380.0_t021.3.3.0.8.4.0.656.379.0_t031.3.3.0.10.6.0.641.314.0_pb_pc_pd_pe_ga0_gb1_gc100.84_ge0000000000_gh_gf_gg_gd10000100_ha89.89_hb49.1.44.99_hc0.14.32.0.14.32_hd40.1.62.65_ia_if_ib_id_ic_jc_ie_ja_jb_jd_je_jf_jg_ka_kb_kc_kd_ke_kf_la_lb_oa_os_ob_oc_od28.61.61.61.0_oe_of_lc_m00_n00_s00_og_oh_oo_op_oq_or_om_on_ok_ol_oi_oj_ad0.0.0.0.0.0.0.0.0.0
5-proud=47**aa24.84.1.22.37.24.84.1.22.37_ab_ac_ba50_bb10.1_bc150.500.8.0.1_bd10_be180_ca68.0.30.68.43.45.84.0.16_cb0_da7.0.0.100_db_dd0.0.34.50.50.50_dh7.30.50.50.3_di7_qa_qb_dc52.1.7.1.1_eh4.10_ea13.10.10.56.0.0_ec1.38.10.10.56.38.57.0_ed3.50.1.1.10.56_ef3.2.22.10.10.56_eg3.2.22.10.10.56_r00_fa0.50.50.50.50.65.56_fb7_fh4_fc0.FF0000.55.0.FF0000.55.50.61.61.50.50.50_fd3.0.39.10.56_fe50.61_ff0000000000_fg0.50_pa0.0.0.0.40.50.85.85.0.0_t001.3.3.0.4.4.0.357.334.0_t011.3.3.0.4.4.0.334.380.0_t021.3.3.0.8.4.0.656.379.0_t031.3.3.0.10.6.0.641.314.0_pb_pc_pd_pe_ga0_gb1_gc100.0_ge0000000000_gh_gf_gg39.0.50.50.50.1_gd10000100_ha89.89_hb49.1.44.99_hc0.14.32.0.14.32_hd40.1.62.65_ia_if_ib_id_ic_jc_ie_ja_jb_jd_je_jf_jg_ka_kb_kc_kd_ke_kf_la_lb_oa_os_ob_oc_od28.61.61.61.0_oe_of_lc_m00_n00_s00_og_oh_oo_op_oq_or_om_on_ok_ol_oi_oj_ad0.0.0.0.0.0.0.0.0.0


4-calm=47***aa11.61.1.47.34.11.61.1.47.35_ab_ac_ba50_bb62.1_bc185.200.0.0.1_bd62_be180_ca56.0.36.75.15.34.34.0.10_cb0_da1.0.0.100_db_dd0.3.0.9.17.50_dh1.30.50.50.0_di7_qa_qb_dc2735.3.1.1.1_eh_ea27.55.55.55.1.0_ec7.11.55.55.55.47.64.0_ed0.37.1.1.55.56_ef_eg_r00_fa4.76.87.73.32.65.56_fb7_fh1_fc0.FFDA00.55.0.FFDA00.55.37.61.61.37.48.50_fd1.0.36.55.56_fe50.73_ff0000000000_fg0.52_pa0.0.0.0.40.50.85.85.0.0_t00_pb0.54.54.0_pc_pd_pe_ga0_gb1_gc68.0_ge0000000000_gh_gf_gg_gd11000000_ha72.72_hb50.1.50.99_hc1.43.3.1.43.3_hd38.1.60.38_ia_if_ib_id_ic_jc_ie_ja_jb_jd_je_jf_jg_ka_kb_kc_kd_ke_kf_la_lb_oa_os_ob_oc_od_oe_of_lc_m00_n00_s00_og_oh_oo_op_oq_or_om_on_ok_ol_oi_oj_ad1.1.1.1.1.1.1.1.1.1*0*0*0*0*0*0*0*0#/]a00_b00_c00_d00_w00_x00_e00_y00_z00_ua1.55.0.0.100_uf0.3.0.0_ue_ub_u0_v0_uc7.0.30_ud7.8
4-calm=47**aa17.52.1.22.37.10.84.1.37.37_ab_ac_ba50_bb98.1_bc150.500.8.0.1_bd98_be180_ca68.0.30.68.43.45.84.0.16_cb0_da7.0.0.100_db_dd0.0.34.50.50.50_dh7.30.50.50.3_di7_qa_qb_dc0.1.7.1.1_eh4.10_ea13.10.10.56.0.0_ec1.38.10.10.56.38.57.0_ed3.50.1.1.10.56_ef3.2.22.10.10.56_eg3.2.22.10.10.56_r00_fa0.50.50.50.50.65.56_fb7_fh4_fc0.FF0000.55.0.FF0000.55.50.61.61.50.50.50_fd3.0.39.10.56_fe50.61_ff0000000000_fg0.50_pa0.0.0.0.40.50.85.85.0.0_t001.3.3.0.4.4.0.357.334.0_t011.3.3.0.4.4.0.334.380.0_t021.3.3.0.8.4.0.656.379.0_t031.3.3.0.10.6.0.641.314.0_pb_pc_pd_pe_ga0_gb1_gc100.0_ge0000000000_gh_gf_gg1.0.50.50.50.1_gd10000000_ha89.89_hb49.1.44.99_hc0.14.32.0.14.32_hd35.1.62.65_ia_if_ib_id_ic_jc_ie_ja_jb_jd_je_jf_jg_ka_kb_kc_kd_ke_kf_la_lb_oa_os_ob_oc_od28.61.61.61.0_oe_of_lc_m00_n00_s00_og_oh_oo_op_oq_or_om_on_ok_ol_oi_oj_ad0.0.0.0.0.0.0.0.0.0
5-calm=47**aa27.87.1.24.37.27.87.1.24.37_ab_ac_ba50_bb98.1_bc150.500.8.0.1_bd98_be180_ca68.0.30.68.43.45.84.0.16_cb0_da7.0.0.100_db_dd0.0.34.50.50.50_dh7.30.50.50.3_di7_qa_qb_dc52.1.7.1.1_eh4.10_ea13.10.10.56.0.0_ec1.38.10.10.56.38.57.0_ed3.50.1.1.10.56_ef3.2.22.10.10.56_eg3.2.22.10.10.56_r00_fa0.50.50.50.50.65.56_fb7_fh4_fc0.FF0000.55.0.FF0000.55.50.61.61.50.50.50_fd3.0.39.10.56_fe50.61_ff0000000000_fg0.50_pa0.0.0.0.40.50.85.85.0.0_t001.3.3.0.4.4.0.357.334.0_t011.3.3.0.4.4.0.334.380.0_t021.3.3.0.8.4.0.656.379.0_t031.3.3.0.10.6.0.641.314.0_pb_pc_pd_pe_ga0_gb1_gc100.0_ge0000000000_gh_gf_gg_gd10000110_ha89.89_hb100.0.100.99_hc0.44.7.0.44.7_hd23.1.62.65_ia_if_ib_id_ic_jc_ie_ja_jb_jd_je_jf_jg_ka_kb_kc_kd_ke_kf_la_lb_oa_os_ob_oc_od28.61.61.61.0_oe_of_lc_m00_n00_s00_og_oh_oo_op_oq_or_om_on_ok_ol_oi_oj_ad0.0.0.0.0.0.0.0.0.0

0-shocked=47***aa19.0.1.0.50.6.100.0.0.50_ab_ac_ba50_bb98.1_bc217.500.0.0.1_bd17_be180_ca70.0.46.62.18.32.34.0.0_cb0_da1.0.E4CCE8.100_db_dd0.1.34.50.50.50_dh4.30.50.57.4_di7_qa_qb_dc0.1.1.1.1_eh4.40_ea24.40.40.56.0.0_ec_ed0.16.1.1.40.56_ef0.0.50.40.40.56_eg0.0.50.40.40.56_r00_fa2.50.57.12.64.65.56_fb7_fh2_fc0.19.55.0.19.55.44.61.61.50.50.50_fd1.1.41.40.56_fe50.61_ff0000000000_fg0.50_pa0.0.0.0.40.50.85.85.0.0_t00_pb_pc_pd_pe_ga0_gb1_gc0.0_ge0000000000_gh_gf_gg_gd10000000_ha89.89_hb49.1.44.99_hc0.59.39.0.59.39_hd0.1.49.49_ia_if_ib7.44.49.60.0.0.0.1.1.0.0.1.0.0.15_id_ic_jc_ie4.56.56.0.2.60.60.0.2.60.60.0.0_ja13.60.2.0_jb13.60.2.0_jd_je14.55.44.60_jf_jg_ka0.43.43.1.0_kb_kc_kd_ke_kf_la18.67CD5F.55.0.1_lb_oa_os_ob_oc_od_oe_of_lc_m013.4EBA43.3.0.2.0.44.0.0.79.3.61_n00_s003.34.34.34.0.38.0.573.534.3.0.0.38.4.61_og_oh_oo_op_oq_or_om_on_ok_ol_oi7.55.60.34.0_oj7.55.60.34.0_ad0.0.0.0.0.0.0.0.0.0*0*0*0*0*0*0*0*0#/]a00_b00_c00_d00_w00_x00_e00_y00_z00_ua1.0.0.0.100_uf0.3.0.0_ue_ub_u0_v0_uc7.0.30_ud7.8
crop_pixels=0,0,800,1400

0-shocked=47**aa24.100.1.26.50.24.100.1.26.49_ab_ac_ba50_bb8.1_bc150.500.8.0.1_bd8_be180_ca68.0.30.68.43.45.84.0.16_cb0_da7.0.0.100_db_dd0.0.34.50.50.50_dh7.30.50.50.3_di7_qa_qb_dc0.1.7.1.1_eh4.10_ea13.10.10.56.0.0_ec1.38.10.10.56.38.57.0_ed3.50.1.1.10.56_ef3.2.22.10.10.56_eg3.2.22.10.10.56_r00_fa0.50.50.50.50.65.56_fb7_fh4_fc0.FF0000.55.0.FF0000.55.50.61.61.50.50.50_fd3.0.39.10.56_fe50.61_ff0000000000_fg0.50_pa0.0.0.0.40.50.85.85.0.0_t001.3.3.0.4.4.0.357.334.0_t011.3.3.0.4.4.0.334.380.0_t021.3.3.0.8.4.0.656.379.0_t031.3.3.0.10.6.0.641.314.0_pb_pc_pd_pe_ga0_gb1_gc0.0_ge0000000000_gh_gf_gg_gd10000000_ha89.89_hb49.1.44.91_hc0.29.37.0.29.37_hd41.1.49.49_ia_if_ib_id_ic_jc_ie_ja_jb_jd2.61.61.54_je2.61.61.54_jf_jg_ka32.61.9A0000.3.0_kb22.61.9A0000.3_kc_kd_ke_kf_la_lb_oa_os_ob_oc_od28.61.61.61.0_oe_of_lc_m00_n00_s00_og_oh_oo_op_oq_or_om_on_ok_ol_oi_oj_ad0.0.0.0.0.0.0.0.0.0
1-shocked=47**aa24.100.1.26.50.24.100.1.26.49_ab_ac_ba50_bb8.1_bc150.500.8.0.1_bd8_be180_ca68.0.30.68.43.45.84.0.16_cb0_da7.0.0.100_db_dd0.0.34.50.50.50_dh7.30.50.50.3_di7_qa_qb_dc0.1.7.1.1_eh4.10_ea13.10.10.56.0.0_ec1.38.10.10.56.38.57.0_ed3.50.1.1.10.56_ef3.2.22.10.10.56_eg3.2.22.10.10.56_r00_fa0.50.50.50.50.65.56_fb7_fh4_fc0.FF0000.55.0.FF0000.55.50.61.61.50.50.50_fd3.0.39.10.56_fe50.61_ff0000000000_fg0.50_pa0.0.0.0.40.50.85.85.0.0_t001.3.3.0.4.4.0.357.334.0_t011.3.3.0.4.4.0.334.380.0_t021.3.3.0.8.4.0.656.379.0_t031.3.3.0.10.6.0.641.314.0_pb_pc_pd_pe_ga0_gb1_gc55.0_ge0000000000_gh_gf_gg_gd10000000_ha89.89_hb49.1.44.55_hc0.29.37.0.29.37_hd41.1.49.49_ia_if_ib_id_ic_jc_ie_ja_jb_jd_je_jf_jg_ka32.61.9A0000.3.0_kb22.61.9A0000.3_kc_kd_ke_kf_la_lb_oa_os_ob_oc_od28.61.61.61.0_oe_of_lc_m00_n00_s00_og_oh_oo_op_oq_or_om_on_ok_ol_oi_oj_ad0.0.0.0.0.0.0.0.0.0
2-shocked=47**aa24.100.1.26.50.24.100.1.26.49_ab_ac_ba50_bb8.1_bc150.500.8.0.1_bd8_be180_ca68.0.30.68.43.45.84.0.16_cb0_da7.0.0.100_db_dd0.0.34.50.50.50_dh7.30.50.50.3_di7_qa_qb_dc0.1.7.1.1_eh4.10_ea13.10.10.56.0.0_ec1.38.10.10.56.38.57.0_ed3.50.1.1.10.56_ef3.2.22.10.10.56_eg3.2.22.10.10.56_r00_fa0.50.50.50.50.65.56_fb7_fh4_fc0.FF0000.55.0.FF0000.55.50.61.61.50.50.50_fd3.0.39.10.56_fe50.61_ff0000000000_fg0.50_pa0.0.0.0.40.50.85.85.0.0_t001.3.3.0.4.4.0.357.334.0_t011.3.3.0.4.4.0.334.380.0_t021.3.3.0.8.4.0.656.379.0_t031.3.3.0.10.6.0.641.314.0_pb_pc_pd_pe_ga0_gb1_gc55.0_ge0000000000_gh_gf_gg_gd10000000_ha89.89_hb49.1.44.55_hc0.29.37.0.29.37_hd41.1.49.49_ia_if_ib_id_ic_jc_ie_ja_jb_jd_je_jf_jg_ka_kb22.61.9A0000.3_kc_kd_ke_kf_la_lb_oa_os_ob_oc_od28.61.61.61.0_oe_of_lc_m00_n00_s00_og_oh_oo_op_oq_or_om_on_ok_ol_oi_oj_ad0.0.0.0.0.0.0.0.0.0
3-shocked=47**aa24.100.1.26.50.24.100.1.26.49_ab_ac_ba50_bb8.1_bc150.500.8.0.1_bd8_be180_ca68.0.30.68.43.45.84.0.16_cb0_da7.0.0.100_db_dd0.0.34.50.50.50_dh7.30.50.50.3_di7_qa_qb_dc0.1.7.1.1_eh4.10_ea13.10.10.56.0.0_ec1.38.10.10.56.38.57.0_ed3.50.1.1.10.56_ef3.2.22.10.10.56_eg3.2.22.10.10.56_r00_fa0.50.50.50.50.65.56_fb7_fh4_fc0.FF0000.55.0.FF0000.55.50.61.61.50.50.50_fd3.0.39.10.56_fe50.61_ff0000000000_fg0.50_pa0.0.0.0.40.50.85.85.0.0_t001.3.3.0.4.4.0.357.334.0_t011.3.3.0.4.4.0.334.380.0_t021.3.3.0.8.4.0.656.379.0_t031.3.3.0.10.6.0.641.314.0_pb_pc_pd_pe_ga0_gb1_gc55.0_ge0000000000_gh_gf_gg_gd10000000_ha89.89_hb49.1.44.55_hc0.29.37.0.29.37_hd41.1.49.49_ia_if_ib_id_ic_jc_ie_ja_jb_jd_je_jf_jg_ka_kb_kc_kd_ke_kf_la_lb_oa_os_ob_oc_od28.61.61.61.0_oe_of_lc_m00_n00_s00_og_oh_oo_op_oq_or_om_on_ok_ol_oi_oj_ad0.0.0.0.0.0.0.0.0.0
4-shocked=47**aa20.100.1.26.37.15.85.1.1.37_ab_ac_ba50_bb40.1_bc217.500.0.0.1_bd40_be180_ca68.0.30.68.43.45.84.0.16_cb0_da7.0.0.100_db_dd0.0.34.50.50.50_dh7.30.50.50.3_di7_qa_qb_dc0.1.7.1.1_eh4.10_ea13.10.10.56.0.0_ec1.38.10.10.56.38.57.0_ed3.50.1.1.10.56_ef3.2.22.10.10.56_eg3.2.22.10.10.56_r00_fa0.50.50.50.50.65.56_fb7_fh4_fc0.FF0000.55.0.FF0000.55.50.61.61.50.50.50_fd3.0.39.10.56_fe50.61_ff0000000000_fg0.50_pa0.0.0.0.40.50.85.85.0.0_t001.3.3.0.4.4.0.357.334.0_t011.3.3.0.4.4.0.334.380.0_t021.3.3.0.8.4.0.656.379.0_t031.3.3.0.10.6.0.641.314.0_pb_pc_pd_pe_ga0_gb1_gc100.0_ge0000000000_gh_gf_gg_gd10000100_ha89.89_hb49.1.44.99_hc0.44.32.0.44.32_hd36.1.62.65_ia_if_ib_id_ic_jc_ie_ja_jb_jd_je_jf_jg_ka_kb_kc_kd_ke_kf_la_lb_oa_os_ob_oc_od28.61.61.61.0_oe_of_lc_m00_n00_s00_og_oh_oo_op_oq_or_om_on_ok_ol_oi_oj_ad0.0.0.0.0.0.0.0.0.0
4-cumming=47**aa20.100.1.26.37.15.85.1.1.37_ab_ac_ba50_bb40.1_bc150.500.8.0.1_bd40_be180_ca68.0.30.68.43.45.84.0.16_cb0_da7.0.0.100_db_dd0.0.34.50.50.50_dh7.30.50.50.3_di7_qa_qb_dc0.1.7.1.1_eh4.10_ea13.10.10.56.0.0_ec1.38.10.10.56.38.57.0_ed3.50.1.1.10.56_ef3.2.22.10.10.56_eg3.2.22.10.10.56_r00_fa0.50.50.50.50.65.56_fb7_fh4_fc0.FF0000.55.0.FF0000.55.50.61.61.50.50.50_fd3.0.39.10.56_fe50.61_ff0000000000_fg0.50_pa0.0.0.0.40.50.85.85.0.0_t001.3.3.0.4.4.0.357.334.0_t011.3.3.0.4.4.0.334.380.0_t021.3.3.0.8.4.0.656.379.0_t031.3.3.0.10.6.0.641.314.0_pb_pc_pd_pe_ga0_gb1_gc100.0_ge0000000000_gh_gf_gg_gd10000100_ha89.89_hb49.1.44.99_hc0.44.32.0.44.32_hd36.1.62.65_ia_if_ib_id_ic_jc_ie_ja_jb_jd_je_jf_jg_ka_kb_kc_kd_ke_kf_la_lb_oa_os_ob_oc_od28.61.61.61.0_oe_of_lc_m00_n00_s00_og_oh_oo_op_oq_or_om_on_ok_ol_oi_oj_ad0.0.0.0.0.0.0.0.0.0
4-embarrassed=47**aa19.84.1.26.37.15.85.1.1.37_ab_ac_ba50_bb7.1_bc150.500.8.0.1_bd87_be180_ca68.0.30.68.43.45.84.0.16_cb0_da7.0.0.100_db_dd0.0.34.50.50.50_dh7.30.50.50.3_di7_qa_qb_dc0.1.7.1.1_eh4.10_ea13.10.10.56.0.0_ec1.38.10.10.56.38.57.0_ed3.50.1.1.10.56_ef3.2.22.10.10.56_eg3.2.22.10.10.56_r00_fa0.50.50.50.50.65.56_fb7_fh4_fc0.FF0000.55.0.FF0000.55.50.61.61.50.50.50_fd3.0.39.10.56_fe50.61_ff0000000000_fg0.50_pa0.0.0.0.40.50.85.85.0.0_t001.3.3.0.4.4.0.357.334.0_t011.3.3.0.4.4.0.334.380.0_t021.3.3.0.8.4.0.656.379.0_t031.3.3.0.10.6.0.641.314.0_pb_pc_pd_pe_ga0_gb1_gc100.0_ge0000000000_gh_gf_gg_gd10000110_ha89.89_hb49.1.70.99_hc0.44.7.0.44.7_hd33.1.62.65_ia_if_ib_id_ic_jc_ie_ja_jb_jd_je_jf_jg_ka_kb_kc_kd_ke_kf_la_lb_oa_os_ob_oc_od28.61.61.61.0_oe_of_lc_m00_n00_s00_og_oh_oo_op_oq_or_om_on_ok_ol_oi_oj_ad0.0.0.0.0.0.0.0.0.0
4-happy=47**aa20.67.1.28.37.15.85.1.1.37_ab_ac_ba50_bb12.1_bc150.500.8.0.1_bd12_be180_ca68.0.30.68.43.45.84.0.16_cb0_da7.0.0.100_db_dd0.0.34.50.50.50_dh7.30.50.50.3_di7_qa_qb_dc0.1.7.1.1_eh4.10_ea13.10.10.56.0.0_ec1.38.10.10.56.38.57.0_ed3.50.1.1.10.56_ef3.2.22.10.10.56_eg3.2.22.10.10.56_r00_fa0.50.50.50.50.65.56_fb7_fh4_fc0.FF0000.55.0.FF0000.55.50.61.61.50.50.50_fd3.0.39.10.56_fe50.61_ff0000000000_fg0.50_pa0.0.0.0.40.50.85.85.0.0_t001.3.3.0.4.4.0.357.334.0_t011.3.3.0.4.4.0.334.380.0_t021.3.3.0.8.4.0.656.379.0_t031.3.3.0.10.6.0.641.314.0_pb_pc_pd_pe_ga0_gb1_gc100.0_ge0000000000_gh_gf_gg_gd10000100_ha89.89_hb49.1.44.99_hc0.0.32.0.0.32_hd31.1.62.65_ia_if_ib_id_ic_jc_ie_ja_jb_jd_je_jf_jg_ka_kb_kc_kd_ke_kf_la_lb_oa_os_ob_oc_od28.61.61.61.0_oe_of_lc_m00_n00_s00_og_oh_oo_op_oq_or_om_on_ok_ol_oi_oj_ad0.0.0.0.0.0.0.0.0.0
