0-calm=47**aa92.13.0.11.100.92.13.0.11.100_ab_ac_ba50_bb15.1_bc185.500.8.0.1_bd49_be168_ca47.0.40.88.17.34.86.46.21_cb0_daD7A07B.0.0.100_db_dd0.1.16.22.22.50_dhD7A07B.30.50.50.0_di7_qa_qb_dc0.1.D7A07B.D7A07B.D7A07B_eh1.56_ea6.56.54.56.0.0_ec10.18.56.54.56.34.54.1_ed15.32.0.1.56.54_ef8.2.20.56.54.56_eg8.2.20.56.54.56_r00_fa22.80.100.18.52.57.56_fb9_fh_fc0.52.55.0.52.55.50.61.61.50.50.50_fd1.0.19.56.56_fe90.79_ff0000000000_fg3.62_pa0.0.0.0.0.50.85.68.0.0_t000.61.61.0.0.0.0.433.314.0_pb_pc_pd_pe_ga0_gb1_gc0.0_ge0000000000_gh_gf_gg_gd10000000_ha89.89_hb49.1.44.99_hc0.41.39.0.41.39_hd0.1.49.49_ia_if_ib_id_ic_jc_ie_ja_jb_jd2.53.53.57_je2.53.53.57_jf_jg_ka10.3.15.59.1_kb10.3.15.59_kc_kd_ke_kf_la_lb_oa_os_ob_oc_od_oe_of_lc_m00_n00_s00_og_oh_oo_op_oq_or_om_on_ok_ol_oi_oj_ad0.0.0.0.0.0.0.0.0.0
0-happy=47**aa24.84.1.8.100.16.0.0.3.38_ab_ac_ba46_bb5.1_bc185.500.8.0.1_bd19_be177_ca47.0.40.88.17.34.86.46.21_cb0_daD7A07B.0.0.100_db_dd0.1.16.22.22.50_dhD7A07B.30.50.50.0_di7_qa_qb_dc0.1.D7A07B.D7A07B.D7A07B_eh1.56_ea6.56.54.56.0.0_ec10.18.56.54.56.34.54.1_ed15.32.0.1.56.54_ef8.2.20.56.54.56_eg8.2.20.56.54.56_r00_fa22.80.100.18.52.57.56_fb9_fh_fc0.52.55.0.52.55.50.61.61.50.50.50_fd1.0.19.56.56_fe90.79_ff0000000000_fg3.62_pa0.0.0.0.0.50.85.68.0.0_t000.61.61.0.0.0.0.433.314.0_pb_pc_pd_pe_ga0_gb1_gc0.0_ge0000000000_gh_gf_gg_gd10000000_ha89.89_hb49.1.44.99_hc0.41.39.0.41.39_hd0.1.49.49_ia_if_ib_id_ic_jc_ie_ja_jb_jd2.53.53.57_je2.53.53.57_jf_jg_ka10.3.15.59.1_kb10.3.15.59_kc_kd_ke_kf_la_lb_oa_os_ob_oc_od_oe_of_lc_m00_n00_s00_og_oh_oo_op_oq_or_om_on_ok_ol_oi_oj_ad0.0.0.0.0.0.0.0.0.0
0-serious=47**aa15.72.1.49.39.15.72.1.49.39_ab_ac_ba50_bb17.1_bc185.500.8.0.1_bd17_be180_ca47.0.40.88.17.34.86.46.21_cb0_daD7A07B.0.0.100_db_dd0.1.16.22.22.50_dhD7A07B.30.50.50.0_di7_qa_qb_dc0.1.D7A07B.D7A07B.D7A07B_eh1.56_ea6.56.54.56.0.0_ec10.18.56.54.56.34.54.1_ed15.32.0.1.56.54_ef8.2.20.56.54.56_eg8.2.20.56.54.56_r00_fa22.80.100.18.52.57.56_fb9_fh_fc0.52.55.0.52.55.50.61.61.50.50.50_fd1.0.19.56.56_fe90.79_ff0000000000_fg3.62_pa0.0.0.0.0.50.85.68.0.0_t000.61.61.0.0.0.0.433.314.0_pb_pc_pd_pe_ga0_gb1_gc0.0_ge0000000000_gh_gf_gg_gd10000000_ha89.89_hb49.1.44.99_hc0.41.39.0.41.39_hd4.1.49.49_ia_if_ib_id_ic_jc_ie_ja_jb_jd2.53.53.57_je2.53.53.57_jf_jg_ka10.3.15.59.1_kb10.3.15.59_kc_kd_ke_kf_la_lb_oa_os_ob_oc_od_oe_of_lc_m00_n00_s00_og_oh_oo_op_oq_or_om_on_ok_ol_oi_oj_ad0.0.0.0.0.0.0.0.0.0
0-loss=47**aa28.83.1.42.21.15.41.1.31.33_ab_ac_ba50_bb17.1_bc185.500.8.0.1_bd17_be180_ca47.0.40.88.17.34.86.46.21_cb0_daD7A07B.0.0.100_db_dd0.1.16.22.22.50_dhD7A07B.30.50.50.0_di7_qa_qb_dc0.1.D7A07B.D7A07B.D7A07B_eh1.56_ea6.56.54.56.0.0_ec10.18.56.54.56.34.54.1_ed15.32.0.1.56.54_ef8.2.20.56.54.56_eg8.2.20.56.54.56_r00_fa22.80.100.18.52.57.56_fb9_fh_fc0.52.55.0.52.55.50.61.61.50.50.50_fd1.0.19.56.56_fe90.79_ff0000000000_fg3.62_pa0.0.0.0.0.50.85.68.0.0_t000.61.61.0.0.0.0.433.314.0_pb_pc_pd_pe_ga0_gb1_gc0.0_ge0000000000_gh_gf_gg_gd10000000_ha82.82_hb49.1.44.99_hc0.41.25.0.41.25_hd1.1.49.49_ia_if_ib_id_ic_jc_ie_ja_jb_jd2.53.53.57_je2.53.53.57_jf_jg_ka10.3.15.59.1_kb10.3.15.59_kc_kd_ke_kf_la_lb_oa_os_ob_oc_od_oe_of_lc_m00_n00_s00_og_oh_oo_op_oq_or_om_on_ok_ol_oi_oj_ad0.0.0.0.0.0.0.0.0.0
0-surprised=47**aa15.72.1.27.43.15.72.1.27.43_ab_ac_ba50_bb17.1_bc185.500.8.0.1_bd17_be180_ca47.0.40.88.17.34.86.46.21_cb0_daD7A07B.0.0.100_db_dd0.1.16.22.22.50_dhD7A07B.30.50.50.0_di7_qa_qb_dc0.1.D7A07B.D7A07B.D7A07B_eh1.56_ea6.56.54.56.0.0_ec10.18.56.54.56.34.54.1_ed15.32.0.1.56.54_ef8.2.20.56.54.56_eg8.2.20.56.54.56_r00_fa22.80.100.18.52.57.56_fb9_fh_fc0.52.55.0.52.55.50.61.61.50.50.50_fd1.0.19.56.56_fe90.79_ff0000000000_fg3.62_pa0.0.0.0.0.50.85.68.0.0_t000.61.61.0.0.0.0.433.314.0_pb_pc_pd_pe_ga0_gb1_gc0.0_ge0000000000_gh_gf_gg_gd10000000_ha100.100_hb49.1.44.99_hc0.41.68.0.41.68_hd37.1.49.20_ia_if_ib_id_ic_jc_ie_ja_jb_jd2.53.53.57_je2.53.53.57_jf_jg_ka10.3.15.59.1_kb10.3.15.59_kc_kd_ke_kf_la_lb_oa_os_ob_oc_od_oe_of_lc_m00_n00_s00_og_oh_oo_op_oq_or_om_on_ok_ol_oi_oj_ad0.0.0.0.0.0.0.0.0.0
0-strip=47**aa17.94.1.4.27.14.85.1.3.38_ab_ac_ba50_bb82.1_bc185.500.8.0.1_bd57_be180_ca47.0.40.88.17.34.86.46.21_cb0_daD7A07B.0.0.100_db_dd0.1.16.22.22.50_dhD7A07B.30.50.50.0_di7_qa_qb_dc0.1.D7A07B.D7A07B.D7A07B_eh1.56_ea6.56.54.56.0.0_ec10.18.56.54.56.34.54.1_ed15.32.0.1.56.54_ef8.2.20.56.54.56_eg8.2.20.56.54.56_r00_fa22.80.100.18.52.57.56_fb9_fh_fc0.52.55.0.52.55.50.61.61.50.50.50_fd1.0.19.56.56_fe90.79_ff0000000000_fg3.62_pa0.0.0.0.0.50.85.68.0.0_t000.61.61.0.0.0.0.433.314.0_pb_pc_pd_pe_ga0_gb1_gc0.0_ge0000000000_gh_gf_gg_gd10000000_ha89.89_hb49.1.0.99_hc0.41.39.0.41.39_hd21.1.49.49_ia_if_ib_id_ic_jc_ie_ja_jb_jd2.53.53.57_je2.53.53.57_jf_jg_ka10.3.15.59.1_kb10.3.15.59_kc_kd_ke_kf_la_lb_oa_os_ob_oc_od_oe_of_lc_m00_n00_s00_og_oh_oo_op_oq_or_om_on_ok_ol_oi_oj_ad0.0.0.0.0.0.0.0.0.0
0-playful=47**aa15.47.1.16.50.15.47.1.16.50_ab_ac_ba50_bb31.1_bc185.500.8.0.1_bd31_be180_ca47.0.40.88.17.34.86.46.21_cb0_daD7A07B.0.0.100_db_dd0.1.16.22.22.50_dhD7A07B.30.50.50.0_di7_qa_qb_dc0.1.D7A07B.D7A07B.D7A07B_eh1.56_ea6.56.54.56.0.0_ec10.18.56.54.56.34.54.1_ed15.32.0.1.56.54_ef8.2.20.56.54.56_eg8.2.20.56.54.56_r00_fa22.80.100.18.52.57.56_fb9_fh_fc0.52.55.0.52.55.50.61.61.50.50.50_fd1.0.19.56.56_fe90.79_ff0000000000_fg3.62_pa0.0.0.0.0.50.85.68.0.0_t000.61.61.0.0.0.0.433.314.0_pb_pc_pd_pe_ga0_gb1_gc0.0_ge0000000000_gh_gf_gg_gd10000000_ha89.89_hb49.1.44.99_hc0.41.39.0.41.39_hd23.1.49.10_ia_if_ib_id_ic_jc_ie_ja_jb_jd2.53.53.57_je2.53.53.57_jf_jg_ka10.3.15.59.1_kb10.3.15.59_kc_kd_ke_kf_la_lb_oa_os_ob_oc_od_oe_of_lc_m00_n00_s00_og_oh_oo_op_oq_or_om_on_ok_ol_oi_oj_ad0.0.0.0.0.0.0.0.0.0
0-teasing=47**aa15.84.0.49.39.15.41.1.33.33_ab_ac_ba72_bb17.1_bc185.500.8.0.1_bd17_be180_ca47.0.40.88.17.34.86.46.21_cb0_daD7A07B.0.0.100_db_dd0.1.16.22.22.50_dhD7A07B.30.50.50.0_di7_qa_qb_dc0.1.D7A07B.D7A07B.D7A07B_eh1.56_ea6.56.54.56.0.0_ec10.18.56.54.56.34.54.1_ed15.32.0.1.56.54_ef8.2.20.56.54.56_eg8.2.20.56.54.56_r00_fa22.80.100.18.52.57.56_fb9_fh_fc0.52.55.0.52.55.50.61.61.50.50.50_fd1.0.19.56.56_fe90.79_ff0000000000_fg3.62_pa0.0.0.0.0.50.85.68.0.0_t000.61.61.0.0.0.0.433.314.0_pb_pc_pd_pe_ga0_gb1_gc0.0_ge0000000000_gh_gf_gg_gd10000000_ha89.0_hb49.1.44.99_hc0.41.39.0.41.39_hd19.1.49.49_ia_if_ib_id_ic_jc_ie_ja_jb_jd2.53.53.57_je2.53.53.57_jf_jg_ka10.3.15.59.1_kb10.3.15.59_kc_kd_ke_kf_la_lb_oa_os_ob_oc_od_oe_of_lc_m00_n00_s00_og_oh_oo_op_oq_or_om_on_ok_ol_oi_oj_ad0.0.0.0.0.0.0.0.0.0
0-praising=47**aa26.84.1.42.17.15.41.1.42.54_ab_ac_ba50_bb19.1_bc185.500.8.0.1_bd19_be180_ca47.0.40.88.17.34.86.46.21_cb0_daD7A07B.0.0.100_db_dd0.1.16.22.22.50_dhD7A07B.30.50.50.0_di7_qa_qb_dc0.1.D7A07B.D7A07B.D7A07B_eh1.56_ea6.56.54.56.0.0_ec10.18.56.54.56.34.54.1_ed15.32.0.1.56.54_ef8.2.20.56.54.56_eg8.2.20.56.54.56_r00_fa22.80.100.18.52.57.56_fb9_fh_fc0.52.55.0.52.55.50.61.61.50.50.50_fd1.0.19.56.56_fe90.79_ff0000000000_fg3.62_pa0.0.0.0.0.50.85.68.0.0_t000.61.61.0.0.0.0.433.314.0_pb_pc_pd_pe_ga0_gb1_gc0.0_ge0000000000_gh_gf_gg_gd10000000_ha89.89_hb49.1.44.99_hc0.41.39.0.41.39_hd23.1.60.30_ia_if_ib_id_ic_jc_ie_ja_jb_jd2.53.53.57_je2.53.53.57_jf_jg_ka10.3.15.59.1_kb10.3.15.59_kc_kd_ke_kf_la_lb_oa_os_ob_oc_od_oe_of_lc_m00_n00_s00_og_oh_oo_op_oq_or_om_on_ok_ol_oi_oj_ad0.0.0.0.0.0.0.0.0.0
0-encouraging=47**aa15.72.1.49.39.15.72.1.49.39_ab_ac_ba50_bb17.1_bc185.500.8.0.1_bd17_be180_ca47.0.40.88.17.34.86.46.21_cb0_daD7A07B.0.0.100_db_dd0.1.16.22.22.50_dhD7A07B.30.50.50.0_di7_qa_qb_dc0.1.D7A07B.D7A07B.D7A07B_eh1.56_ea6.56.54.56.0.0_ec10.18.56.54.56.34.54.1_ed15.32.0.1.56.54_ef8.2.20.56.54.56_eg8.2.20.56.54.56_r00_fa22.80.100.18.52.57.56_fb9_fh_fc0.52.55.0.52.55.50.61.61.50.50.50_fd1.0.19.56.56_fe90.79_ff0000000000_fg3.62_pa0.0.0.0.0.50.85.68.0.0_t000.61.61.0.0.0.0.433.314.0_pb_pc_pd_pe_ga0_gb1_gc0.0_ge0000000000_gh_gf_gg_gd10000000_ha89.89_hb49.1.44.99_hc0.29.39.0.29.39_hd38.1.38.49_ia_if_ib_id_ic_jc_ie_ja_jb_jd2.53.53.57_je2.53.53.57_jf_jg_ka10.3.15.59.1_kb10.3.15.59_kc_kd_ke_kf_la_lb_oa_os_ob_oc_od_oe_of_lc_m00_n00_s00_og_oh_oo_op_oq_or_om_on_ok_ol_oi_oj_ad0.0.0.0.0.0.0.0.0.0
0-approving=47**aa24.84.1.8.92.15.98.1.3.39_ab_ac_ba46_bb17.1_bc185.500.8.0.1_bd19_be178_ca47.0.40.88.17.34.86.46.21_cb0_daD7A07B.0.0.100_db_dd0.1.16.22.22.50_dhD7A07B.30.50.50.0_di7_qa_qb_dc0.1.D7A07B.D7A07B.D7A07B_eh1.56_ea6.56.54.56.0.0_ec10.18.56.54.56.34.54.1_ed15.32.0.1.56.54_ef8.2.20.56.54.56_eg8.2.20.56.54.56_r00_fa22.80.100.18.52.57.56_fb9_fh_fc0.52.55.0.52.55.50.61.61.50.50.50_fd1.0.19.56.56_fe90.79_ff0000000000_fg3.62_pa0.0.0.0.0.50.85.68.0.0_t000.61.61.0.0.0.0.433.314.0_pb_pc_pd_pe_ga0_gb1_gc0.0_ge0000000000_gh_gf_gg_gd10000000_ha78.78_hb49.1.44.99_hc0.41.49.0.41.49_hd35.1.49.49_ia_if_ib_id_ic_jc_ie_ja_jb_jd2.53.53.57_je2.53.53.57_jf_jg_ka10.3.15.59.1_kb10.3.15.59_kc_kd_ke_kf_la_lb_oa_os_ob_oc_od_oe_of_lc_m00_n00_s00_og_oh_oo_op_oq_or_om_on_ok_ol_oi_oj_ad0.0.0.0.0.0.0.0.0.0
0-egging=47**aa24.84.1.8.92.15.41.1.42.60_ab_ac_ba46_bb17.1_bc185.500.8.0.1_bd19_be178_ca47.0.40.88.17.34.86.46.21_cb0_daD7A07B.0.0.100_db_dd0.1.16.22.22.50_dhD7A07B.30.50.50.0_di7_qa_qb_dc0.1.D7A07B.D7A07B.D7A07B_eh1.56_ea6.56.54.56.0.0_ec10.18.56.54.56.34.54.1_ed15.32.0.1.56.54_ef8.2.20.56.54.56_eg8.2.20.56.54.56_r00_fa22.80.100.18.52.57.56_fb9_fh_fc0.52.55.0.52.55.50.61.61.50.50.50_fd1.0.19.56.56_fe90.79_ff0000000000_fg3.62_pa0.0.0.0.0.50.85.68.0.0_t000.61.61.0.0.0.0.433.314.0_pb_pc_pd_pe_ga0_gb1_gc0.0_ge0000000000_gh_gf_gg_gd10000000_ha90.90_hb49.1.44.99_hc0.27.45.0.27.45_hd24.1.49.22_ia_if_ib_id_ic_jc_ie_ja_jb_jd2.53.53.57_je2.53.53.57_jf_jg_ka10.3.15.59.1_kb10.3.15.59_kc_kd_ke_kf_la_lb_oa_os_ob_oc_od_oe_of_lc_m00_n00_s00_og_oh_oo_op_oq_or_om_on_ok_ol_oi_oj_ad0.0.0.0.0.0.0.0.0.0
0-teasingm=47**aa32.84.1.18.17.86.25.1.41.80_ab_ac_ba46_bb17.1_bc185.500.8.0.1_bd19_be178_ca47.0.40.88.17.34.86.46.21_cb0_daD7A07B.0.0.100_db_dd0.1.16.22.22.50_dhD7A07B.30.50.50.0_di7_qa_qb_dc0.1.D7A07B.D7A07B.D7A07B_eh1.56_ea6.56.54.56.0.0_ec10.18.56.54.56.34.54.1_ed15.32.0.1.56.54_ef8.2.20.56.54.56_eg8.2.20.56.54.56_r00_fa22.80.100.18.52.57.56_fb9_fh_fc0.52.55.0.52.55.50.61.61.50.50.50_fd1.0.19.56.56_fe90.79_ff0000000000_fg3.62_pa0.0.0.0.0.50.85.68.0.0_t000.61.61.0.0.0.0.433.314.0_pb_pc_pd_pe_ga0_gb1_gc0.0_ge0000000000_gh_gf_gg_gd10000000_ha78.0_hb49.1.44.99_hc0.41.49.0.41.49_hd60.1.49.49_ia_if_ib_id_ic_jc_ie_ja_jb_jd2.53.53.57_je2.53.53.57_jf_jg_ka10.3.15.59.1_kb10.3.15.59_kc_kd_ke_kf_la_lb_oa_os_ob_oc_od_oe_of_lc_m00_n00_s00_og_oh_oo_op_oq_or_om_on_ok_ol_oi_oj_ad0.0.0.0.0.0.0.0.0.0
0-small=47**aa15.85.0.49.40.15.85.0.33.40_ab_ac_ba72_bb17.1_bc185.500.8.0.1_bd17_be180_ca47.0.40.88.17.34.86.46.21_cb0_daD7A07B.0.0.100_db_dd0.1.16.22.22.50_dhD7A07B.30.50.50.0_di7_qa_qb_dc0.1.D7A07B.D7A07B.D7A07B_eh1.56_ea6.56.54.56.0.0_ec10.18.56.54.56.34.54.1_ed15.32.0.1.56.54_ef8.2.20.56.54.56_eg8.2.20.56.54.56_r00_fa22.80.100.18.52.57.56_fb9_fh_fc0.52.55.0.52.55.50.61.61.50.50.50_fd1.0.19.56.56_fe90.79_ff0000000000_fg3.62_pa0.0.0.0.0.50.85.68.0.0_t000.61.61.0.0.0.0.433.314.0_pb_pc_pd_pe_ga0_gb1_gc0.0_ge0000000000_gh_gf_gg_gd10000000_ha100.100_hb50.1.100.80_hc3.58.68.3.58.68_hd25.1.49.24_ia_if_ib_id_ic_jc_ie_ja_jb_jd2.53.53.57_je2.53.53.57_jf_jg_ka10.3.15.59.1_kb10.3.15.59_kc_kd_ke_kf_la_lb_oa_os_ob_oc_od_oe_of_lc_m00_n00_s00_og_oh_oo_op_oq_or_om_on_ok_ol_oi_oj_ad0.0.0.0.0.0.0.0.0.0
0-comforting=47**aa15.58.1.49.39.15.58.1.49.39_ab_ac_ba50_bb17.1_bc185.500.8.0.1_bd17_be180_ca47.0.40.88.17.34.86.46.21_cb0_daD7A07B.0.0.100_db_dd0.1.16.22.22.50_dhD7A07B.30.50.50.0_di7_qa_qb_dc0.1.D7A07B.D7A07B.D7A07B_eh1.56_ea6.56.54.56.0.0_ec10.18.56.54.56.34.54.1_ed15.32.0.1.56.54_ef8.2.20.56.54.56_eg8.2.20.56.54.56_r00_fa22.80.100.18.52.57.56_fb9_fh_fc0.52.55.0.52.55.50.61.61.50.50.50_fd1.0.19.56.56_fe90.79_ff0000000000_fg3.62_pa0.0.0.0.0.50.85.68.0.0_t000.61.61.0.0.0.0.433.314.0_pb_pc_pd_pe_ga0_gb1_gc0.0_ge0000000000_gh_gf_gg_gd10000000_ha90.90_hb49.1.34.99_hc3.41.62.3.41.62_hd37.1.49.49_ia_if_ib_id_ic_jc_ie_ja_jb_jd2.53.53.57_je2.53.53.57_jf_jg_ka10.3.15.59.1_kb10.3.15.59_kc_kd_ke_kf_la_lb_oa_os_ob_oc_od_oe_of_lc_m00_n00_s00_og_oh_oo_op_oq_or_om_on_ok_ol_oi_oj_ad0.0.0.0.0.0.0.0.0.0
0-victory=47**aa92.13.0.11.100.92.13.0.11.100_ab_ac_ba50_bb15.1_bc185.500.8.0.1_bd49_be168_ca47.0.40.88.17.34.86.46.21_cb0_daD7A07B.0.0.100_db_dd0.1.16.22.22.50_dhD7A07B.30.50.50.0_di7_qa_qb_dc0.1.D7A07B.D7A07B.D7A07B_eh1.56_ea6.56.54.56.0.0_ec10.18.56.54.56.34.54.1_ed15.32.0.1.56.54_ef8.2.20.56.54.56_eg8.2.20.56.54.56_r00_fa22.80.100.18.52.57.56_fb9_fh_fc0.52.55.0.52.55.50.61.61.50.50.50_fd1.0.19.56.56_fe90.79_ff0000000000_fg3.62_pa0.0.0.0.0.50.85.68.0.0_t000.61.61.0.0.0.0.433.314.0_pb_pc_pd_pe_ga0_gb1_gc0.0_ge0000000000_gh_gf_gg_gd10000000_ha89.0_hb49.1.44.99_hc0.41.39.0.41.39_hd77.1.49.0_ia_if_ib_id_ic_jc_ie_ja_jb_jd2.53.53.57_je2.53.53.57_jf_jg_ka10.3.15.59.1_kb10.3.15.59_kc_kd_ke_kf_la_lb_oa_os_ob_oc_od_oe_of_lc_m00_n00_s00_og_oh_oo_op_oq_or_om_on_ok_ol_oi_oj_ad0.0.0.0.0.0.0.0.0.0
0-concerned=47**aa15.58.1.49.39.15.58.1.49.39_ab_ac_ba50_bb17.1_bc185.500.8.0.1_bd17_be180_ca47.0.40.88.17.34.86.46.21_cb0_daD7A07B.0.0.100_db_dd0.1.16.22.22.50_dhD7A07B.30.50.50.0_di7_qa_qb_dc0.1.D7A07B.D7A07B.D7A07B_eh1.56_ea6.56.54.56.0.0_ec10.18.56.54.56.34.54.1_ed15.32.0.1.56.54_ef8.2.20.56.54.56_eg8.2.20.56.54.56_r00_fa22.80.100.18.52.57.56_fb9_fh_fc0.52.55.0.52.55.50.61.61.50.50.50_fd1.0.19.56.56_fe90.79_ff0000000000_fg3.62_pa0.0.0.0.0.50.85.68.0.0_t000.61.61.0.0.0.0.433.314.0_pb_pc_pd_pe_ga0_gb1_gc0.0_ge0000000000_gh_gf_gg_gd10000000_ha90.90_hb49.1.31.99_hc0.19.25.0.19.25_hd38.1.49.49_ia_if_ib_id_ic_jc_ie_ja_jb_jd2.53.53.57_je2.53.53.57_jf_jg_ka10.3.15.59.1_kb10.3.15.59_kc_kd_ke_kf_la_lb_oa_os_ob_oc_od_oe_of_lc_m00_n00_s00_og_oh_oo_op_oq_or_om_on_ok_ol_oi_oj_ad0.0.0.0.0.0.0.0.0.0

1-happy=40**aa24.72.1.42.11.16.43.0.42.50_ab_ac_ba46_bb5.1_bc150.500.8.0.1_bd19_be177_ca47.0.40.88.17.34.86.46.21_cb0_daD7A07B.0.0.100_db_dd0.1.16.22.22_dhD7A07B.30.50.50.0_di7_qa_qb_dc0.1.D7A07B.D7A07B.D7A07B_eh1.56_ea6.56.54.56.0.0_ec10.18.56.54.56.34.54.1_ed15.32.0.1.56.54_ef8.2.20.56.54.56_eg8.2.20.56.54.56_r0_fa22.80.100.18.52.57.56_fb9_fh_fc0.52.55.0.52.55.50.61.61.50.50.50_fd1.0.19.56.56_fe90.79_ff0000000000_fg3.62_pa0.0.0.0.0.50.85.68.0.0_t00.61.61.0.0.0.0.433.314.0_pb_pc_pd_pe_ga0_gb1_gc0.0_ge0000000000_gh_gf_gg_gd10000000_ha89.89_hb49.1.44.99_hc0.41.39.0.41.39_hd34.1.49.32_ia_if_ib_id_ic_jc_ie_ja_jb_jd_je_jf_jg_ka10.3.42.42.1_kb10.3.42.42_kc_kd_ke_kf_la_lb_oa_os_ob_oc_od_oe_of_lc_m0_n0_s0_og_oh_oo_op_oq_or_om_on_ok_ol_oi_oj_ad0.0.0.0.0.0.0.0.0.0
1-calm=40**aa92.13.0.11.100.92.13.0.11.100_ab_ac_ba50_bb15.1_bc150.500.8.0.1_bd49_be168_ca47.0.40.88.17.34.86.46.21_cb0_daD7A07B.0.0.100_db_dd0.1.16.22.22_dhD7A07B.30.50.50.0_di7_qa_qb_dc0.1.D7A07B.D7A07B.D7A07B_eh1.56_ea6.56.54.56.0.0_ec10.18.56.54.56.34.54.1_ed15.32.0.1.56.54_ef8.2.20.56.54.56_eg8.2.20.56.54.56_r0_fa22.80.100.18.52.57.56_fb9_fh_fc0.52.55.0.52.55.50.61.61.50.50.50_fd1.0.19.56.56_fe90.79_ff0000000000_fg3.62_pa0.0.0.0.0.50.85.68.0.0_t00.61.61.0.0.0.0.433.314.0_pb_pc_pd_pe_ga0_gb1_gc0.0_ge0000000000_gh_gf_gg_gd10000000_ha89.89_hb49.1.44.99_hc0.41.39.0.41.39_hd0.1.49.49_ia_if_ib_id_ic_jc_ie_ja_jb_jd_je_jf_jg_ka10.3.42.42.1_kb10.3.42.42_kc_kd_ke_kf_la_lb_oa_os_ob_oc_od_oe_of_lc_m0_n0_s0_og_oh_oo_op_oq_or_om_on_ok_ol_oi_oj_ad0.0.0.0.0.0.0.0.0.0
1-sad=40**aa15.72.1.49.39.15.72.1.49.39_ab_ac_ba50_bb17.1_bc150.500.8.0.1_bd17_be180_ca47.0.40.88.17.34.86.46.21_cb0_daD7A07B.0.0.100_db_dd0.1.16.22.22_dhD7A07B.30.50.50.0_di7_qa_qb_dc0.1.D7A07B.D7A07B.D7A07B_eh1.56_ea6.56.54.56.0.0_ec10.18.56.54.56.34.54.1_ed15.32.0.1.56.54_ef8.2.20.56.54.56_eg8.2.20.56.54.56_r0_fa22.80.100.18.52.57.56_fb9_fh_fc0.52.55.0.52.55.50.61.61.50.50.50_fd1.0.19.56.56_fe90.79_ff0000000000_fg3.62_pa0.0.0.0.0.50.85.68.0.0_t00.61.61.0.0.0.0.433.314.0_pb_pc_pd_pe_ga0_gb1_gc0.0_ge0000000000_gh_gf_gg_gd10000000_ha89.89_hb49.1.0.99_hc4.41.39.4.41.39_hd5.1.49.49_ia_if_ib_id_ic_jc_ie_ja_jb_jd_je_jf_jg_ka10.3.42.42.1_kb10.3.42.42_kc_kd_ke_kf_la_lb_oa_os_ob_oc_od_oe_of_lc_m0_n0_s0_og_oh_oo_op_oq_or_om_on_ok_ol_oi_oj_ad0.0.0.0.0.0.0.0.0.0
1-stripped=47**aa9.95.1.4.27.14.45.1.11.9_ab_ac_ba50_bb57.1_bc185.500.8.0.1_bd82_be180_ca47.0.40.88.17.34.86.46.21_cb0_daD7A07B.0.0.100_db_dd0.1.16.22.22.50_dhD7A07B.30.50.50.0_di7_qa_qb_dc0.1.D7A07B.D7A07B.D7A07B_eh1.56_ea6.56.54.56.0.0_ec10.18.56.54.56.34.54.1_ed15.32.0.1.56.54_ef8.2.20.56.54.56_eg8.2.20.56.54.56_r00_fa22.80.100.18.52.57.56_fb9_fh_fc0.52.55.0.52.55.50.61.61.50.50.50_fd1.0.19.56.56_fe90.79_ff0000000000_fg3.62_pa0.0.0.0.0.50.85.68.0.0_t000.61.61.0.0.0.0.433.314.0_pb_pc_pd_pe_ga0_gb1_gc0.0_ge0000000000_gh_gf_gg_gd10000000_ha89.89_hb49.1.50.99_hc0.41.39.0.41.39_hd23.1.49.28_ia_if_ib_id_ic_jc_ie_ja_jb_jd_je2.53.53.57_jf_jg_ka10.3.15.59.1_kb10.3.15.59_kc_kd_ke_kf_la_lb_oa_os_ob_oc_od_oe_of_lc_m00_n00_s00_og_oh_oo_op_oq_or_om_on_ok_ol_oi_oj_ad0.0.0.0.0.0.0.0.0.0
1-smug=40**aa89.72.0.49.39.89.72.0.49.39_ab_ac_ba50_bb17.1_bc150.500.8.0.1_bd17_be180_ca47.0.40.88.17.34.86.46.21_cb0_daD7A07B.0.0.100_db_dd0.1.16.22.22_dhD7A07B.30.50.50.0_di7_qa_qb_dc0.1.D7A07B.D7A07B.D7A07B_eh1.56_ea6.56.54.56.0.0_ec10.18.56.54.56.34.54.1_ed15.32.0.1.56.54_ef8.2.20.56.54.56_eg8.2.20.56.54.56_r0_fa22.80.100.18.52.57.56_fb9_fh_fc0.52.55.0.52.55.50.61.61.50.50.50_fd1.0.19.56.56_fe90.79_ff0000000000_fg3.62_pa0.0.0.0.0.50.85.68.0.0_t00.61.61.0.0.0.0.433.314.0_pb_pc_pd_pe_ga0_gb1_gc0.0_ge0000000000_gh_gf_gg_gd10000000_ha72.72_hb49.1.50.99_hc0.56.76.0.41.31_hd1.1.49.49_ia_if_ib_id_ic_jc_ie_ja_jb_jd_je_jf_jg_ka10.3.42.42.1_kb10.3.42.42_kc_kd_ke_kf_la_lb_oa_os_ob_oc_od_oe_of_lc_m0_n0_s0_og_oh_oo_op_oq_or_om_on_ok_ol_oi_oj_ad0.0.0.0.0.0.0.0.0.0
1-loss=40**aa36.76.1.42.21.36.76.1.42.21_ab_ac_ba50_bb17.1_bc150.500.8.0.1_bd17_be180_ca47.0.40.88.17.34.86.46.21_cb0_daD7A07B.0.0.100_db_dd0.1.16.22.22_dhD7A07B.30.50.50.0_di7_qa_qb_dc0.1.D7A07B.D7A07B.D7A07B_eh1.56_ea6.56.54.56.0.0_ec10.18.56.54.56.34.54.1_ed15.32.0.1.56.54_ef8.2.20.56.54.56_eg8.2.20.56.54.56_r0_fa22.80.100.18.52.57.56_fb9_fh_fc0.52.55.0.52.55.50.61.61.50.50.50_fd1.0.19.56.56_fe90.79_ff0000000000_fg3.62_pa0.0.0.0.0.50.85.68.0.0_t00.61.61.0.0.0.0.433.314.0_pb_pc_pd_pe_ga0_gb1_gc0.0_ge0000000000_gh_gf_gg_gd10000000_ha86.86_hb49.1.50.99_hc0.21.48.0.21.48_hd4.1.49.49_ia_if_ib_id_ic_jc_ie_ja_jb_jd_je_jf_jg_ka10.3.42.42.1_kb10.3.42.42_kc_kd_ke_kf_la_lb_oa_os_ob_oc_od_oe_of_lc_m0_n0_s0_og_oh_oo_op_oq_or_om_on_ok_ol_oi_oj_ad0.0.0.0.0.0.0.0.0.0
1-strip=40**aa19.69.1.45.0.50.52.1.7.60_ab_ac_ba62_bb17.1_bc150.500.8.0.1_bd19_be178_ca47.0.40.88.17.34.86.46.21_cb0_daD7A07B.0.0.100_db_dd0.1.16.22.22_dhD7A07B.30.50.50.0_di7_qa_qb_dc0.1.D7A07B.D7A07B.D7A07B_eh1.56_ea6.56.54.56.0.0_ec10.18.56.54.56.34.54.1_ed15.32.0.1.56.54_ef8.2.20.56.54.56_eg8.2.20.56.54.56_r0_fa22.80.100.18.52.57.56_fb9_fh_fc0.52.55.0.52.55.50.61.61.50.50.50_fd1.0.19.56.56_fe90.79_ff0000000000_fg3.62_pa0.0.0.0.0.50.85.68.0.0_t00.61.61.0.0.0.0.433.314.0_pb_pc_pd_pe_ga0_gb1_gc0.0_ge0000000000_gh_gf_gg_gd10000000_ha83.0_hb49.1.44.99_hc0.33.43.0.33.0_hd23.1.49.49_ia_if_ib_id_ic_jc_ie_ja_jb_jd_je_jf_jg_ka10.3.42.42.1_kb10.3.42.42_kc_kd_ke_kf_la_lb_oa_os_ob_oc_od_oe_of_lc_m0_n0_s0_og_oh_oo_op_oq_or_om_on_ok_ol_oi_oj_ad0.0.0.0.0.0.0.0.0.0
1-teasing=40**aa15.84.0.49.39.15.41.1.33.33_ab_ac_ba72_bb17.1_bc150.500.8.0.1_bd17_be180_ca47.0.40.88.17.34.86.46.21_cb0_daD7A07B.0.0.100_db_dd0.1.16.22.22_dhD7A07B.30.50.50.0_di7_qa_qb_dc0.1.D7A07B.D7A07B.D7A07B_eh1.56_ea6.56.54.56.0.0_ec10.18.56.54.56.34.54.1_ed15.32.0.1.56.54_ef8.2.20.56.54.56_eg8.2.20.56.54.56_r0_fa22.80.100.18.52.57.56_fb9_fh_fc0.52.55.0.52.55.50.61.61.50.50.50_fd1.0.19.56.56_fe90.79_ff0000000000_fg3.62_pa0.0.0.0.0.50.85.68.0.0_t00.61.61.0.0.0.0.433.314.0_pb_pc_pd_pe_ga0_gb1_gc0.0_ge0000000000_gh_gf_gg_gd10000000_ha89.0_hb49.1.44.99_hc0.41.39.0.41.39_hd19.1.49.49_ia_if_ib_id_ic_jc_ie_ja_jb_jd_je_jf_jg_ka10.3.42.42.1_kb10.3.42.42_kc_kd_ke_kf_la_lb_oa_os_ob_oc_od_oe_of_lc_m0_n0_s0_og_oh_oo_op_oq_or_om_on_ok_ol_oi_oj_ad0.0.0.0.0.0.0.0.0.0
1-annoyed=40**aa25.84.1.4.62.80.29.1.27.60_ab_ac_ba72_bb17.1_bc150.500.8.0.1_bd17_be180_ca47.0.40.88.17.34.86.46.21_cb0_daD7A07B.0.0.100_db_dd0.1.16.22.22_dhD7A07B.30.50.50.0_di7_qa_qb_dc0.1.D7A07B.D7A07B.D7A07B_eh1.56_ea6.56.54.56.0.0_ec10.18.56.54.56.34.54.1_ed15.32.0.1.56.54_ef8.2.20.56.54.56_eg8.2.20.56.54.56_r0_fa22.80.100.18.52.57.56_fb9_fh_fc0.52.55.0.52.55.50.61.61.50.50.50_fd1.0.19.56.56_fe90.79_ff0000000000_fg3.62_pa0.0.0.0.0.50.85.68.0.0_t00.61.61.0.0.0.0.433.314.0_pb_pc_pd_pe_ga0_gb1_gc0.0_ge0000000000_gh_gf_gg_gd10000000_ha68.68_hb49.1.0.99_hc0.41.39.0.41.39_hd21.1.49.49_ia_if_ib_id_ic_jc_ie_ja_jb_jd_je_jf_jg_ka10.3.42.42.1_kb10.3.42.42_kc_kd_ke_kf_la_lb_oa_os_ob_oc_od_oe_of_lc_m0_n0_s0_og_oh_oo_op_oq_or_om_on_ok_ol_oi_oj_ad0.0.0.0.0.0.0.0.0.0
1-approving=40**aa24.84.1.8.92.15.98.1.3.39_ab_ac_ba46_bb17.1_bc150.500.8.0.1_bd19_be178_ca47.0.40.88.17.34.86.46.21_cb0_daD7A07B.0.0.100_db_dd0.1.16.22.22_dhD7A07B.30.50.50.0_di7_qa_qb_dc0.1.D7A07B.D7A07B.D7A07B_eh1.56_ea6.56.54.56.0.0_ec10.18.56.54.56.34.54.1_ed15.32.0.1.56.54_ef8.2.20.56.54.56_eg8.2.20.56.54.56_r0_fa22.80.100.18.52.57.56_fb9_fh_fc0.52.55.0.52.55.50.61.61.50.50.50_fd1.0.19.56.56_fe90.79_ff0000000000_fg3.62_pa0.0.0.0.0.50.85.68.0.0_t00.61.61.0.0.0.0.433.314.0_pb_pc_pd_pe_ga0_gb1_gc0.0_ge0000000000_gh_gf_gg_gd10000000_ha70.70_hb49.1.44.99_hc0.33.43.0.33.43_hd39.1.49.49_ia_if_ib_id_ic_jc_ie_ja_jb_jd_je_jf_jg_ka10.3.42.42.1_kb10.3.42.42_kc_kd_ke_kf_la_lb_oa_os_ob_oc_od_oe_of_lc_m0_n0_s0_og_oh_oo_op_oq_or_om_on_ok_ol_oi_oj_ad0.0.0.0.0.0.0.0.0.0
1-interested=40**aa15.84.0.49.39.15.41.1.31.0_ab_ac_ba72_bb17.1_bc150.500.8.0.1_bd17_be180_ca47.0.40.88.17.34.86.46.21_cb0_daD7A07B.0.0.100_db_dd0.1.16.22.22_dhD7A07B.30.50.50.0_di7_qa_qb_dc0.1.D7A07B.D7A07B.D7A07B_eh1.56_ea6.56.54.56.0.0_ec10.18.56.54.56.34.54.1_ed15.32.0.1.56.54_ef8.2.20.56.54.56_eg8.2.20.56.54.56_r0_fa22.80.100.18.52.57.56_fb9_fh_fc0.52.55.0.52.55.50.61.61.50.50.50_fd1.0.19.56.56_fe90.79_ff0000000000_fg3.62_pa0.0.0.0.0.50.85.68.0.0_t00.61.61.0.0.0.0.433.314.0_pb_pc_pd_pe_ga0_gb1_gc0.0_ge0000000000_gh_gf_gg_gd10000000_ha69.69_hb49.1.44.99_hc0.41.19.0.41.19_hd24.1.49.6_ia_if_ib_id_ic_jc_ie_ja_jb_jd_je_jf_jg_ka10.3.42.42.1_kb10.3.42.42_kc_kd_ke_kf_la_lb_oa_os_ob_oc_od_oe_of_lc_m0_n0_s0_og_oh_oo_op_oq_or_om_on_ok_ol_oi_oj_ad0.0.0.0.0.0.0.0.0.0
1-horny=40**aa24.84.1.8.100.16.53.1.49.49_ab_ac_ba46_bb43.1_bc150.500.8.0.1_bd19_be177_ca47.0.40.88.17.34.86.46.21_cb0_daD7A07B.0.0.100_db_dd0.1.16.22.22_dhD7A07B.30.50.50.0_di7_qa_qb_dc0.1.D7A07B.D7A07B.D7A07B_eh1.56_ea6.56.54.56.0.0_ec10.18.56.54.56.34.54.1_ed15.32.0.1.56.54_ef8.2.20.56.54.56_eg8.2.20.56.54.56_r0_fa22.80.100.18.52.57.56_fb9_fh_fc0.52.55.0.52.55.50.61.61.50.50.50_fd1.0.19.56.56_fe90.79_ff0000000000_fg3.62_pa0.0.0.0.0.50.85.68.0.0_t00.61.61.0.0.0.0.433.314.0_pb_pc_pd_pe_ga0_gb1_gc7.0_ge0000000000_gh_gf_gg_gd10000000_ha70.70_hb49.1.44.99_hc0.41.39.0.41.39_hd35.1.49.49_ia_if_ib_id_ic_jc_ie_ja_jb_jd_je_jf_jg_ka10.3.42.42.1_kb10.3.42.42_kc_kd_ke_kf_la_lb_oa_os_ob_oc_od_oe_of_lc_m0_n0_s0_og_oh_oo_op_oq_or_om_on_ok_ol_oi_oj_ad0.0.0.0.0.0.0.0.0.0
1-teasingm=40**aa24.84.1.8.100.8.88.1.7.52_ab_ac_ba46_bb17.1_bc150.500.8.0.1_bd19_be177_ca47.0.40.88.17.34.86.46.21_cb0_daD7A07B.0.0.100_db_dd0.1.16.22.22_dhD7A07B.30.50.50.0_di7_qa_qb_dc0.1.D7A07B.D7A07B.D7A07B_eh1.56_ea6.56.54.56.0.0_ec10.18.56.54.56.34.54.1_ed15.32.0.1.56.54_ef8.2.20.56.54.56_eg8.2.20.56.54.56_r0_fa22.80.100.18.52.57.56_fb9_fh_fc0.52.55.0.52.55.50.61.61.50.50.50_fd1.0.19.56.56_fe90.79_ff0000000000_fg3.62_pa0.0.0.0.0.50.85.68.0.0_t00.61.61.0.0.0.0.433.314.0_pb_pc_pd_pe_ga0_gb1_gc0.0_ge0000000000_gh_gf_gg_gd10000000_ha70.0_hb49.1.44.99_hc0.41.39.0.41.39_hd35.1.49.49_ia_if_ib_id_ic_jc_ie_ja_jb_jd_je_jf_jg_ka10.3.42.42.1_kb10.3.42.42_kc_kd_ke_kf_la_lb_oa_os_ob_oc_od_oe_of_lc_m0_n0_s0_og_oh_oo_op_oq_or_om_on_ok_ol_oi_oj_ad0.0.0.0.0.0.0.0.0.0
1-small=40**aa5.84.1.8.100.76.37.1.13.17_ab_ac_ba46_bb17.1_bc150.500.8.0.1_bd19_be177_ca47.0.40.88.17.34.86.46.21_cb0_daD7A07B.0.0.100_db_dd0.1.16.22.22_dhD7A07B.30.50.50.0_di7_qa_qb_dc0.1.D7A07B.D7A07B.D7A07B_eh1.56_ea6.56.54.56.0.0_ec10.18.56.54.56.34.54.1_ed15.32.0.1.56.54_ef8.2.20.56.54.56_eg8.2.20.56.54.56_r0_fa22.80.100.18.52.57.56_fb9_fh_fc0.52.55.0.52.55.50.61.61.50.50.50_fd1.0.19.56.56_fe90.79_ff0000000000_fg3.62_pa0.0.0.0.0.50.85.68.0.0_t00.61.61.0.0.0.0.433.314.0_pb_pc_pd_pe_ga0_gb1_gc0.0_ge0000000000_gh_gf_gg_gd10000000_ha0.70_hb49.1.44.99_hc0.41.39.0.41.39_hd61.1.49.49_ia_if_ib_id_ic_jc_ie_ja_jb_jd_je_jf_jg_ka10.3.42.42.1_kb10.3.42.42_kc_kd_ke_kf_la_lb_oa_os_ob_oc_od_oe_of_lc_m0_n0_s0_og_oh_oo_op_oq_or_om_on_ok_ol_oi_oj_ad0.0.0.0.0.0.0.0.0.0
1-medium=40**aa21.41.1.12.1.21.41.1.12.1_ab_ac_ba46_bb17.1_bc150.500.8.0.1_bd17_be180_ca47.0.40.88.17.34.86.46.21_cb0_daD7A07B.0.0.100_db_dd0.1.16.22.22_dhD7A07B.30.50.50.0_di7_qa_qb_dc0.1.D7A07B.D7A07B.D7A07B_eh1.56_ea6.56.54.56.0.0_ec10.18.56.54.56.34.54.1_ed15.32.0.1.56.54_ef8.2.20.56.54.56_eg8.2.20.56.54.56_r0_fa22.80.100.18.52.57.56_fb9_fh_fc0.52.55.0.52.55.50.61.61.50.50.50_fd1.0.19.56.56_fe90.79_ff0000000000_fg3.62_pa0.0.0.0.0.50.85.68.0.0_t00.61.61.0.0.0.0.433.314.0_pb_pc_pd_pe_ga0_gb1_gc0.0_ge0000000000_gh_gf_gg_gd10000000_ha80.12_hb49.1.44.99_hc0.41.39.0.41.39_hd34.1.49.34_ia_if_ib_id_ic_jc_ie_ja_jb_jd_je_jf_jg_ka10.3.42.42.1_kb10.3.42.42_kc_kd_ke_kf_la_lb_oa_os_ob_oc_od_oe_of_lc_m0_n0_s0_og_oh_oo_op_oq_or_om_on_ok_ol_oi_oj_ad0.0.0.0.0.0.0.0.0.0
1-concerned=40**aa15.58.1.49.39.15.58.1.49.39_ab_ac_ba50_bb17.1_bc150.500.8.0.1_bd17_be180_ca47.0.40.88.17.34.86.46.21_cb0_daD7A07B.0.0.100_db_dd0.1.16.22.22_dhD7A07B.30.50.50.0_di7_qa_qb_dc0.1.D7A07B.D7A07B.D7A07B_eh1.56_ea6.56.54.56.0.0_ec10.18.56.54.56.34.54.1_ed15.32.0.1.56.54_ef8.2.20.56.54.56_eg8.2.20.56.54.56_r0_fa22.80.100.18.52.57.56_fb9_fh_fc0.52.55.0.52.55.50.61.61.50.50.50_fd1.0.19.56.56_fe90.79_ff0000000000_fg3.62_pa0.0.0.0.0.50.85.68.0.0_t00.61.61.0.0.0.0.433.314.0_pb_pc_pd_pe_ga0_gb1_gc0.0_ge0000000000_gh_gf_gg_gd10000000_ha90.90_hb49.1.31.99_hc0.19.25.0.19.25_hd38.1.49.49_ia_if_ib_id_ic_jc_ie_ja_jb_jd_je_jf_jg_ka10.3.42.42.1_kb10.3.42.42_kc_kd_ke_kf_la_lb_oa_os_ob_oc_od_oe_of_lc_m0_n0_s0_og_oh_oo_op_oq_or_om_on_ok_ol_oi_oj_ad0.0.0.0.0.0.0.0.0.0
1-playful=40**aa24.84.1.8.92.50.51.1.15.60_ab_ac_ba46_bb17.1_bc150.500.8.0.1_bd19_be178_ca47.0.40.88.17.34.86.46.21_cb0_daD7A07B.0.0.100_db_dd0.1.16.22.22_dhD7A07B.30.50.50.0_di7_qa_qb_dc0.1.D7A07B.D7A07B.D7A07B_eh1.56_ea6.56.54.56.0.0_ec10.18.56.54.56.34.54.1_ed15.32.0.1.56.54_ef8.2.20.56.54.56_eg8.2.20.56.54.56_r0_fa22.80.100.18.52.57.56_fb9_fh_fc0.52.55.0.52.55.50.61.61.50.50.50_fd1.0.19.56.56_fe90.79_ff0000000000_fg3.62_pa0.0.0.0.0.50.85.68.0.0_t00.61.61.0.0.0.0.433.314.0_pb_pc_pd_pe_ga0_gb1_gc0.0_ge0000000000_gh_gf_gg_gd10000000_ha83.83_hb49.1.44.99_hc0.33.43.0.33.43_hd23.1.49.49_ia_if_ib_id_ic_jc_ie_ja_jb_jd_je_jf_jg_ka10.3.42.42.1_kb10.3.42.42_kc_kd_ke_kf_la_lb_oa_os_ob_oc_od_oe_of_lc_m0_n0_s0_og_oh_oo_op_oq_or_om_on_ok_ol_oi_oj_ad0.0.0.0.0.0.0.0.0.0
1-embarrassed=40**aa12.84.0.8.92.12.84.0.15.60_ab_ac_ba50_bb15.1_bc150.500.8.0.1_bd15_be180_ca47.0.40.88.17.34.86.46.21_cb0_daD7A07B.0.0.100_db_dd0.1.16.22.22_dhD7A07B.30.50.50.0_di7_qa_qb_dc0.1.D7A07B.D7A07B.D7A07B_eh1.56_ea6.56.54.56.0.0_ec10.18.56.54.56.34.54.1_ed15.32.0.1.56.54_ef8.2.20.56.54.56_eg8.2.20.56.54.56_r0_fa22.80.100.18.52.57.56_fb9_fh_fc0.52.55.0.52.55.50.61.61.50.50.50_fd1.0.19.56.56_fe90.79_ff0000000000_fg3.62_pa0.0.0.0.0.50.85.68.0.0_t00.61.61.0.0.0.0.433.314.0_pb_pc_pd_pe_ga0_gb1_gc62.0_ge0000000000_gh_gf_gg_gd10000000_ha100.100_hb100.1.0.99_hc0.33.58.0.33.58_hd39.1.49.49_ia_if_ib_id_ic_jc_ie_ja_jb_jd_je_jf_jg_ka10.3.42.42.1_kb10.3.42.42_kc_kd_ke_kf_la_lb_oa_os_ob_oc_od_oe_of_lc_m0_n0_s0_og_oh_oo_op_oq_or_om_on_ok_ol_oi_oj_ad0.0.0.0.0.0.0.0.0.0
1-teasingf=40**aa12.54.0.46.23.12.54.0.46.23_ab_ac_ba56_bb15.1_bc150.500.8.0.1_bd15_be180_ca47.0.40.88.17.34.86.46.21_cb0_daD7A07B.0.0.100_db_dd0.1.16.22.22_dhD7A07B.30.50.50.0_di7_qa_qb_dc0.1.D7A07B.D7A07B.D7A07B_eh1.56_ea6.56.54.56.0.0_ec10.18.56.54.56.34.54.1_ed15.32.0.1.56.54_ef8.2.20.56.54.56_eg8.2.20.56.54.56_r0_fa22.80.100.18.52.57.56_fb9_fh_fc0.52.55.0.52.55.50.61.61.50.50.50_fd1.0.19.56.56_fe90.79_ff0000000000_fg3.62_pa0.0.0.0.0.50.85.68.0.0_t00.61.61.0.0.0.0.433.314.0_pb_pc_pd_pe_ga0_gb1_gc0.0_ge0000000000_gh_gf_gg_gd10000000_ha87.32_hb50.1.50.99_hc0.33.58.0.33.58_hd19.1.49.49_ia_if_ib_id_ic_jc_ie_ja_jb_jd_je_jf_jg_ka10.3.42.42.1_kb10.3.42.42_kc_kd_ke_kf_la_lb_oa_os_ob_oc_od_oe_of_lc_m0_n0_s0_og_oh_oo_op_oq_or_om_on_ok_ol_oi_oj_ad0.0.0.0.0.0.0.0.0.0
1-shocked=40**aa88.31.0.4.86.78.54.1.28.1_ab_ac_ba46_bb5.1_bc150.500.8.0.1_bd19_be177_ca47.0.40.88.17.34.86.46.21_cb0_daD7A07B.0.0.100_db_dd0.1.16.22.22_dhD7A07B.30.50.50.0_di7_qa_qb_dc0.1.D7A07B.D7A07B.D7A07B_eh1.56_ea6.56.54.56.0.0_ec10.18.56.54.56.34.54.1_ed15.32.0.1.56.54_ef8.2.20.56.54.56_eg8.2.20.56.54.56_r0_fa22.80.100.18.52.57.56_fb9_fh_fc0.52.55.0.52.55.50.61.61.50.50.50_fd1.0.19.56.56_fe90.79_ff0000000000_fg3.62_pa0.0.0.0.0.50.85.68.0.0_t00.61.61.0.0.0.0.433.314.0_pb_pc_pd_pe_ga0_gb0_gc0.0_ge0000000000_gh_gf_gg_gd10000000_ha100.100_hb49.1.0.99_hc0.64.72.0.64.72_hd33.1.49.49_ia_if_ib_id_ic_jc_ie_ja_jb_jd_je_jf_jg_ka10.3.42.42.1_kb10.3.42.42_kc_kd_ke_kf_la_lb_oa_os_ob_oc_od_oe_of_lc_m0_n0_s0_og_oh_oo_op_oq_or_om_on_ok_ol_oi_oj_ad0.0.0.0.0.0.0.0.0.0
1-encouraging=40**aa15.72.0.49.39.15.72.0.49.39_ab_ac_ba50_bb17.1_bc150.500.8.0.1_bd17_be180_ca47.0.40.88.17.34.86.46.21_cb0_daD7A07B.0.0.100_db_dd0.1.16.22.22_dhD7A07B.30.50.50.0_di7_qa_qb_dc0.1.D7A07B.D7A07B.D7A07B_eh1.56_ea6.56.54.56.0.0_ec10.18.56.54.56.34.54.1_ed15.32.0.1.56.54_ef8.2.20.56.54.56_eg8.2.20.56.54.56_r0_fa22.80.100.18.52.57.56_fb9_fh_fc0.52.55.0.52.55.50.61.61.50.50.50_fd1.0.19.56.56_fe90.79_ff0000000000_fg3.62_pa0.0.0.0.0.50.85.68.0.0_t00.61.61.0.0.0.0.433.314.0_pb_pc_pd_pe_ga0_gb1_gc0.0_ge0000000000_gh_gf_gg_gd10000000_ha89.89_hb49.1.44.99_hc0.29.39.0.29.39_hd23.1.38.49_ia_if_ib_id_ic_jc_ie_ja_jb_jd_je_jf_jg_ka10.3.42.42.1_kb10.3.42.42_kc_kd_ke_kf_la_lb_oa_os_ob_oc_od_oe_of_lc_m0_n0_s0_og_oh_oo_op_oq_or_om_on_ok_ol_oi_oj_ad0.0.0.0.0.0.0.0.0.0
1-egging=40**aa88.15.1.43.39.64.45.1.12.13_ab_ac_ba50_bb19.1_bc150.500.8.0.1_bd19_be180_ca47.0.40.88.17.34.86.46.21_cb0_daD7A07B.0.0.100_db_dd0.1.16.22.22_dhD7A07B.30.50.50.0_di7_qa_qb_dc0.1.D7A07B.D7A07B.D7A07B_eh1.56_ea6.56.54.56.0.0_ec10.18.56.54.56.34.54.1_ed15.32.0.1.56.54_ef8.2.20.56.54.56_eg8.2.20.56.54.56_r0_fa22.80.100.18.52.57.56_fb9_fh_fc0.52.55.0.52.55.50.61.61.50.50.50_fd1.0.19.56.56_fe90.79_ff0000000000_fg3.62_pa0.0.0.0.0.50.85.68.0.0_t00.61.61.0.0.0.0.433.314.0_pb_pc_pd_pe_ga0_gb1_gc0.0_ge0000000000_gh_gf_gg_gd10000000_ha89.89_hb49.1.44.99_hc0.41.39.0.41.39_hd24.1.49.36_ia_if_ib_id_ic_jc_ie_ja_jb_jd_je_jf_jg_ka10.3.42.42.1_kb10.3.42.42_kc_kd_ke_kf_la_lb_oa_os_ob_oc_od_oe_of_lc_m0_n0_s0_og_oh_oo_op_oq_or_om_on_ok_ol_oi_oj_ad0.0.0.0.0.0.0.0.0.0
1-praising=40**aa26.84.1.42.17.15.41.1.42.54_ab_ac_ba50_bb19.1_bc150.500.8.0.1_bd19_be180_ca47.0.40.88.17.34.86.46.21_cb0_daD7A07B.0.0.100_db_dd0.1.16.22.22_dhD7A07B.30.50.50.0_di7_qa_qb_dc0.1.D7A07B.D7A07B.D7A07B_eh1.56_ea6.56.54.56.0.0_ec10.18.56.54.56.34.54.1_ed15.32.0.1.56.54_ef8.2.20.56.54.56_eg8.2.20.56.54.56_r0_fa22.80.100.18.52.57.56_fb9_fh_fc0.52.55.0.52.55.50.61.61.50.50.50_fd1.0.19.56.56_fe90.79_ff0000000000_fg3.62_pa0.0.0.0.0.50.85.68.0.0_t00.61.61.0.0.0.0.433.314.0_pb_pc_pd_pe_ga0_gb1_gc0.0_ge0000000000_gh_gf_gg_gd10000000_ha89.89_hb49.1.44.99_hc0.41.39.0.41.39_hd23.1.60.30_ia_if_ib_id_ic_jc_ie_ja_jb_jd_je_jf_jg_ka10.3.42.42.1_kb10.3.42.42_kc_kd_ke_kf_la_lb_oa_os_ob_oc_od_oe_of_lc_m0_n0_s0_og_oh_oo_op_oq_or_om_on_ok_ol_oi_oj_ad0.0.0.0.0.0.0.0.0.0
1-victory=40**aa92.13.0.11.100.92.13.0.11.100_ab_ac_ba50_bb15.1_bc150.500.8.0.1_bd49_be168_ca47.0.40.88.17.34.86.46.21_cb0_daD7A07B.0.0.100_db_dd0.1.16.22.22_dhD7A07B.30.50.50.0_di7_qa_qb_dc0.1.D7A07B.D7A07B.D7A07B_eh1.56_ea6.56.54.56.0.0_ec10.18.56.54.56.34.54.1_ed15.32.0.1.56.54_ef8.2.20.56.54.56_eg8.2.20.56.54.56_r0_fa22.80.100.18.52.57.56_fb9_fh_fc0.52.55.0.52.55.50.61.61.50.50.50_fd1.0.19.56.56_fe90.79_ff0000000000_fg3.62_pa0.0.0.0.0.50.85.68.0.0_t00.61.61.0.0.0.0.433.314.0_pb_pc_pd_pe_ga0_gb1_gc0.0_ge0000000000_gh_gf_gg_gd10000000_ha72.72_hb49.1.44.99_hc0.41.39.0.41.39_hd0.1.49.49_ia_if_ib_id_ic_jc_ie_ja_jb_jd_je_jf_jg_ka10.3.42.42.1_kb10.3.42.42_kc_kd_ke_kf_la_lb_oa_os_ob_oc_od_oe_of_lc_m0_n0_s0_og_oh_oo_op_oq_or_om_on_ok_ol_oi_oj_ad0.0.0.0.0.0.0.0.0.0

2-happy=40**aa24.72.1.42.11.16.43.0.42.50_ab_ac_ba46_bb5.1_bc150.500.8.0.1_bd19_be177_ca47.0.40.88.17.34.86.46.21_cb0_daD7A07B.0.0.100_db_dd0.1.16.22.22_dhD7A07B.30.50.50.0_di7_qa_qb_dc0.1.D7A07B.D7A07B.D7A07B_eh1.56_ea6.56.54.56.0.0_ec10.18.56.54.56.34.54.1_ed15.32.0.1.56.54_ef8.2.20.56.54.56_eg8.2.20.56.54.56_r0_fa22.80.100.18.52.57.56_fb9_fh_fc0.52.55.0.52.55.50.61.61.50.50.50_fd1.0.19.56.56_fe90.79_ff0000000000_fg3.62_pa0.0.0.0.0.50.85.68.0.0_t00.61.61.0.0.0.0.433.314.0_pb_pc_pd_pe_ga0_gb1_gc0.0_ge0000000000_gh_gf_gg_gd10000000_ha89.89_hb49.1.44.99_hc0.41.39.0.41.39_hd34.1.49.32_ia_if_ib_id_ic_jc_ie_ja_jb_jd_je_jf_jg_ka_kb10.3.42.42_kc_kd_ke_kf_la_lb_oa_os_ob_oc_od_oe_of_lc_m0_n0_s0_og_oh_oo_op_oq_or_om_on_ok_ol_oi_oj_ad0.0.0.0.0.0.0.0.0.0
2-calm=40**aa92.13.0.11.100.92.13.0.11.100_ab_ac_ba50_bb15.1_bc150.500.8.0.1_bd49_be168_ca47.0.40.88.17.34.86.46.21_cb0_daD7A07B.0.0.100_db_dd0.1.16.22.22_dhD7A07B.30.50.50.0_di7_qa_qb_dc0.1.D7A07B.D7A07B.D7A07B_eh1.56_ea6.56.54.56.0.0_ec10.18.56.54.56.34.54.1_ed15.32.0.1.56.54_ef8.2.20.56.54.56_eg8.2.20.56.54.56_r0_fa22.80.100.18.52.57.56_fb9_fh_fc0.52.55.0.52.55.50.61.61.50.50.50_fd1.0.19.56.56_fe90.79_ff0000000000_fg3.62_pa0.0.0.0.0.50.85.68.0.0_t00.61.61.0.0.0.0.433.314.0_pb_pc_pd_pe_ga0_gb1_gc0.0_ge0000000000_gh_gf_gg_gd10000000_ha89.89_hb49.1.44.99_hc0.41.39.0.41.39_hd0.1.49.49_ia_if_ib_id_ic_jc_ie_ja_jb_jd_je_jf_jg_ka_kb10.3.42.42_kc_kd_ke_kf_la_lb_oa_os_ob_oc_od_oe_of_lc_m0_n0_s0_og_oh_oo_op_oq_or_om_on_ok_ol_oi_oj_ad0.0.0.0.0.0.0.0.0.0
2-awkward=40**aa10.74.1.2.21.10.74.1.4.21_ab_ac_ba33_bb43.1_bc150.500.8.0.1_bd49_be169_ca47.0.40.88.17.34.86.46.21_cb0_daD7A07B.0.0.100_db_dd0.1.16.22.22_dhD7A07B.30.50.50.0_di7_qa_qb_dc0.1.D7A07B.D7A07B.D7A07B_eh1.56_ea6.56.54.56.0.0_ec10.18.56.54.56.34.54.1_ed15.32.0.1.56.54_ef8.2.20.56.54.56_eg8.2.20.56.54.56_r0_fa22.80.100.18.52.57.56_fb9_fh_fc0.52.55.0.52.55.50.61.61.50.50.50_fd1.0.19.56.56_fe90.79_ff0000000000_fg3.62_pa0.0.0.0.0.50.85.68.0.0_t00.61.61.0.0.0.0.433.314.0_pb_pc_pd_pe_ga0_gb1_gc0.0_ge0000000000_gh_gf_gg_gd10000000_ha89.89_hb0.1.44.99_hc0.41.39.0.41.39_hd10.1.49.49_ia_if_ib_id_ic_jc_ie_ja_jb_jd_je_jf_jg_ka_kb10.3.42.42_kc_kd_ke_kf_la_lb_oa_os_ob_oc_od_oe_of_lc_m0_n0_s0_og_oh_oo_op_oq_or_om_on_ok_ol_oi_oj_ad0.0.0.0.0.0.0.0.0.0
2-stripped=40**aa25.87.1.3.68.25.87.1.3.68_ab_ac_ba33_bb47.1_bc150.500.8.0.1_bd39_be176_ca47.0.40.88.17.34.86.46.21_cb0_daD7A07B.0.0.100_db_dd0.1.16.22.22_dhD7A07B.30.50.50.0_di7_qa_qb_dc0.1.D7A07B.D7A07B.D7A07B_eh1.56_ea6.56.54.56.0.0_ec10.18.56.54.56.34.54.1_ed15.32.0.1.56.54_ef8.2.20.56.54.56_eg8.2.20.56.54.56_r0_fa22.80.100.18.52.57.56_fb9_fh_fc0.52.55.0.52.55.50.61.61.50.50.50_fd1.0.19.56.56_fe90.79_ff0000000000_fg3.62_pa0.0.0.0.0.50.85.68.0.0_t00.61.61.0.0.0.0.433.314.0_pb_pc_pd_pe_ga0_gb1_gc0.0_ge0000000000_gh_gf_gg_gd10000000_ha78.78_hb50.1.44.99_hc0.41.39.0.41.39_hd2.1.49.49_ia_if_ib_id_ic_jc_ie_ja_jb_jd_je_jf_jg_ka_kb10.3.42.42_kc_kd_ke_kf_la_lb_oa_os_ob_oc_od_oe_of_lc_m0_n0_s0_og_oh_oo_op_oq_or_om_on_ok_ol_oi_oj_ad0.0.0.0.0.0.0.0.0.0
2-smug=40**aa89.72.0.49.39.89.72.0.49.39_ab_ac_ba50_bb17.1_bc150.500.8.0.1_bd17_be180_ca47.0.40.88.17.34.86.46.21_cb0_daD7A07B.0.0.100_db_dd0.1.16.22.22_dhD7A07B.30.50.50.0_di7_qa_qb_dc0.1.D7A07B.D7A07B.D7A07B_eh1.56_ea6.56.54.56.0.0_ec10.18.56.54.56.34.54.1_ed15.32.0.1.56.54_ef8.2.20.56.54.56_eg8.2.20.56.54.56_r0_fa22.80.100.18.52.57.56_fb9_fh_fc0.52.55.0.52.55.50.61.61.50.50.50_fd1.0.19.56.56_fe90.79_ff0000000000_fg3.62_pa0.0.0.0.0.50.85.68.0.0_t00.61.61.0.0.0.0.433.314.0_pb_pc_pd_pe_ga0_gb1_gc0.0_ge0000000000_gh_gf_gg_gd10000000_ha72.72_hb49.1.50.99_hc0.56.76.0.41.31_hd1.1.49.49_ia_if_ib_id_ic_jc_ie_ja_jb_jd_je_jf_jg_ka_kb10.3.42.42_kc_kd_ke_kf_la_lb_oa_os_ob_oc_od_oe_of_lc_m0_n0_s0_og_oh_oo_op_oq_or_om_on_ok_ol_oi_oj_ad0.0.0.0.0.0.0.0.0.0
2-loss=40**aa36.76.1.42.21.36.76.1.42.21_ab_ac_ba50_bb17.1_bc150.500.8.0.1_bd17_be180_ca47.0.40.88.17.34.86.46.21_cb0_daD7A07B.0.0.100_db_dd0.1.16.22.22_dhD7A07B.30.50.50.0_di7_qa_qb_dc0.1.D7A07B.D7A07B.D7A07B_eh1.56_ea6.56.54.56.0.0_ec10.18.56.54.56.34.54.1_ed15.32.0.1.56.54_ef8.2.20.56.54.56_eg8.2.20.56.54.56_r0_fa22.80.100.18.52.57.56_fb9_fh_fc0.52.55.0.52.55.50.61.61.50.50.50_fd1.0.19.56.56_fe90.79_ff0000000000_fg3.62_pa0.0.0.0.0.50.85.68.0.0_t00.61.61.0.0.0.0.433.314.0_pb_pc_pd_pe_ga0_gb1_gc0.0_ge0000000000_gh_gf_gg_gd10000000_ha86.86_hb49.1.50.99_hc0.21.48.0.21.48_hd4.1.49.49_ia_if_ib_id_ic_jc_ie_ja_jb_jd_je_jf_jg_ka_kb10.3.42.42_kc_kd_ke_kf_la_lb_oa_os_ob_oc_od_oe_of_lc_m0_n0_s0_og_oh_oo_op_oq_or_om_on_ok_ol_oi_oj_ad0.0.0.0.0.0.0.0.0.0
2-sad=40**aa15.72.1.49.39.15.72.1.49.39_ab_ac_ba50_bb17.1_bc150.500.8.0.1_bd17_be180_ca47.0.40.88.17.34.86.46.21_cb0_daD7A07B.0.0.100_db_dd0.1.16.22.22_dhD7A07B.30.50.50.0_di7_qa_qb_dc0.1.D7A07B.D7A07B.D7A07B_eh1.56_ea6.56.54.56.0.0_ec10.18.56.54.56.34.54.1_ed15.32.0.1.56.54_ef8.2.20.56.54.56_eg8.2.20.56.54.56_r0_fa22.80.100.18.52.57.56_fb9_fh_fc0.52.55.0.52.55.50.61.61.50.50.50_fd1.0.19.56.56_fe90.79_ff0000000000_fg3.62_pa0.0.0.0.0.50.85.68.0.0_t00.61.61.0.0.0.0.433.314.0_pb_pc_pd_pe_ga0_gb1_gc0.0_ge0000000000_gh_gf_gg_gd10000000_ha89.89_hb49.1.0.99_hc4.41.39.4.41.39_hd5.1.49.49_ia_if_ib_id_ic_jc_ie_ja_jb_jd_je_jf_jg_ka_kb10.3.42.42_kc_kd_ke_kf_la_lb_oa_os_ob_oc_od_oe_of_lc_m0_n0_s0_og_oh_oo_op_oq_or_om_on_ok_ol_oi_oj_ad0.0.0.0.0.0.0.0.0.0
2-strip=40**aa15.90.1.49.39.15.41.1.12.0_ab_ac_ba50_bb44.1_bc150.500.8.0.1_bd55_be180_ca47.0.40.88.17.34.86.46.21_cb0_daD7A07B.0.0.100_db_dd0.1.16.22.22_dhD7A07B.30.50.50.0_di7_qa_qb_dc0.1.D7A07B.D7A07B.D7A07B_eh1.56_ea6.56.54.56.0.0_ec10.18.56.54.56.34.54.1_ed15.32.0.1.56.54_ef8.2.20.56.54.56_eg8.2.20.56.54.56_r0_fa22.80.100.18.52.57.56_fb9_fh_fc0.52.55.0.52.55.50.61.61.50.50.50_fd1.0.19.56.56_fe90.79_ff0000000000_fg3.62_pa0.0.0.0.0.50.85.68.0.0_t00.61.61.0.0.0.0.433.314.0_pb_pc_pd_pe_ga0_gb1_gc0.0_ge0000000000_gh_gf_gg_gd10000000_ha84.0_hb49.1.0.99_hc0.41.39.4.41.39_hd19.1.49.49_ia_if_ib_id_ic_jc_ie_ja_jb_jd_je_jf_jg_ka_kb10.3.42.42_kc_kd_ke_kf_la_lb_oa_os_ob_oc_od_oe_of_lc_m0_n0_s0_og_oh_oo_op_oq_or_om_on_ok_ol_oi_oj_ad0.0.0.0.0.0.0.0.0.0
2-teasing=40**aa15.84.0.49.39.15.41.1.33.33_ab_ac_ba72_bb17.1_bc150.500.8.0.1_bd17_be180_ca47.0.40.88.17.34.86.46.21_cb0_daD7A07B.0.0.100_db_dd0.1.16.22.22_dhD7A07B.30.50.50.0_di7_qa_qb_dc0.1.D7A07B.D7A07B.D7A07B_eh1.56_ea6.56.54.56.0.0_ec10.18.56.54.56.34.54.1_ed15.32.0.1.56.54_ef8.2.20.56.54.56_eg8.2.20.56.54.56_r0_fa22.80.100.18.52.57.56_fb9_fh_fc0.52.55.0.52.55.50.61.61.50.50.50_fd1.0.19.56.56_fe90.79_ff0000000000_fg3.62_pa0.0.0.0.0.50.85.68.0.0_t00.61.61.0.0.0.0.433.314.0_pb_pc_pd_pe_ga0_gb1_gc0.0_ge0000000000_gh_gf_gg_gd10000000_ha89.0_hb49.1.44.99_hc0.41.39.0.41.39_hd19.1.49.49_ia_if_ib_id_ic_jc_ie_ja_jb_jd_je_jf_jg_ka_kb10.3.42.42_kc_kd_ke_kf_la_lb_oa_os_ob_oc_od_oe_of_lc_m0_n0_s0_og_oh_oo_op_oq_or_om_on_ok_ol_oi_oj_ad0.0.0.0.0.0.0.0.0.0
2-annoyed=40**aa27.80.1.4.68.27.80.1.4.68_ab_ac_ba72_bb17.1_bc150.500.8.0.1_bd17_be180_ca47.0.40.88.17.34.86.46.21_cb0_daD7A07B.0.0.100_db_dd0.1.16.22.22_dhD7A07B.30.50.50.0_di7_qa_qb_dc0.1.D7A07B.D7A07B.D7A07B_eh1.56_ea6.56.54.56.0.0_ec10.18.56.54.56.34.54.1_ed15.32.0.1.56.54_ef8.2.20.56.54.56_eg8.2.20.56.54.56_r0_fa22.80.100.18.52.57.56_fb9_fh_fc0.52.55.0.52.55.50.61.61.50.50.50_fd1.0.19.56.56_fe90.79_ff0000000000_fg3.62_pa0.0.0.0.0.50.85.68.0.0_t00.61.61.0.0.0.0.433.314.0_pb_pc_pd_pe_ga0_gb1_gc0.0_ge0000000000_gh_gf_gg_gd10000000_ha70.70_hb49.1.44.99_hc0.10.17.0.10.17_hd21.1.49.49_ia_if_ib_id_ic_jc_ie_ja_jb_jd_je_jf_jg_ka_kb10.3.42.42_kc_kd_ke_kf_la_lb_oa_os_ob_oc_od_oe_of_lc_m0_n0_s0_og_oh_oo_op_oq_or_om_on_ok_ol_oi_oj_ad0.0.0.0.0.0.0.0.0.0
2-interested=40**aa24.82.1.0.72.16.43.0.33.0_ab_ac_ba46_bb5.1_bc150.500.8.0.1_bd19_be177_ca47.0.40.88.17.34.86.46.21_cb0_daD7A07B.0.0.100_db_dd0.1.16.22.22_dhD7A07B.30.50.50.0_di7_qa_qb_dc0.1.D7A07B.D7A07B.D7A07B_eh1.56_ea6.56.54.56.0.0_ec10.18.56.54.56.34.54.1_ed15.32.0.1.56.54_ef8.2.20.56.54.56_eg8.2.20.56.54.56_r0_fa22.80.100.18.52.57.56_fb9_fh_fc0.52.55.0.52.55.50.61.61.50.50.50_fd1.0.19.56.56_fe90.79_ff0000000000_fg3.62_pa0.0.0.0.0.50.85.68.0.0_t00.61.61.0.0.0.0.433.314.0_pb_pc_pd_pe_ga0_gb1_gc12.0_ge0000000000_gh_gf_gg_gd10000000_ha72.72_hb49.1.44.99_hc0.41.39.0.41.39_hd35.1.49.32_ia_if_ib_id_ic_jc_ie_ja_jb_jd_je_jf_jg_ka_kb10.3.42.42_kc_kd_ke_kf_la_lb_oa_os_ob_oc_od_oe_of_lc_m0_n0_s0_og_oh_oo_op_oq_or_om_on_ok_ol_oi_oj_ad0.0.0.0.0.0.0.0.0.0
2-horny=40**aa24.84.1.8.100.16.53.1.49.49_ab_ac_ba46_bb43.1_bc150.500.8.0.1_bd19_be177_ca47.0.40.88.17.34.86.46.21_cb0_daD7A07B.0.0.100_db_dd0.1.16.22.22_dhD7A07B.30.50.50.0_di7_qa_qb_dc0.1.D7A07B.D7A07B.D7A07B_eh1.56_ea6.56.54.56.0.0_ec10.18.56.54.56.34.54.1_ed15.32.0.1.56.54_ef8.2.20.56.54.56_eg8.2.20.56.54.56_r0_fa22.80.100.18.52.57.56_fb9_fh_fc0.52.55.0.52.55.50.61.61.50.50.50_fd1.0.19.56.56_fe90.79_ff0000000000_fg3.62_pa0.0.0.0.0.50.85.68.0.0_t00.61.61.0.0.0.0.433.314.0_pb_pc_pd_pe_ga0_gb1_gc7.0_ge0000000000_gh_gf_gg_gd10000000_ha70.70_hb49.1.44.99_hc0.41.39.0.41.39_hd35.1.49.49_ia_if_ib_id_ic_jc_ie_ja_jb_jd_je_jf_jg_ka_kb10.3.42.42_kc_kd_ke_kf_la_lb_oa_os_ob_oc_od_oe_of_lc_m0_n0_s0_og_oh_oo_op_oq_or_om_on_ok_ol_oi_oj_ad0.0.0.0.0.0.0.0.0.0
2-playful=40**aa28.74.1.4.100.12.94.1.4.66_ab_ac_ba46_bb45.1_bc150.500.8.0.1_bd39_be172_ca47.0.40.88.17.34.86.46.21_cb0_daD7A07B.0.0.100_db_dd0.1.16.22.22_dhD7A07B.30.50.50.0_di7_qa_qb_dc0.1.D7A07B.D7A07B.D7A07B_eh1.56_ea6.56.54.56.0.0_ec10.18.56.54.56.34.54.1_ed15.32.0.1.56.54_ef8.2.20.56.54.56_eg8.2.20.56.54.56_r0_fa22.80.100.18.52.57.56_fb9_fh_fc0.52.55.0.52.55.50.61.61.50.50.50_fd1.0.19.56.56_fe90.79_ff0000000000_fg3.62_pa0.0.0.0.0.50.85.68.0.0_t00.61.61.0.0.0.0.433.314.0_pb_pc_pd_pe_ga0_gb1_gc7.0_ge0000000000_gh_gf_gg_gd10000000_ha70.70_hb49.1.44.99_hc0.41.39.0.41.39_hd35.1.49.49_ia_if_ib_id_ic_jc_ie_ja_jb_jd_je_jf_jg_ka_kb10.3.42.42_kc_kd_ke_kf_la_lb_oa_os_ob_oc_od_oe_of_lc_m0_n0_s0_og_oh_oo_op_oq_or_om_on_ok_ol_oi_oj_ad0.0.0.0.0.0.0.0.0.0
2-egging=40**aa88.15.1.43.39.64.45.1.12.13_ab_ac_ba50_bb19.1_bc150.500.8.0.1_bd19_be180_ca47.0.40.88.17.34.86.46.21_cb0_daD7A07B.0.0.100_db_dd0.1.16.22.22_dhD7A07B.30.50.50.0_di7_qa_qb_dc0.1.D7A07B.D7A07B.D7A07B_eh1.56_ea6.56.54.56.0.0_ec10.18.56.54.56.34.54.1_ed15.32.0.1.56.54_ef8.2.20.56.54.56_eg8.2.20.56.54.56_r0_fa22.80.100.18.52.57.56_fb9_fh_fc0.52.55.0.52.55.50.61.61.50.50.50_fd1.0.19.56.56_fe90.79_ff0000000000_fg3.62_pa0.0.0.0.0.50.85.68.0.0_t00.61.61.0.0.0.0.433.314.0_pb_pc_pd_pe_ga0_gb1_gc0.0_ge0000000000_gh_gf_gg_gd10000000_ha89.89_hb49.1.44.99_hc0.41.39.0.41.39_hd24.1.49.36_ia_if_ib_id_ic_jc_ie_ja_jb_jd_je_jf_jg_ka_kb10.3.42.42_kc_kd_ke_kf_la_lb_oa_os_ob_oc_od_oe_of_lc_m0_n0_s0_og_oh_oo_op_oq_or_om_on_ok_ol_oi_oj_ad0.0.0.0.0.0.0.0.0.0
2-concerned=40**aa15.58.1.49.39.15.58.1.49.39_ab_ac_ba50_bb17.1_bc150.500.8.0.1_bd17_be180_ca47.0.40.88.17.34.86.46.21_cb0_daD7A07B.0.0.100_db_dd0.1.16.22.22_dhD7A07B.30.50.50.0_di7_qa_qb_dc0.1.D7A07B.D7A07B.D7A07B_eh1.56_ea6.56.54.56.0.0_ec10.18.56.54.56.34.54.1_ed15.32.0.1.56.54_ef8.2.20.56.54.56_eg8.2.20.56.54.56_r0_fa22.80.100.18.52.57.56_fb9_fh_fc0.52.55.0.52.55.50.61.61.50.50.50_fd1.0.19.56.56_fe90.79_ff0000000000_fg3.62_pa0.0.0.0.0.50.85.68.0.0_t00.61.61.0.0.0.0.433.314.0_pb_pc_pd_pe_ga0_gb1_gc0.0_ge0000000000_gh_gf_gg_gd10000000_ha90.90_hb49.1.31.99_hc0.19.25.0.19.25_hd38.1.49.49_ia_if_ib_id_ic_jc_ie_ja_jb_jd_je_jf_jg_ka_kb10.3.42.42_kc_kd_ke_kf_la_lb_oa_os_ob_oc_od_oe_of_lc_m0_n0_s0_og_oh_oo_op_oq_or_om_on_ok_ol_oi_oj_ad0.0.0.0.0.0.0.0.0.0
2-chest=40**aa26.80.1.0.86.16.72.1.3.35_ab_ac_ba27_bb5.1_bc150.500.8.0.1_bd19_be177_ca47.0.40.88.17.34.86.46.21_cb0_daD7A07B.0.0.100_db_dd0.1.16.22.22_dhD7A07B.30.50.50.0_di7_qa_qb_dc0.1.D7A07B.D7A07B.D7A07B_eh1.56_ea6.56.54.56.0.0_ec10.18.56.54.56.34.54.1_ed15.32.0.1.56.54_ef8.2.20.56.54.56_eg8.2.20.56.54.56_r0_fa22.80.100.18.52.57.56_fb9_fh_fc0.52.55.0.52.55.50.61.61.50.50.50_fd1.0.19.56.56_fe90.79_ff0000000000_fg3.62_pa0.0.0.0.0.50.85.68.0.0_t00.61.61.0.0.0.0.433.314.0_pb_pc_pd_pe_ga0_gb1_gc0.0_ge0000000000_gh_gf_gg_gd10000000_ha89.26_hb49.1.44.99_hc0.41.39.0.41.39_hd32.1.49.32_ia_if_ib_id_ic_jc_ie_ja_jb_jd_je_jf_jg_ka_kb10.3.42.42_kc_kd_ke_kf_la_lb_oa_os_ob_oc_od_oe_of_lc_m0_n0_s0_og_oh_oo_op_oq_or_om_on_ok_ol_oi_oj_ad0.0.0.0.0.0.0.0.0.0
2-encouraging=40**aa15.72.0.49.39.15.72.0.49.39_ab_ac_ba50_bb17.1_bc150.500.8.0.1_bd17_be180_ca47.0.40.88.17.34.86.46.21_cb0_daD7A07B.0.0.100_db_dd0.1.16.22.22_dhD7A07B.30.50.50.0_di7_qa_qb_dc0.1.D7A07B.D7A07B.D7A07B_eh1.56_ea6.56.54.56.0.0_ec10.18.56.54.56.34.54.1_ed15.32.0.1.56.54_ef8.2.20.56.54.56_eg8.2.20.56.54.56_r0_fa22.80.100.18.52.57.56_fb9_fh_fc0.52.55.0.52.55.50.61.61.50.50.50_fd1.0.19.56.56_fe90.79_ff0000000000_fg3.62_pa0.0.0.0.0.50.85.68.0.0_t00.61.61.0.0.0.0.433.314.0_pb_pc_pd_pe_ga0_gb1_gc0.0_ge0000000000_gh_gf_gg_gd10000000_ha89.89_hb49.1.44.99_hc0.29.39.0.29.39_hd23.1.38.49_ia_if_ib_id_ic_jc_ie_ja_jb_jd_je_jf_jg_ka_kb10.3.42.42_kc_kd_ke_kf_la_lb_oa_os_ob_oc_od_oe_of_lc_m0_n0_s0_og_oh_oo_op_oq_or_om_on_ok_ol_oi_oj_ad0.0.0.0.0.0.0.0.0.0
2-praising=40**aa26.84.1.42.17.15.41.1.42.54_ab_ac_ba50_bb19.1_bc150.500.8.0.1_bd19_be180_ca47.0.40.88.17.34.86.46.21_cb0_daD7A07B.0.0.100_db_dd0.1.16.22.22_dhD7A07B.30.50.50.0_di7_qa_qb_dc0.1.D7A07B.D7A07B.D7A07B_eh1.56_ea6.56.54.56.0.0_ec10.18.56.54.56.34.54.1_ed15.32.0.1.56.54_ef8.2.20.56.54.56_eg8.2.20.56.54.56_r0_fa22.80.100.18.52.57.56_fb9_fh_fc0.52.55.0.52.55.50.61.61.50.50.50_fd1.0.19.56.56_fe90.79_ff0000000000_fg3.62_pa0.0.0.0.0.50.85.68.0.0_t00.61.61.0.0.0.0.433.314.0_pb_pc_pd_pe_ga0_gb1_gc0.0_ge0000000000_gh_gf_gg_gd10000000_ha89.89_hb49.1.44.99_hc0.41.39.0.41.39_hd23.1.60.30_ia_if_ib_id_ic_jc_ie_ja_jb_jd_je_jf_jg_ka_kb10.3.42.42_kc_kd_ke_kf_la_lb_oa_os_ob_oc_od_oe_of_lc_m0_n0_s0_og_oh_oo_op_oq_or_om_on_ok_ol_oi_oj_ad0.0.0.0.0.0.0.0.0.0
2-victory=40**aa92.13.0.11.100.92.13.0.11.100_ab_ac_ba50_bb15.1_bc150.500.8.0.1_bd49_be168_ca47.0.40.88.17.34.86.46.21_cb0_daD7A07B.0.0.100_db_dd0.1.16.22.22_dhD7A07B.30.50.50.0_di7_qa_qb_dc0.1.D7A07B.D7A07B.D7A07B_eh1.56_ea6.56.54.56.0.0_ec10.18.56.54.56.34.54.1_ed15.32.0.1.56.54_ef8.2.20.56.54.56_eg8.2.20.56.54.56_r0_fa22.80.100.18.52.57.56_fb9_fh_fc0.52.55.0.52.55.50.61.61.50.50.50_fd1.0.19.56.56_fe90.79_ff0000000000_fg3.62_pa0.0.0.0.0.50.85.68.0.0_t00.61.61.0.0.0.0.433.314.0_pb_pc_pd_pe_ga0_gb1_gc0.0_ge0000000000_gh_gf_gg_gd10000000_ha72.72_hb49.1.44.99_hc0.41.39.0.41.39_hd34.1.49.49_ia_if_ib_id_ic_jc_ie_ja_jb_jd_je_jf_jg_ka_kb10.3.42.42_kc_kd_ke_kf_la_lb_oa_os_ob_oc_od_oe_of_lc_m0_n0_s0_og_oh_oo_op_oq_or_om_on_ok_ol_oi_oj_ad0.0.0.0.0.0.0.0.0.0

3-happy=40**aa24.72.1.42.11.16.43.0.42.50_ab_ac_ba46_bb5.1_bc150.500.8.0.1_bd19_be177_ca47.0.40.88.17.34.86.46.21_cb0_daD7A07B.0.0.100_db_dd0.1.16.22.22_dhD7A07B.30.50.50.0_di7_qa_qb_dc0.1.D7A07B.D7A07B.D7A07B_eh1.56_ea6.56.54.56.0.0_ec10.18.56.54.56.34.54.1_ed15.32.0.1.56.54_ef8.2.20.56.54.56_eg8.2.20.56.54.56_r0_fa22.80.100.18.52.57.56_fb9_fh_fc0.52.55.0.52.55.50.61.61.50.50.50_fd1.0.19.56.56_fe90.79_ff0000000000_fg3.62_pa0.0.0.0.0.50.85.68.0.0_t00.61.61.0.0.0.0.433.314.0_pb_pc_pd_pe_ga0_gb1_gc0.0_ge0000000000_gh_gf_gg_gd10000000_ha89.89_hb49.1.44.99_hc0.41.39.0.41.39_hd34.1.49.32_ia_if_ib_id_ic_jc_ie_ja_jb_jd_je_jf_jg_ka_kb_kc_kd_ke_kf_la_lb_oa_os_ob_oc_od_oe_of_lc_m0_n0_s0_og_oh_oo_op_oq_or_om_on_ok_ol_oi_oj_ad0.0.0.0.0.0.0.0.0.0
3-calm=40**aa92.13.0.11.100.92.13.0.11.100_ab_ac_ba50_bb15.1_bc150.500.8.0.1_bd49_be168_ca47.0.40.88.17.34.86.46.21_cb0_daD7A07B.0.0.100_db_dd0.1.16.22.22_dhD7A07B.30.50.50.0_di7_qa_qb_dc0.1.D7A07B.D7A07B.D7A07B_eh1.56_ea6.56.54.56.0.0_ec10.18.56.54.56.34.54.1_ed15.32.0.1.56.54_ef8.2.20.56.54.56_eg8.2.20.56.54.56_r0_fa22.80.100.18.52.57.56_fb9_fh_fc0.52.55.0.52.55.50.61.61.50.50.50_fd1.0.19.56.56_fe90.79_ff0000000000_fg3.62_pa0.0.0.0.0.50.85.68.0.0_t00.61.61.0.0.0.0.433.314.0_pb_pc_pd_pe_ga0_gb1_gc0.0_ge0000000000_gh_gf_gg_gd10000000_ha89.89_hb49.1.44.99_hc0.41.39.0.41.39_hd0.1.49.49_ia_if_ib_id_ic_jc_ie_ja_jb_jd_je_jf_jg_ka_kb_kc_kd_ke_kf_la_lb_oa_os_ob_oc_od_oe_of_lc_m0_n0_s0_og_oh_oo_op_oq_or_om_on_ok_ol_oi_oj_ad0.0.0.0.0.0.0.0.0.0
3-awkward=40**aa10.74.1.2.21.10.74.1.4.21_ab_ac_ba33_bb43.1_bc150.500.8.0.1_bd49_be169_ca47.0.40.88.17.34.86.46.21_cb0_daD7A07B.0.0.100_db_dd0.1.16.22.22_dhD7A07B.30.50.50.0_di7_qa_qb_dc0.1.D7A07B.D7A07B.D7A07B_eh1.56_ea6.56.54.56.0.0_ec10.18.56.54.56.34.54.1_ed15.32.0.1.56.54_ef8.2.20.56.54.56_eg8.2.20.56.54.56_r0_fa22.80.100.18.52.57.56_fb9_fh_fc0.52.55.0.52.55.50.61.61.50.50.50_fd1.0.19.56.56_fe90.79_ff0000000000_fg3.62_pa0.0.0.0.0.50.85.68.0.0_t00.61.61.0.0.0.0.433.314.0_pb_pc_pd_pe_ga0_gb1_gc0.0_ge0000000000_gh_gf_gg_gd10000000_ha89.89_hb0.1.44.99_hc0.41.39.0.41.39_hd10.1.49.49_ia_if_ib_id_ic_jc_ie_ja_jb_jd_je_jf_jg_ka_kb_kc_kd_ke_kf_la_lb_oa_os_ob_oc_od_oe_of_lc_m0_n0_s0_og_oh_oo_op_oq_or_om_on_ok_ol_oi_oj_ad0.0.0.0.0.0.0.0.0.0
3-stripped=40**aa22.82.1.4.76.16.43.0.39.60_ab_ac_ba58_bb5.1_bc150.500.8.0.1_bd19_be177_ca47.0.40.88.17.34.86.46.21_cb0_daD7A07B.0.0.100_db_dd0.1.16.22.22_dhD7A07B.30.50.50.0_di7_qa_qb_dc0.1.D7A07B.D7A07B.D7A07B_eh1.56_ea6.56.54.56.0.0_ec10.18.56.54.56.34.54.1_ed15.32.0.1.56.54_ef8.2.20.56.54.56_eg8.2.20.56.54.56_r0_fa22.80.100.18.52.57.56_fb9_fh_fc0.52.55.0.52.55.50.61.61.50.50.50_fd1.0.19.56.56_fe90.79_ff0000000000_fg3.62_pa0.0.0.0.0.50.85.68.0.0_t00.61.61.0.0.0.0.433.314.0_pb_pc_pd_pe_ga0_gb1_gc0.0_ge0000000000_gh_gf_gg_gd10000000_ha72.72_hb49.1.44.99_hc0.41.39.0.41.39_hd35.1.49.32_ia_if_ib_id_ic_jc_ie_ja_jb_jd_je_jf_jg_ka_kb_kc_kd_ke_kf_la_lb_oa_os_ob_oc_od_oe_of_lc_m0_n0_s0_og_oh_oo_op_oq_or_om_on_ok_ol_oi_oj_ad0.0.0.0.0.0.0.0.0.0
3-interested=40**aa24.83.1.8.88.16.43.0.33.0_ab_ac_ba46_bb5.1_bc150.500.8.0.1_bd19_be177_ca47.0.40.88.17.34.86.46.21_cb0_daD7A07B.0.0.100_db_dd0.1.16.22.22_dhD7A07B.30.50.50.0_di7_qa_qb_dc0.1.D7A07B.D7A07B.D7A07B_eh1.56_ea6.56.54.56.0.0_ec10.18.56.54.56.34.54.1_ed15.32.0.1.56.54_ef8.2.20.56.54.56_eg8.2.20.56.54.56_r0_fa22.80.100.18.52.57.56_fb9_fh_fc0.52.55.0.52.55.50.61.61.50.50.50_fd1.0.19.56.56_fe90.79_ff0000000000_fg3.62_pa0.0.0.0.0.50.85.68.0.0_t00.61.61.0.0.0.0.433.314.0_pb_pc_pd_pe_ga0_gb1_gc12.0_ge0000000000_gh_gf_gg_gd10000000_ha72.72_hb49.1.44.99_hc0.41.39.0.41.39_hd35.1.49.32_ia_if_ib_id_ic_jc_ie_ja_jb_jd_je_jf_jg_ka_kb_kc_kd_ke_kf_la_lb_oa_os_ob_oc_od_oe_of_lc_m0_n0_s0_og_oh_oo_op_oq_or_om_on_ok_ol_oi_oj_ad0.0.0.0.0.0.0.0.0.0
3-annoyed=40**aa27.80.1.4.68.27.80.1.4.68_ab_ac_ba72_bb17.1_bc150.500.8.0.1_bd17_be180_ca47.0.40.88.17.34.86.46.21_cb0_daD7A07B.0.0.100_db_dd0.1.16.22.22_dhD7A07B.30.50.50.0_di7_qa_qb_dc0.1.D7A07B.D7A07B.D7A07B_eh1.56_ea6.56.54.56.0.0_ec10.18.56.54.56.34.54.1_ed15.32.0.1.56.54_ef8.2.20.56.54.56_eg8.2.20.56.54.56_r0_fa22.80.100.18.52.57.56_fb9_fh_fc0.52.55.0.52.55.50.61.61.50.50.50_fd1.0.19.56.56_fe90.79_ff0000000000_fg3.62_pa0.0.0.0.0.50.85.68.0.0_t00.61.61.0.0.0.0.433.314.0_pb_pc_pd_pe_ga0_gb1_gc0.0_ge0000000000_gh_gf_gg_gd10000000_ha70.70_hb49.1.44.99_hc0.10.17.0.10.17_hd21.1.49.49_ia_if_ib_id_ic_jc_ie_ja_jb_jd_je_jf_jg_ka_kb_kc_kd_ke_kf_la_lb_oa_os_ob_oc_od_oe_of_lc_m0_n0_s0_og_oh_oo_op_oq_or_om_on_ok_ol_oi_oj_ad0.0.0.0.0.0.0.0.0.0
3-sad=40**aa15.72.1.49.39.15.72.1.49.39_ab_ac_ba50_bb17.1_bc150.500.8.0.1_bd17_be180_ca47.0.40.88.17.34.86.46.21_cb0_daD7A07B.0.0.100_db_dd0.1.16.22.22_dhD7A07B.30.50.50.0_di7_qa_qb_dc0.1.D7A07B.D7A07B.D7A07B_eh1.56_ea6.56.54.56.0.0_ec10.18.56.54.56.34.54.1_ed15.32.0.1.56.54_ef8.2.20.56.54.56_eg8.2.20.56.54.56_r0_fa22.80.100.18.52.57.56_fb9_fh_fc0.52.55.0.52.55.50.61.61.50.50.50_fd1.0.19.56.56_fe90.79_ff0000000000_fg3.62_pa0.0.0.0.0.50.85.68.0.0_t00.61.61.0.0.0.0.433.314.0_pb_pc_pd_pe_ga0_gb1_gc0.0_ge0000000000_gh_gf_gg_gd10000000_ha89.89_hb49.1.0.99_hc4.41.39.4.41.39_hd5.1.49.49_ia_if_ib_id_ic_jc_ie_ja_jb_jd_je_jf_jg_ka_kb_kc_kd_ke_kf_la_lb_oa_os_ob_oc_od_oe_of_lc_m0_n0_s0_og_oh_oo_op_oq_or_om_on_ok_ol_oi_oj_ad0.0.0.0.0.0.0.0.0.0
3-teasing=40**aa15.84.0.49.39.15.41.1.34.96_ab_ac_ba72_bb17.1_bc150.500.8.0.1_bd17_be180_ca47.0.40.88.17.34.86.46.21_cb0_daD7A07B.0.0.100_db_dd0.1.16.22.22_dhD7A07B.30.50.50.0_di7_qa_qb_dc0.1.D7A07B.D7A07B.D7A07B_eh1.56_ea6.56.54.56.0.0_ec10.18.56.54.56.34.54.1_ed15.32.0.1.56.54_ef8.2.20.56.54.56_eg8.2.20.56.54.56_r0_fa22.80.100.18.52.57.56_fb9_fh_fc0.52.55.0.52.55.50.61.61.50.50.50_fd1.0.19.56.56_fe90.79_ff0000000000_fg3.62_pa0.0.0.0.0.50.85.68.0.0_t00.61.61.0.0.0.0.433.314.0_pb_pc_pd_pe_ga0_gb1_gc0.0_ge0000000000_gh_gf_gg_gd10000000_ha89.0_hb49.1.44.99_hc0.41.39.0.41.39_hd19.1.49.49_ia_if_ib_id_ic_jc_ie_ja_jb_jd_je_jf_jg_ka_kb_kc_kd_ke_kf_la_lb_oa_os_ob_oc_od_oe_of_lc_m0_n0_s0_og_oh_oo_op_oq_or_om_on_ok_ol_oi_oj_ad0.0.0.0.0.0.0.0.0.0
3-playful=40**aa21.76.1.27.86.12.94.1.4.66_ab_ac_ba46_bb45.1_bc150.500.8.0.1_bd39_be172_ca47.0.40.88.17.34.86.46.21_cb0_daD7A07B.0.0.100_db_dd0.1.16.22.22_dhD7A07B.30.50.50.0_di7_qa_qb_dc0.1.D7A07B.D7A07B.D7A07B_eh1.56_ea6.56.54.56.0.0_ec10.18.56.54.56.34.54.1_ed15.32.0.1.56.54_ef8.2.20.56.54.56_eg8.2.20.56.54.56_r0_fa22.80.100.18.52.57.56_fb9_fh_fc0.52.55.0.52.55.50.61.61.50.50.50_fd1.0.19.56.56_fe90.79_ff0000000000_fg3.62_pa0.0.0.0.0.50.85.68.0.0_t00.61.61.0.0.0.0.433.314.0_pb_pc_pd_pe_ga0_gb1_gc7.0_ge0000000000_gh_gf_gg_gd10000000_ha70.70_hb49.1.44.99_hc0.41.39.0.41.39_hd35.1.49.49_ia_if_ib_id_ic_jc_ie_ja_jb_jd_je_jf_jg_ka_kb_kc_kd_ke_kf_la_lb_oa_os_ob_oc_od_oe_of_lc_m0_n0_s0_og_oh_oo_op_oq_or_om_on_ok_ol_oi_oj_ad0.0.0.0.0.0.0.0.0.0
3-horny=40**aa21.56.1.45.9.7.88.1.27.68_ab_ac_ba43_bb45.1_bc150.500.8.0.1_bd48_be173_ca47.0.40.88.17.34.86.46.21_cb0_daD7A07B.0.0.100_db_dd0.1.16.22.22_dhD7A07B.30.50.50.0_di7_qa_qb_dc0.1.D7A07B.D7A07B.D7A07B_eh1.56_ea6.56.54.56.0.0_ec10.18.56.54.56.34.54.1_ed15.32.0.1.56.54_ef8.2.20.56.54.56_eg8.2.20.56.54.56_r0_fa22.80.100.18.52.57.56_fb9_fh_fc0.52.55.0.52.55.50.61.61.50.50.50_fd1.0.19.56.56_fe90.79_ff0000000000_fg3.62_pa0.0.0.0.0.50.85.68.0.0_t00.61.61.0.0.0.0.433.314.0_pb_pc_pd_pe_ga0_gb1_gc20.0_ge0000000000_gh_gf_gg_gd10000000_ha70.70_hb49.1.0.99_hc0.41.0.0.41.0_hd32.1.49.49_ia_if_ib_id_ic_jc_ie_ja_jb_jd_je_jf_jg_ka_kb_kc_kd_ke_kf_la_lb_oa_os_ob_oc_od_oe_of_lc_m0_n0_s0_og_oh_oo_op_oq_or_om_on_ok_ol_oi_oj_ad0.0.0.0.0.0.0.0.0.0
3-egging=40**aa21.54.1.12.13.21.54.1.12.13_ab_ac_ba50_bb47.1_bc150.500.8.0.1_bd47_be180_ca47.0.40.88.17.34.86.46.21_cb0_daD7A07B.0.0.100_db_dd0.1.16.22.22_dhD7A07B.30.50.50.0_di7_qa_qb_dc0.1.D7A07B.D7A07B.D7A07B_eh1.56_ea6.56.54.56.0.0_ec10.18.56.54.56.34.54.1_ed15.32.0.1.56.54_ef8.2.20.56.54.56_eg8.2.20.56.54.56_r0_fa22.80.100.18.52.57.56_fb9_fh_fc0.52.55.0.52.55.50.61.61.50.50.50_fd1.0.19.56.56_fe90.79_ff0000000000_fg3.62_pa0.0.0.0.0.50.85.68.0.0_t00.61.61.0.0.0.0.433.314.0_pb_pc_pd_pe_ga0_gb1_gc0.0_ge0000000000_gh_gf_gg_gd10000000_ha89.89_hb49.1.44.99_hc0.41.39.0.41.39_hd24.1.49.36_ia_if_ib_id_ic_jc_ie_ja_jb_jd_je_jf_jg_ka_kb_kc_kd_ke_kf_la_lb_oa_os_ob_oc_od_oe_of_lc_m0_n0_s0_og_oh_oo_op_oq_or_om_on_ok_ol_oi_oj_ad0.0.0.0.0.0.0.0.0.0
3-concerned=40**aa15.58.1.49.39.15.58.1.49.39_ab_ac_ba50_bb17.1_bc150.500.8.0.1_bd17_be180_ca47.0.40.88.17.34.86.46.21_cb0_daD7A07B.0.0.100_db_dd0.1.16.22.22_dhD7A07B.30.50.50.0_di7_qa_qb_dc0.1.D7A07B.D7A07B.D7A07B_eh1.56_ea6.56.54.56.0.0_ec10.18.56.54.56.34.54.1_ed15.32.0.1.56.54_ef8.2.20.56.54.56_eg8.2.20.56.54.56_r0_fa22.80.100.18.52.57.56_fb9_fh_fc0.52.55.0.52.55.50.61.61.50.50.50_fd1.0.19.56.56_fe90.79_ff0000000000_fg3.62_pa0.0.0.0.0.50.85.68.0.0_t00.61.61.0.0.0.0.433.314.0_pb_pc_pd_pe_ga0_gb1_gc0.0_ge0000000000_gh_gf_gg_gd10000000_ha90.90_hb49.1.31.99_hc0.19.25.0.19.25_hd38.1.49.49_ia_if_ib_id_ic_jc_ie_ja_jb_jd_je_jf_jg_ka_kb_kc_kd_ke_kf_la_lb_oa_os_ob_oc_od_oe_of_lc_m0_n0_s0_og_oh_oo_op_oq_or_om_on_ok_ol_oi_oj_ad0.0.0.0.0.0.0.0.0.0
3-chest=40**aa26.80.1.39.90.16.72.1.3.35_ab_ac_ba27_bb5.1_bc150.500.8.0.1_bd19_be177_ca47.0.40.88.17.34.86.46.21_cb0_daD7A07B.0.0.100_db_dd0.1.16.22.22_dhD7A07B.30.50.50.0_di7_qa_qb_dc0.1.D7A07B.D7A07B.D7A07B_eh1.56_ea6.56.54.56.0.0_ec10.18.56.54.56.34.54.1_ed15.32.0.1.56.54_ef8.2.20.56.54.56_eg8.2.20.56.54.56_r0_fa22.80.100.18.52.57.56_fb9_fh_fc0.52.55.0.52.55.50.61.61.50.50.50_fd1.0.19.56.56_fe90.79_ff0000000000_fg3.62_pa0.0.0.0.0.50.85.68.0.0_t00.61.61.0.0.0.0.433.314.0_pb_pc_pd_pe_ga0_gb1_gc0.0_ge0000000000_gh_gf_gg_gd10000000_ha76.0_hb49.1.44.99_hc0.41.23.0.41.0_hd59.1.49.32_ia_if_ib_id_ic_jc_ie_ja_jb_jd_je_jf_jg_ka_kb_kc_kd_ke_kf_la_lb_oa_os_ob_oc_od_oe_of_lc_m0_n0_s0_og_oh_oo_op_oq_or_om_on_ok_ol_oi_oj_ad0.0.0.0.0.0.0.0.0.0
3-encouraging=40**aa15.72.0.49.39.15.72.0.49.39_ab_ac_ba50_bb17.1_bc150.500.8.0.1_bd17_be180_ca47.0.40.88.17.34.86.46.21_cb0_daD7A07B.0.0.100_db_dd0.1.16.22.22_dhD7A07B.30.50.50.0_di7_qa_qb_dc0.1.D7A07B.D7A07B.D7A07B_eh1.56_ea6.56.54.56.0.0_ec10.18.56.54.56.34.54.1_ed15.32.0.1.56.54_ef8.2.20.56.54.56_eg8.2.20.56.54.56_r0_fa22.80.100.18.52.57.56_fb9_fh_fc0.52.55.0.52.55.50.61.61.50.50.50_fd1.0.19.56.56_fe90.79_ff0000000000_fg3.62_pa0.0.0.0.0.50.85.68.0.0_t00.61.61.0.0.0.0.433.314.0_pb_pc_pd_pe_ga0_gb1_gc0.0_ge0000000000_gh_gf_gg_gd10000000_ha89.89_hb49.1.44.99_hc0.29.39.0.29.39_hd23.1.38.49_ia_if_ib_id_ic_jc_ie_ja_jb_jd_je_jf_jg_ka_kb_kc_kd_ke_kf_la_lb_oa_os_ob_oc_od_oe_of_lc_m0_n0_s0_og_oh_oo_op_oq_or_om_on_ok_ol_oi_oj_ad0.0.0.0.0.0.0.0.0.0
3-praising=40**aa26.84.1.42.17.15.41.1.42.54_ab_ac_ba50_bb19.1_bc150.500.8.0.1_bd19_be180_ca47.0.40.88.17.34.86.46.21_cb0_daD7A07B.0.0.100_db_dd0.1.16.22.22_dhD7A07B.30.50.50.0_di7_qa_qb_dc0.1.D7A07B.D7A07B.D7A07B_eh1.56_ea6.56.54.56.0.0_ec10.18.56.54.56.34.54.1_ed15.32.0.1.56.54_ef8.2.20.56.54.56_eg8.2.20.56.54.56_r0_fa22.80.100.18.52.57.56_fb9_fh_fc0.52.55.0.52.55.50.61.61.50.50.50_fd1.0.19.56.56_fe90.79_ff0000000000_fg3.62_pa0.0.0.0.0.50.85.68.0.0_t00.61.61.0.0.0.0.433.314.0_pb_pc_pd_pe_ga0_gb1_gc0.0_ge0000000000_gh_gf_gg_gd10000000_ha89.89_hb49.1.44.99_hc0.41.39.0.41.39_hd23.1.60.30_ia_if_ib_id_ic_jc_ie_ja_jb_jd_je_jf_jg_ka_kb_kc_kd_ke_kf_la_lb_oa_os_ob_oc_od_oe_of_lc_m0_n0_s0_og_oh_oo_op_oq_or_om_on_ok_ol_oi_oj_ad0.0.0.0.0.0.0.0.0.0
3-loss=40**aa24.72.1.17.11.16.43.0.12.23_ab_ac_ba46_bb5.1_bc150.500.8.0.1_bd19_be177_ca47.0.40.88.17.34.86.46.21_cb0_daD7A07B.0.0.100_db_dd0.1.16.22.22_dhD7A07B.30.50.50.0_di7_qa_qb_dc0.1.D7A07B.D7A07B.D7A07B_eh1.56_ea6.56.54.56.0.0_ec10.18.56.54.56.34.54.1_ed15.32.0.1.56.54_ef8.2.20.56.54.56_eg8.2.20.56.54.56_r0_fa22.80.100.18.52.57.56_fb9_fh_fc0.52.55.0.52.55.50.61.61.50.50.50_fd1.0.19.56.56_fe90.79_ff0000000000_fg3.62_pa0.0.0.0.0.50.85.68.0.0_t00.61.61.0.0.0.0.433.314.0_pb_pc_pd_pe_ga0_gb1_gc6.0_ge0000000000_gh_gf_gg_gd10000000_ha72.72_hb49.1.44.99_hc0.41.21.0.41.21_hd35.1.49.32_ia_if_ib_id_ic_jc_ie_ja_jb_jd_je_jf_jg_ka_kb_kc_kd_ke_kf_la_lb_oa_os_ob_oc_od_oe_of_lc_m0_n0_s0_og_oh_oo_op_oq_or_om_on_ok_ol_oi_oj_ad0.0.0.0.0.0.0.0.0.0
3-starting=40**aa24.72.1.17.11.6.91.1.25.43_ab_ac_ba46_bb5.1_bc150.500.8.0.1_bd19_be177_ca47.0.40.88.17.34.86.46.21_cb0_daD7A07B.0.0.100_db_dd0.1.16.22.22_dhD7A07B.30.50.50.0_di7_qa_qb_dc0.1.D7A07B.D7A07B.D7A07B_eh1.56_ea6.56.54.56.0.0_ec10.18.56.54.56.34.54.1_ed15.32.0.1.56.54_ef8.2.20.56.54.56_eg8.2.20.56.54.56_r0_fa22.80.100.18.52.57.56_fb9_fh_fc0.52.55.0.52.55.50.61.61.50.50.50_fd1.0.19.56.56_fe90.79_ff0000000000_fg3.62_pa0.0.0.0.0.50.85.68.0.0_t00.61.61.0.0.0.0.433.314.0_pb_pc_pd_pe_ga0_gb1_gc6.0_ge0000000000_gh_gf_gg_gd10000000_ha82.82_hb49.1.44.99_hc0.41.31.0.41.31_hd25.1.49.32_ia_if_ib_id_ic_jc_ie_ja_jb_jd_je_jf_jg_ka_kb_kc_kd_ke_kf_la_lb_oa_os_ob_oc_od_oe_of_lc_m0_n0_s0_og_oh_oo_op_oq_or_om_on_ok_ol_oi_oj_ad0.0.0.0.0.0.0.0.0.0
3-victory=40**aa23.82.1.8.100.84.28.1.29.68_ab_ac_ba46_bb5.1_bc150.500.8.0.1_bd19_be177_ca47.0.40.88.17.34.86.46.21_cb0_daD7A07B.0.0.100_db_dd0.1.16.22.22_dhD7A07B.30.50.50.0_di7_qa_qb_dc0.1.D7A07B.D7A07B.D7A07B_eh1.56_ea6.56.54.56.0.0_ec10.18.56.54.56.34.54.1_ed15.32.0.1.56.54_ef8.2.20.56.54.56_eg8.2.20.56.54.56_r0_fa22.80.100.18.52.57.56_fb9_fh_fc0.52.55.0.52.55.50.61.61.50.50.50_fd1.0.19.56.56_fe90.79_ff0000000000_fg3.62_pa0.0.0.0.0.50.85.68.0.0_t00.61.61.0.0.0.0.433.314.0_pb_pc_pd_pe_ga0_gb1_gc0.0_ge0000000000_gh_gf_gg_gd10000000_ha82.82_hb100.1.100.99_hc0.41.31.0.41.31_hd39.1.49.32_ia_if_ib_id_ic_jc_ie_ja_jb_jd_je_jf_jg_ka_kb_kc_kd_ke_kf_la_lb_oa_os_ob_oc_od_oe_of_lc_m0_n0_s0_og_oh_oo_op_oq_or_om_on_ok_ol_oi_oj_ad0.0.0.0.0.0.0.0.0.0

4-interested=40**aa7.91.1.25.41.16.43.0.33.0_ab_ac_ba46_bb5.1_bc150.500.8.0.1_bd19_be177_ca47.0.40.88.17.34.86.46.21_cb0_daD7A07B.0.0.100_db_dd0.1.16.22.22_dhD7A07B.30.50.50.0_di7_qa_qb_dc20.1.D7A07B.D7A07B.D7A07B_eh1.56_ea6.56.54.56.0.0_ec10.18.56.54.56.34.54.1_ed15.32.0.1.56.54_ef8.2.20.56.54.56_eg8.2.20.56.54.56_r0_fa22.80.100.18.52.57.56_fb9_fh_fc0.52.55.0.52.55.50.61.61.50.50.50_fd1.0.19.56.56_fe90.79_ff0000000000_fg3.62_pa0.0.0.0.0.50.85.68.0.0_t00.61.61.0.0.0.0.433.314.0_pb_pc_pd_pe_ga0_gb1_gc12.0_ge0000000000_gh_gf_gg_gd10000000_ha72.72_hb49.1.44.99_hc0.41.39.0.41.39_hd35.1.49.32_ia_if_ib_id_ic_jc_ie_ja_jb_jd_je_jf_jg_ka_kb_kc_kd_ke_kf_la_lb_oa_os_ob_oc_od_oe_of_lc_m0_n0_s0_og_oh_oo_op_oq_or_om_on_ok_ol_oi_oj_ad0.0.0.0.0.0.0.0.0.0
4-egging=40**aa21.54.1.12.13.6.88.1.25.68_ab_ac_ba50_bb47.1_bc150.500.8.0.1_bd47_be180_ca47.0.40.88.17.34.86.46.21_cb0_daD7A07B.0.0.100_db_dd0.1.16.22.22_dhD7A07B.30.50.50.0_di7_qa_qb_dc20.1.D7A07B.D7A07B.D7A07B_eh1.56_ea6.56.54.56.0.0_ec10.18.56.54.56.34.54.1_ed15.32.0.1.56.54_ef8.2.20.56.54.56_eg8.2.20.56.54.56_r0_fa22.80.100.18.52.57.56_fb9_fh_fc0.52.55.0.52.55.50.61.61.50.50.50_fd1.0.19.56.56_fe90.79_ff0000000000_fg3.62_pa0.0.0.0.0.50.85.68.0.0_t00.61.61.0.0.0.0.433.314.0_pb_pc_pd_pe_ga0_gb1_gc0.0_ge0000000000_gh_gf_gg_gd10000000_ha89.89_hb49.1.44.99_hc0.41.39.0.41.39_hd24.1.49.36_ia_if_ib_id_ic_jc_ie_ja_jb_jd_je_jf_jg_ka_kb_kc_kd_ke_kf_la_lb_oa_os_ob_oc_od_oe_of_lc_m0_n0_s0_og_oh_oo_op_oq_or_om_on_ok_ol_oi_oj_ad0.0.0.0.0.0.0.0.0.0
4-sad=40**aa15.72.1.49.39.15.72.1.49.39_ab_ac_ba50_bb17.1_bc150.500.8.0.1_bd17_be180_ca47.0.40.88.17.34.86.46.21_cb0_daD7A07B.0.0.100_db_dd0.1.16.22.22_dhD7A07B.30.50.50.0_di7_qa_qb_dc20.1.D7A07B.D7A07B.D7A07B_eh1.56_ea6.56.54.56.0.0_ec10.18.56.54.56.34.54.1_ed15.32.0.1.56.54_ef8.2.20.56.54.56_eg8.2.20.56.54.56_r0_fa22.80.100.18.52.57.56_fb9_fh_fc0.52.55.0.52.55.50.61.61.50.50.50_fd1.0.19.56.56_fe90.79_ff0000000000_fg3.62_pa0.0.0.0.0.50.85.68.0.0_t00.61.61.0.0.0.0.433.314.0_pb_pc_pd_pe_ga0_gb1_gc0.0_ge0000000000_gh_gf_gg_gd10000000_ha89.89_hb49.1.0.99_hc4.41.39.4.41.39_hd5.1.49.49_ia_if_ib_id_ic_jc_ie_ja_jb_jd_je_jf_jg_ka_kb_kc_kd_ke_kf_la_lb_oa_os_ob_oc_od_oe_of_lc_m0_n0_s0_og_oh_oo_op_oq_or_om_on_ok_ol_oi_oj_ad0.0.0.0.0.0.0.0.0.0
4-annoyed=40**aa27.80.1.4.68.27.80.1.4.68_ab_ac_ba72_bb17.1_bc150.500.8.0.1_bd17_be180_ca47.0.40.88.17.34.86.46.21_cb0_daD7A07B.0.0.100_db_dd0.1.16.22.22_dhD7A07B.30.50.50.0_di7_qa_qb_dc20.1.D7A07B.D7A07B.D7A07B_eh1.56_ea6.56.54.56.0.0_ec10.18.56.54.56.34.54.1_ed15.32.0.1.56.54_ef8.2.20.56.54.56_eg8.2.20.56.54.56_r0_fa22.80.100.18.52.57.56_fb9_fh_fc0.52.55.0.52.55.50.61.61.50.50.50_fd1.0.19.56.56_fe90.79_ff0000000000_fg3.62_pa0.0.0.0.0.50.85.68.0.0_t00.61.61.0.0.0.0.433.314.0_pb_pc_pd_pe_ga0_gb1_gc0.0_ge0000000000_gh_gf_gg_gd10000000_ha70.70_hb49.1.44.99_hc0.10.17.0.10.17_hd21.1.49.49_ia_if_ib_id_ic_jc_ie_ja_jb_jd_je_jf_jg_ka_kb_kc_kd_ke_kf_la_lb_oa_os_ob_oc_od_oe_of_lc_m0_n0_s0_og_oh_oo_op_oq_or_om_on_ok_ol_oi_oj_ad0.0.0.0.0.0.0.0.0.0
4-horny=40**aa21.56.1.45.9.6.88.1.24.86_ab_ac_ba43_bb45.1_bc150.500.8.0.1_bd48_be173_ca47.0.40.88.17.34.86.46.21_cb0_daD7A07B.0.0.100_db_dd0.1.16.22.22_dhD7A07B.30.50.50.0_di7_qa_qb_dc24.1.D7A07B.D7A07B.D7A07B_eh1.56_ea6.56.54.56.0.0_ec10.18.56.54.56.34.54.1_ed15.32.0.1.56.54_ef8.2.20.56.54.56_eg8.2.20.56.54.56_r0_fa22.80.100.18.52.57.56_fb9_fh_fc0.52.55.0.52.55.50.61.61.50.50.50_fd1.0.19.56.56_fe90.79_ff0000000000_fg3.62_pa0.0.0.0.0.50.85.68.0.0_t00.61.61.0.0.0.0.433.314.0_pb_pc_pd_pe_ga0_gb1_gc20.0_ge0000000000_gh_gf_gg_gd10000000_ha70.70_hb49.1.0.99_hc0.41.0.0.41.0_hd32.1.49.49_ia_if_ib_id_ic_jc_ie_ja_jb_jd_je_jf_jg_ka_kb_kc_kd_ke_kf_la_lb_oa_os_ob_oc_od_oe_of_lc_m0_n0_s0_og_oh_oo_op_oq_or_om_on_ok_ol_oi_oj_ad0.0.0.0.0.0.0.0.0.0
4-happy=40**aa6.92.1.25.45.16.52.0.17.86_ab_ac_ba46_bb5.1_bc150.500.8.0.1_bd19_be177_ca47.0.40.88.17.34.86.46.21_cb0_daD7A07B.0.0.100_db_dd0.1.16.22.22_dhD7A07B.30.50.50.0_di7_qa_qb_dc19.1.D7A07B.D7A07B.D7A07B_eh1.56_ea6.56.54.56.0.0_ec10.18.56.54.56.34.54.1_ed15.32.0.1.56.54_ef8.2.20.56.54.56_eg8.2.20.56.54.56_r0_fa22.80.100.18.52.57.56_fb9_fh_fc0.52.55.0.52.55.50.61.61.50.50.50_fd1.0.19.56.56_fe90.79_ff0000000000_fg3.62_pa0.0.0.0.0.50.85.68.0.0_t00.61.61.0.0.0.0.433.314.0_pb_pc_pd_pe_ga0_gb1_gc0.0_ge0000000000_gh_gf_gg_gd10000000_ha89.89_hb49.1.44.99_hc0.41.39.0.41.39_hd34.1.49.32_ia_if_ib_id_ic_jc_ie_ja_jb_jd_je_jf_jg_ka_kb_kc_kd_ke_kf_la_lb_oa_os_ob_oc_od_oe_of_lc_m0_n0_s0_og_oh_oo_op_oq_or_om_on_ok_ol_oi_oj_ad0.0.0.0.0.0.0.0.0.0
4-approving=40**aa24.84.1.8.92.6.92.1.25.45_ab_ac_ba46_bb17.1_bc150.500.8.0.1_bd19_be178_ca47.0.40.88.17.34.86.46.21_cb0_daD7A07B.0.0.100_db_dd0.1.16.22.22_dhD7A07B.30.50.50.0_di7_qa_qb_dc20.1.D7A07B.D7A07B.D7A07B_eh1.56_ea6.56.54.56.0.0_ec10.18.56.54.56.34.54.1_ed15.32.0.1.56.54_ef8.2.20.56.54.56_eg8.2.20.56.54.56_r0_fa22.80.100.18.52.57.56_fb9_fh_fc0.52.55.0.52.55.50.61.61.50.50.50_fd1.0.19.56.56_fe90.79_ff0000000000_fg3.62_pa0.0.0.0.0.50.85.68.0.0_t00.61.61.0.0.0.0.433.314.0_pb_pc_pd_pe_ga0_gb1_gc0.0_ge0000000000_gh_gf_gg_gd10000000_ha70.70_hb49.1.44.99_hc0.33.43.0.33.43_hd39.1.49.49_ia_if_ib_id_ic_jc_ie_ja_jb_jd_je_jf_jg_ka_kb_kc_kd_ke_kf_la_lb_oa_os_ob_oc_od_oe_of_lc_m0_n0_s0_og_oh_oo_op_oq_or_om_on_ok_ol_oi_oj_ad0.0.0.0.0.0.0.0.0.0
4-playful=40**aa11.86.1.24.82.12.52.1.49.66_ab_ac_ba46_bb45.1_bc150.500.8.0.1_bd22_be177_ca47.0.40.88.17.34.86.46.21_cb0_daD7A07B.0.0.100_db_dd0.1.16.22.22_dhD7A07B.30.50.50.0_di7_qa_qb_dc20.1.D7A07B.D7A07B.D7A07B_eh1.56_ea6.56.54.56.0.0_ec10.18.56.54.56.34.54.1_ed15.32.0.1.56.54_ef8.2.20.56.54.56_eg8.2.20.56.54.56_r0_fa22.80.100.18.52.57.56_fb9_fh_fc0.52.55.0.52.55.50.61.61.50.50.50_fd1.0.19.56.56_fe90.79_ff0000000000_fg3.62_pa0.0.0.0.0.50.85.68.0.0_t00.61.61.0.0.0.0.433.314.0_pb_pc_pd_pe_ga0_gb1_gc7.0_ge0000000000_gh_gf_gg_gd10000000_ha70.70_hb49.1.44.99_hc0.41.39.0.41.39_hd35.1.49.49_ia_if_ib_id_ic_jc_ie_ja_jb_jd_je_jf_jg_ka_kb_kc_kd_ke_kf_la_lb_oa_os_ob_oc_od_oe_of_lc_m0_n0_s0_og_oh_oo_op_oq_or_om_on_ok_ol_oi_oj_ad0.0.0.0.0.0.0.0.0.0
4-tired=40**aa11.86.1.24.82.75.31.1.48.66_ab_ac_ba86_bb45.1_bc150.500.8.0.1_bd22_be177_ca47.0.40.88.17.34.86.46.21_cb0_daD7A07B.0.0.100_db_dd0.1.16.22.22_dhD7A07B.30.50.50.0_di7_qa_qb_dc31.1.D7A07B.D7A07B.D7A07B_eh1.56_ea6.56.54.56.0.0_ec10.18.56.54.56.34.54.1_ed15.32.0.1.56.54_ef8.2.20.56.54.56_eg8.2.20.56.54.56_r0_fa22.80.100.18.52.57.56_fb9_fh_fc0.52.55.0.52.55.50.61.61.50.50.50_fd1.0.19.56.56_fe90.79_ff0000000000_fg3.62_pa0.0.0.0.0.50.85.68.0.0_t00.61.61.0.0.0.0.433.314.0_pb_pc_pd_pe_ga0_gb1_gc77.0_ge0000000000_gh_gf_gg_gd10110010_ha79.79_hb49.1.76.49_hc2.99.29.2.99.29_hd39.1.39.39_ia_if_ib_id_ic_jc_ie_ja_jb_jd_je_jf_jg_ka_kb_kc_kd_ke_kf_la_lb_oa_os_ob_oc_od_oe_of_lc_m0_n0_s0_og_oh_oo_op_oq_or_om_on_ok_ol_oi_oj_ad0.0.0.0.0.0.0.0.0.0
4-cooky=40**aa11.86.1.24.82.75.31.1.48.66_ab_ac_ba100_bb45.1_bc150.500.8.0.1_bd22_be177_ca47.0.40.88.17.34.86.46.21_cb0_daD7A07B.0.0.100_db_dd0.1.16.22.22_dhD7A07B.30.50.50.0_di7_qa_qb_dc31.1.D7A07B.D7A07B.D7A07B_eh1.56_ea6.56.54.56.0.0_ec10.18.56.54.56.34.54.1_ed15.32.0.1.56.54_ef8.2.20.56.54.56_eg8.2.20.56.54.56_r0_fa22.80.100.18.52.57.56_fb9_fh_fc0.52.55.0.52.55.50.61.61.50.50.50_fd1.0.19.56.56_fe90.79_ff0000000000_fg3.62_pa0.0.0.0.0.50.85.68.0.0_t00.61.61.0.0.0.0.433.314.0_pb_pc_pd_pe_ga0_gb1_gc0.0_ge0000000000_gh_gf_gg6.55.50.50.50.1_gd10100000_ha89.89_hb49.1.50.99_hc0.59.39.0.59.39_hd75.1.49.49_ia_if_ib_id_ic_jc_ie_ja_jb_jd_je_jf_jg_ka_kb_kc_kd_ke_kf_la_lb_oa_os_ob_oc_od_oe_of_lc_m0_n0_s0_og_oh_oo_op_oq_or_om_on_ok_ol_oi_oj_ad0.0.0.0.0.0.0.0.0.0
4-teasing=40**aa7.88.1.25.70.15.41.1.34.96_ab_ac_ba72_bb17.1_bc150.500.8.0.1_bd17_be180_ca47.0.40.88.17.34.86.46.21_cb0_daD7A07B.0.0.100_db_dd0.1.16.22.22_dhD7A07B.30.50.50.0_di7_qa_qb_dc20.1.D7A07B.D7A07B.D7A07B_eh1.56_ea6.56.54.56.0.0_ec10.18.56.54.56.34.54.1_ed15.32.0.1.56.54_ef8.2.20.56.54.56_eg8.2.20.56.54.56_r0_fa22.80.100.18.52.57.56_fb9_fh_fc0.52.55.0.52.55.50.61.61.50.50.50_fd1.0.19.56.56_fe90.79_ff0000000000_fg3.62_pa0.0.0.0.0.50.85.68.0.0_t00.61.61.0.0.0.0.433.314.0_pb_pc_pd_pe_ga0_gb1_gc0.0_ge0000000000_gh_gf_gg_gd10000000_ha89.0_hb49.1.44.99_hc0.41.39.0.41.39_hd19.1.49.49_ia_if_ib_id_ic_jc_ie_ja_jb_jd_je_jf_jg_ka_kb_kc_kd_ke_kf_la_lb_oa_os_ob_oc_od_oe_of_lc_m0_n0_s0_og_oh_oo_op_oq_or_om_on_ok_ol_oi_oj_ad0.0.0.0.0.0.0.0.0.0
4-encouraging=40**aa7.91.1.49.39.15.45.1.42.49_ab_ac_ba50_bb17.1_bc150.500.8.0.1_bd17_be180_ca47.0.40.88.17.34.86.46.21_cb0_daD7A07B.0.0.100_db_dd0.1.16.22.22_dhD7A07B.30.50.50.0_di7_qa_qb_dc20.1.D7A07B.D7A07B.D7A07B_eh1.56_ea6.56.54.56.0.0_ec10.18.56.54.56.34.54.1_ed15.32.0.1.56.54_ef8.2.20.56.54.56_eg8.2.20.56.54.56_r0_fa22.80.100.18.52.57.56_fb9_fh_fc0.52.55.0.52.55.50.61.61.50.50.50_fd1.0.19.56.56_fe90.79_ff0000000000_fg3.62_pa0.0.0.0.0.50.85.68.0.0_t00.61.61.0.0.0.0.433.314.0_pb_pc_pd_pe_ga0_gb1_gc0.0_ge0000000000_gh_gf_gg_gd10000000_ha89.89_hb49.1.44.99_hc0.29.39.0.29.39_hd23.1.38.49_ia_if_ib_id_ic_jc_ie_ja_jb_jd_je_jf_jg_ka_kb_kc_kd_ke_kf_la_lb_oa_os_ob_oc_od_oe_of_lc_m0_n0_s0_og_oh_oo_op_oq_or_om_on_ok_ol_oi_oj_ad0.0.0.0.0.0.0.0.0.0
4-praising=40**aa26.84.1.42.17.13.86.1.24.62_ab_ac_ba50_bb19.1_bc150.500.8.0.1_bd19_be180_ca47.0.40.88.17.34.86.46.21_cb0_daD7A07B.0.0.100_db_dd0.1.16.22.22_dhD7A07B.30.50.50.0_di7_qa_qb_dc28.1.D7A07B.D7A07B.D7A07B_eh1.56_ea6.56.54.56.0.0_ec10.18.56.54.56.34.54.1_ed15.32.0.1.56.54_ef8.2.20.56.54.56_eg8.2.20.56.54.56_r0_fa22.80.100.18.52.57.56_fb9_fh_fc0.52.55.0.52.55.50.61.61.50.50.50_fd1.0.19.56.56_fe90.79_ff0000000000_fg3.62_pa0.0.0.0.0.50.85.68.0.0_t00.61.61.0.0.0.0.433.314.0_pb_pc_pd_pe_ga0_gb1_gc0.0_ge0000000000_gh_gf_gg_gd10000000_ha89.89_hb49.1.44.99_hc0.41.39.0.41.39_hd23.1.60.30_ia_if_ib_id_ic_jc_ie_ja_jb_jd_je_jf_jg_ka_kb_kc_kd_ke_kf_la_lb_oa_os_ob_oc_od_oe_of_lc_m0_n0_s0_og_oh_oo_op_oq_or_om_on_ok_ol_oi_oj_ad0.0.0.0.0.0.0.0.0.0
4-masturbate1=40**aa26.54.1.49.45.13.86.1.24.62_ab_ac_ba50_bb47.1_bc150.500.8.0.1_bd47_be180_ca47.0.40.88.17.34.86.46.21_cb0_daD7A07B.0.0.100_db_dd0.1.16.22.22_dhD7A07B.30.50.50.0_di7_qa_qb_dc28.1.D7A07B.D7A07B.D7A07B_eh1.56_ea6.56.54.56.0.0_ec10.18.56.54.56.34.54.1_ed15.32.0.1.56.54_ef8.2.20.56.54.56_eg8.2.20.56.54.56_r0_fa22.80.100.18.52.57.56_fb9_fh_fc0.52.55.0.52.55.50.61.61.50.50.50_fd1.0.19.56.56_fe90.79_ff0000000000_fg3.62_pa0.0.0.0.0.50.85.68.0.0_t00.61.61.0.0.0.0.433.314.0_pb_pc_pd_pe_ga0_gb1_gc32.0_ge0000000000_gh_gf_gg_gd10000000_ha76.76_hb49.1.29.99_hc0.41.39.0.41.39_hd27.1.60.30_ia_if_ib_id_ic_jc_ie_ja_jb_jd_je_jf_jg_ka_kb_kc_kd_ke_kf_la_lb_oa_os_ob_oc_od_oe_of_lc_m0_n0_s0_og_oh_oo_op_oq_or_om_on_ok_ol_oi_oj_ad0.0.0.0.0.0.0.0.0.0
4-masturbate2=40**aa13.90.0.49.45.13.86.1.24.62_ab_ac_ba43_bb47.1_bc150.500.8.0.1_bd48_be177_ca47.0.40.88.17.34.86.46.21_cb0_daD7A07B.0.0.100_db_dd0.1.16.22.22_dhD7A07B.30.50.50.0_di7_qa_qb_dc28.1.D7A07B.D7A07B.D7A07B_eh1.56_ea6.56.54.56.0.0_ec10.18.56.54.56.34.54.1_ed15.32.0.1.56.54_ef8.2.20.56.54.56_eg8.2.20.56.54.56_r0_fa22.80.100.18.52.57.56_fb9_fh_fc0.52.55.0.52.55.50.61.61.50.50.50_fd1.0.19.56.56_fe90.79_ff0000000000_fg3.62_pa0.0.0.0.0.50.85.68.0.0_t00.61.61.0.0.0.0.433.314.0_pb_pc_pd_pe_ga0_gb1_gc32.0_ge0000000000_gh_gf_gg_gd10000000_ha76.76_hb49.1.0.99_hc0.17.39.0.17.39_hd21.1.60.30_ia_if_ib_id_ic_jc_ie_ja_jb_jd_je_jf_jg_ka_kb_kc_kd_ke_kf_la_lb_oa_os_ob_oc_od_oe_of_lc_m0_n0_s0_og_oh_oo_op_oq_or_om_on_ok_ol_oi_oj_ad0.0.0.0.0.0.0.0.0.0
4-masturbate3=40**aa11.90.1.49.45.13.86.1.21.62_ab_ac_ba50_bb47.1_bc150.500.8.0.1_bd47_be180_ca47.0.40.88.17.34.86.46.21_cb0_daD7A07B.0.0.100_db_dd0.1.16.22.22_dhD7A07B.30.50.50.0_di7_qa_qb_dc28.1.D7A07B.D7A07B.D7A07B_eh1.56_ea6.56.54.56.0.0_ec10.18.56.54.56.34.54.1_ed15.32.0.1.56.54_ef8.2.20.56.54.56_eg8.2.20.56.54.56_r0_fa22.80.100.18.52.57.56_fb9_fh_fc0.52.55.0.52.55.50.61.61.50.50.50_fd1.0.19.56.56_fe90.79_ff0000000000_fg3.62_pa0.0.0.0.0.50.85.68.0.0_t00.61.61.0.0.0.0.433.314.0_pb_pc_pd_pe_ga0_gb1_gc32.0_ge0000000000_gh_gf_gg_gd10000000_ha90.90_hb49.1.50.99_hc0.39.39.0.39.39_hd23.1.60.30_ia_if_ib_id_ic_jc_ie_ja_jb_jd_je_jf_jg_ka_kb_kc_kd_ke_kf_la_lb_oa_os_ob_oc_od_oe_of_lc_m0_n0_s0_og_oh_oo_op_oq_or_om_on_ok_ol_oi_oj_ad0.0.0.0.0.0.0.0.0.0
4-masturbate4=40**aa1.67.1.49.45.11.86.1.22.80_ab_ac_ba54_bb47.1_bc150.500.8.0.1_bd48_be177_ca47.0.40.88.17.34.86.46.21_cb0_daD7A07B.0.0.100_db_dd0.1.16.22.22_dhD7A07B.30.50.50.0_di7_qa_qb_dc28.1.D7A07B.D7A07B.D7A07B_eh1.56_ea6.56.54.56.0.0_ec10.18.56.54.56.34.54.1_ed15.32.0.1.56.54_ef8.2.20.56.54.56_eg8.2.20.56.54.56_r0_fa22.80.100.18.52.57.56_fb9_fh_fc0.52.55.0.52.55.50.61.61.50.50.50_fd1.0.19.56.56_fe90.79_ff0000000000_fg3.62_pa0.0.0.0.0.50.85.68.0.0_t00.61.61.0.0.0.0.433.314.0_pb_pc_pd_pe_ga0_gb1_gc32.0_ge0000000000_gh_gf_gg_gd10000000_ha74.74_hb49.1.50.99_hc0.39.13.0.39.13_hd16.1.60.30_ia_if_ib_id_ic_jc_ie_ja_jb_jd_je_jf_jg_ka_kb_kc_kd_ke_kf_la_lb_oa_os_ob_oc_od_oe_of_lc_m0_n0_s0_og_oh_oo_op_oq_or_om_on_ok_ol_oi_oj_ad0.0.0.0.0.0.0.0.0.0
4-heavy=40**aa6.92.1.49.45.7.88.1.17.11_ab_ac_ba54_bb58.1_bc150.500.8.0.1_bd50_be190_ca47.0.40.88.17.34.86.46.21_cb0_daD7A07B.0.0.100_db_dd0.1.16.22.22_dhD7A07B.30.50.50.0_di7_qa_qb_dc38.1.D7A07B.D7A07B.D7A07B_eh1.56_ea6.56.54.56.0.0_ec10.18.56.54.56.34.54.1_ed15.32.0.1.56.54_ef8.2.20.56.54.56_eg8.2.20.56.54.56_r0_fa22.80.100.18.52.57.56_fb9_fh_fc0.52.55.0.52.55.50.61.61.50.50.50_fd1.0.19.56.56_fe90.79_ff0000000000_fg3.62_pa0.0.0.0.0.50.85.68.0.0_t00.61.61.0.0.0.0.433.314.0_pb_pc_pd_pe_ga0_gb1_gc59.0_ge0000000000_gh_gf_gg_gd10110000_ha82.82_hb49.1.80.79_hc3.99.45.4.99.45_hd60.1.44.34_ia_if_ib_id_ic_jc_ie_ja_jb_jd_je_jf_jg_ka_kb_kc_kd_ke_kf_la_lb_oa_os_ob_oc_od_oe_of_lc_m0_n0_s0_og_oh_oo_op_oq_or_om_on_ok_ol_oi_oj_ad0.0.0.0.0.0.0.0.0.0
4-concerned=40**aa15.58.1.49.39.15.58.1.49.39_ab_ac_ba50_bb17.1_bc150.500.8.0.1_bd17_be180_ca47.0.40.88.17.34.86.46.21_cb0_daD7A07B.0.0.100_db_dd0.1.16.22.22_dhD7A07B.30.50.50.0_di7_qa_qb_dc28.1.D7A07B.D7A07B.D7A07B_eh1.56_ea6.56.54.56.0.0_ec10.18.56.54.56.34.54.1_ed15.32.0.1.56.54_ef8.2.20.56.54.56_eg8.2.20.56.54.56_r0_fa22.80.100.18.52.57.56_fb9_fh_fc0.52.55.0.52.55.50.61.61.50.50.50_fd1.0.19.56.56_fe90.79_ff0000000000_fg3.62_pa0.0.0.0.0.50.85.68.0.0_t00.61.61.0.0.0.0.433.314.0_pb_pc_pd_pe_ga0_gb1_gc0.0_ge0000000000_gh_gf_gg_gd10000000_ha90.90_hb49.1.31.99_hc0.19.25.0.19.25_hd38.1.49.49_ia_if_ib_id_ic_jc_ie_ja_jb_jd_je_jf_jg_ka_kb_kc_kd_ke_kf_la_lb_oa_os_ob_oc_od_oe_of_lc_m0_n0_s0_og_oh_oo_op_oq_or_om_on_ok_ol_oi_oj_ad0.0.0.0.0.0.0.0.0.0
4-finishing=40**aa15.92.1.3.62.15.92.1.3.62_ab_ac_ba68_bb58.1_bc150.500.8.0.1_bd58_be180_ca47.0.40.88.17.34.86.46.21_cb0_daD7A07B.0.0.100_db_dd0.1.16.22.22_dhD7A07B.30.50.50.0_di7_qa_qb_dc50.1.D7A07B.D7A07B.D7A07B_eh1.56_ea6.56.54.56.0.0_ec10.18.56.54.56.34.54.1_ed15.32.0.1.56.54_ef8.2.20.56.54.56_eg8.2.20.56.54.56_r0_fa22.80.100.18.52.57.56_fb9_fh_fc0.52.55.0.52.55.50.61.61.50.50.50_fd1.0.19.56.56_fe90.79_ff0000000000_fg3.62_pa0.0.0.0.0.50.85.68.0.0_t00.61.61.0.0.0.0.433.314.0_pb_pc_pd_pe_ga0_gb1_gc80.0_ge0000000000_gh_gf_gg_gd10000000_ha100.100_hb100.0.100.66_hc0.86.70.0.86.70_hd24.1.49.49_ia_if_ib_id_ic_jc_ie_ja_jb_jd_je_jf_jg_ka_kb_kc_kd_ke_kf_la_lb_oa_os_ob_oc_od_oe_of_lc_m0_n0_s0_og_oh_oo_op_oq_or_om_on_ok_ol_oi_oj_ad0.0.0.0.0.0.0.0.0.0

5-teasing=40**aa7.88.0.25.70.15.41.1.33.19_ab_ac_ba72_bb17.1_bc150.500.8.0.1_bd17_be180_ca47.0.40.88.17.34.86.46.21_cb0_daD7A07B.0.0.100_db_dd0.1.16.22.22_dhD7A07B.30.50.50.0_di7_qa_qb_dc40.1.D7A07B.D7A07B.D7A07B_eh1.56_ea6.56.54.56.0.0_ec10.18.56.54.56.34.54.1_ed15.32.0.1.56.54_ef8.2.20.56.54.56_eg8.2.20.56.54.56_r0_fa22.80.100.18.52.57.56_fb9_fh_fc0.52.55.0.52.55.50.61.61.50.50.50_fd1.0.19.56.56_fe90.79_ff0000000000_fg3.62_pa0.0.0.0.0.50.85.68.0.0_t00.61.61.0.0.0.0.433.314.0_pb_pc_pd_pe_ga0_gb1_gc0.0_ge0000000000_gh_gf_gg_gd10000000_ha89.0_hb49.1.44.99_hc0.41.39.0.41.39_hd19.1.49.49_ia_if_ib_id_ic_jc_ie_ja_jb_jd_je_jf_jg_ka_kb_kc_kd_ke_kf_la_lb_oa_os_ob_oc_od_oe_of_lc_m0_n0_s0_og_oh_oo_op_oq_or_om_on_ok_ol_oi_oj_ad0.0.0.0.0.0.0.0.0.0
5-angry=40**aa13.72.1.0.41.13.72.1.0.41_ab_ac_ba50_bb17.1_bc150.500.8.0.1_bd17_be180_ca47.0.40.88.17.34.86.46.21_cb0_daD7A07B.0.0.100_db_dd0.1.16.22.22_dhD7A07B.30.50.50.0_di7_qa_qb_dc40.1.D7A07B.D7A07B.D7A07B_eh1.56_ea6.56.54.56.0.0_ec10.18.56.54.56.34.54.1_ed15.32.0.1.56.54_ef8.2.20.56.54.56_eg8.2.20.56.54.56_r0_fa22.80.100.18.52.57.56_fb9_fh_fc0.52.55.0.52.55.50.61.61.50.50.50_fd1.0.19.56.56_fe90.79_ff0000000000_fg3.62_pa0.0.0.0.0.50.85.68.0.0_t00.61.61.0.0.0.0.433.314.0_pb_pc_pd_pe_ga0_gb1_gc0.0_ge0000000000_gh_gf_gg_gd10000000_ha86.86_hb49.1.44.99_hc3.23.39.3.23.39_hd38.1.49.49_ia_if_ib_id_ic_jc_ie_ja_jb_jd_je_jf_jg_ka_kb_kc_kd_ke_kf_la_lb_oa_os_ob_oc_od_oe_of_lc_m0_n0_s0_og_oh_oo_op_oq_or_om_on_ok_ol_oi_oj_ad0.0.0.0.0.0.0.0.0.0
5-annoyed=40**aa15.92.1.8.94.13.44.1.27.41_ab_ac_ba47_bb17.1_bc150.500.8.0.1_bd19_be178_ca47.0.40.88.17.34.86.46.21_cb0_daD7A07B.0.0.100_db_dd0.1.16.22.22_dhD7A07B.30.50.50.0_di7_qa_qb_dc40.1.D7A07B.D7A07B.D7A07B_eh1.56_ea6.56.54.56.0.0_ec10.18.56.54.56.34.54.1_ed15.32.0.1.56.54_ef8.2.20.56.54.56_eg8.2.20.56.54.56_r0_fa22.80.100.18.52.57.56_fb9_fh_fc0.52.55.0.52.55.50.61.61.50.50.50_fd1.0.19.56.56_fe90.79_ff0000000000_fg3.62_pa0.0.0.0.0.50.85.68.0.0_t00.61.61.0.0.0.0.433.314.0_pb_pc_pd_pe_ga0_gb1_gc0.0_ge0000000000_gh_gf_gg_gd10000000_ha86.86_hb92.1.100.99_hc0.47.39.0.47.39_hd38.1.49.49_ia_if_ib_id_ic_jc_ie_ja_jb_jd_je_jf_jg_ka_kb_kc_kd_ke_kf_la_lb_oa_os_ob_oc_od_oe_of_lc_m0_n0_s0_og_oh_oo_op_oq_or_om_on_ok_ol_oi_oj_ad0.0.0.0.0.0.0.0.0.0
5-sarcastic=40**aa9.76.1.6.23.9.76.1.6.23_ab_ac_ba47_bb17.1_bc150.500.8.0.1_bd19_be178_ca47.0.40.88.17.34.86.46.21_cb0_daD7A07B.0.0.100_db_dd0.1.16.22.22_dhD7A07B.30.50.50.0_di7_qa_qb_dc40.1.D7A07B.D7A07B.D7A07B_eh1.56_ea6.56.54.56.0.0_ec10.18.56.54.56.34.54.1_ed15.32.0.1.56.54_ef8.2.20.56.54.56_eg8.2.20.56.54.56_r0_fa22.80.100.18.52.57.56_fb9_fh_fc0.52.55.0.52.55.50.61.61.50.50.50_fd1.0.19.56.56_fe90.79_ff0000000000_fg3.62_pa0.0.0.0.0.50.85.68.0.0_t00.61.61.0.0.0.0.433.314.0_pb_pc_pd_pe_ga0_gb1_gc0.0_ge0000000000_gh_gf_gg_gd10000000_ha86.86_hb100.1.100.99_hc0.47.56.0.47.56_hd39.1.49.49_ia_if_ib_id_ic_jc_ie_ja_jb_jd_je_jf_jg_ka_kb_kc_kd_ke_kf_la_lb_oa_os_ob_oc_od_oe_of_lc_m0_n0_s0_og_oh_oo_op_oq_or_om_on_ok_ol_oi_oj_ad0.0.0.0.0.0.0.0.0.0
5-happy=40**aa16.90.1.8.96.16.52.0.17.86_ab_ac_ba46_bb5.1_bc150.500.8.0.1_bd19_be177_ca47.0.40.88.17.34.86.46.21_cb0_daD7A07B.0.0.100_db_dd0.1.16.22.22_dhD7A07B.30.50.50.0_di7_qa_qb_dc39.1.D7A07B.D7A07B.D7A07B_eh1.56_ea6.56.54.56.0.0_ec10.18.56.54.56.34.54.1_ed15.32.0.1.56.54_ef8.2.20.56.54.56_eg8.2.20.56.54.56_r0_fa22.80.100.18.52.57.56_fb9_fh_fc0.52.55.0.52.55.50.61.61.50.50.50_fd1.0.19.56.56_fe90.79_ff0000000000_fg3.62_pa0.0.0.0.0.50.85.68.0.0_t00.61.61.0.0.0.0.433.314.0_pb_pc_pd_pe_ga0_gb1_gc0.0_ge0000000000_gh_gf_gg_gd10000000_ha89.89_hb49.1.44.99_hc0.41.39.0.41.39_hd34.1.49.32_ia_if_ib_id_ic_jc_ie_ja_jb_jd_je_jf_jg_ka_kb_kc_kd_ke_kf_la_lb_oa_os_ob_oc_od_oe_of_lc_m0_n0_s0_og_oh_oo_op_oq_or_om_on_ok_ol_oi_oj_ad0.0.0.0.0.0.0.0.0.0
5-approving=40**aa24.84.1.8.92.97.82.1.25.45_ab_ac_ba46_bb17.1_bc150.500.8.0.1_bd19_be178_ca47.0.40.88.17.34.86.46.21_cb0_daD7A07B.0.0.100_db_dd0.1.16.22.22_dhD7A07B.30.50.50.0_di7_qa_qb_dc47.1.D7A07B.D7A07B.D7A07B_eh1.56_ea6.56.54.56.0.0_ec10.18.56.54.56.34.54.1_ed15.32.0.1.56.54_ef8.2.20.56.54.56_eg8.2.20.56.54.56_r0_fa22.80.100.18.52.57.56_fb9_fh_fc0.52.55.0.52.55.50.61.61.50.50.50_fd1.0.19.56.56_fe90.79_ff0000000000_fg3.62_pa0.0.0.0.0.50.85.68.0.0_t00.61.61.0.0.0.0.433.314.0_pb_pc_pd_pe_ga0_gb1_gc0.0_ge0000000000_gh_gf_gg_gd10000000_ha70.70_hb49.1.44.99_hc0.33.43.0.33.43_hd35.1.49.49_ia_if_ib_id_ic_jc_ie_ja_jb_jd_je_jf_jg_ka_kb_kc_kd_ke_kf_la_lb_oa_os_ob_oc_od_oe_of_lc_m0_n0_s0_og_oh_oo_op_oq_or_om_on_ok_ol_oi_oj_ad0.0.0.0.0.0.0.0.0.0
5-egging=40**aa21.54.1.12.13.21.54.1.12.13_ab_ac_ba50_bb47.1_bc150.500.8.0.1_bd47_be180_ca47.0.40.88.17.34.86.46.21_cb0_daD7A07B.0.0.100_db_dd0.1.16.22.22_dhD7A07B.30.50.50.0_di7_qa_qb_dc40.1.D7A07B.D7A07B.D7A07B_eh1.56_ea6.56.54.56.0.0_ec10.18.56.54.56.34.54.1_ed15.32.0.1.56.54_ef8.2.20.56.54.56_eg8.2.20.56.54.56_r0_fa22.80.100.18.52.57.56_fb9_fh_fc0.52.55.0.52.55.50.61.61.50.50.50_fd1.0.19.56.56_fe90.79_ff0000000000_fg3.62_pa0.0.0.0.0.50.85.68.0.0_t00.61.61.0.0.0.0.433.314.0_pb_pc_pd_pe_ga0_gb1_gc0.0_ge0000000000_gh_gf_gg_gd10000000_ha89.89_hb49.1.44.99_hc0.41.39.0.41.39_hd24.1.49.36_ia_if_ib_id_ic_jc_ie_ja_jb_jd_je_jf_jg_ka_kb_kc_kd_ke_kf_la_lb_oa_os_ob_oc_od_oe_of_lc_m0_n0_s0_og_oh_oo_op_oq_or_om_on_ok_ol_oi_oj_ad0.0.0.0.0.0.0.0.0.0
5-tired=40**aa21.71.0.12.13.21.71.0.12.13_ab_ac_ba76_bb43.1_bc150.500.8.0.1_bd43_be180_ca47.0.40.88.17.34.86.46.21_cb0_daD7A07B.0.0.100_db_dd0.1.16.22.22_dhD7A07B.30.50.50.0_di7_qa_qb_dc40.1.D7A07B.D7A07B.D7A07B_eh1.56_ea6.56.54.56.0.0_ec10.18.56.54.56.34.54.1_ed15.32.0.1.56.54_ef8.2.20.56.54.56_eg8.2.20.56.54.56_r0_fa22.80.100.18.52.57.56_fb9_fh_fc0.52.55.0.52.55.50.61.61.50.50.50_fd1.0.19.56.56_fe90.79_ff0000000000_fg3.62_pa0.0.0.0.0.50.85.68.0.0_t00.61.61.0.0.0.0.433.314.0_pb_pc_pd_pe_ga0_gb1_gc0.0_ge0000000000_gh_gf_gg_gd10000000_ha70.70_hb100.1.100.99_hc0.41.0.0.41.0_hd39.1.49.36_ia_if_ib_id_ic_jc_ie_ja_jb_jd_je_jf_jg_ka_kb_kc_kd_ke_kf_la_lb_oa_os_ob_oc_od_oe_of_lc_m0_n0_s0_og_oh_oo_op_oq_or_om_on_ok_ol_oi_oj_ad0.0.0.0.0.0.0.0.0.0
5-concerned=40**aa15.58.1.49.39.15.58.1.49.39_ab_ac_ba50_bb17.1_bc150.500.8.0.1_bd17_be180_ca47.0.40.88.17.34.86.46.21_cb0_daD7A07B.0.0.100_db_dd0.1.16.22.22_dhD7A07B.30.50.50.0_di7_qa_qb_dc42.1.D7A07B.D7A07B.D7A07B_eh1.56_ea6.56.54.56.0.0_ec10.18.56.54.56.34.54.1_ed15.32.0.1.56.54_ef8.2.20.56.54.56_eg8.2.20.56.54.56_r0_fa22.80.100.18.52.57.56_fb9_fh_fc0.52.55.0.52.55.50.61.61.50.50.50_fd1.0.19.56.56_fe90.79_ff0000000000_fg3.62_pa0.0.0.0.0.50.85.68.0.0_t00.61.61.0.0.0.0.433.314.0_pb_pc_pd_pe_ga0_gb1_gc0.0_ge0000000000_gh_gf_gg_gd10000000_ha90.90_hb49.1.31.99_hc0.19.25.0.19.25_hd38.1.49.49_ia_if_ib_id_ic_jc_ie_ja_jb_jd_je_jf_jg_ka_kb_kc_kd_ke_kf_la_lb_oa_os_ob_oc_od_oe_of_lc_m0_n0_s0_og_oh_oo_op_oq_or_om_on_ok_ol_oi_oj_ad0.0.0.0.0.0.0.0.0.0
5-bored=40**aa21.71.0.12.13.21.41.1.12.100_ab_ac_ba76_bb43.1_bc150.500.8.0.1_bd43_be180_ca47.0.40.88.17.34.86.46.21_cb0_daD7A07B.0.0.100_db_dd0.1.16.22.22_dhD7A07B.30.50.50.0_di7_qa_qb_dc40.1.D7A07B.D7A07B.D7A07B_eh1.56_ea6.56.54.56.0.0_ec10.18.56.54.56.34.54.1_ed15.32.0.1.56.54_ef8.2.20.56.54.56_eg8.2.20.56.54.56_r0_fa22.80.100.18.52.57.56_fb9_fh_fc0.52.55.0.52.55.50.61.61.50.50.50_fd1.0.19.56.56_fe90.79_ff0000000000_fg3.62_pa0.0.0.0.0.50.85.68.0.0_t00.61.61.0.0.0.0.433.314.0_pb_pc_pd_pe_ga0_gb1_gc0.0_ge0000000000_gh_gf_gg_gd10000000_ha70.70_hb100.1.100.99_hc0.41.0.0.41.0_hd38.1.49.36_ia_if_ib_id_ic_jc_ie_ja_jb_jd_je_jf_jg_ka_kb_kc_kd_ke_kf_la_lb_oa_os_ob_oc_od_oe_of_lc_m0_n0_s0_og_oh_oo_op_oq_or_om_on_ok_ol_oi_oj_ad0.0.0.0.0.0.0.0.0.0
5-shocked=40**aa88.31.0.4.86.78.54.1.28.1_ab_ac_ba46_bb5.1_bc150.500.8.0.1_bd19_be177_ca47.0.40.88.17.34.86.46.21_cb0_daD7A07B.0.0.100_db_dd0.1.16.22.22_dhD7A07B.30.50.50.0_di7_qa_qb_dc40.1.D7A07B.D7A07B.D7A07B_eh1.56_ea6.56.54.56.0.0_ec10.18.56.54.56.34.54.1_ed15.32.0.1.56.54_ef8.2.20.56.54.56_eg8.2.20.56.54.56_r0_fa22.80.100.18.52.57.56_fb9_fh_fc0.52.55.0.52.55.50.61.61.50.50.50_fd1.0.19.56.56_fe90.79_ff0000000000_fg3.62_pa0.0.0.0.0.50.85.68.0.0_t00.61.61.0.0.0.0.433.314.0_pb_pc_pd_pe_ga0_gb0_gc0.0_ge0000000000_gh_gf_gg_gd10000000_ha100.100_hb49.1.0.99_hc0.64.72.0.64.72_hd33.1.49.49_ia_if_ib_id_ic_jc_ie_ja_jb_jd_je_jf_jg_ka_kb_kc_kd_ke_kf_la_lb_oa_os_ob_oc_od_oe_of_lc_m0_n0_s0_og_oh_oo_op_oq_or_om_on_ok_ol_oi_oj_ad0.0.0.0.0.0.0.0.0.0
5-chest=40**aa26.80.1.39.90.16.72.1.3.35_ab_ac_ba27_bb5.1_bc150.500.8.0.1_bd19_be177_ca47.0.40.88.17.34.86.46.21_cb0_daD7A07B.0.0.100_db_dd0.1.16.22.22_dhD7A07B.30.50.50.0_di7_qa_qb_dc45.1.D7A07B.D7A07B.D7A07B_eh1.56_ea6.56.54.56.0.0_ec10.18.56.54.56.34.54.1_ed15.32.0.1.56.54_ef8.2.20.56.54.56_eg8.2.20.56.54.56_r0_fa22.80.100.18.52.57.56_fb9_fh_fc0.52.55.0.52.55.50.61.61.50.50.50_fd1.0.19.56.56_fe90.79_ff0000000000_fg3.62_pa0.0.0.0.0.50.85.68.0.0_t00.61.61.0.0.0.0.433.314.0_pb_pc_pd_pe_ga0_gb1_gc0.0_ge0000000000_gh_gf_gg_gd10000000_ha76.0_hb49.1.44.99_hc0.41.23.0.41.0_hd59.1.49.32_ia_if_ib_id_ic_jc_ie_ja_jb_jd_je_jf_jg_ka_kb_kc_kd_ke_kf_la_lb_oa_os_ob_oc_od_oe_of_lc_m0_n0_s0_og_oh_oo_op_oq_or_om_on_ok_ol_oi_oj_ad0.0.0.0.0.0.0.0.0.0
5-finished=40**aa92.13.0.11.100.92.13.0.11.100_ab_ac_ba50_bb15.1_bc150.500.8.0.1_bd49_be168_ca47.0.40.88.17.34.86.46.21_cb0_daD7A07B.0.0.100_db_dd0.1.16.22.22_dhD7A07B.30.50.50.0_di7_qa_qb_dc42.1.D7A07B.D7A07B.D7A07B_eh1.56_ea6.56.54.56.0.0_ec10.18.56.54.56.34.54.1_ed15.32.0.1.56.54_ef8.2.20.56.54.56_eg8.2.20.56.54.56_r0_fa22.80.100.18.52.57.56_fb9_fh_fc0.52.55.0.52.55.50.61.61.50.50.50_fd1.0.19.56.56_fe90.79_ff0000000000_fg3.62_pa0.0.0.0.0.50.85.68.0.0_t00.61.61.0.0.0.0.433.314.0_pb_pc_pd_pe_ga0_gb1_gc0.0_ge0000000000_gh_gf_gg_gd10000000_ha74.74_hb49.1.44.99_hc0.41.39.0.41.39_hd0.1.49.49_ia_if_ib_id_ic_jc_ie_ja_jb_jd_je_jf_jg_ka_kb_kc_kd_ke_kf_la_lb_oa_os_ob_oc_od_oe_of_lc_m0_n0_s0_og_oh_oo_op_oq_or_om_on_ok_ol_oi_oj_ad0.0.0.0.0.0.0.0.0.0
5-defeat=40**aa21.52.1.17.68.21.52.1.17.68_ab_ac_ba61_bb0.1_bc150.500.8.0.1_bd0_be180_ca47.0.40.88.17.34.86.46.21_cb0_daD7A07B.0.0.100_db_dd0.1.16.22.22_dhD7A07B.30.50.50.0_di7_qa_qb_dc46.1.D7A07B.D7A07B.D7A07B_eh1.56_ea6.56.54.56.0.0_ec10.18.56.54.56.34.54.1_ed15.32.0.1.56.54_ef8.2.20.56.54.56_eg8.2.20.56.54.56_r0_fa22.80.100.18.52.57.56_fb9_fh_fc0.52.55.0.52.55.50.61.61.50.50.50_fd1.0.19.56.56_fe90.79_ff0000000000_fg3.62_pa0.0.0.0.0.50.85.68.0.0_t00.61.61.0.0.0.0.433.314.0_pb_pc_pd_pe_ga0_gb1_gc0.0_ge0000000000_gh_gf_gg_gd10000000_ha89.6_hb49.1.44.99_hc0.29.50.0.29.7_hd25.1.38.40_ia_if_ib_id_ic_jc_ie_ja_jb_jd_je_jf_jg_ka_kb_kc_kd_ke_kf_la_lb_oa_os_ob_oc_od_oe_of_lc_m0_n0_s0_og_oh_oo_op_oq_or_om_on_ok_ol_oi_oj_ad0.0.0.0.0.0.0.0.0.0
5-encouraging=40**aa15.72.0.49.39.15.72.0.49.39_ab_ac_ba50_bb17.1_bc150.500.8.0.1_bd17_be180_ca47.0.40.88.17.34.86.46.21_cb0_daD7A07B.0.0.100_db_dd0.1.16.22.22_dhD7A07B.30.50.50.0_di7_qa_qb_dc46.1.D7A07B.D7A07B.D7A07B_eh1.56_ea6.56.54.56.0.0_ec10.18.56.54.56.34.54.1_ed15.32.0.1.56.54_ef8.2.20.56.54.56_eg8.2.20.56.54.56_r0_fa22.80.100.18.52.57.56_fb9_fh_fc0.52.55.0.52.55.50.61.61.50.50.50_fd1.0.19.56.56_fe90.79_ff0000000000_fg3.62_pa0.0.0.0.0.50.85.68.0.0_t00.61.61.0.0.0.0.433.314.0_pb_pc_pd_pe_ga0_gb1_gc0.0_ge0000000000_gh_gf_gg_gd10000000_ha89.89_hb49.1.44.99_hc0.29.39.0.29.39_hd23.1.38.49_ia_if_ib_id_ic_jc_ie_ja_jb_jd_je_jf_jg_ka_kb_kc_kd_ke_kf_la_lb_oa_os_ob_oc_od_oe_of_lc_m0_n0_s0_og_oh_oo_op_oq_or_om_on_ok_ol_oi_oj_ad0.0.0.0.0.0.0.0.0.0
