#default emotions - lux




#fully clothed
0-loss=47**aa11.99.1.0.50.11.99.1.0.50_ab_ac_ba50_bb4.1_bc150.500.8.0.1_bd4_be180_ca54.0.21.54.0.0.24.0.0_cb0_da1.0.0.100_db_dd0.1.28.34.8.50_dh1.12.50.50.0_di7_qa_qb_dc0.3.1.1.1_eh1.56_ea34.Ecc457.ECC457.56.1.0_ec_ed4.8.1.1.Ecc457.56_ef_eg_r0052.Ecc457.Ecc457.56.0.1.42.42.5.413.453.0_fa7.57.68.60.50.50.56_fb_fh_fc2.7EA5EB.55.2.7EA5EB.55.34.24.24.50.50.50_fd1.0.19.Ecc457.56_fe56.56_ff0000000000_fg1.54_pa0.0.0.0.40.50.85.85.0.0_t00_pb_pc_pd_pe_ga0_gb1_gc0.0_ge0000000000_gh_gf_gg_gd10000000_ha78.78_hb50.1.50.78_hc3.58.82.3.58.82_hd10.1.57.28_ia_if_ib_id_ic_jc_ie_ja_jb_jd2.19.19.2e273a_je2.19.19.2e273a_jf_jg_ka11.19.43.43.0_kb11.19.43.43_kc_kd_ke_kf_la11.B0B2B7.55.0.1_lb_oa_os_ob_oc_od_oe_of_lc_m00_n00_s00_og_oh_oo_op_oq_or_om_on_ok_ol_oi_oj_ad0.0.0.0.0.0.0.0.0.0
0-shocked=47**aa6.52.1.26.50.6.52.1.26.50_ab_ac_ba50_bb6.1_bc150.500.8.0.1_bd6_be180_ca54.0.21.54.0.0.24.0.0_cb0_da1.0.0.100_db_dd0.1.28.34.8.50_dh1.12.50.50.0_di7_qa_qb_dc0.3.1.1.1_eh1.56_ea34.Ecc457.ECC457.56.1.0_ec_ed4.8.1.1.Ecc457.56_ef_eg_r0052.Ecc457.Ecc457.56.0.1.42.42.5.413.453.0_fa7.57.68.60.50.50.56_fb_fh_fc2.7EA5EB.55.2.7EA5EB.55.34.24.24.50.50.50_fd1.0.19.Ecc457.56_fe56.56_ff0000000000_fg1.54_pa0.0.0.0.40.50.85.85.0.0_t00_pb_pc_pd_pe_ga0_gb1_gc0.0_ge0000000000_gh_gf_gg_gd10000000_ha89.89_hb50.1.50.42_hc0.50.92.0.50.92_hd26.1.18.34_ia_if_ib_id_ic_jc_ie_ja_jb_jd2.19.19.2e273a_je2.19.19.2e273a_jf_jg_ka11.19.43.43.0_kb11.19.43.43_kc_kd_ke_kf_la11.B0B2B7.55.0.1_lb_oa_os_ob_oc_od_oe_of_lc_m00_n00_s00_og_oh_oo_op_oq_or_om_on_ok_ol_oi_oj_ad0.0.0.0.0.0.0.0.0.0
0-sad=47**aa11.99.1.0.50.11.99.1.0.50_ab_ac_ba50_bb4.1_bc150.500.8.0.1_bd4_be180_ca54.0.21.54.0.0.24.0.0_cb0_da1.0.0.100_db_dd0.1.28.34.8.50_dh1.12.50.50.0_di7_qa_qb_dc0.3.1.1.1_eh1.56_ea34.Ecc457.ECC457.56.1.0_ec_ed4.8.1.1.Ecc457.56_ef_eg_r0052.Ecc457.Ecc457.56.0.1.42.42.5.413.453.0_fa7.57.68.60.50.50.56_fb_fh_fc2.7EA5EB.55.2.7EA5EB.55.34.24.24.50.50.50_fd1.0.19.Ecc457.56_fe56.56_ff0000000000_fg1.54_pa0.0.0.0.40.50.85.85.0.0_t00_pb_pc_pd_pe_ga0_gb1_gc0.0_ge0000000000_gh_gf_gg_gd10000000_ha29.29_hb50.1.41.100_hc3.91.0.3.91.0_hd4.1.26.69_ia_if_ib_id_ic_jc_ie_ja_jb_jd2.19.19.2e273a_je2.19.19.2e273a_jf_jg_ka11.19.43.43.0_kb11.19.43.43_kc_kd_ke_kf_la11.B0B2B7.55.0.1_lb_oa_os_ob_oc_od_oe_of_lc_m00_n00_s00_og_oh_oo_op_oq_or_om_on_ok_ol_oi_oj_ad0.0.0.0.0.0.0.0.0.0
0-interested=47**aa11.96.1.47.50.11.96.1.47.50_ab_ac_ba56_bb0.1_bc150.500.8.0.1_bd0_be180_ca54.0.21.54.0.0.24.0.0_cb0_da1.0.0.100_db_dd0.1.28.34.8.50_dh1.12.50.50.0_di7_qa_qb_dc0.3.1.1.1_eh1.56_ea34.Ecc457.ECC457.56.1.0_ec_ed4.8.1.1.Ecc457.56_ef_eg_r0052.Ecc457.Ecc457.56.0.1.42.42.5.413.453.0_fa7.57.68.60.50.50.56_fb_fh_fc2.7EA5EB.55.2.7EA5EB.55.34.24.24.50.50.50_fd1.0.19.Ecc457.56_fe56.56_ff0000000000_fg1.54_pa0.0.0.0.40.50.85.85.0.0_t00_pb_pc_pd_pe_ga0_gb1_gc0.0_ge0000000000_gh_gf_gg_gd10000000_ha91.91_hb50.1.50.100_hc0.76.100.0.76.100_hd1.1.45.0_ia_if_ib_id_ic_jc_ie_ja_jb_jd2.19.19.2e273a_je2.19.19.2e273a_jf_jg_ka11.19.43.43.0_kb11.19.43.43_kc_kd_ke_kf_la11.B0B2B7.55.0.1_lb_oa_os_ob_oc_od_oe_of_lc_m00_n00_s00_og_oh_oo_op_oq_or_om_on_ok_ol_oi_oj_ad0.0.0.0.0.0.0.0.0.0
0-calm=47**aa11.99.1.0.50.11.99.1.0.50_ab_ac_ba50_bb4.1_bc150.500.8.0.1_bd4_be180_ca54.0.21.54.0.0.24.0.0_cb0_da1.0.0.100_db_dd0.1.28.34.8.50_dh1.12.50.50.0_di7_qa_qb_dc0.3.1.1.1_eh1.56_ea34.Ecc457.ECC457.56.1.0_ec_ed4.8.1.1.Ecc457.56_ef_eg_r0052.Ecc457.Ecc457.56.0.1.42.42.5.413.453.0_fa7.57.68.60.50.50.56_fb_fh_fc2.7EA5EB.55.2.7EA5EB.55.34.24.24.50.50.50_fd1.0.19.Ecc457.56_fe56.56_ff0000000000_fg1.54_pa0.0.0.0.40.50.85.85.0.0_t00_pb_pc_pd_pe_ga0_gb1_gc0.0_ge0000000000_gh_gf_gg_gd10000000_ha89.89_hb50.1.50.100_hc0.50.50.0.50.50_hd0.1.68.8_ia_if_ib_id_ic_jc_ie_ja_jb_jd2.19.19.2e273a_je2.19.19.2e273a_jf_jg_ka11.19.43.43.0_kb11.19.43.43_kc_kd_ke_kf_la11.B0B2B7.55.0.1_lb_oa_os_ob_oc_od_oe_of_lc_m00_n00_s00_og_oh_oo_op_oq_or_om_on_ok_ol_oi_oj_ad0.0.0.0.0.0.0.0.0.0
0-horny=47**aa10.89.0.0.50.10.89.0.0.50_ab_ac_ba50_bb7.1_bc150.500.8.0.1_bd7_be180_ca54.0.21.54.0.0.24.0.0_cb0_da1.0.0.100_db_dd0.1.28.34.8.50_dh1.12.50.50.0_di7_qa_qb_dc0.3.1.1.1_eh1.56_ea34.Ecc457.ECC457.56.1.0_ec_ed4.8.1.1.Ecc457.56_ef_eg_r0052.Ecc457.Ecc457.56.0.1.42.42.5.413.453.0_fa7.57.68.60.50.50.56_fb_fh_fc2.7EA5EB.55.2.7EA5EB.55.34.24.24.50.50.50_fd1.0.19.Ecc457.56_fe56.56_ff0000000000_fg1.54_pa0.0.0.0.40.50.85.85.0.0_t00_pb_pc_pd_pe_ga0_gb1_gc0.0_ge0000000000_gh_gf_gg_gd10000000_ha65.65_hb50.1.34.100_hc0.47.66.0.47.66_hd35.1.17.29_ia_if_ib_id_ic_jc_ie_ja_jb_jd2.19.19.2e273a_je2.19.19.2e273a_jf_jg_ka11.19.43.43.0_kb11.19.43.43_kc_kd_ke_kf_la11.B0B2B7.55.0.1_lb_oa_os_ob_oc_od_oe_of_lc_m00_n00_s00_og_oh_oo_op_oq_or_om_on_ok_ol_oi_oj_ad0.0.0.0.0.0.0.0.0.0
0-happy=47**aa79.32.0.40.50.79.32.0.40.50_ab_ac_ba41_bb4.1_bc150.500.8.0.1_bd57_be180_ca54.0.21.54.0.0.24.0.0_cb0_da1.0.0.100_db_dd0.1.28.34.8.50_dh1.12.50.50.0_di7_qa_qb_dc0.3.1.1.1_eh1.56_ea34.Ecc457.ECC457.56.1.0_ec_ed4.8.1.1.Ecc457.56_ef_eg_r0052.Ecc457.Ecc457.56.0.1.42.42.5.413.453.0_fa7.57.68.60.50.50.56_fb_fh_fc2.7EA5EB.55.2.7EA5EB.55.34.24.24.50.50.50_fd1.0.19.Ecc457.56_fe56.56_ff0000000000_fg1.54_pa0.0.0.0.40.50.85.85.0.0_t00_pb_pc_pd_pe_ga0_gb1_gc0.0_ge0000000000_gh_gf_gg_gd10000000_ha86.86_hb50.1.50.100_hc0.50.100.0.50.100_hd25.1.47.40_ia_if_ib_id_ic_jc_ie_ja_jb_jd2.19.19.2e273a_je2.19.19.2e273a_jf_jg_ka11.19.43.43.0_kb11.19.43.43_kc_kd_ke_kf_la11.B0B2B7.55.0.1_lb_oa_os_ob_oc_od_oe_of_lc_m00_n00_s00_og_oh_oo_op_oq_or_om_on_ok_ol_oi_oj_ad0.0.0.0.0.0.0.0.0.0
0-embarrassed=47**aa7.88.1.42.50.12.81.1.42.50_ab_ac_ba50_bb43.1_bc150.500.8.0.1_bd43_be180_ca54.0.21.54.0.0.24.0.0_cb0_da1.0.0.100_db_dd13.1.28.34.8.50_dh1.12.50.50.0_di7_qa_qb_dc0.3.1.1.1_eh1.56_ea34.Ecc457.ECC457.56.1.0_ec_ed4.8.1.1.Ecc457.56_ef_eg_r0052.Ecc457.Ecc457.56.0.1.42.42.5.413.453.0_fa7.57.68.60.50.50.56_fb_fh_fc2.7EA5EB.55.2.7EA5EB.55.34.24.24.50.50.50_fd1.0.19.Ecc457.56_fe56.56_ff0000000000_fg1.54_pa0.0.0.0.40.50.85.85.0.0_t00_pb_pc_pd_pe_ga0_gb1_gc0.0_ge0000000000_gh_gf_gg_gd10000000_ha82.82_hb71.1.31.74_hc0.67.83.0.67.83_hd8.1.47.28_ia_if_ib_id_ic_jc_ie_ja_jb_jd2.19.19.2e273a_je2.19.19.2e273a_jf_jg_ka11.19.43.43.0_kb11.19.43.43_kc_kd_ke_kf_la11.B0B2B7.55.0.1_lb_oa_os_ob_oc_od_oe_of_lc_m00_n00_s00_og_oh_oo_op_oq_or_om_on_ok_ol_oi_oj_ad0.0.0.0.0.0.0.0.0.0

#lost pants
1-loss=47**aa13.71.1.16.50.13.71.1.16.50_ab_ac_ba50_bb1.1_bc150.500.8.0.1_bd1_be180_ca54.0.21.54.0.0.24.0.0_cb0_da1.0.0.100_db_dd0.1.28.34.8.50_dh1.12.50.50.0_di7_qa_qb_dc0.3.1.1.1_eh1.56_ea34.Ecc457.ECC457.56.1.0_ec_ed4.8.1.1.Ecc457.56_ef_eg_r0052.Ecc457.Ecc457.56.0.1.42.42.5.413.453.0_fa7.57.68.60.50.50.56_fb_fh_fc2.7EA5EB.55.2.7EA5EB.55.34.24.24.50.50.50_fd1.0.19.Ecc457.56_fe56.56_ff0000000000_fg1.54_pa0.0.0.0.40.50.85.85.0.0_t00_pb_pc_pd_pe_ga0_gb1_gc30.0_ge0000000000_gh_gf_gg_gd10000000_ha78.78_hb50.1.50.78_hc3.58.82.3.58.82_hd10.1.57.28_ia_if_ib_id_ic_jc_ie_ja_jb_jd_je_jf_jg_ka11.19.43.43.0_kb11.19.43.43_kc_kd_ke_kf_la11.B0B2B7.55.0.1_lb_oa_os_ob_oc_od_oe_of_lc_m00_n00_s00_og_oh_oo_op_oq_or_om_on_ok_ol_oi_oj_ad0.0.0.0.0.0.0.0.0.0
1-shocked=47**aa6.52.1.26.50.6.52.1.26.50_ab_ac_ba50_bb6.1_bc150.500.8.0.1_bd6_be180_ca54.0.21.54.0.0.24.0.0_cb0_da1.0.0.100_db_dd0.1.28.34.8.50_dh1.12.50.50.0_di7_qa_qb_dc0.3.1.1.1_eh1.56_ea34.Ecc457.ECC457.56.1.0_ec_ed4.8.1.1.Ecc457.56_ef_eg_r0052.Ecc457.Ecc457.56.0.1.42.42.5.413.453.0_fa7.57.68.60.50.50.56_fb_fh_fc2.7EA5EB.55.2.7EA5EB.55.34.24.24.50.50.50_fd1.0.19.Ecc457.56_fe56.56_ff0000000000_fg1.54_pa0.0.0.0.40.50.85.85.0.0_t00_pb_pc_pd_pe_ga0_gb1_gc30.0_ge0000000000_gh_gf_gg_gd10000000_ha89.89_hb50.1.50.42_hc0.50.92.0.50.92_hd26.1.18.34_ia_if_ib_id_ic_jc_ie_ja_jb_jd_je_jf_jg_ka11.19.43.43.0_kb11.19.43.43_kc_kd_ke_kf_la11.B0B2B7.55.0.1_lb_oa_os_ob_oc_od_oe_of_lc_m00_n00_s00_og_oh_oo_op_oq_or_om_on_ok_ol_oi_oj_ad0.0.0.0.0.0.0.0.0.0
1-sad=47**aa9.98.1.17.50.9.98.1.17.50_ab_ac_ba50_bb3.1_bc150.500.8.0.1_bd3_be180_ca54.0.21.54.0.0.24.0.0_cb0_da1.0.0.100_db_dd0.1.28.34.8.50_dh1.12.50.50.0_di7_qa_qb_dc0.3.1.1.1_eh1.56_ea34.Ecc457.ECC457.56.1.0_ec_ed4.8.1.1.Ecc457.56_ef_eg_r0052.Ecc457.Ecc457.56.0.1.42.42.5.413.453.0_fa7.57.68.60.50.50.56_fb_fh_fc2.7EA5EB.55.2.7EA5EB.55.34.24.24.50.50.50_fd1.0.19.Ecc457.56_fe56.56_ff0000000000_fg1.54_pa0.0.0.0.40.50.85.85.0.0_t00_pb_pc_pd_pe_ga0_gb1_gc30.0_ge0000000000_gh_gf_gg_gd10000000_ha29.29_hb50.1.41.100_hc3.91.0.3.91.0_hd4.1.26.69_ia_if_ib_id_ic_jc_ie_ja_jb_jd_je_jf_jg_ka11.19.43.43.0_kb11.19.43.43_kc_kd_ke_kf_la11.B0B2B7.55.0.1_lb_oa_os_ob_oc_od_oe_of_lc_m00_n00_s00_og_oh_oo_op_oq_or_om_on_ok_ol_oi_oj_ad0.0.0.0.0.0.0.0.0.0
1-interested=47**aa11.95.1.47.50.11.95.1.47.50_ab_ac_ba56_bb0.1_bc150.500.8.0.1_bd0_be180_ca54.0.21.54.0.0.24.0.0_cb0_da1.0.0.100_db_dd0.1.28.34.8.50_dh1.12.50.50.0_di7_qa_qb_dc0.3.1.1.1_eh1.56_ea34.Ecc457.ECC457.56.1.0_ec_ed4.8.1.1.Ecc457.56_ef_eg_r0052.Ecc457.Ecc457.56.0.1.42.42.5.413.453.0_fa7.57.68.60.50.50.56_fb_fh_fc2.7EA5EB.55.2.7EA5EB.55.34.24.24.50.50.50_fd1.0.19.Ecc457.56_fe56.56_ff0000000000_fg1.54_pa0.0.0.0.40.50.85.85.0.0_t00_pb_pc_pd_pe_ga0_gb1_gc20.0_ge0000000000_gh_gf_gg_gd10000000_ha91.91_hb50.1.50.100_hc0.76.100.0.76.100_hd1.1.45.0_ia_if_ib_id_ic_jc_ie_ja_jb_jd_je_jf_jg_ka11.19.43.43.0_kb11.19.43.43_kc_kd_ke_kf_la11.B0B2B7.55.0.1_lb_oa_os_ob_oc_od_oe_of_lc_m00_n00_s00_og_oh_oo_op_oq_or_om_on_ok_ol_oi_oj_ad0.0.0.0.0.0.0.0.0.0
1-calm=47**aa9.99.1.0.50.9.99.1.0.50_ab_ac_ba50_bb4.1_bc150.500.8.0.1_bd4_be180_ca54.0.21.54.0.0.24.0.0_cb0_da1.0.0.100_db_dd0.1.28.34.8.50_dh1.12.50.50.0_di7_qa_qb_dc0.3.1.1.1_eh1.56_ea34.Ecc457.ECC457.56.1.0_ec_ed4.8.1.1.Ecc457.56_ef_eg_r0052.Ecc457.Ecc457.56.0.1.42.42.5.413.453.0_fa7.57.68.60.50.50.56_fb_fh_fc2.7EA5EB.55.2.7EA5EB.55.34.24.24.50.50.50_fd1.0.19.Ecc457.56_fe56.56_ff0000000000_fg1.54_pa0.0.0.0.40.50.85.85.0.0_t00_pb_pc_pd_pe_ga0_gb1_gc30.0_ge0000000000_gh_gf_gg_gd10000000_ha89.89_hb50.1.50.100_hc0.50.50.0.50.50_hd0.1.68.8_ia_if_ib_id_ic_jc_ie_ja_jb_jd_je_jf_jg_ka11.19.43.43.0_kb11.19.43.43_kc_kd_ke_kf_la11.B0B2B7.55.0.1_lb_oa_os_ob_oc_od_oe_of_lc_m00_n00_s00_og_oh_oo_op_oq_or_om_on_ok_ol_oi_oj_ad0.0.0.0.0.0.0.0.0.0
1-horny=47**aa10.89.0.0.50.10.89.0.0.50_ab_ac_ba50_bb7.1_bc150.500.8.0.1_bd7_be180_ca54.0.21.54.0.0.24.0.0_cb0_da1.0.0.100_db_dd0.1.28.34.8.50_dh1.12.50.50.0_di7_qa_qb_dc0.3.1.1.1_eh1.56_ea34.Ecc457.ECC457.56.1.0_ec_ed4.8.1.1.Ecc457.56_ef_eg_r0052.Ecc457.Ecc457.56.0.1.42.42.5.413.453.0_fa7.57.68.60.50.50.56_fb_fh_fc2.7EA5EB.55.2.7EA5EB.55.34.24.24.50.50.50_fd1.0.19.Ecc457.56_fe56.56_ff0000000000_fg1.54_pa0.0.0.0.40.50.85.85.0.0_t00_pb_pc_pd_pe_ga0_gb1_gc30.0_ge0000000000_gh_gf_gg_gd10000000_ha65.65_hb50.1.34.100_hc0.47.66.0.47.66_hd35.1.17.29_ia_if_ib_id_ic_jc_ie_ja_jb_jd_je_jf_jg_ka11.19.43.43.0_kb11.19.43.43_kc_kd_ke_kf_la11.B0B2B7.55.0.1_lb_oa_os_ob_oc_od_oe_of_lc_m00_n00_s00_og_oh_oo_op_oq_or_om_on_ok_ol_oi_oj_ad0.0.0.0.0.0.0.0.0.0
1-happy=47**aa79.32.0.40.50.79.32.0.40.50_ab_ac_ba41_bb4.1_bc150.500.8.0.1_bd57_be180_ca54.0.21.54.0.0.24.0.0_cb0_da1.0.0.100_db_dd0.1.28.34.8.50_dh1.12.50.50.0_di7_qa_qb_dc0.3.1.1.1_eh1.56_ea34.Ecc457.ECC457.56.1.0_ec_ed4.8.1.1.Ecc457.56_ef_eg_r0052.Ecc457.Ecc457.56.0.1.42.42.5.413.453.0_fa7.57.68.60.50.50.56_fb_fh_fc2.7EA5EB.55.2.7EA5EB.55.34.24.24.50.50.50_fd1.0.19.Ecc457.56_fe56.56_ff0000000000_fg1.54_pa0.0.0.0.40.50.85.85.0.0_t00_pb_pc_pd_pe_ga0_gb1_gc30.0_ge0000000000_gh_gf_gg_gd10000000_ha86.86_hb50.1.50.100_hc0.50.100.0.50.100_hd25.1.47.40_ia_if_ib_id_ic_jc_ie_ja_jb_jd_je_jf_jg_ka11.19.43.43.0_kb11.19.43.43_kc_kd_ke_kf_la11.B0B2B7.55.0.1_lb_oa_os_ob_oc_od_oe_of_lc_m00_n00_s00_og_oh_oo_op_oq_or_om_on_ok_ol_oi_oj_ad0.0.0.0.0.0.0.0.0.0
1-embarrassed=47**aa7.88.1.42.50.12.81.1.42.50_ab_ac_ba50_bb43.1_bc150.500.8.0.1_bd43_be180_ca54.0.21.54.0.0.24.0.0_cb0_da1.0.0.100_db_dd13.1.28.34.8.50_dh1.12.50.50.0_di7_qa_qb_dc0.3.1.1.1_eh1.56_ea34.Ecc457.ECC457.56.1.0_ec_ed4.8.1.1.Ecc457.56_ef_eg_r0052.Ecc457.Ecc457.56.0.1.42.42.5.413.453.0_fa7.57.68.60.50.50.56_fb_fh_fc2.7EA5EB.55.2.7EA5EB.55.34.24.24.50.50.50_fd1.0.19.Ecc457.56_fe56.56_ff0000000000_fg1.54_pa0.0.0.0.40.50.85.85.0.0_t00_pb_pc_pd_pe_ga0_gb1_gc30.0_ge0000000000_gh_gf_gg_gd10000000_ha82.82_hb71.1.31.74_hc0.67.83.0.67.83_hd8.1.47.28_ia_if_ib_id_ic_jc_ie_ja_jb_jd_je_jf_jg_ka11.19.43.43.0_kb11.19.43.43_kc_kd_ke_kf_la11.B0B2B7.55.0.1_lb_oa_os_ob_oc_od_oe_of_lc_m00_n00_s00_og_oh_oo_op_oq_or_om_on_ok_ol_oi_oj_ad0.0.0.0.0.0.0.0.0.0

#topless
2-loss=47**aa13.71.1.16.50.13.71.1.16.50_ab_ac_ba50_bb1.1_bc150.500.8.0.1_bd1_be180_ca54.0.21.54.0.0.24.0.0_cb0_da1.0.0.100_db_dd0.1.28.34.8.50_dh1.12.50.50.0_di7_qa_qb_dc0.3.1.1.1_eh1.56_ea34.Ecc457.ECC457.56.1.0_ec_ed4.8.1.1.Ecc457.56_ef_eg_r0052.Ecc457.Ecc457.56.0.1.42.42.5.413.453.0_fa7.57.68.60.50.50.56_fb_fh_fc2.7EA5EB.55.2.7EA5EB.55.34.24.24.50.50.50_fd1.0.19.Ecc457.56_fe56.56_ff0000000000_fg1.54_pa0.0.0.0.40.50.85.85.0.0_t00_pb_pc_pd_pe_ga0_gb1_gc40.0_ge0000000000_gh_gf_gg_gd10000000_ha78.78_hb50.1.50.78_hc3.58.82.3.58.82_hd10.1.57.28_ia_if_ib_id_ic_jc_ie_ja_jb_jd_je_jf_jg_ka_kb11.19.43.43_kc_kd_ke_kf_la11.B0B2B7.55.0.1_lb_oa_os_ob_oc_od_oe_of_lc_m00_n00_s00_og_oh_oo_op_oq_or_om_on_ok_ol_oi_oj_ad0.0.0.0.0.0.0.0.0.0
2-shocked=47**aa6.52.1.26.50.6.52.1.26.50_ab_ac_ba50_bb6.1_bc150.500.8.0.1_bd6_be180_ca54.0.21.54.0.0.24.0.0_cb0_da1.0.0.100_db_dd0.1.28.34.8.50_dh1.12.50.50.0_di7_qa_qb_dc0.3.1.1.1_eh1.56_ea34.Ecc457.ECC457.56.1.0_ec_ed4.8.1.1.Ecc457.56_ef_eg_r0052.Ecc457.Ecc457.56.0.1.42.42.5.413.453.0_fa7.57.68.60.50.50.56_fb_fh_fc2.7EA5EB.55.2.7EA5EB.55.34.24.24.50.50.50_fd1.0.19.Ecc457.56_fe56.56_ff0000000000_fg1.54_pa0.0.0.0.40.50.85.85.0.0_t00_pb_pc_pd_pe_ga0_gb1_gc40.0_ge0000000000_gh_gf_gg_gd10000000_ha89.89_hb50.1.50.42_hc0.50.92.0.50.92_hd26.1.18.34_ia_if_ib_id_ic_jc_ie_ja_jb_jd_je_jf_jg_ka_kb11.19.43.43_kc_kd_ke_kf_la11.B0B2B7.55.0.1_lb_oa_os_ob_oc_od_oe_of_lc_m00_n00_s00_og_oh_oo_op_oq_or_om_on_ok_ol_oi_oj_ad0.0.0.0.0.0.0.0.0.0
2-sad=47**aa9.98.1.42.50.9.98.1.42.50_ab_ac_ba50_bb3.1_bc150.500.8.0.1_bd3_be180_ca54.0.21.54.0.0.24.0.0_cb0_da1.0.0.100_db_dd0.1.28.34.8.50_dh1.12.50.50.0_di7_qa_qb_dc0.3.1.1.1_eh1.56_ea34.Ecc457.ECC457.56.1.0_ec_ed4.8.1.1.Ecc457.56_ef_eg_r0052.Ecc457.Ecc457.56.0.1.42.42.5.413.453.0_fa7.57.68.60.50.50.56_fb_fh_fc2.7EA5EB.55.2.7EA5EB.55.34.24.24.50.50.50_fd1.0.19.Ecc457.56_fe56.56_ff0000000000_fg1.54_pa0.0.0.0.40.50.85.85.0.0_t00_pb_pc_pd_pe_ga0_gb1_gc40.0_ge0000000000_gh_gf_gg_gd10000000_ha29.29_hb50.1.41.100_hc3.91.0.3.91.0_hd4.1.26.69_ia_if_ib_id_ic_jc_ie_ja_jb_jd_je_jf_jg_ka_kb11.19.43.43_kc_kd_ke_kf_la11.B0B2B7.55.0.1_lb_oa_os_ob_oc_od_oe_of_lc_m00_n00_s00_og_oh_oo_op_oq_or_om_on_ok_ol_oi_oj_ad0.0.0.0.0.0.0.0.0.0
2-interested=47**aa11.95.1.47.50.11.95.1.47.50_ab_ac_ba56_bb0.1_bc150.500.8.0.1_bd0_be180_ca54.0.21.54.0.0.24.0.0_cb0_da1.0.0.100_db_dd0.1.28.34.8.50_dh1.12.50.50.0_di7_qa_qb_dc0.3.1.1.1_eh1.56_ea34.Ecc457.ECC457.56.1.0_ec_ed4.8.1.1.Ecc457.56_ef_eg_r0052.Ecc457.Ecc457.56.0.1.42.42.5.413.453.0_fa7.57.68.60.50.50.56_fb_fh_fc2.7EA5EB.55.2.7EA5EB.55.34.24.24.50.50.50_fd1.0.19.Ecc457.56_fe56.56_ff0000000000_fg1.54_pa0.0.0.0.40.50.85.85.0.0_t00_pb_pc_pd_pe_ga0_gb1_gc41.0_ge0000000000_gh_gf_gg_gd10000000_ha91.91_hb50.1.50.100_hc0.76.100.0.76.100_hd1.1.45.0_ia_if_ib_id_ic_jc_ie_ja_jb_jd_je_jf_jg_ka_kb11.19.43.43_kc_kd_ke_kf_la11.B0B2B7.55.0.1_lb_oa_os_ob_oc_od_oe_of_lc_m00_n00_s00_og_oh_oo_op_oq_or_om_on_ok_ol_oi_oj_ad0.0.0.0.0.0.0.0.0.0
2-calm=47**aa9.99.1.0.50.9.99.1.0.50_ab_ac_ba50_bb4.1_bc150.500.8.0.1_bd4_be180_ca54.0.21.54.0.0.24.0.0_cb0_da1.0.0.100_db_dd0.1.28.34.8.50_dh1.12.50.50.0_di7_qa_qb_dc0.3.1.1.1_eh1.56_ea34.Ecc457.ECC457.56.1.0_ec_ed4.8.1.1.Ecc457.56_ef_eg_r0052.Ecc457.Ecc457.56.0.1.42.42.5.413.453.0_fa7.57.68.60.50.50.56_fb_fh_fc2.7EA5EB.55.2.7EA5EB.55.34.24.24.50.50.50_fd1.0.19.Ecc457.56_fe56.56_ff0000000000_fg1.54_pa0.0.0.0.40.50.85.85.0.0_t00_pb_pc_pd_pe_ga0_gb1_gc40.0_ge0000000000_gh_gf_gg_gd10000000_ha89.89_hb50.1.50.100_hc0.50.50.0.50.50_hd0.1.68.8_ia_if_ib_id_ic_jc_ie_ja_jb_jd_je_jf_jg_ka_kb11.19.43.43_kc_kd_ke_kf_la11.B0B2B7.55.0.1_lb_oa_os_ob_oc_od_oe_of_lc_m00_n00_s00_og_oh_oo_op_oq_or_om_on_ok_ol_oi_oj_ad0.0.0.0.0.0.0.0.0.0
2-horny=47**aa10.89.0.0.50.10.89.0.0.50_ab_ac_ba50_bb7.1_bc150.500.8.0.1_bd7_be180_ca54.0.21.54.0.0.24.0.0_cb0_da1.0.0.100_db_dd0.1.28.34.8.50_dh1.12.50.50.0_di7_qa_qb_dc0.3.1.1.1_eh1.56_ea34.Ecc457.ECC457.56.1.0_ec_ed4.8.1.1.Ecc457.56_ef_eg_r0052.Ecc457.Ecc457.56.0.1.42.42.5.413.453.0_fa7.57.68.60.50.50.56_fb_fh_fc2.7EA5EB.55.2.7EA5EB.55.34.24.24.50.50.50_fd1.0.19.Ecc457.56_fe56.56_ff0000000000_fg1.54_pa0.0.0.0.40.50.85.85.0.0_t00_pb_pc_pd_pe_ga0_gb1_gc40.0_ge0000000000_gh_gf_gg_gd10000000_ha65.65_hb50.1.34.100_hc0.47.66.0.47.66_hd35.1.17.29_ia_if_ib_id_ic_jc_ie_ja_jb_jd_je_jf_jg_ka_kb11.19.43.43_kc_kd_ke_kf_la11.B0B2B7.55.0.1_lb_oa_os_ob_oc_od_oe_of_lc_m00_n00_s00_og_oh_oo_op_oq_or_om_on_ok_ol_oi_oj_ad0.0.0.0.0.0.0.0.0.0
2-happy=47**aa79.32.0.40.50.79.32.0.40.50_ab_ac_ba41_bb4.1_bc150.500.8.0.1_bd57_be180_ca54.0.21.54.0.0.24.0.0_cb0_da1.0.0.100_db_dd0.1.28.34.8.50_dh1.12.50.50.0_di7_qa_qb_dc0.3.1.1.1_eh1.56_ea34.Ecc457.ECC457.56.1.0_ec_ed4.8.1.1.Ecc457.56_ef_eg_r0052.Ecc457.Ecc457.56.0.1.42.42.5.413.453.0_fa7.57.68.60.50.50.56_fb_fh_fc2.7EA5EB.55.2.7EA5EB.55.34.24.24.50.50.50_fd1.0.19.Ecc457.56_fe56.56_ff0000000000_fg1.54_pa0.0.0.0.40.50.85.85.0.0_t00_pb_pc_pd_pe_ga0_gb1_gc41.0_ge0000000000_gh_gf_gg_gd10000000_ha86.86_hb50.1.50.100_hc0.50.100.0.50.100_hd25.1.47.40_ia_if_ib_id_ic_jc_ie_ja_jb_jd_je_jf_jg_ka_kb11.19.43.43_kc_kd_ke_kf_la11.B0B2B7.55.0.1_lb_oa_os_ob_oc_od_oe_of_lc_m00_n00_s00_og_oh_oo_op_oq_or_om_on_ok_ol_oi_oj_ad0.0.0.0.0.0.0.0.0.0
2-embarrassed=47**aa7.88.1.42.50.12.81.1.42.50_ab_ac_ba50_bb43.1_bc150.500.8.0.1_bd43_be180_ca54.0.21.54.0.0.24.0.0_cb0_da1.0.0.100_db_dd13.1.28.34.8.50_dh1.12.50.50.0_di7_qa_qb_dc0.3.1.1.1_eh1.56_ea34.Ecc457.ECC457.56.1.0_ec_ed4.8.1.1.Ecc457.56_ef_eg_r0052.Ecc457.Ecc457.56.0.1.42.42.5.413.453.0_fa7.57.68.60.50.50.56_fb_fh_fc2.7EA5EB.55.2.7EA5EB.55.34.24.24.50.50.50_fd1.0.19.Ecc457.56_fe56.56_ff0000000000_fg1.54_pa0.0.0.0.40.50.85.85.0.0_t00_pb_pc_pd_pe_ga0_gb1_gc40.0_ge0000000000_gh_gf_gg_gd10000000_ha82.82_hb71.1.31.74_hc0.67.83.0.67.83_hd8.1.47.28_ia_if_ib_id_ic_jc_ie_ja_jb_jd_je_jf_jg_ka_kb11.19.43.43_kc_kd_ke_kf_la11.B0B2B7.55.0.1_lb_oa_os_ob_oc_od_oe_of_lc_m00_n00_s00_og_oh_oo_op_oq_or_om_on_ok_ol_oi_oj_ad0.0.0.0.0.0.0.0.0.0

#nude
3-loss=33**aa9.88.1.16.50.9.88.1.16.50_ab_ac_ba50_bb1.1_bc507.500.8.0.1_bd1_be180_ca54.0.21.54.0.0.24.0.0_cb0_da1.0.0.100_db_dd0.1.28.34.8_dh1.12.50.50.0_di7_qa_qb_dc0.3.1.1.1_eh1.56_ea34.Ecc457.ECC457.56.1.0_ec_ed4.8.1.1.Ecc457.56_ef_eg_r052.Ecc457.Ecc457.56.0.1.42.42.5.413.453.0_fa7.57.68.60.50.50.56_fb00_fc2.7EA5EB.55.2.7EA5EB.55.34.24.24_fd1.0.19.Ecc457.56_fe56.56_ff0000000000_fg1.54_t0_pa0.0.0.0.40.50.85.85.0.0_pb_pc_pd_pe_ga0_gb1_gc50.0_ge0000000000_gh_gf_gg_gd10000000_ha78.78_hb50.1.50.78_hc3.58.82.3.58.82_hd10.1.57.28_ia_ib_id_if_ic_jc_ie_ja_jb_jd_je_jf_jg_ka_kb_kc_kd_ke_kf_la11.B0B2B7.55.0.1_lb_oa_os_ob_oc_od_oe_of_lc_m0_n0_s0_og_oh_oo_op_oq_or_om_on_ok_ol_oi_oj_ad0.0.0.0.0.0.0.0.0.0
3-shocked=33**aa6.52.1.26.50.6.52.1.26.50_ab_ac_ba50_bb6.1_bc507.500.8.0.1_bd6_be180_ca54.0.21.54.0.0.24.0.0_cb0_da1.0.0.100_db_dd0.1.28.34.8_dh1.12.50.50.0_di7_qa_qb_dc0.3.1.1.1_eh1.56_ea34.Ecc457.ECC457.56.1.0_ec_ed4.8.1.1.Ecc457.56_ef_eg_r052.Ecc457.Ecc457.56.0.1.42.42.5.413.453.0_fa7.57.68.60.50.50.56_fb00_fc2.7EA5EB.55.2.7EA5EB.55.34.24.24_fd1.0.19.Ecc457.56_fe56.56_ff0000000000_fg1.54_t0_pa0.0.0.0.40.50.85.85.0.0_pb_pc_pd_pe_ga0_gb1_gc50.0_ge0000000000_gh_gf_gg_gd10000000_ha89.89_hb50.1.50.42_hc0.50.92.0.50.92_hd26.1.18.34_ia_ib_id_if_ic_jc_ie_ja_jb_jd_je_jf_jg_ka_kb_kc_kd_ke_kf_la11.B0B2B7.55.0.1_lb_oa_os_ob_oc_od_oe_of_lc_m0_n0_s0_og_oh_oo_op_oq_or_om_on_ok_ol_oi_oj_ad0.0.0.0.0.0.0.0.0.0
3-sad=33**aa9.98.1.42.50.9.98.1.42.50_ab_ac_ba50_bb3.1_bc506.500.8.0.1_bd3_be180_ca54.0.21.54.0.0.24.0.0_cb0_da1.0.0.100_db_dd0.1.28.34.8_dh1.12.50.50.0_di7_qa_qb_dc0.3.1.1.1_eh1.56_ea34.Ecc457.ECC457.56.1.0_ec_ed4.8.1.1.Ecc457.56_ef_eg_r052.Ecc457.Ecc457.56.0.1.42.42.5.413.453.0_fa7.57.68.60.50.50.56_fb00_fc2.7EA5EB.55.2.7EA5EB.55.34.24.24_fd1.0.19.Ecc457.56_fe56.56_ff0000000000_fg1.54_t0_pa0.0.0.0.40.50.85.85.0.0_pb_pc_pd_pe_ga0_gb1_gc50.0_ge0000000000_gh_gf_gg_gd10000000_ha29.29_hb50.1.41.100_hc3.91.0.3.91.0_hd4.1.26.69_ia_ib_id_if_ic_jc_ie_ja_jb_jd_je_jf_jg_ka_kb_kc_kd_ke_kf_la11.B0B2B7.55.0.1_lb_oa_os_ob_oc_od_oe_of_lc_m0_n0_s0_og_oh_oo_op_oq_or_om_on_ok_ol_oi_oj_ad0.0.0.0.0.0.0.0.0.0
3-interested=33**aa11.95.1.47.50.11.95.1.47.50_ab_ac_ba56_bb0.1_bc506.500.8.0.1_bd0_be180_ca54.0.21.54.0.0.24.0.0_cb0_da1.0.0.100_db_dd0.1.28.34.8_dh1.12.50.50.0_di7_qa_qb_dc0.3.1.1.1_eh1.56_ea34.Ecc457.ECC457.56.1.0_ec_ed4.8.1.1.Ecc457.56_ef_eg_r052.Ecc457.Ecc457.56.0.1.42.42.5.413.453.0_fa7.57.68.60.50.50.56_fb00_fc2.7EA5EB.55.2.7EA5EB.55.34.24.24_fd1.0.19.Ecc457.56_fe56.56_ff0000000000_fg1.54_t0_pa0.0.0.0.40.50.85.85.0.0_pb_pc_pd_pe_ga0_gb1_gc50.0_ge0000000000_gh_gf_gg_gd10000000_ha91.91_hb50.1.50.100_hc0.76.100.0.76.100_hd1.1.45.0_ia_ib_id_if_ic_jc_ie_ja_jb_jd_je_jf_jg_ka_kb_kc_kd_ke_kf_la11.B0B2B7.55.0.1_lb_oa_os_ob_oc_od_oe_of_lc_m0_n0_s0_og_oh_oo_op_oq_or_om_on_ok_ol_oi_oj_ad0.0.0.0.0.0.0.0.0.0
3-calm=33**aa9.99.1.0.50.9.99.1.0.50_ab_ac_ba50_bb4.1_bc506.500.8.0.1_bd4_be180_ca54.0.21.54.0.0.24.0.0_cb0_da1.0.0.100_db_dd0.1.28.34.8_dh1.12.50.50.0_di7_qa_qb_dc0.3.1.1.1_eh1.56_ea34.Ecc457.ECC457.56.1.0_ec_ed4.8.1.1.Ecc457.56_ef_eg_r052.Ecc457.Ecc457.56.0.1.42.42.5.413.453.0_fa7.57.68.60.50.50.56_fb00_fc2.7EA5EB.55.2.7EA5EB.55.34.24.24_fd1.0.19.Ecc457.56_fe56.56_ff0000000000_fg1.54_t0_pa0.0.0.0.40.50.85.85.0.0_pb_pc_pd_pe_ga0_gb1_gc50.0_ge0000000000_gh_gf_gg_gd10000000_ha89.89_hb50.1.50.100_hc0.50.50.0.50.50_hd0.1.68.8_ia_ib_id_if_ic_jc_ie_ja_jb_jd_je_jf_jg_ka_kb_kc_kd_ke_kf_la11.B0B2B7.55.0.1_lb_oa_os_ob_oc_od_oe_of_lc_m0_n0_s0_og_oh_oo_op_oq_or_om_on_ok_ol_oi_oj_ad0.0.0.0.0.0.0.0.0.0
3-horny=33**aa10.89.0.0.50.10.89.0.0.50_ab_ac_ba50_bb7.1_bc506.500.8.0.1_bd7_be180_ca54.0.21.54.0.0.24.0.0_cb0_da1.0.0.100_db_dd0.1.28.34.8_dh1.12.50.50.0_di7_qa_qb_dc0.3.1.1.1_eh1.56_ea34.Ecc457.ECC457.56.1.0_ec_ed4.8.1.1.Ecc457.56_ef_eg_r052.Ecc457.Ecc457.56.0.1.42.42.5.413.453.0_fa7.57.68.60.50.50.56_fb00_fc2.7EA5EB.55.2.7EA5EB.55.34.24.24_fd1.0.19.Ecc457.56_fe56.56_ff0000000000_fg1.54_t0_pa0.0.0.0.40.50.85.85.0.0_pb_pc_pd_pe_ga0_gb1_gc50.0_ge0000000000_gh_gf_gg_gd10000000_ha65.65_hb50.1.34.100_hc0.47.66.0.47.66_hd35.1.17.29_ia_ib_id_if_ic_jc_ie_ja_jb_jd_je_jf_jg_ka_kb_kc_kd_ke_kf_la11.B0B2B7.55.0.1_lb_oa_os_ob_oc_od_oe_of_lc_m0_n0_s0_og_oh_oo_op_oq_or_om_on_ok_ol_oi_oj_ad0.0.0.0.0.0.0.0.0.0
3-happy=33**aa79.32.0.40.50.79.32.0.40.50_ab_ac_ba41_bb4.1_bc506.500.8.0.1_bd57_be180_ca54.0.21.54.0.0.24.0.0_cb0_da1.0.0.100_db_dd0.1.28.34.8_dh1.12.50.50.0_di7_qa_qb_dc0.3.1.1.1_eh1.56_ea34.Ecc457.ECC457.56.1.0_ec_ed4.8.1.1.Ecc457.56_ef_eg_r052.Ecc457.Ecc457.56.0.1.42.42.5.413.453.0_fa7.57.68.60.50.50.56_fb00_fc2.7EA5EB.55.2.7EA5EB.55.34.24.24_fd1.0.19.Ecc457.56_fe56.56_ff0000000000_fg1.54_t0_pa0.0.0.0.40.50.85.85.0.0_pb_pc_pd_pe_ga0_gb1_gc50.0_ge0000000000_gh_gf_gg_gd10000000_ha86.86_hb50.1.50.100_hc0.50.100.0.50.100_hd25.1.47.40_ia_ib_id_if_ic_jc_ie_ja_jb_jd_je_jf_jg_ka_kb_kc_kd_ke_kf_la11.B0B2B7.55.0.1_lb_oa_os_ob_oc_od_oe_of_lc_m0_n0_s0_og_oh_oo_op_oq_or_om_on_ok_ol_oi_oj_ad0.0.0.0.0.0.0.0.0.0
3-embarrassed=33**aa7.88.1.42.50.12.81.1.42.50_ab_ac_ba50_bb47.1_bc506.500.8.0.1_bd47_be180_ca54.0.21.54.0.0.24.0.0_cb0_da1.0.0.100_db_dd13.1.28.34.8_dh1.12.50.50.0_di7_qa_qb_dc0.3.1.1.1_eh1.56_ea34.Ecc457.ECC457.56.1.0_ec_ed4.8.1.1.Ecc457.56_ef_eg_r052.Ecc457.Ecc457.56.0.1.42.42.5.413.453.0_fa7.57.68.60.50.50.56_fb00_fc2.7EA5EB.55.2.7EA5EB.55.34.24.24_fd1.0.19.Ecc457.56_fe56.56_ff0000000000_fg1.54_t0_pa0.0.0.0.40.50.85.85.0.0_pb_pc_pd_pe_ga0_gb1_gc51.0_ge0000000000_gh_gf_gg_gd10000000_ha82.82_hb71.1.31.74_hc0.67.83.0.67.83_hd8.1.47.28_ia_ib_id_if_ic_jc_ie_ja_jb_jd_je_jf_jg_ka_kb_kc_kd_ke_kf_la11.B0B2B7.55.0.1_lb_oa_os_ob_oc_od_oe_of_lc_m0_n0_s0_og_oh_oo_op_oq_or_om_on_ok_ol_oi_oj_ad0.0.0.0.0.0.0.0.0.0

#masturbating
4-shocked=33**aa17.82.1.24.50.6.52.1.26.50_ab_ac_ba50_bb6.1_bc507.500.8.0.1_bd6_be180_ca54.0.21.54.0.0.24.0.0_cb0_da1.0.0.100_db_dd0.1.28.34.8_dh1.12.50.50.0_di7_qa_qb_dc10.3.1.1.1_eh1.56_ea34.Ecc457.ECC457.56.1.0_ec_ed4.8.1.1.Ecc457.56_ef_eg_r052.Ecc457.Ecc457.56.0.1.42.42.5.413.453.0_fa7.57.68.60.50.50.56_fb00_fc2.7EA5EB.55.2.7EA5EB.55.34.24.24_fd1.0.19.Ecc457.56_fe56.56_ff0000000000_fg1.54_t0_pa0.0.0.0.40.50.85.85.0.0_pb_pc_pd_pe_ga0_gb1_gc75.0_ge0000000000_gh_gf_gg_gd10000000_ha89.89_hb50.1.50.42_hc0.50.92.0.50.92_hd26.1.18.34_ia_ib_id_if_ic_jc_ie_ja_jb_jd_je_jf_jg_ka_kb_kc_kd_ke_kf_la11.B0B2B7.55.0.1_lb_oa_os_ob_oc_od_oe_of_lc_m0_n0_s0_og_oh_oo_op_oq_or_om_on_ok_ol_oi_oj_ad0.0.0.0.0.0.0.0.0.0
4-sad=33**aa7.91.1.42.50.7.99.1.42.50_ab_ac_ba50_bb10.1_bc506.500.8.0.1_bd10_be180_ca54.0.21.54.0.0.24.0.0_cb0_da1.0.0.100_db_dd0.1.28.34.8_dh1.12.50.50.0_di7_qa_qb_dc0.3.1.1.1_eh1.56_ea34.Ecc457.ECC457.56.1.0_ec_ed4.8.1.1.Ecc457.56_ef_eg_r052.Ecc457.Ecc457.56.0.1.42.42.5.413.453.0_fa7.57.68.60.50.50.56_fb00_fc2.7EA5EB.55.2.7EA5EB.55.34.24.24_fd1.0.19.Ecc457.56_fe56.56_ff0000000000_fg1.54_t0_pa0.0.0.0.40.50.85.85.0.0_pb_pc_pd_pe_ga0_gb1_gc70.0_ge0000000000_gh_gf_gg_gd10000000_ha74.74_hb50.1.41.100_hc3.88.36.3.88.36_hd4.1.26.69_ia_ib_id_if_ic_jc_ie_ja_jb_jd_je_jf_jg_ka_kb_kc_kd_ke_kf_la11.B0B2B7.55.0.1_lb_oa_os_ob_oc_od_oe_of_lc_m0_n0_s0_og_oh_oo_op_oq_or_om_on_ok_ol_oi_oj_ad0.0.0.0.0.0.0.0.0.0
4-interested=33**aa7.95.1.47.29.7.96.0.47.29_ab_ac_ba56_bb40.1_bc506.500.8.0.1_bd40_be180_ca54.0.21.54.0.0.24.0.0_cb0_da1.0.0.100_db_dd0.1.28.34.8_dh1.12.50.50.0_di7_qa_qb_dc0.3.1.1.1_eh1.56_ea34.Ecc457.ECC457.56.1.0_ec_ed4.8.1.1.Ecc457.56_ef_eg_r052.Ecc457.Ecc457.56.0.1.42.42.5.413.453.0_fa7.57.68.60.50.50.56_fb00_fc2.7EA5EB.55.2.7EA5EB.55.34.24.24_fd1.0.19.Ecc457.56_fe56.56_ff0000000000_fg1.54_t0_pa0.0.0.0.40.50.85.85.0.0_pb_pc_pd_pe_ga0_gb1_gc71.0_ge0000000000_gh_gf_gg_gd10000000_ha91.91_hb50.1.50.100_hc0.76.100.0.76.100_hd1.1.45.0_ia_ib_id_if_ic_jc_ie_ja_jb_jd_je_jf_jg_ka_kb_kc_kd_ke_kf_la11.B0B2B7.55.0.1_lb_oa_os_ob_oc_od_oe_of_lc_m0_n0_s0_og_oh_oo_op_oq_or_om_on_ok_ol_oi_oj_ad0.0.0.0.0.0.0.0.0.0
4-calm=33**aa18.84.1.28.50.18.84.1.4.50_ab_ac_ba50_bb9.1_bc506.500.8.0.1_bd9_be180_ca54.0.21.54.0.0.24.0.0_cb0_da1.0.0.100_db_dd0.1.28.34.8_dh1.12.50.50.0_di7_qa_qb_dc0.3.1.1.1_eh1.56_ea34.Ecc457.ECC457.56.1.0_ec_ed4.8.1.1.Ecc457.56_ef_eg_r052.Ecc457.Ecc457.56.0.1.42.42.5.413.453.0_fa7.57.68.60.50.50.56_fb00_fc2.7EA5EB.55.2.7EA5EB.55.34.24.24_fd1.0.19.Ecc457.56_fe56.56_ff0000000000_fg1.54_t0_pa0.0.0.0.40.50.85.85.0.0_pb_pc_pd_pe_ga0_gb1_gc70.0_ge0000000000_gh_gf_gg_gd10000000_ha89.89_hb50.1.50.100_hc0.50.31.0.50.31_hd0.1.88.38_ia_ib_id_if_ic_jc_ie_ja_jb_jd_je_jf_jg_ka_kb_kc_kd_ke_kf_la11.B0B2B7.55.0.1_lb_oa_os_ob_oc_od_oe_of_lc_m0_n0_s0_og_oh_oo_op_oq_or_om_on_ok_ol_oi_oj_ad0.0.0.0.0.0.0.0.0.0
4-horny=33**aa6.94.1.45.37.15.66.1.45.50_ab_ac_ba50_bb39.1_bc506.500.8.0.1_bd39_be180_ca54.0.21.54.0.0.24.0.0_cb0_da1.0.0.100_db_dd0.1.28.34.8_dh1.12.50.50.0_di7_qa_qb_dc20.3.1.1.1_eh1.56_ea34.Ecc457.ECC457.56.1.0_ec_ed4.8.1.1.Ecc457.56_ef_eg_r052.Ecc457.Ecc457.56.0.1.42.42.5.413.453.0_fa7.57.68.60.50.50.56_fb00_fc2.7EA5EB.55.2.7EA5EB.55.34.24.24_fd1.0.19.Ecc457.56_fe56.56_ff0000000000_fg1.54_t0_pa0.0.0.0.40.50.85.85.0.0_pb_pc_pd_pe_ga0_gb1_gc50.0_ge0000000000_gh_gf_gg_gd10000000_ha65.65_hb50.1.34.100_hc0.47.66.0.47.66_hd35.1.17.29_ia_ib_id_if_ic_jc_ie_ja_jb_jd_je_jf_jg_ka_kb_kc_kd_ke_kf_la11.B0B2B7.55.0.1_lb_oa_os_ob_oc_od_oe_of_lc_m0_n0_s0_og_oh_oo_op_oq_or_om_on_ok_ol_oi_oj_ad0.0.0.0.0.0.0.0.0.0
4-happy=33**aa15.86.1.45.50.79.32.0.40.50_ab_ac_ba41_bb8.1_bc506.500.8.0.1_bd8_be180_ca54.0.21.54.0.0.24.0.0_cb0_da1.0.0.100_db_dd0.1.28.34.8_dh1.12.50.50.0_di7_qa_qb_dc11.3.1.1.1_eh1.56_ea34.Ecc457.ECC457.56.1.0_ec_ed4.8.1.1.Ecc457.56_ef_eg_r052.Ecc457.Ecc457.56.0.1.42.42.5.413.453.0_fa7.57.68.60.50.50.56_fb00_fc2.7EA5EB.55.2.7EA5EB.55.34.24.24_fd1.0.19.Ecc457.56_fe56.56_ff0000000000_fg1.54_t0_pa0.0.0.0.40.50.85.85.0.0_pb_pc_pd_pe_ga0_gb1_gc75.0_ge0000000000_gh_gf_gg_gd10000000_ha86.86_hb50.1.50.100_hc0.50.100.0.50.100_hd25.1.47.40_ia_ib_id_if_ic_jc_ie_ja_jb_jd_je_jf_jg_ka_kb_kc_kd_ke_kf_la11.B0B2B7.55.0.1_lb_oa_os_ob_oc_od_oe_of_lc_m0_n0_s0_og_oh_oo_op_oq_or_om_on_ok_ol_oi_oj_ad0.0.0.0.0.0.0.0.0.0
4-embarrassed=33**aa12.88.1.45.46.12.81.1.42.50_ab_ac_ba50_bb48.1_bc506.500.8.0.1_bd48_be180_ca54.0.21.54.0.0.24.0.0_cb0_da1.0.0.100_db_dd13.1.28.34.8_dh1.12.50.50.0_di7_qa_qb_dc13.3.1.1.1_eh1.56_ea34.Ecc457.ECC457.56.1.0_ec_ed4.8.1.1.Ecc457.56_ef_eg_r052.Ecc457.Ecc457.56.0.1.42.42.5.413.453.0_fa7.57.68.60.50.50.56_fb00_fc2.7EA5EB.55.2.7EA5EB.55.34.24.24_fd1.0.19.Ecc457.56_fe56.56_ff0000000000_fg1.54_t0_pa0.0.0.0.40.50.85.85.0.0_pb_pc_pd_pe_ga0_gb1_gc80.0_ge0000000000_gh_gf_gg_gd10000000_ha82.82_hb71.1.31.74_hc0.67.83.0.67.83_hd8.1.47.28_ia_ib_id_if_ic_jc_ie_ja_jb_jd_je_jf_jg_ka_kb_kc_kd_ke_kf_la11.B0B2B7.55.0.1_lb_oa_os_ob_oc_od_oe_of_lc_m0_n0_s0_og_oh_oo_op_oq_or_om_on_ok_ol_oi_oj_ad0.0.0.0.0.0.0.0.0.0

#finished
5-shocked=33**aa11.54.1.26.50.11.54.1.26.50_ab_ac_ba50_bb7.1_bc507.500.8.0.1_bd7_be180_ca54.0.21.54.0.0.24.0.0_cb0_da1.0.0.100_db_dd0.1.28.34.8_dh1.12.50.50.0_di7_qa_qb_dc90.3.1.1.1_eh1.56_ea34.Ecc457.ECC457.56.1.0_ec_ed4.8.1.1.Ecc457.56_ef_eg_r052.Ecc457.Ecc457.56.0.1.42.42.5.413.453.0_fa7.57.68.60.50.50.56_fb00_fc2.7EA5EB.55.2.7EA5EB.55.34.24.24_fd1.0.19.Ecc457.56_fe56.56_ff0000000000_fg1.54_t0_pa0.0.0.0.40.50.85.85.0.0_pb_pc_pd_pe_ga0_gb1_gc50.0_ge0000000000_gh_gf_gg_gd10000000_ha89.89_hb50.1.50.42_hc0.50.92.0.50.92_hd26.1.18.34_ia_ib_id_if_ic_jc_ie_ja_jb_jd_je_jf_jg_ka_kb_kc_kd_ke_kf_la11.B0B2B7.55.0.1_lb_oa_os_ob_oc_od_oe_of_lc_m0_n0_s0_og_oh_oo_op_oq_or_om_on_ok_ol_oi_oj_ad0.0.0.0.0.0.0.0.0.0
5-sad=33**aa12.59.1.42.50.12.59.1.42.50_ab_ac_ba50_bb50.1_bc506.500.8.0.1_bd50_be180_ca54.0.21.54.0.0.24.0.0_cb0_da1.0.0.100_db_dd0.1.28.34.8_dh1.12.50.50.0_di7_qa_qb_dc91.3.1.1.1_eh1.56_ea34.Ecc457.ECC457.56.1.0_ec_ed4.8.1.1.Ecc457.56_ef_eg_r052.Ecc457.Ecc457.56.0.1.42.42.5.413.453.0_fa7.57.68.60.50.50.56_fb00_fc2.7EA5EB.55.2.7EA5EB.55.34.24.24_fd1.0.19.Ecc457.56_fe56.56_ff0000000000_fg1.54_t0_pa0.0.0.0.40.50.85.85.0.0_pb_pc_pd_pe_ga0_gb1_gc50.0_ge0000000000_gh_gf_gg_gd10000000_ha67.67_hb50.1.41.100_hc3.88.36.3.88.36_hd4.1.26.69_ia_ib_id_if_ic_jc_ie_ja_jb_jd_je_jf_jg_ka_kb_kc_kd_ke_kf_la11.B0B2B7.55.0.1_lb_oa_os_ob_oc_od_oe_of_lc_m0_n0_s0_og_oh_oo_op_oq_or_om_on_ok_ol_oi_oj_ad0.0.0.0.0.0.0.0.0.0
5-interested=33**aa8.94.1.47.46.8.94.1.47.46_ab_ac_ba56_bb50.1_bc506.500.8.0.1_bd50_be180_ca54.0.21.54.0.0.24.0.0_cb0_da1.0.0.100_db_dd0.1.28.34.8_dh1.12.50.50.0_di7_qa_qb_dc81.3.1.1.1_eh1.56_ea34.Ecc457.ECC457.56.1.0_ec_ed4.8.1.1.Ecc457.56_ef_eg_r052.Ecc457.Ecc457.56.0.1.42.42.5.413.453.0_fa7.57.68.60.50.50.56_fb00_fc2.7EA5EB.55.2.7EA5EB.55.34.24.24_fd1.0.19.Ecc457.56_fe56.56_ff0000000000_fg1.54_t0_pa0.0.0.0.40.50.85.85.0.0_pb_pc_pd_pe_ga0_gb1_gc50.0_ge0000000000_gh_gf_gg_gd10000000_ha91.91_hb50.1.50.100_hc0.76.100.0.76.100_hd1.1.45.0_ia_ib_id_if_ic_jc_ie_ja_jb_jd_je_jf_jg_ka_kb_kc_kd_ke_kf_la11.B0B2B7.55.0.1_lb_oa_os_ob_oc_od_oe_of_lc_m0_n0_s0_og_oh_oo_op_oq_or_om_on_ok_ol_oi_oj_ad0.0.0.0.0.0.0.0.0.0
5-calm=33**aa11.92.0.28.50.11.92.0.4.50_ab_ac_ba50_bb4.1_bc506.500.8.0.1_bd4_be180_ca54.0.21.54.0.0.24.0.0_cb0_da1.0.0.100_db_dd0.1.28.34.8_dh1.12.50.50.0_di7_qa_qb_dc91.3.1.1.1_eh1.56_ea34.Ecc457.ECC457.56.1.0_ec_ed4.8.1.1.Ecc457.56_ef_eg_r052.Ecc457.Ecc457.56.0.1.42.42.5.413.453.0_fa7.57.68.60.50.50.56_fb00_fc2.7EA5EB.55.2.7EA5EB.55.34.24.24_fd1.0.19.Ecc457.56_fe56.56_ff0000000000_fg1.54_t0_pa0.0.0.0.40.50.85.85.0.0_pb_pc_pd_pe_ga0_gb1_gc50.0_ge0000000000_gh_gf_gg_gd10000000_ha89.89_hb50.1.50.100_hc0.50.31.0.50.31_hd0.1.88.38_ia_ib_id_if_ic_jc_ie_ja_jb_jd_je_jf_jg_ka_kb_kc_kd_ke_kf_la11.B0B2B7.55.0.1_lb_oa_os_ob_oc_od_oe_of_lc_m0_n0_s0_og_oh_oo_op_oq_or_om_on_ok_ol_oi_oj_ad0.0.0.0.0.0.0.0.0.0
5-horny=33**aa25.76.1.49.37.25.76.1.49.50_ab_ac_ba50_bb59.1_bc506.500.8.0.1_bd59_be180_ca54.0.21.54.0.0.24.0.0_cb0_da1.0.0.100_db_dd0.1.28.34.8_dh1.12.50.50.0_di7_qa_qb_dc72.3.1.1.1_eh1.56_ea34.Ecc457.ECC457.56.1.0_ec_ed4.8.1.1.Ecc457.56_ef_eg_r052.Ecc457.Ecc457.56.0.1.42.42.5.413.453.0_fa7.57.68.60.50.50.56_fb00_fc2.7EA5EB.55.2.7EA5EB.55.34.24.24_fd1.0.19.Ecc457.56_fe56.56_ff0000000000_fg1.54_t0_pa0.0.0.0.40.50.85.85.0.0_pb_pc_pd_pe_ga0_gb1_gc50.0_ge0000000000_gh_gf_gg_gd10000000_ha65.65_hb50.1.69.100_hc0.47.66.0.47.66_hd35.1.17.29_ia_ib_id_if_ic_jc_ie_ja_jb_jd_je_jf_jg_ka_kb_kc_kd_ke_kf_la11.B0B2B7.55.0.1_lb_oa_os_ob_oc_od_oe_of_lc_m0_n0_s0_og_oh_oo_op_oq_or_om_on_ok_ol_oi_oj_ad0.0.0.0.0.0.0.0.0.0
5-happy=33**aa79.32.0.40.50.79.32.0.40.50_ab_ac_ba41_bb4.1_bc506.500.8.0.1_bd57_be180_ca54.0.21.54.0.0.24.0.0_cb0_da1.0.0.100_db_dd0.1.28.34.8_dh1.12.50.50.0_di7_qa_qb_dc105.3.1.1.1_eh1.56_ea34.Ecc457.ECC457.56.1.0_ec_ed4.8.1.1.Ecc457.56_ef_eg_r052.Ecc457.Ecc457.56.0.1.42.42.5.413.453.0_fa7.57.68.60.50.50.56_fb00_fc2.7EA5EB.55.2.7EA5EB.55.34.24.24_fd1.0.19.Ecc457.56_fe56.56_ff0000000000_fg1.54_t0_pa0.0.0.0.40.50.85.85.0.0_pb_pc_pd_pe_ga0_gb1_gc50.0_ge0000000000_gh_gf_gg_gd10000000_ha86.86_hb50.1.50.100_hc0.50.100.0.50.100_hd25.1.47.40_ia_ib_id_if_ic_jc_ie_ja_jb_jd_je_jf_jg_ka_kb_kc_kd_ke_kf_la11.B0B2B7.55.0.1_lb_oa_os_ob_oc_od_oe_of_lc_m0_n0_s0_og_oh_oo_op_oq_or_om_on_ok_ol_oi_oj_ad0.0.0.0.0.0.0.0.0.0
5-embarrassed=33**aa74.39.1.26.7.74.39.1.26.7_ab_ac_ba50_bb47.1_bc506.500.8.0.1_bd47_be180_ca54.0.21.54.0.0.24.0.0_cb0_da1.0.0.100_db_dd13.1.28.34.8_dh1.12.50.50.0_di7_qa_qb_dc93.3.1.1.1_eh1.56_ea34.Ecc457.ECC457.56.1.0_ec_ed4.8.1.1.Ecc457.56_ef_eg_r052.Ecc457.Ecc457.56.0.1.42.42.5.413.453.0_fa7.57.68.60.50.50.56_fb00_fc2.7EA5EB.55.2.7EA5EB.55.34.24.24_fd1.0.19.Ecc457.56_fe56.56_ff0000000000_fg1.54_t0_pa0.0.0.0.40.50.85.85.0.0_pb_pc_pd_pe_ga0_gb1_gc80.0_ge0000000000_gh_gf_gg_gd10000000_ha82.82_hb71.1.31.74_hc0.67.83.0.67.83_hd8.1.47.28_ia_ib_id_if_ic_jc_ie_ja_jb_jd_je_jf_jg_ka_kb_kc_kd_ke_kf_la11.B0B2B7.55.0.1_lb_oa_os_ob_oc_od_oe_of_lc_m0_n0_s0_og_oh_oo_op_oq_or_om_on_ok_ol_oi_oj_ad0.0.0.0.0.0.0.0.0.0


